"key","quote_source_post_discussion_id","posts_dataset_id","posts_timestamp","posts_author_id","quote_source_author_id","posts_native_post_id","quote_source_timestamp","post_text_id","Word_Count","quote_source_post_id","post_text","quote_source_text_id","Dialog_Turn","posts_discussion_id","quote_source_post_dataset_id","Fullquote_text","discussion_url","quote_source_native_post_id","posts_post_id"
"1-10385_16_8_1",10385,1,"2011-03-20 09:29:00",68,746,426165,"2011-03-19 02:22:00",472830,15,8,"Do you have an opinion on the fact she was denied access to abortion?",472822,1,10385,1,"This where you become annoying.
I never said the mother should have no choice at all, I said if the fetus feels stress during a termination then it should be considered a sentient human being.
This means that there are two sentient human beings to consider not one.
Why are you not capable of reading a simple post?
I am not ' content a judgement for every woman out there'.
I have given my opinion.
You seem a little hormonal today...or am I making a false assumption like you did?","http://www.4forums.com/political/abortion-debates/15191-story-woman-forced-carry-non-viable-pregnancy.html",426118,16
"1-10385_18_16_1",10385,1,"2011-03-20 10:06:00",746,68,426168,"2011-03-20 09:29:00",472832,220,16,"Yes I think that it is an incredibly sad situation.
I think that abortion is perfectly acceptable until the fetus is developed enough to suffer during termination then at least some consideration should be shown to that suffering .
A few days ago a woman a few miles away from me gave birth to a 22 week old fetus and begged the hospital to try to help the baby.
They just told her that they cannot even try to help a baby that was born before 24 weeks.
The baby died in the mothers arms.
If this baby was developed enough to live a few minutes in its mothers arms then there is a chance it would be developed enough to feel pain and/or distress.
I suppose the most convenient thing to do is just rip the fetus apart and put it in the incinerator.Who cares if the fetus suffers for a few minutes?
Hell, we are talking about womens rights here.
The congress of Obstetricians and Gynecologists says it knows of no legitimate evidence showing a fetus can ever experience pain but as I stated before, the very same body of proffessionals had no evidence that new borns felt pain either.
Apparently they do.",472830,1,10385,1,"Do you have an opinion on the fact she was denied access to abortion?","http://www.4forums.com/political/abortion-debates/15191-story-woman-forced-carry-non-viable-pregnancy.html",426165,18
"1-10385_19_18_1",10385,1,"2011-03-20 11:30:00",68,746,426174,"2011-03-20 10:06:00",472833,60,18,"At some point you have to believe someone unless you plan to doubt everything that group has to say about anything.
Since the mechanism to be conscious of pain, by the evidence, doesn't form until the third trimester, would you think it's reasonable to say that this woman shouldn't be barred from abortion until then?",472832,1,10385,1,"Yes I think that it is an incredibly sad situation.
I think that abortion is perfectly acceptable until the fetus is developed enough to suffer during termination then at least some consideration should be shown to that suffering .
[...]
The congress of Obstetricians and Gynecologists says it knows of no legitimate evidence showing a fetus can ever experience pain but as I stated before, the very same body of proffessionals had no evidence that new borns felt pain either.
Apparently they do.","http://www.4forums.com/political/abortion-debates/15191-story-woman-forced-carry-non-viable-pregnancy.html",426168,19
"1-10385_20_19_1",10385,1,"2011-03-20 11:53:00",746,68,426179,"2011-03-20 11:30:00",472834,73,19,"If the mechanism to be conscious of pain/ distress does not form until the third trimester then it would be unreasonable to say that the woman should not terminate the child.
Can a Fetus Feel Pain? U.K. Report Says No. - Newsweek
Some say they do, some say they dont.....
Do you believe that mother should be able to terminate the child after the third trimester?",472833,1,10385,1,"At some point you have to believe someone unless you plan to doubt everything that group has to say about anything.
Since the mechanism to be conscious of pain, by the evidence, doesn't form until the third trimester, would you think it's reasonable to say that this woman shouldn't be barred from abortion until then?","http://www.4forums.com/political/abortion-debates/15191-story-woman-forced-carry-non-viable-pregnancy.html",426174,20
"1-10385_21_20_1",10385,1,"2011-03-20 11:56:00",68,746,426180,"2011-03-20 11:53:00",472835,29,20,"I believe abortion should be allowed until premature birth is easier on the woman. 
I don't know when that point is, but I assume it exists.",472834,1,10385,1,"If the mechanism to be conscious of pain/ distress does not form until the third trimester then it would be unreasonable to say that the woman should not terminate the child.
Can a Fetus Feel Pain? U.K. Report Says No. - Newsweek
Some say they do, some say they dont.....
Do you believe that mother should be able to terminate the child after the third trimester?","http://www.4forums.com/political/abortion-debates/15191-story-woman-forced-carry-non-viable-pregnancy.html",426179,21
"1-10385_22_21_1",10385,1,"2011-03-20 12:00:00",746,68,426182,"2011-03-20 11:56:00",472836,9,21,"Even if the fetus suffers pain/distress?",472835,1,10385,1,"I believe abortion should be allowed until premature birth is easier on the woman. 
I don't know when that point is, but I assume it exists.","http://www.4forums.com/political/abortion-debates/15191-story-woman-forced-carry-non-viable-pregnancy.html",426180,22
"1-10385_23_22_1",10385,1,"2011-03-20 12:01:00",68,746,426183,"2011-03-20 12:00:00",472837,15,22,"Yes. I think the woman is of paramount importance in the pregnancy relationship.",472836,1,10385,1,"Even if the fetus suffers pain/distress?","http://www.4forums.com/political/abortion-debates/15191-story-woman-forced-carry-non-viable-pregnancy.html",426182,23
"1-10385_24_23_1",10385,1,"2011-03-20 12:18:00",746,68,426186,"2011-03-20 12:01:00",472838,28,23,"Fair enough. You believe that we should not give the potential suffering of the fetus any consideration and I think we should.
All clear now.",472837,1,10385,1,"Yes. I think the woman is of paramount importance in the pregnancy relationship.","http://www.4forums.com/political/abortion-debates/15191-story-woman-forced-carry-non-viable-pregnancy.html",426183,24
"1-10385_25_24_1",10385,1,"2011-03-20 12:40:00",68,746,426188,"2011-03-20 12:18:00",472839,66,24,"Not quite, but close enough I suppose. I think the suffering of the fetus deserves consideration, but that consideration to the woman should and does outweigh it. If the fetus deserved no consideration, then I would accept abortion until birth.
You seem to believe the opposite, that the suffering of the fetus outweighs the suffering of the woman.",472838,1,10385,1,"Fair enough. You believe that we should not give the potential suffering of the fetus any consideration and I think we should.
All clear now.","http://www.4forums.com/political/abortion-debates/15191-story-woman-forced-carry-non-viable-pregnancy.html",426186,25
"1-10385_26_25_1",10385,1,"2011-03-20 12:47:00",746,68,426190,"2011-03-20 12:40:00",472840,32,25,"I have said all along that the suffering of the fetus should be considered whereas you have only stated this in your last post.
Glad you have seen sense at lastemoticonXIdea",472839,1,10385,1,"Not quite, but close enough I suppose. I think the suffering of the fetus deserves consideration, but that consideration to the woman should and does outweigh it. If the fetus deserved no consideration, then I would accept abortion until birth.
You seem to believe the opposite, that the suffering of the fetus outweighs the suffering of the woman.","http://www.4forums.com/political/abortion-debates/15191-story-woman-forced-carry-non-viable-pregnancy.html",426188,26
"1-10385_27_26_1",10385,1,"2011-03-20 12:55:00",68,746,426192,"2011-03-20 12:47:00",472841,24,26,"lol, you didn't ask until that last post whether the fetus deserves consideration, so why would I state it before then?",472840,1,10385,1,"I have said all along that the suffering of the fetus should be considered whereas you have only stated this in your last post.
Glad you have seen sense at lastemoticonXIdea","http://www.4forums.com/political/abortion-debates/15191-story-woman-forced-carry-non-viable-pregnancy.html",426190,27
"1-10385_28_27_1",10385,1,"2011-03-20 13:06:00",746,68,426194,"2011-03-20 12:55:00",472842,50,27,"Because it was an fundamental part of the debate .
I stressed the fetus needs consideration from the beginning wheras you did not mention it until pressed.
You seemed not care at all about the suffering of the fetus in the above posts.
Then you back pedalled.....",472841,1,10385,1,"lol, you didn't ask until that last post whether the fetus deserves consideration, so why would I state it before then?","http://www.4forums.com/political/abortion-debates/15191-story-woman-forced-carry-non-viable-pregnancy.html",426192,28
"1-10385_29_28_1",10385,1,"2011-03-20 13:11:00",68,746,426195,"2011-03-20 13:06:00",472843,64,28,"I was asking your opinion on it :-\ When you asked me my opinion on it I gave it, saying the woman was the most important participant. Then you mentioned the fetus specifically I clarified, saying that it deserves consideration, but reiterated that the woman was the most important participant.
You're creating dark corners where they don't exist :P",472842,1,10385,1,"Because it was an fundamental part of the debate .
I stressed the fetus needs consideration from the beginning wheras you did not mention it until pressed.
You seemed not care at all about the suffering of the fetus in the above posts.
Then you back pedalled.....","http://www.4forums.com/political/abortion-debates/15191-story-woman-forced-carry-non-viable-pregnancy.html",426194,29
"1-10385_30_29_1",10385,1,"2011-03-20 13:25:00",746,68,426197,"2011-03-20 13:11:00",472844,92,29,"There are no dark corners, just you trying to cover your tracks lol.
You stated that abortion should be allowed until premature birth is easier on the WOMAN.Even if the fetus suffers suffers pain/stress because the woman is paramount in the pregnancy relationship.
Then when I pointed out you do not believe that the suffering of the fetus should have any consideration...which you clearly expressed...you back pedalled ....
Dont get me wrong. I am glad that you see sense;)",472843,1,10385,1,"I was asking your opinion on it :-\ When you asked me my opinion on it I gave it, saying the woman was the most important participant. Then you mentioned the fetus specifically I clarified, saying that it deserves consideration, but reiterated that the woman was the most important participant.
You're creating dark corners where they don't exist :P","http://www.4forums.com/political/abortion-debates/15191-story-woman-forced-carry-non-viable-pregnancy.html",426195,30
"1-10385_33_30_1",10385,1,"2011-03-21 17:12:00",68,746,426268,"2011-03-20 13:25:00",472847,56,30,"I don't think you and I have the same definition of backpeddling. I never said the fetus should get no consideration, so accusing me of having that position at any point is dishonest. The fact that the woman's needs should be more important does not even imply that the fetus is unimportant.",472844,1,10385,1,"There are no dark corners, just you trying to cover your tracks lol.
You stated that abortion should be allowed until premature birth is easier on the WOMAN.Even if the fetus suffers suffers pain/stress because the woman is paramount in the pregnancy relationship.
Then when I pointed out you do not believe that the suffering of the fetus should have any consideration...which you clearly expressed...you back pedalled ....
Dont get me wrong. I am glad that you see sense;)","http://www.4forums.com/political/abortion-debates/15191-story-woman-forced-carry-non-viable-pregnancy.html",426197,33
"1-10385_34_33_1",10385,1,"2011-03-22 04:00:00",746,68,426284,"2011-03-21 17:12:00",472848,53,33,"You mentioned that the woman needs should be paramount without mentioning how much consideration the fetus should have.
You answer to my question of should the fetus be aborted even if it suffered was ..yes.
I will will change' backpedalling' to 'weasel words'..hows that?",472847,1,10385,1,"I don't think you and I have the same definition of backpeddling. I never said the fetus should get no consideration, so accusing me of having that position at any point is dishonest. The fact that the woman's needs should be more important does not even imply that the fetus is unimportant.","http://www.4forums.com/political/abortion-debates/15191-story-woman-forced-carry-non-viable-pregnancy.html",426268,34
"1-10385_35_34_1",10385,1,"2011-03-22 12:55:00",68,746,426311,"2011-03-22 04:00:00",472849,52,34,"That's correct, I didn't tell you until you asked what consideration was owed the fetus :P So your accusation about my belief is incorrect, and continuing that charge is dishonest. 

Weasel words has an actual definition. In what way was anything I said part of that definition?",472848,1,10385,1,"You mentioned that the woman needs should be paramount without mentioning how much consideration the fetus should have.
You answer to my question of should the fetus be aborted even if it suffered was ..yes.
I will will change' backpedalling' to 'weasel words'..hows that?","http://www.4forums.com/political/abortion-debates/15191-story-woman-forced-carry-non-viable-pregnancy.html",426284,35
"1-10385_36_35_1",10385,1,"2011-03-22 13:55:00",746,68,426312,"2011-03-22 12:55:00",472850,70,35,"When I asked if the fetus should be aborted even if it felt pain/distress you said YES.
Your weasel words are the ambiguous and quibbling use of them by you then and after.
Should I change it to dishonest?
Your belief was that the fetus should be terminated even if it suffered, if the mother required it.
Dont lie and say you didntemoticonXChicken",472849,1,10385,1,"That's correct, I didn't tell you until you asked what consideration was owed the fetus :P So your accusation about my belief is incorrect, and continuing that charge is dishonest. 

Weasel words has an actual definition. In what way was anything I said part of that definition?","http://www.4forums.com/political/abortion-debates/15191-story-woman-forced-carry-non-viable-pregnancy.html",426311,36
"1-10385_37_36_1",10385,1,"2011-03-22 20:21:00",68,746,426330,"2011-03-22 13:55:00",472851,51,36,"That's correct, because concerns of the woman are more important than the consideration I would give the fetus. That isn't the same thing as saying ""the fetus deserves no consideration"" which is what you dishonestly assigned to me.

What was ambiguous about anything I said?",472850,1,10385,1,"When I asked if the fetus should be aborted even if it felt pain/distress you said YES.
Your weasel words are the ambiguous and quibbling use of them by you then and after.
Should I change it to dishonest?
Your belief was that the fetus should be terminated even if it suffered, if the mother required it.
Dont lie and say you didntemoticonXChicken","http://www.4forums.com/political/abortion-debates/15191-story-woman-forced-carry-non-viable-pregnancy.html",426312,37
"1-10385_38_37_1",10385,1,"2011-03-23 04:29:00",746,68,426340,"2011-03-22 20:21:00",472852,14,37,"Aborting the fetus even if it suffers is giving no consideration to it.",472851,1,10385,1,"That's correct, because concerns of the woman are more important than the consideration I would give the fetus. That isn't the same thing as saying ""the fetus deserves no consideration"" which is what you dishonestly assigned to me.

What was ambiguous about anything I said?","http://www.4forums.com/political/abortion-debates/15191-story-woman-forced-carry-non-viable-pregnancy.html",426330,38
