"key","quote_source_post_discussion_id","posts_dataset_id","posts_timestamp","posts_author_id","quote_source_author_id","posts_native_post_id","quote_source_timestamp","post_text_id","Word_Count","quote_source_post_id","post_text","quote_source_text_id","Dialog_Turn","posts_discussion_id","quote_source_post_dataset_id","Fullquote_text","discussion_url","quote_source_native_post_id","posts_post_id"
"1-1117_88_78_1",1117,1,"2004-03-21 19:27:00",33,325,40379,"2004-03-19 10:42:00",47277,176,78,"Thankfully, some US states and other places have ""safe haven"" laws, so that people can avoid prosecution if they give their children to hospitals, etc. 

The difference is that you can just hand a baby to someone else, which you can't do with a fetus.

It's not as simple as pre-birth vs post-birth. I don't know exactly what the laws are in all states, but it seems to me that people either have an abortion while the fetus is still in it's rudimentary developmental stages, or keep the pregnancy until birth, unless of course there are other complications. So you are comparing a fetus at mostly 8-12 weeks to a pre-born infant at almost ten months old- they are not the same.

Again, a medical procedure is required. In other words, this doesn't mean 
that a woman can reach in and pull out her 4 month old fetus and walk into the emergency room with it.",47267,1,1117,1,"Just to add something that Parcum's said before: we are able to save babies who are more and more premature - so the woman can leave her baby, so to speak, earlier as medicine advances. We may even be able to raise babies purely in a test tube before too long. (although I have reservations about how healthy the baby would be)","http://www.4forums.com/political/abortion-debates/1847-south-dakota-legislature-votes-ban-abortion.html",40102,88
"1-1117_95_88_1",1117,1,"2004-03-22 14:30:00",325,33,40503,"2004-03-21 19:27:00",47284,25,88,"That's true. I guess I would go back to my earlier question of whether the difference justifies the killing of the unborn human.",47277,1,1117,1,"...The difference is that you can just hand a baby to someone else, which you can't do with a fetus....
Again, a medical procedure is required. In other words, this doesn't mean 
that a woman can reach in and pull out her 4 month old fetus and walk into the emergency room with it.","http://www.4forums.com/political/abortion-debates/1847-south-dakota-legislature-votes-ban-abortion.html",40379,95
"1-1117_102_95_1",1117,1,"2004-03-22 22:38:00",33,325,40560,"2004-03-22 14:30:00",47291,26,95,"I think so. I generally follow the doctrine of harm reduction in terms of decisions usually considered in the category of ""morality"".",47284,1,1117,1,"That's true. I guess I would go back to my earlier question of whether the difference justifies the killing of the unborn human.","http://www.4forums.com/political/abortion-debates/1847-south-dakota-legislature-votes-ban-abortion.html",40503,102
"1-1117_110_102_1",1117,1,"2004-03-24 10:44:00",325,33,40866,"2004-03-22 22:38:00",47299,212,102,"That seems to be a common beleif for someone who doesn't beleive in a Creator.
What is your position on animal, and human testing? For instance, there's a rather infamous scandal where troubled children in an orphanage were used as test subjects for a Hepatitis immunization. Half of them were deliberately exposed to Hepatitis to test the drug. Do you think that these things are justified if they may save thousands, or millions of lives?
Another question I have is about people who live painful lives. In my province, a man was jailed for killing his severly retarded girl - who went through a lot of pain and treatment. He continues to claim it was a merciful action. What do you think about such cases?
Finally, back to abortion, what do you think of the arguement that abortion generally increases harm for women and society? I recently read an article that said things like child abuse - which it was beleived that abortion would decrease - have increased substantially since Roe vs. Wade. And there are the hundreds of women who have presented testimony to the Supreme Court on the harmful effect of abortion.",47291,1,1117,1,"I think so. I generally follow the doctrine of harm reduction in terms of decisions usually considered in the category of ""morality"".","http://www.4forums.com/political/abortion-debates/1847-south-dakota-legislature-votes-ban-abortion.html",40560,110
"1-1117_145_110_1",1117,1,"2004-03-27 22:36:00",33,325,41326,"2004-03-24 10:44:00",47334,205,110,"I think you're mixing up harm reduction with utilitarianism. Harm reduction originates in the field of health providers for drug users, but is now a broad philosophy of health care services in general. There's more info on-line, if you're interested. It has nothing to do with belief or disbelief in ""a Creator"".

That hasn't been my experience, I've known several people who had abortions of various kinds. That's anecdotal, but so is your claim. 

I wouldn't bother. The video is heavily doctored, it isn't a clinical analysis of the abortion process. 

Yet when it's done to an animal that is not human, it's okay? That makes no sense. 
Organisms that can feel pain we should avoid inflicting pain on. Human or not. We should avoid killing when we can. However, I'm not going to refuse to take antibiotics based on the bacteria's ""right to life"". Obviously a human fetus is not bacteria, but it isn't a born human either. Life is full of hard choices. Whether or not to have an abortion is one of them.",47299,1,1117,1,"That seems to be a common beleif for someone who doesn't beleive in a Creator.
What is your position on animal, and human testing? For instance, there's a rather infamous scandal where troubled children in an orphanage were used as test subjects for a Hepatitis immunization. Half of them were deliberately exposed to Hepatitis to test the drug. Do you think that these things are justified if they may save thousands, or millions of lives?
Another question I have is about people who live painful lives. In my province, a man was jailed for killing his severly retarded girl - who went through a lot of pain and treatment. He continues to claim it was a merciful action. What do you think about such cases?
Finally, back to abortion, what do you think of the arguement that abortion generally increases harm for women and society? I recently read an article that said things like child abuse - which it was beleived that abortion would decrease - have increased substantially since Roe vs. Wade. And there are the hundreds of women who have presented testimony to the Supreme Court on the harmful effect of abortion.","http://www.4forums.com/political/abortion-debates/1847-south-dakota-legislature-votes-ban-abortion.html",40866,145
"1-1117_152_145_1",1117,1,"2004-03-30 19:07:00",325,33,41774,"2004-03-27 22:36:00",47341,206,145,"I see... harms reduction means ""they're going to do it anyways, so we might as well make it as safe as possible"". I assume you wouldn't follow harms reduction when another human being's right to life is involved. If so, our disagreement lies with wether or not the unborn human is as valuable as the newborn.

I didn't know that. I think it would be interesting to see a real time video. 

I beleive that human beings are priceless. That stems from my beleif that God created us in his image. I completely beleive that animals should not be killed or damaged for no reason, I beleive they are amazing creations as well. One of God's directives to mankind in the Bible is to be a caretaker for earth. I can't say I've thought much about the morality of animal testing... but I think if such testing can save human life it is justified. 
I have to say once again that the disagreements here seem to boil down to whether we view the unborn human as different from the born one, with regards to rights and value.",47334,1,1117,1,"I think you're mixing up harm reduction with utilitarianism. Harm reduction originates in the field of health providers for drug users, but is now a broad philosophy of health care services in general. There's more info on-line, if you're interested. It has nothing to do with belief or disbelief in ""a Creator"".

That hasn't been my experience, I've known several people who had abortions of various kinds. That's anecdotal, but so is your claim. 

I wouldn't bother. The video is heavily doctored, it isn't a clinical analysis of the abortion process. 

Yet when it's done to an animal that is not human, it's okay? That makes no sense. 
Organisms that can feel pain we should avoid inflicting pain on. Human or not. We should avoid killing when we can. However, I'm not going to refuse to take antibiotics based on the bacteria's ""right to life"". Obviously a human fetus is not bacteria, but it isn't a born human either. Life is full of hard choices. Whether or not to have an abortion is one of them.","http://www.4forums.com/political/abortion-debates/1847-south-dakota-legislature-votes-ban-abortion.html",41326,152
"1-1117_153_152_1",1117,1,"2004-03-30 21:53:00",33,325,41779,"2004-03-30 19:07:00",47342,220,152,"First, I don't believe in ""rights"". I believe it's important to having a manageable human society that people aren't running around randomly killing each other. I believe it's bad to make a being endure unnecessary pain. Abortion is not applicable to the above.
Second, as I said, we are not comparing an infant 24 hrs before it will be born from an infant the minute after it is born, we are comparing an 8-12 week old blastocyst/fetus to a newborn.

For one, it's not a ""real time video"". Its a piece of visual propaganda, heavily edited, with fake sound effects and slo-mo camera work. It's like how B movie directors make their monsters look scary when they're just a 4 inch high plastic doll. Camera tricks.
I also don't see how an abortion could be interesting to watch. Seems a little wierd to me, unless you're an ob/gyn surgery resident.

I get it. You believe in the church, I don't. That's the difference here. It has nothing to do with relative value, it has to do with your religious beliefs, that I don't share.",47341,1,1117,1,"I see... harms reduction means ""they're going to do it anyways, so we might as well make it as safe as possible"". I assume you wouldn't follow harms reduction when another human being's right to life is involved. If so, our disagreement lies with wether or not the unborn human is as valuable as the newborn.

I didn't know that. I think it would be interesting to see a real time video. 

I beleive that human beings are priceless. That stems from my beleif that God created us in his image. I completely beleive that animals should not be killed or damaged for no reason, I beleive they are amazing creations as well. One of God's directives to mankind in the Bible is to be a caretaker for earth. I can't say I've thought much about the morality of animal testing... but I think if such testing can save human life it is justified. 
I have to say once again that the disagreements here seem to boil down to whether we view the unborn human as different from the born one, with regards to rights and value.","http://www.4forums.com/political/abortion-debates/1847-south-dakota-legislature-votes-ban-abortion.html",41774,153
