"key","quote_source_post_discussion_id","posts_dataset_id","posts_timestamp","posts_author_id","quote_source_author_id","posts_native_post_id","quote_source_timestamp","post_text_id","Word_Count","quote_source_post_id","post_text","quote_source_text_id","Dialog_Turn","posts_discussion_id","quote_source_post_dataset_id","Fullquote_text","discussion_url","quote_source_native_post_id","posts_post_id"
"1-2558_12_11_1",2558,1,"2006-07-15 06:35:00",51,1149,222532,"2006-07-15 06:15:00",99915,28,11,"and the most lied about ;)

yet the ""mother"" wishes to make a choice for another human...the unborn. Why the double standard?",99914,1,2558,1,"First of all rape is one of the most under-reported crimes so it makes sense that abortion due to rape/incest is also under-reported so that makes your assumptions and numbers off.But of course you are missing the whole point.You are not the one being raped so it isn't YOUR choice.I don't need you making choices for me or telling me what is and isn't good for my emotional health.If one gets raped and DOES NOT want to be pregnant who are you tell them they have to be? Abortion should be legal for everybody who wants one not just rape/incest victims,for the simple reason that no human being has the right to substain life by using the body of another why should a fetus have more rights than actual persons?","http://www.4forums.com/political/abortion-debates/4027-why-inconsistency.html",222524,12
"1-2558_15_12_1",2558,1,"2006-07-15 07:08:00",1149,51,222550,"2006-07-15 06:35:00",99918,62,12,"Why not people make life or death choices for humans ALL the time..For instance when one chooses to remove a brain dead loved one from life support.I don't see it as being a moral issue,rather a medical one.What does lying about rape have to do with the abortion of an actually raped person?",99915,1,2558,1,"and the most lied about ;)

yet the ""mother"" wishes to make a choice for another human...the unborn. Why the double standard?","http://www.4forums.com/political/abortion-debates/4027-why-inconsistency.html",222532,15
"1-2558_17_15_1",2558,1,"2006-07-15 07:39:00",51,1149,222559,"2006-07-15 07:08:00",99920,77,15,"where did I say that? A rape is a rape no matter if no one saw it or if everyone did. It just happens to be a crime that is lied about (not to police) sometimes. Wasn't really my main point...I just thought I would throw it in there since ""rapes are underreported"" was thrown in there.

I would say it is mostly a moral issue.",99918,1,2558,1,"Why not people make life or death choices for humans ALL the time..For instance when one chooses to remove a brain dead loved one from life support.I don't see it as being a moral issue,rather a medical one.What does lying about rape have to do with the abortion of an actually raped person?","http://www.4forums.com/political/abortion-debates/4027-why-inconsistency.html",222550,17
"1-2558_18_17_1",2558,1,"2006-07-15 11:27:00",1149,51,222586,"2006-07-15 07:39:00",99921,12,17,"How can you commit a moral act against a non-moral being?",99920,1,2558,1,"where did I say that? A rape is a rape no matter if no one saw it or if everyone did. It just happens to be a crime that is lied about (not to police) sometimes. Wasn't really my main point...I just thought I would throw it in there since ""rapes are underreported"" was thrown in there.

I would say it is mostly a moral issue.","http://www.4forums.com/political/abortion-debates/4027-why-inconsistency.html",222559,18
"1-2558_19_18_1",2558,1,"2006-07-15 13:30:00",51,1149,222593,"2006-07-15 11:27:00",99922,13,18,"I don't know of any non-moral being....human being that is.",99921,1,2558,1,"How can you commit a moral act against a non-moral being?","http://www.4forums.com/political/abortion-debates/4027-why-inconsistency.html",222586,19
"1-2558_20_19_1",2558,1,"2006-07-15 14:02:00",1149,51,222596,"2006-07-15 13:30:00",99923,6,19,"a non-person is a non-moral being",99922,1,2558,1,"I don't know of any non-moral being....human being that is.","http://www.4forums.com/political/abortion-debates/4027-why-inconsistency.html",222593,20
"1-2558_21_20_1",2558,1,"2006-07-15 14:05:00",51,1149,222598,"2006-07-15 14:02:00",99924,40,20,"Ok, so my cat is a non-moral being. All humans are persons, so what is your point? All you have done is shown that the unborn is a moral being and my cat is not.",99923,1,2558,1,"a non-person is a non-moral being","http://www.4forums.com/political/abortion-debates/4027-why-inconsistency.html",222596,21
"1-2558_22_21_1",2558,1,"2006-07-15 14:48:00",1149,51,222604,"2006-07-15 14:05:00",99925,154,21,"No,not all humans are persons.Person implies personal identity and personality , you need a functional brain for that.Have you ever heard of babies being born without fully formed brains? They are left to die because they are nothing more than biologically alive.Mere biological life does NOT equal personhood.This is why braindead individuals are considered dead even though they are biologically alive.To say that ALL biological life has the same value is to degrade and devalue actual human personhood.You know this.If you were in a burning room and you had equal chance to save one of two humans,one embyo's in a petry dish or a 5 yearold girl whom would you save? According to you they both have the same value so why not choose the petry dish over the 5 yearold? Thats discusting",99924,1,2558,1,"Ok, so my cat is a non-moral being. All humans are persons, so what is your point? All you have done is shown that the unborn is a moral being and my cat is not.","http://www.4forums.com/political/abortion-debates/4027-why-inconsistency.html",222598,22
"1-2558_23_22_1",2558,1,"2006-07-15 15:26:00",51,1149,222607,"2006-07-15 14:48:00",99926,83,22,"Abortion is disgusting...but thats beside the point.
My question is, why do you get to redefine person? It has a simply definition and an unborn qualifies. This doesn't even matter though because a word is just a word. It is the entity that has the value to it (not the word) and there is no reason to feel that an underdeveloped human is worth less than still developing new born other than discrimination.",99925,1,2558,1,"No,not all humans are persons.Person implies personal identity and personality , you need a functional brain for that.Have you ever heard of babies being born without fully formed brains? They are left to die because they are nothing more than biologically alive.Mere biological life does NOT equal personhood.This is why braindead individuals are considered dead even though they are biologically alive.To say that ALL biological life has the same value is to degrade and devalue actual human personhood.You know this.If you were in a burning room and you had equal chance to save one of two humans,one embyo's in a petry dish or a 5 yearold girl whom would you save? According to you they both have the same value so why not choose the petry dish over the 5 yearold? Thats discusting","http://www.4forums.com/political/abortion-debates/4027-why-inconsistency.html",222604,23
"1-2558_33_31_2",2558,1,"2006-07-18 07:21:00",51,1149,223099,"2006-07-16 17:12:00",99936,46,31,"What if you consent at first and once the person become solely dependent on you for survival you say ""no...I don't consent anymore, go away"".
I don't think you can morally kill the person because you don't consent anymore.",99934,2,2558,1,"I see you *mis-understand* me AGAIN.First of all,a mother isn't obligated thats what adoption and orphanges are for.If my child has a rare kidney disorder and needs a kidney that only I can provide,I am STILL not obligated by law to give my child one of my kidneys.A born child doesn't need to bodily live off another for survival BTW.One more time NO BORN PERSON HAS THE RIGHT TO LIVE OFF THE BODILY PERSON (ORGANS ,BLOOD) OF ANOTHER WITHOUT CONSENT.Removing a fetus from my bodily person which results in the death of the fetus is an expression of my right to my bodily person.","http://www.4forums.com/political/abortion-debates/4027-why-inconsistency.html",222746,33
"1-2558_39_33_2",2558,1,"2006-07-18 09:00:00",1149,51,223133,"2006-07-18 07:21:00",99942,5,33,"It's still my right.",99936,2,2558,1,"What if you consent at first and once the person become solely dependent on you for survival you say ""no...I don't consent anymore, go away"".
I don't think you can morally kill the person because you don't consent anymore.","http://www.4forums.com/political/abortion-debates/4027-why-inconsistency.html",223099,39
"1-2558_42_39_2",2558,1,"2006-07-18 10:19:00",51,1149,223182,"2006-07-18 09:00:00",99945,22,39,"It makes a good point for the pro-life side...

It isn't a moral right. It is the same as murder",99942,2,2558,1,"It's still my right.","http://www.4forums.com/political/abortion-debates/4027-why-inconsistency.html",223133,42
"1-2558_43_42_2",2558,1,"2006-07-18 10:57:00",1149,51,223195,"2006-07-18 10:19:00",99946,98,42,"I really don't see how?

Well obviously we disagree on whats moral and what isn't.I don't even see abortion as a moral issue,it's a mdical issue IMO.It's pointless to discuss the moral standing of a non-sentient non-sapient human as it is to pray and worship a non-sentient and non-sapient God.The very fact we disagree on the moral/value status of a fetus suggests that the moral/value status of a fetus is subjective.You think abortion is immoral don't have one,simply said.:)",99945,2,2558,1,"It makes a good point for the pro-life side...

It isn't a moral right. It is the same as murder","http://www.4forums.com/political/abortion-debates/4027-why-inconsistency.html",223182,43
"1-2558_44_43_2",2558,1,"2006-07-18 11:55:00",51,1149,223209,"2006-07-18 10:57:00",99947,64,43,"I really hope you don't actually attend church and believe in the Christian God...well, perhaps saying don't attend is a bad word but I mean hold those views and attend church. The Bible says nothing about a human having to be sentient or sapient to be one of God's children. To Him we are all non-sentient and non-sapient.",99946,2,2558,1,"I really don't see how?

Well obviously we disagree on whats moral and what isn't.I don't even see abortion as a moral issue,it's a mdical issue IMO.It's pointless to discuss the moral standing of a non-sentient non-sapient human as it is to pray and worship a non-sentient and non-sapient God.The very fact we disagree on the moral/value status of a fetus suggests that the moral/value status of a fetus is subjective.You think abortion is immoral don't have one,simply said.:)","http://www.4forums.com/political/abortion-debates/4027-why-inconsistency.html",223195,44
"1-2558_45_44_2",2558,1,"2006-07-18 12:00:00",1149,51,223213,"2006-07-18 11:55:00",99948,66,44,"Well thats an odd thing for another christian to say! lol! Actually I attend UCC.
I am really starting to think you don't understand those terms.Man needs a mind to interact with God,this is why humans are above all other creatures because we have the capacity to know and interact with God.We have sentience and sapience.",99947,2,2558,1,"I really hope you don't actually attend church and believe in the Christian God...well, perhaps saying don't attend is a bad word but I mean hold those views and attend church. The Bible says nothing about a human having to be sentient or sapient to be one of God's children. To Him we are all non-sentient and non-sapient.","http://www.4forums.com/political/abortion-debates/4027-why-inconsistency.html",223209,45
"1-2558_46_45_2",2558,1,"2006-07-18 12:06:00",51,1149,223217,"2006-07-18 12:00:00",99949,122,45,"I don't recall ever telling you I was a Christian. Nevertheless, atleast quote my entire thought as oppose to limiting it just to the first part ;)

You don't need a mind...just a spirit. Your ""mind"" is gone when you die but you can still communicate with God. Either you believe we just don't exist when we die (thus making God rather worthless) or you think God just removes your brain and takes it up too. When God said ""I know you before you were born"" I wonder what you think He knew? I wonder if you think Jesus was not God for 5-9 months?",99948,2,2558,1,"Well thats an odd thing for another christian to say! lol! Actually I attend UCC.
I am really starting to think you don't understand those terms.Man needs a mind to interact with God,this is why humans are above all other creatures because we have the capacity to know and interact with God.We have sentience and sapience.","http://www.4forums.com/political/abortion-debates/4027-why-inconsistency.html",223213,46
"1-2558_48_46_2",2558,1,"2006-07-18 12:42:00",1149,51,223235,"2006-07-18 12:06:00",99951,45,46,"When the bible uses the term (soul) or spirit in most cases the term is reffering TO the mind.God knows past/present and future all at the same time,and no I do not believe Jesus was divine.",99949,2,2558,1,"I don't recall ever telling you I was a Christian. Nevertheless, atleast quote my entire thought as oppose to limiting it just to the first part ;)

You don't need a mind...just a spirit. Your ""mind"" is gone when you die but you can still communicate with God. Either you believe we just don't exist when we die (thus making God rather worthless) or you think God just removes your brain and takes it up too. When God said ""I know you before you were born"" I wonder what you think He knew? I wonder if you think Jesus was not God for 5-9 months?","http://www.4forums.com/political/abortion-debates/4027-why-inconsistency.html",223217,48
"1-2558_49_48_2",2558,1,"2006-07-18 12:45:00",51,1149,223236,"2006-07-18 12:42:00",99952,41,48,"Oh right...jewish...Well, we are working on different playing fields then ;) I disagree that soul and spirit refer to ""the mind"". As I said, you mind goes away when you die.",99951,2,2558,1,"When the bible uses the term (soul) or spirit in most cases the term is reffering TO the mind.God knows past/present and future all at the same time,and no I do not believe Jesus was divine.","http://www.4forums.com/political/abortion-debates/4027-why-inconsistency.html",223235,49
"1-2558_9_5_3",2558,1,"2006-07-15 05:22:00",1149,1151,222516,"2006-05-28 20:06:00",99912,129,5,"I guess that is your opinion,so if you ever get raped don't get an abortion.The point is,is that it is a choice and not yours.If a women (girl) is molested or raped and doesn't feel comfortable keeping the baby who are you to decide that for them?Personally if I were raped and became pregnant I WOULD NOT keep the fetus,if someone else thought differently and they decided to keep a rape fetus more power to them,but don't expect everbody to feel the same as you do.The best person to make that choice is the one that has been through the rape/incest and has to live with the outcome.",99908,3,2558,1,"I guess it's because some pro-lifers have been brainwashed (as well as many pro-abortionists) that aborting a baby conceived by rape or incest will heal, or be a help to the victim. 
I, myself, have come to the conclusion that abortions hurt much more than they heal. Not just phsyically (Side effects can occure months afterward) but psychologically as well. Guilt, depression, so forth. 
In my view, abortion is murder, one way or the other and rare extreme cases don't justify its legality. Even the rape victim gets a better chance than the baby does. They're at least alive while they kill their baby. That in itself will eat at the person for years until they find some way of forgiving themselves.
I believe these testimonies to be real, and I feel sorry for those victims who feel obligated because of family relations' repuations to kill their own child. It really is sad.","http://www.4forums.com/political/abortion-debates/4027-why-inconsistency.html",214725,9
"1-2558_10_9_3",2558,1,"2006-07-15 05:59:00",1151,1149,222520,"2006-07-15 05:22:00",99913,193,9,"Do I have tell you exactly how many rape/incest victims are the ones who decide an abortion is neccessary? How many of them need to have counseling years afterwards because they had the abortion, not because they were a rape/incest victim? 
There are very few if any girls in the U.S. that would have an abortion after an experience like that. It's the family and relations that force them into it in order to keep the matter hush-hush. No doubt some of those reasons seem good, but abortion is an incorrect solution. The help a victim should get is a hug, some tears and comforting words so that they view their future life in a positive light. Instead, they bury them in words of ""GET AN ABORTION, YOU'LL FEEL BETTER LATER"". Yeah right.
Oh, I think I'll add that only 1% of abortions performed yearly are for rape/incest cases. And some years it may even drop lower than that. Should we keep abortion legal for just that 1%?",99912,3,2558,1,"I guess that is your opinion,so if you ever get raped don't get an abortion.The point is,is that it is a choice and not yours.If a women (girl) is molested or raped and doesn't feel comfortable keeping the baby who are you to decide that for them?Personally if I were raped and became pregnant I WOULD NOT keep the fetus,if someone else thought differently and they decided to keep a rape fetus more power to them,but don't expect everbody to feel the same as you do.The best person to make that choice is the one that has been through the rape/incest and has to live with the outcome.","http://www.4forums.com/political/abortion-debates/4027-why-inconsistency.html",222516,10
"1-2558_11_10_3",2558,1,"2006-07-15 06:15:00",1149,1151,222524,"2006-07-15 05:59:00",99914,146,10,"First of all rape is one of the most under-reported crimes so it makes sense that abortion due to rape/incest is also under-reported so that makes your assumptions and numbers off.But of course you are missing the whole point.You are not the one being raped so it isn't YOUR choice.I don't need you making choices for me or telling me what is and isn't good for my emotional health.If one gets raped and DOES NOT want to be pregnant who are you tell them they have to be? Abortion should be legal for everybody who wants one not just rape/incest victims,for the simple reason that no human being has the right to substain life by using the body of another why should a fetus have more rights than actual persons?",99913,3,2558,1,"Do I have tell you exactly how many rape/incest victims are the ones who decide an abortion is neccessary? How many of them need to have counseling years afterwards because they had the abortion, not because they were a rape/incest victim? 
There are very few if any girls in the U.S. that would have an abortion after an experience like that. It's the family and relations that force them into it in order to keep the matter hush-hush. No doubt some of those reasons seem good, but abortion is an incorrect solution. The help a victim should get is a hug, some tears and comforting words so that they view their future life in a positive light. Instead, they bury them in words of ""GET AN ABORTION, YOU'LL FEEL BETTER LATER"". Yeah right.
Oh, I think I'll add that only 1% of abortions performed yearly are for rape/incest cases. And some years it may even drop lower than that. Should we keep abortion legal for just that 1%?","http://www.4forums.com/political/abortion-debates/4027-why-inconsistency.html",222520,11
"1-2558_13_11_3",2558,1,"2006-07-15 06:45:00",1151,1149,222539,"2006-07-15 06:15:00",99916,64,11,"It has equal rights. The rape/incest victim does not have to DIE, she has to live with a pregnancy, and that should not stand in the way of the baby's right to live.
And you should research rape/incest abortion cases more thoroughly, you're knowledge of their frequency seems kind of small considering your post.",99914,3,2558,1,"First of all rape is one of the most under-reported crimes so it makes sense that abortion due to rape/incest is also under-reported so that makes your assumptions and numbers off.But of course you are missing the whole point.You are not the one being raped so it isn't YOUR choice.I don't need you making choices for me or telling me what is and isn't good for my emotional health.If one gets raped and DOES NOT want to be pregnant who are you tell them they have to be? Abortion should be legal for everybody who wants one not just rape/incest victims,for the simple reason that no human being has the right to substain life by using the body of another why should a fetus have more rights than actual persons?","http://www.4forums.com/political/abortion-debates/4027-why-inconsistency.html",222524,13
"1-2558_16_13_3",2558,1,"2006-07-15 07:16:00",1149,1151,222552,"2006-07-15 06:45:00",99919,120,13,"I am sorry I think you misunderstood me.Even IF a ftus somehow has a right to life,they STILL do not have a right to that life if it means using anothers body without consent.No person has that right.You may find abortion immoral .Thats your opinion,but to make abortion illegal is granting more rights to a fetus that any other actual person has.I have a *right to life*but that doesn't grant me the right to hook up to your blood supply if I need a 24 hour 7 day a week blood transfusion without your consent.Even if not doing so results in my death.",99916,3,2558,1,"It has equal rights. The rape/incest victim does not have to DIE, she has to live with a pregnancy, and that should not stand in the way of the baby's right to live.
And you should research rape/incest abortion cases more thoroughly, you're knowledge of their frequency seems kind of small considering your post.","http://www.4forums.com/political/abortion-debates/4027-why-inconsistency.html",222539,16
"1-2558_24_16_3",2558,1,"2006-07-15 16:54:00",1151,1149,222620,"2006-07-15 07:16:00",99927,84,16,"What are you talking about?!?emoticonXDonno emoticonXDonno emoticonXDonno 
A fetus doesn't take blood from the Mother. And I would challenge you to show me a BORNchild in the world that didn't require physical assistance (from anybody) to survive. A born-child can't live without physical help, so I guess if a family doesn't want to support their child anymore, they can just boot them out and say they don't have the right to live off of them.",99919,3,2558,1,"I am sorry I think you misunderstood me.Even IF a ftus somehow has a right to life,they STILL do not have a right to that life if it means using anothers body without consent.No person has that right.You may find abortion immoral .Thats your opinion,but to make abortion illegal is granting more rights to a fetus that any other actual person has.I have a *right to life*but that doesn't grant me the right to hook up to your blood supply if I need a 24 hour 7 day a week blood transfusion without your consent.Even if not doing so results in my death.","http://www.4forums.com/political/abortion-debates/4027-why-inconsistency.html",222552,24
"1-2558_31_24_3",2558,1,"2006-07-16 17:12:00",1149,1151,222746,"2006-07-15 16:54:00",99934,125,24,"I see you *mis-understand* me AGAIN.First of all,a mother isn't obligated thats what adoption and orphanges are for.If my child has a rare kidney disorder and needs a kidney that only I can provide,I am STILL not obligated by law to give my child one of my kidneys.A born child doesn't need to bodily live off another for survival BTW.One more time NO BORN PERSON HAS THE RIGHT TO LIVE OFF THE BODILY PERSON (ORGANS ,BLOOD) OF ANOTHER WITHOUT CONSENT.Removing a fetus from my bodily person which results in the death of the fetus is an expression of my right to my bodily person.",99927,3,2558,1,"What are you talking about?!?emoticonXDonno emoticonXDonno emoticonXDonno 
A fetus doesn't take blood from the Mother. And I would challenge you to show me a BORNchild in the world that didn't require physical assistance (from anybody) to survive. A born-child can't live without physical help, so I guess if a family doesn't want to support their child anymore, they can just boot them out and say they don't have the right to live off of them.","http://www.4forums.com/political/abortion-debates/4027-why-inconsistency.html",222620,31
"1-2558_32_31_3",2558,1,"2006-07-18 07:14:00",1151,1149,223096,"2006-07-16 17:12:00",99935,97,31,"You still have to prove that a living fetus has less rights than you. You also have to remember that you got the fetus through consensual sex, and that the pregnancy is something you must deal with if you really cared about your rights to your own body. A fetus is not a part of your body, and if you didn't want it, you had no business having voluntary sex. You're right to your body and its desires should not stand in the way of a fetus's right to live.",99934,3,2558,1,"I see you *mis-understand* me AGAIN.First of all,a mother isn't obligated thats what adoption and orphanges are for.If my child has a rare kidney disorder and needs a kidney that only I can provide,I am STILL not obligated by law to give my child one of my kidneys.A born child doesn't need to bodily live off another for survival BTW.One more time NO BORN PERSON HAS THE RIGHT TO LIVE OFF THE BODILY PERSON (ORGANS ,BLOOD) OF ANOTHER WITHOUT CONSENT.Removing a fetus from my bodily person which results in the death of the fetus is an expression of my right to my bodily person.","http://www.4forums.com/political/abortion-debates/4027-why-inconsistency.html",222746,32
"1-2558_40_32_3",2558,1,"2006-07-18 09:03:00",1149,1151,223137,"2006-07-18 07:14:00",99943,59,32,"It doesn't matter,even IF a fetus has the same rights as me it STILL doesn't have MORE rights than me.And how I got the fetus is irrelevant.I think you misunderstand the term *right-to-life* sure everybody has the right to life but not at the exspense of someone esles body.",99935,3,2558,1,"You still have to prove that a living fetus has less rights than you. You also have to remember that you got the fetus through consensual sex, and that the pregnancy is something you must deal with if you really cared about your rights to your own body. A fetus is not a part of your body, and if you didn't want it, you had no business having voluntary sex. You're right to your body and its desires should not stand in the way of a fetus's right to live.","http://www.4forums.com/political/abortion-debates/4027-why-inconsistency.html",223096,40
"1-2558_55_40_3",2558,1,"2006-07-18 13:40:00",1151,1149,223260,"2006-07-18 09:03:00",99958,58,40,"Why's that? Are you now considering yourself more important than the fetus?

Oh yes it does, happygrl35. You can't just have sex whenever you want and have an abortion once a pregnancy comes along. You need to take responsibility and accept the fact that you can't have one without the other.",99943,3,2558,1,"It doesn't matter,even IF a fetus has the same rights as me it STILL doesn't have MORE rights than me.And how I got the fetus is irrelevant.I think you misunderstand the term *right-to-life* sure everybody has the right to life but not at the exspense of someone esles body.","http://www.4forums.com/political/abortion-debates/4027-why-inconsistency.html",223137,55
