"key","quote_source_post_discussion_id","posts_dataset_id","posts_timestamp","posts_author_id","quote_source_author_id","posts_native_post_id","quote_source_timestamp","post_text_id","Word_Count","quote_source_post_id","post_text","quote_source_text_id","Dialog_Turn","posts_discussion_id","quote_source_post_dataset_id","Fullquote_text","discussion_url","quote_source_native_post_id","posts_post_id"
"1-3003_54_50_1",3003,1,"2005-04-13 09:59:00",44,1549,106751,"2005-04-13 09:06:00",118706,30,50,"You don't know what you're talking about. Provide proof of your claim. Let's say for a 12 week fetus since most abortions are performed prior to this.",118702,1,3003,1,"well i was downplaying your argument because really, pregnancy is not that demeaning to a womans body. ITS NATURAL! OBESITY ISNT!

very smart answer. I never knew men couldnt get pregnant. lol, you just made yourself look like an idiot with that statement. by the way, i was referring to those issues are pretty much symptoms of obesity. But the thing is... obesity isnt natural, the process of pregnancy is totally natural.

i guess to you though, one of those people being impacted doesnt count because its just a ""blob of tissue"".

well, whatever the case may be, that baby has a full function nervous system and can feel the pain whenever it is aborted. Does that not disturb you? People always tend to think ""oh the mother is going to go through pain"" BLA BLA BLA.. BUT WHAT ABOUT THE BABY THAT IS BEING TORTURED TO DEATH? cmon.

wonderful. Go read our decleration of independence. Maybe then you'll see that everyone should be guarenteed life, liberty, and the pursuit of happiness. maybe then you'll see every child aborted doesnt just lose its life, but also loses its destiny!","http://www.4forums.com/political/abortion-debates/4656-womens-right-control-her-body.html",106727,54
"1-3003_56_54_1",3003,1,"2005-04-13 10:03:00",1549,44,106756,"2005-04-13 09:59:00",118708,20,54,"Go Read a psychology book and you'll find it there. It starts around the 1st week after conception.",118706,1,3003,1,"You don't know what you're talking about. Provide proof of your claim. Let's say for a 12 week fetus since most abortions are performed prior to this.","http://www.4forums.com/political/abortion-debates/4656-womens-right-control-her-body.html",106751,56
"1-3003_58_56_1",3003,1,"2005-04-13 10:08:00",44,1549,106758,"2005-04-13 10:03:00",118710,22,56,"Now you're just winging it. Your claim, your burden.
Psychology books discussing fetal nervous systems, that's rich.",118708,1,3003,1,"Go Read a psychology book and you'll find it there. It starts around the 1st week after conception.","http://www.4forums.com/political/abortion-debates/4656-womens-right-control-her-body.html",106756,58
"1-3003_59_58_1",3003,1,"2005-04-13 10:18:00",1549,44,106762,"2005-04-13 10:08:00",118711,23,58,"im not wingin it my friend. If you reall want me to i will type it out from my psychology book.",118710,1,3003,1,"Now you're just winging it. Your claim, your burden.
Psychology books discussing fetal nervous systems, that's rich.","http://www.4forums.com/political/abortion-debates/4656-womens-right-control-her-body.html",106758,59
"1-3003_60_59_1",3003,1,"2005-04-13 10:19:00",44,1549,106763,"2005-04-13 10:18:00",118712,20,59,"Please do and be sure to include the book and author. I somehow doubt we will be friends.",118711,1,3003,1,"im not wingin it my friend. If you reall want me to i will type it out from my psychology book.","http://www.4forums.com/political/abortion-debates/4656-womens-right-control-her-body.html",106762,60
"1-3003_63_60_1",3003,1,"2005-04-13 10:22:00",1549,44,106768,"2005-04-13 10:19:00",118715,30,60,"sad to hear that you approach every relationship on the basis that you think you are higher than everyone else. I'll still be your friend if youd like.",118712,1,3003,1,"Please do and be sure to include the book and author. I somehow doubt we will be friends.","http://www.4forums.com/political/abortion-debates/4656-womens-right-control-her-body.html",106763,63
"1-3003_65_63_1",3003,1,"2005-04-13 10:24:00",44,1549,106771,"2005-04-13 10:22:00",118717,6,63,"Not everyone and no thanks.",118715,1,3003,1,"sad to hear that you approach every relationship on the basis that you think you are higher than everyone else. I'll still be your friend if youd like.","http://www.4forums.com/political/abortion-debates/4656-womens-right-control-her-body.html",106768,65
"1-3003_212_211_2",3003,1,"2005-04-28 07:30:00",68,51,113433,"2005-04-27 17:25:00",118864,131,211,"The Supreme Court ruling is brought up to as a legal argument, not as a justification.
Yes, part of the debate is whether abortions are ""right"".

The argument is not for the ""right to do whatever she wants with her own body"", but that none have the right to do whatever they wish to hers.

No, it is that you do not understand pro-choice arguments.
Steve,

That is because your question is nonsense. The gov't does not have the power to prevent you from having one. It is often spoken of as a ""right to abortion"" because we have the right to do things even if the gov't does not wish us to.",118863,2,3003,1,"Agreed,
I ask the people that support that arguement where this right comes from. I am not sure if I have gotten a real answer yet.","http://www.4forums.com/political/abortion-debates/4656-womens-right-control-her-body.html",113232,212
"1-3003_213_212_2",3003,1,"2005-04-28 08:43:00",51,68,113472,"2005-04-28 07:30:00",118865,75,212,"Yeah, but you don't have the right to kill someone, you don't have the right to steal, you don't have the right to do cocaine. The government makes a lot of things illegal. I agree, the constitution puts limits on the government...however, they said nothing about abortion.
So where did the right come from...since I guess we are assuming it from the government",118864,2,3003,1,"The Supreme Court ruling is brought up to as a legal argument, not as a justification.
Yes, part of the debate is whether abortions are ""right"".

The argument is not for the ""right to do whatever she wants with her own body"", but that none have the right to do whatever they wish to hers.

No, it is that you do not understand pro-choice arguments.
Steve,

That is because your question is nonsense. The gov't does not have the power to prevent you from having one. It is often spoken of as a ""right to abortion"" because we have the right to do things even if the gov't does not wish us to.","http://www.4forums.com/political/abortion-debates/4656-womens-right-control-her-body.html",113433,213
"1-3003_214_213_2",3003,1,"2005-04-28 11:33:00",68,51,113587,"2005-04-28 08:43:00",118866,48,213,"Agreed, the Constitution says nothing about abortion. However, the Constitution does say that any powers not given to the gov't the Federal Gov't does not have. The Federal Gov't does not have the power to regulate pregnancy.

It came from the Constitution.",118865,2,3003,1,"Yeah, but you don't have the right to kill someone, you don't have the right to steal, you don't have the right to do cocaine. The government makes a lot of things illegal. I agree, the constitution puts limits on the government...however, they said nothing about abortion.
So where did the right come from...since I guess we are assuming it from the government","http://www.4forums.com/political/abortion-debates/4656-womens-right-control-her-body.html",113472,214
"1-3003_215_214_2",3003,1,"2005-04-28 14:32:00",51,68,113705,"2005-04-28 11:33:00",118867,40,214,"So it would then go to the States

I don't recall anything in the consitution that says that. Where does the constitution say you have the ""right to abortion"" or whatever you wish to call it.",118866,2,3003,1,"Agreed, the Constitution says nothing about abortion. However, the Constitution does say that any powers not given to the gov't the Federal Gov't does not have. The Federal Gov't does not have the power to regulate pregnancy.

It came from the Constitution.","http://www.4forums.com/political/abortion-debates/4656-womens-right-control-her-body.html",113587,215
"1-3003_218_215_2",3003,1,"2005-04-28 19:14:00",68,51,113845,"2005-04-28 14:32:00",118870,57,215,"Agreed, and it is a State issue. I simply feel compelled to point out a national ban is unconstitutional.

...
I'm trying to decide if you're this dense on purpose. I didn't say we had a right to abortion, I said the Constitution doesn't allow the Federal Gov't to restrict it.",118867,2,3003,1,"So it would then go to the States

I don't recall anything in the consitution that says that. Where does the constitution say you have the ""right to abortion"" or whatever you wish to call it.","http://www.4forums.com/political/abortion-debates/4656-womens-right-control-her-body.html",113705,218
"1-3003_219_218_2",3003,1,"2005-04-28 21:07:00",51,68,113878,"2005-04-28 19:14:00",118871,73,218,"But then a national ban on banning would be unconstitutional too. Thus Roe vs Wade would be wrong.

My mistake...I got that you meant that from the following....




See where I got that idea now? So I am still wondering where the right comes from then. I don't think you are suggesting that you have a right to everything unless it is restricted are you?",118870,2,3003,1,"Agreed, and it is a State issue. I simply feel compelled to point out a national ban is unconstitutional.

...
I'm trying to decide if you're this dense on purpose. I didn't say we had a right to abortion, I said the Constitution doesn't allow the Federal Gov't to restrict it.","http://www.4forums.com/political/abortion-debates/4656-womens-right-control-her-body.html",113845,219
"1-3003_220_219_2",3003,1,"2005-04-29 13:17:00",68,51,114310,"2005-04-28 21:07:00",118872,125,219,"That's an interesting argument. What is your support for this? 
If a state made a law banning guns, was challenged and the case went to the Supreme Court and the Court struck down that law it would in effect place a ban on banning guns. This is a perfectly valid use of their power, and is not legislating by any stretch of the imagination.
Keep in mind you cannot use the support of an unproven point (""substantive due process is wrong!"") to support this argument.

In a sense you do. If there is no law forbidding an action and you do that action, who is to say it was illegal?",118871,2,3003,1,"But then a national ban on banning would be unconstitutional too. Thus Roe vs Wade would be wrong.

My mistake...I got that you meant that from the following....




See where I got that idea now? So I am still wondering where the right comes from then. I don't think you are suggesting that you have a right to everything unless it is restricted are you?","http://www.4forums.com/political/abortion-debates/4656-womens-right-control-her-body.html",113878,220
"1-3003_221_220_2",3003,1,"2005-04-29 14:41:00",51,68,114346,"2005-04-29 13:17:00",118873,185,220,"This gets into the ""where do rights come from"" arguement...and I honestly don't wanna do that again. I will leave that to Cone or Chloe or something.

lol, substantive due process is no where in the constitution, however, I don't believe I was thinking along those lines. See a ""ban on guns"" is a something clearly stated in the constitution (as in your right to have a gun). However, the 2nd amendment says nothing about Congress not being able to restrict what guns you can have. ANyway, if something is not address in the constitution it is said to go the states..this is the case with abortion. So to rule on it one way or the other is unconstitutional. I think you can't put a ban on abortion (as in court case) because it says nothing in the constitution about being allowed to do that...same goes with a ban on banning.
Hopefully that clear up my point :p",118872,2,3003,1,"That's an interesting argument. What is your support for this? 
If a state made a law banning guns, was challenged and the case went to the Supreme Court and the Court struck down that law it would in effect place a ban on banning guns. This is a perfectly valid use of their power, and is not legislating by any stretch of the imagination.
Keep in mind you cannot use the support of an unproven point (""substantive due process is wrong!"") to support this argument.

In a sense you do. If there is no law forbidding an action and you do that action, who is to say it was illegal?","http://www.4forums.com/political/abortion-debates/4656-womens-right-control-her-body.html",114310,221
"1-3003_7_4_3",3003,1,"2005-03-26 18:44:00",320,119,101798,"2005-03-26 17:55:00",118659,16,4,"You don't view infants as people either? What form of beast are you? emoticonXWow",118656,3,3003,1,"Yup, she is. Because a feetus is not legaly a person. Morally, I don`t view infants as persons either, but as you have to draw the line somehwere, you might as well do it at birth (or at some time during pregnancy, I don`t really care as long as the choice of aborting a unwanted pregnancy is till viable for most people).","http://www.4forums.com/political/abortion-debates/4656-womens-right-control-her-body.html",101791,7
"1-3003_14_7_3",3003,1,"2005-03-27 01:54:00",119,320,101872,"2005-03-26 18:44:00",118666,10,7,"Last time I checked, I was fairly human :p",118659,3,3003,1,"You don't view infants as people either? What form of beast are you? emoticonXWow","http://www.4forums.com/political/abortion-debates/4656-womens-right-control-her-body.html",101798,14
"1-3003_20_14_3",3003,1,"2005-03-27 09:55:00",320,119,101938,"2005-03-27 01:54:00",118672,25,14,"I'm glad that you qualified your answer with ""fairly"". It certainly isn't normal to consider an infant NOT a person. emoticonXWow",118666,3,3003,1,"Last time I checked, I was fairly human :p","http://www.4forums.com/political/abortion-debates/4656-womens-right-control-her-body.html",101872,20
"1-3003_22_20_3",3003,1,"2005-03-27 11:08:00",119,320,101962,"2005-03-27 09:55:00",118674,33,20,"What or who defines ""normal""? Don`t get me wrong though, I like infants. They are quite amazing to see. I just don`t see them as persons.",118672,3,3003,1,"I'm glad that you qualified your answer with ""fairly"". It certainly isn't normal to consider an infant NOT a person. emoticonXWow","http://www.4forums.com/political/abortion-debates/4656-womens-right-control-her-body.html",101938,22
"1-3003_25_22_3",3003,1,"2005-03-27 13:22:00",320,119,102023,"2005-03-27 11:08:00",118677,8,22,"You're scaring me again, Eddie. :)",118674,3,3003,1,"What or who defines ""normal""? Don`t get me wrong though, I like infants. They are quite amazing to see. I just don`t see them as persons.","http://www.4forums.com/political/abortion-debates/4656-womens-right-control-her-body.html",101962,25
