"key","quote_source_post_discussion_id","posts_dataset_id","posts_timestamp","posts_author_id","quote_source_author_id","posts_native_post_id","quote_source_timestamp","post_text_id","Word_Count","quote_source_post_id","post_text","quote_source_text_id","Dialog_Turn","posts_discussion_id","quote_source_post_dataset_id","Fullquote_text","discussion_url","quote_source_native_post_id","posts_post_id"
"1-3440_18_14_1",3440,1,"2005-05-21 04:00:00",1971,68,125949,"2005-05-20 06:36:00",141792,31,14,".
From what i see it is basically saying,you cannot force them to donate but you can force them not to donate, ie: not signing consent forms",141788,1,3440,1,"How about if the form isn't signed, the child is forced to donate? Shall the parents be able to force the child in that way?","http://www.4forums.com/political/abortion-debates/5285-about-child-custody-protection-act.html",125517,18
"1-3440_22_18_1",3440,1,"2005-05-21 06:29:00",68,1971,125967,"2005-05-21 04:00:00",141796,23,18,"Except isn't that what parents all over wish to do? ie, not have their children have sex and get pregnant.",141792,1,3440,1,".
From what i see it is basically saying,you cannot force them to donate but you can force them not to donate, ie: not signing consent forms","http://www.4forums.com/political/abortion-debates/5285-about-child-custody-protection-act.html",125949,22
"1-3440_23_22_1",3440,1,"2005-05-21 06:33:00",1971,68,125969,"2005-05-21 06:29:00",141797,12,22,".
What we have to sign a consent form for that?",141796,1,3440,1,"Except isn't that what parents all over wish to do? ie, not have their children have sex and get pregnant.","http://www.4forums.com/political/abortion-debates/5285-about-child-custody-protection-act.html",125967,23
"1-3440_24_23_1",3440,1,"2005-05-21 06:37:00",68,1971,125972,"2005-05-21 06:33:00",141798,80,23,"No, but parents try and influence their children and impress upon them not to have sex. No consent form or legislation can stop them, however.
ETA, Actually I didn't really answer your original question:

Parents should not be able to force a child to abort, anymore than they can force her to keep it. That is the point of pro-choice, the person who is pregnant makes the decision for herself.",141797,1,3440,1,".
What we have to sign a consent form for that?","http://www.4forums.com/political/abortion-debates/5285-about-child-custody-protection-act.html",125969,24
"1-3440_25_24_1",3440,1,"2005-05-21 06:41:00",1971,68,125974,"2005-05-21 06:37:00",141799,60,24,".
As a parent that is what i am responsible for,to protect my children and i believe that underage sex is wrong,so what is the problem with a parent trying to impress upon their children the dangers of underage sex.There are such things as disease pregnancy and of course there are always dirty peadophiles",141798,1,3440,1,"No, but parents try and influence their children and impress upon them not to have sex. No consent form or legislation can stop them, however.
ETA, Actually I didn't really answer your original question:

Parents should not be able to force a child to abort, anymore than they can force her to keep it. That is the point of pro-choice, the person who is pregnant makes the decision for herself.","http://www.4forums.com/political/abortion-debates/5285-about-child-custody-protection-act.html",125972,25
"1-3440_26_25_1",3440,1,"2005-05-21 06:45:00",68,1971,125977,"2005-05-21 06:41:00",141800,99,25,"I'm sorry, I edited while you were replying. 
To answer your question, where did you ever get the impression I was against this? I fully support warning your children of the dangers, telling them not to have sex, etc.
My edit above said:
Actually I didn't really answer your original question:

Parents should not be able to force a child to abort, anymore than they can force her to keep it. That is the point of pro-choice, the person who is pregnant makes the decision for herself.",141799,1,3440,1,".
As a parent that is what i am responsible for,to protect my children and i believe that underage sex is wrong,so what is the problem with a parent trying to impress upon their children the dangers of underage sex.There are such things as disease pregnancy and of course there are always dirty peadophiles","http://www.4forums.com/political/abortion-debates/5285-about-child-custody-protection-act.html",125974,26
"1-3440_27_26_1",3440,1,"2005-05-21 06:49:00",1971,68,125980,"2005-05-21 06:45:00",141801,38,26,".
I am not against choice,my argument is with some of the reasons for abortion.
I picked up {maybe wrongly}from your post that you were against it.
apologies for my mistake",141800,1,3440,1,"I'm sorry, I edited while you were replying. 
To answer your question, where did you ever get the impression I was against this? I fully support warning your children of the dangers, telling them not to have sex, etc.
My edit above said:
Actually I didn't really answer your original question:

Parents should not be able to force a child to abort, anymore than they can force her to keep it. That is the point of pro-choice, the person who is pregnant makes the decision for herself.","http://www.4forums.com/political/abortion-debates/5285-about-child-custody-protection-act.html",125977,27
