"key","quote_source_post_discussion_id","posts_dataset_id","posts_timestamp","posts_author_id","quote_source_author_id","posts_native_post_id","quote_source_timestamp","post_text_id","Word_Count","quote_source_post_id","post_text","quote_source_text_id","Dialog_Turn","posts_discussion_id","quote_source_post_dataset_id","Fullquote_text","discussion_url","quote_source_native_post_id","posts_post_id"
"1-3543_17_16_1",3543,1,"2005-05-26 22:05:00",1477,817,129173,"2005-05-26 21:07:00",147202,33,16,"So if Jitobear's mother had the option to abort Jitobear in utero, you want Jitobear to have the same option with any children she carries? That's awfully progressive of you.",147201,1,3543,1,"No one, I repeat no one wants to take punitive actions against any woman unless you call carrying the baby to term punitive action.........
All we want is for the baby in the womb to have the same chance you did if possible...........","http://www.4forums.com/political/abortion-debates/5417-there-anyone-here-who-has-never-been-fetus-womb.html",129151,17
"1-3543_21_17_1",3543,1,"2005-05-27 11:35:00",817,1477,129385,"2005-05-26 22:05:00",147206,18,17,"Nice try but your play on words does not work..........You know exactly what I meant........",147202,1,3543,1,"So if Jitobear's mother had the option to abort Jitobear in utero, you want Jitobear to have the same option with any children she carries? That's awfully progressive of you.","http://www.4forums.com/political/abortion-debates/5417-there-anyone-here-who-has-never-been-fetus-womb.html",129173,21
"1-3543_30_21_1",3543,1,"2005-05-27 14:23:00",1477,817,129454,"2005-05-27 11:35:00",147215,79,21,"In fact I believe you said:

If you want babies in the womb to have the same chance that we did, and you're asking for them to have the same chance that we did, then you must have known that such a chance included the risk of abortion in many cases.
If you want us to understand you, I think it might help if you're more careful with how you express you opinion.",147206,1,3543,1,"Nice try but your play on words does not work..........You know exactly what I meant........","http://www.4forums.com/political/abortion-debates/5417-there-anyone-here-who-has-never-been-fetus-womb.html",129385,30
"1-3543_32_30_1",3543,1,"2005-05-27 14:43:00",817,1477,129463,"2005-05-27 14:23:00",147217,35,30,"Not prior to 1972 when the states had jurisdiction on abortion.........What a staggering figure 40,000,000 is since it has been made easy to have and abortion at the drop of a hat.....",147215,1,3543,1,"In fact I believe you said:

If you want babies in the womb to have the same chance that we did, and you're asking for them to have the same chance that we did, then you must have known that such a chance included the risk of abortion in many cases.
If you want us to understand you, I think it might help if you're more careful with how you express you opinion.","http://www.4forums.com/political/abortion-debates/5417-there-anyone-here-who-has-never-been-fetus-womb.html",129454,32
"1-3543_35_32_1",3543,1,"2005-05-27 14:57:00",1477,817,129474,"2005-05-27 14:43:00",147220,69,32,"Surprisingly some people were born after 1972 and some other people aren't even American and come from places with a different history of abortion laws. So what you really meant to say was that babies in the womb should get the same chance that babies born prior to 1972 in the US did? Does that mean they should have the same risk of illegal abortions then?",147217,1,3543,1,"Not prior to 1972 when the states had jurisdiction on abortion.........What a staggering figure 40,000,000 is since it has been made easy to have and abortion at the drop of a hat.....","http://www.4forums.com/political/abortion-debates/5417-there-anyone-here-who-has-never-been-fetus-womb.html",129463,35
"1-3543_36_35_1",3543,1,"2005-05-27 15:05:00",817,1477,129479,"2005-05-27 14:57:00",147221,66,35,"Abortions were state issues prior to the federal government sticking their nose in..........I would go out and a limb and say there were not 40,000,000 abortions performed from 1900 to 1972 then when all you had to do was say, ""I forgot to use birth control when I had sex so I want to use abortion as my birth control.""",147220,1,3543,1,"Surprisingly some people were born after 1972 and some other people aren't even American and come from places with a different history of abortion laws. So what you really meant to say was that babies in the womb should get the same chance that babies born prior to 1972 in the US did? Does that mean they should have the same risk of illegal abortions then?","http://www.4forums.com/political/abortion-debates/5417-there-anyone-here-who-has-never-been-fetus-womb.html",129474,36
"1-3543_39_36_1",3543,1,"2005-05-27 20:02:00",1477,817,129540,"2005-05-27 15:05:00",147224,76,36,"Pardon me, but what does that have to do with babies in the womb getting the same chance at life as the rest of us whose mothers may or may not have had access to abortion, either because we were born in the USA prior to 1972, or because we were not born in the USA at all? Doesn't anyone else know what Voice of Reason is trying to say here?",147221,1,3543,1,"Abortions were state issues prior to the federal government sticking their nose in..........I would go out and a limb and say there were not 40,000,000 abortions performed from 1900 to 1972 then when all you had to do was say, ""I forgot to use birth control when I had sex so I want to use abortion as my birth control.""","http://www.4forums.com/political/abortion-debates/5417-there-anyone-here-who-has-never-been-fetus-womb.html",129479,39
"1-3543_42_39_1",3543,1,"2005-05-27 20:18:00",817,1477,129552,"2005-05-27 20:02:00",147227,25,39,"No, it was a different era.........Families had values...........Women carried their babies to term............People respected life unlike today........",147224,1,3543,1,"Pardon me, but what does that have to do with babies in the womb getting the same chance at life as the rest of us whose mothers may or may not have had access to abortion, either because we were born in the USA prior to 1972, or because we were not born in the USA at all? Doesn't anyone else know what Voice of Reason is trying to say here?","http://www.4forums.com/political/abortion-debates/5417-there-anyone-here-who-has-never-been-fetus-womb.html",129540,42
"1-3543_43_42_1",3543,1,"2005-05-27 20:21:00",1477,817,129553,"2005-05-27 20:18:00",147228,8,42,"Would you please answer my question directly?",147227,1,3543,1,"No, it was a different era.........Families had values...........Women carried their babies to term............People respected life unlike today........","http://www.4forums.com/political/abortion-debates/5417-there-anyone-here-who-has-never-been-fetus-womb.html",129552,43
