"key","quote_source_post_discussion_id","posts_dataset_id","posts_timestamp","posts_author_id","quote_source_author_id","posts_native_post_id","quote_source_timestamp","post_text_id","Word_Count","quote_source_post_id","post_text","quote_source_text_id","Dialog_Turn","posts_discussion_id","quote_source_post_dataset_id","Fullquote_text","discussion_url","quote_source_native_post_id","posts_post_id"
"1-3563_104_103_1",3563,1,"2008-11-15 12:22:00",421,123,332879,"2008-11-15 12:03:00",148033,90,103,"What ever happened to a parents responsibility to provide care for their children? Since when are we a welfare state who relies on the Government for all of our personal needs? Can you point to the clause in the constitution which guarantees national health care for all? 
And are you suggesting that all americans had healthcare under Clinton or any other democrat president you can name? Of course not. Yet you blame Bush as if it's his fault some people don't have health care.",148032,1,3563,1,"A great civilization does not treat its children like this:

Study: 1 In 4 Kids Go Without Health Care, CBS News Has Learned Researchers Found Bigger Health Care Gap Than Thought For Children - CBS News
Unfortunately, under the aegis of the Bush/Cheney administration and the religious right, America has ceased to be a great civilization.","http://www.4forums.com/political/abortion-debates/5447-new-person-here.html",332870,104
"1-3563_105_104_1",3563,1,"2008-11-15 12:28:00",123,421,332882,"2008-11-15 12:22:00",148034,48,104,"Tell me how parents living in poverty are going to provide health care for their children?
Should they shoot all the children they can't provide health care for because of their low incomes?
Is that your solution to the health care crisis in our nation?",148033,1,3563,1,"What ever happened to a parents responsibility to provide care for their children? Since when are we a welfare state who relies on the Government for all of our personal needs? Can you point to the clause in the constitution which guarantees national health care for all? 
And are you suggesting that all americans had healthcare under Clinton or any other democrat president you can name? Of course not. Yet you blame Bush as if it's his fault some people don't have health care.","http://www.4forums.com/political/abortion-debates/5447-new-person-here.html",332879,105
"1-3563_107_105_1",3563,1,"2008-11-16 16:25:00",421,123,333070,"2008-11-15 12:28:00",148036,144,105,"GET A JOB!!!
And beside that, have you ever heard of emergency rooms refusing to care for sick children? I haven't! One of our big complaints has been all of these illegal aliens getting free health care without ever paying for it, so what makes you think sick american kids wont receive care? You bleeding hearts are just so blasted pathetic. You wont be happy until you turn america into a complete welfare state.
In every post you are asking for something else for free. For some service you are entitled to without working for it. You truly turn my stomach as you exemplify the exact opposite of the spirit which made this country great in the first place. And you exemplify why we are most assuredly doomed as a great Nation.",148034,1,3563,1,"Tell me how parents living in poverty are going to provide health care for their children?
Should they shoot all the children they can't provide health care for because of their low incomes?
Is that your solution to the health care crisis in our nation?","http://www.4forums.com/political/abortion-debates/5447-new-person-here.html",332882,107
"1-3563_114_107_1",3563,1,"2008-11-17 08:23:00",123,421,333143,"2008-11-16 16:25:00",148043,62,107,"Most of these parents, both of them, are working three or four jobs.
These are the working poor. They work for a living, only because of greedy capitalistswho keep their heads buried in their nether regions and who don't believe in working people, they, the working poor, do not make a living wage.",148036,1,3563,1,"GET A JOB!!!
And beside that, have you ever heard of emergency rooms refusing to care for sick children? I haven't! One of our big complaints has been all of these illegal aliens getting free health care without ever paying for it, so what makes you think sick american kids wont receive care? You bleeding hearts are just so blasted pathetic. You wont be happy until you turn america into a complete welfare state.
In every post you are asking for something else for free. For some service you are entitled to without working for it. You truly turn my stomach as you exemplify the exact opposite of the spirit which made this country great in the first place. And you exemplify why we are most assuredly doomed as a great Nation.","http://www.4forums.com/political/abortion-debates/5447-new-person-here.html",333070,114
"1-3563_119_114_1",3563,1,"2008-11-17 10:39:00",421,123,333169,"2008-11-17 08:23:00",148048,84,114,"It's pretty much a waste of time even communicating with you. But I would love to see you prove that any married couples working 3 or 4 jobs each are living in abject poverty. And then prove they can't afford to get their sick children treated at a hospital. Or prove that no social umbrella exists for needy families. Prove that children are being denied healthcare in this country as you continue on your tour looking for more handouts.",148043,1,3563,1,"Most of these parents, both of them, are working three or four jobs.
These are the working poor. They work for a living, only because of greedy capitalistswho keep their heads buried in their nether regions and who don't believe in working people, they, the working poor, do not make a living wage.","http://www.4forums.com/political/abortion-debates/5447-new-person-here.html",333143,119
"1-3563_123_119_1",3563,1,"2008-11-18 08:47:00",123,421,333292,"2008-11-17 10:39:00",148052,53,119,"You greatly wrong me with your ignorant interpretation of what I said.
I love America enormously. I hate what she has become under the aegis of the right wing religious and extremely heartless demagogues.
Above all, my America, the America of the Founders, has a heart.",148048,1,3563,1,"Your hatred for america and your unmitigated ignorance is so deeply imbedded, that it's pretty much a waste of time even communicating with you. But I would love to see you prove that any married couples working 3 or 4 jobs each are living in abject poverty. And then prove they can't afford to get their sick children treated at a hospital. Or prove that no social umbrella exists for needy families. Prove that children are being denied healthcare in this country as you continue on your sick and ignorant bleeding heart tour looking for more handouts as you and your ilk contribute nothing in return to this country.","http://www.4forums.com/political/abortion-debates/5447-new-person-here.html",333169,123
