"key","quote_source_post_discussion_id","posts_dataset_id","posts_timestamp","posts_author_id","quote_source_author_id","posts_native_post_id","quote_source_timestamp","post_text_id","Word_Count","quote_source_post_id","post_text","quote_source_text_id","Dialog_Turn","posts_discussion_id","quote_source_post_dataset_id","Fullquote_text","discussion_url","quote_source_native_post_id","posts_post_id"
"1-3604_58_57_1",3604,1,"2005-06-07 09:28:00",884,320,134139,"2005-06-07 09:24:00",150436,50,57,"So, please tell me how you convince a woman to speak of a rape, only to be victimized a second time, and the how she prepares herself for the persecution of the rapist, while a defense attorney victimizes her the thrid time as she testifies ?",150435,1,3604,1,"And it will guarantee that the rapist is out there committing another crime. I'd rather see laws in place that make reporting mandatory and prosecute those medical professionals who chose to disobey the law.","http://www.4forums.com/political/abortion-debates/5508-indiana-judge-rules-against-planned-parenthood.html",134138,58
"1-3604_59_58_1",3604,1,"2005-06-07 09:38:00",320,884,134144,"2005-06-07 09:28:00",150437,96,58,"If she was a family member of mine, there would be no need of a trial, only a picture of the assailant. emoticonXKill 
For anyone else, I think that we need to stop coddling the criminals and allowing their lawyers to sharpshoot the victims. While I'm in favor of following the Constitution and granting the right of the accused to face his opposition, I think that our legal system has allowed too much leeway to be granted to defendants and their lawyers, especially when a minor is involved.",150436,1,3604,1,"So, please tell me how you convince a woman to speak of a rape, only to be victimized a second time, and the how she prepares herself for the persecution of the rapist, while a defense attorney victimizes her the thrid time as she testifies ?","http://www.4forums.com/political/abortion-debates/5508-indiana-judge-rules-against-planned-parenthood.html",134139,59
"1-3604_60_59_1",3604,1,"2005-06-07 09:52:00",884,320,134149,"2005-06-07 09:38:00",150438,52,59,"Do you really want to go back to the times of vigilante justice ? And as much as I hate the idea of a rapist on the streets, we are a land of laws,not men. And let's also keep in mind; Innocent, until proven guilty.",150437,1,3604,1,"If she was a family member of mine, there would be no need of a trial, only a picture of the assailant. emoticonXKill 
For anyone else, I think that we need to stop coddling the criminals and allowing their lawyers to sharpshoot the victims. While I'm in favor of following the Constitution and granting the right of the accused to face his opposition, I think that our legal system has allowed too much leeway to be granted to defendants and their lawyers, especially when a minor is involved.","http://www.4forums.com/political/abortion-debates/5508-indiana-judge-rules-against-planned-parenthood.html",134144,60
"1-3604_68_60_1",3604,1,"2005-06-07 15:30:00",320,884,134370,"2005-06-07 09:52:00",150446,15,60,"Agreed. But ID the sucker and I'll XXXX his MFing head off. :)",150438,1,3604,1,"Do you really want to go back to the times of vigilante justice ? And as much as I hate the idea of a rapist on the streets, we are a land of laws,not men. And let's also keep in mind; Innocent, until proven guilty.","http://www.4forums.com/political/abortion-debates/5508-indiana-judge-rules-against-planned-parenthood.html",134149,68
"1-3604_70_68_1",3604,1,"2005-06-07 15:33:00",884,320,134372,"2005-06-07 15:30:00",150448,23,68,"Yup, then once in Angola you'll enjoy a needle. But Sister Helen Prejean will be there for you last moments.",150446,1,3604,1,"Agreed. But ID the sucker and I'll XXXX his MFing head off. :)","http://www.4forums.com/political/abortion-debates/5508-indiana-judge-rules-against-planned-parenthood.html",134370,70
"1-3604_71_70_1",3604,1,"2005-06-07 15:35:00",320,884,134376,"2005-06-07 15:33:00",150449,20,70,"Cite me one case in which a father was convicted of murder for killing his daughter's rapist. Please.",150448,1,3604,1,"Yup, then once in Angola you'll enjoy a needle. But Sister Helen Prejean will be there for you last moments.","http://www.4forums.com/political/abortion-debates/5508-indiana-judge-rules-against-planned-parenthood.html",134372,71
"1-3604_73_71_1",3604,1,"2005-06-07 15:39:00",884,320,134379,"2005-06-07 15:35:00",150451,11,71,"There is always the first time. :p :p :p :p",150449,1,3604,1,"Cite me one case in which a father was convicted of murder for killing his daughter's rapist. Please.","http://www.4forums.com/political/abortion-debates/5508-indiana-judge-rules-against-planned-parenthood.html",134376,73
