"key","quote_source_post_discussion_id","posts_dataset_id","posts_timestamp","posts_author_id","quote_source_author_id","posts_native_post_id","quote_source_timestamp","post_text_id","Word_Count","quote_source_post_id","post_text","quote_source_text_id","Dialog_Turn","posts_discussion_id","quote_source_post_dataset_id","Fullquote_text","discussion_url","quote_source_native_post_id","posts_post_id"
"1-3643_14_13_1",3643,1,"2005-06-07 12:29:00",345,161,134244,"2005-06-07 12:00:00",152195,81,13,"I can't see where it disgusts you, unless you feel that committing, or assisting in the perpetration, of a crime is logical/illogical...
Even though rationality should play some role in our actions, it has no precedence here. What was done was against the law; murder. Should he be alone in this? No. She should be there with him.
...be they from Texas or Riptarse, Tennessee.",152194,1,3643,1,"That's why I said worthy. Not legally punishable with.
The idea that this man will spend years in prison for a totally illogical crime disgusts me, whether its legal or not.
If I said that someone taken to a death camp had done nothing worthy of death would you say that they did because that was the law? Everyone's well aware of the legal position, so that obviously wasn't my meaning.
if you want to argue that breaking the law is itself an immorality worthy of a life sentence, go ahead.","http://www.4forums.com/political/abortion-debates/5572-someone-try-explain-difference-what-guy-did-what-abortionists-do.html",134232,14
"1-3643_17_14_1",3643,1,"2005-06-07 12:47:00",161,345,134254,"2005-06-07 12:29:00",152198,136,14,"It disgusts me because this man has killed something which the law recongnises may be killed, and he even had the permission of the mother. The idea of spending years in the hell that is American jail because of whatever stupid reason they didn't have a proper abortion is agonising and ridiculous.

But what she did wasn't as Fox News admits. You can't say he should be in jail BECAUSE its the law and then ignore the law so you can put her there too. If she's done something wrong, then I see no moral difference to every other abortion. Would you put every mother who has an abortion and every doctor involved in jail? This is an unjust law because it does not tally with others.",152195,1,3643,1,"I can't see where it disgusts you, unless you feel that committing, or assisting in the perpetration, of a crime is logical/illogical...
Even though rationality should play some role in our actions, it has no precedence here. What was done was against the law; murder. Should he be alone in this? No. She should be there with him.
...be they from Texas or Riptarse, Tennessee.","http://www.4forums.com/political/abortion-debates/5572-someone-try-explain-difference-what-guy-did-what-abortionists-do.html",134244,17
"1-3643_20_17_1",3643,1,"2005-06-07 13:10:00",345,161,134274,"2005-06-07 12:47:00",152201,128,17,"Even though I see where you're coming from - feelings play no part in it.
I would like to run the conduit and wire in our football stadium. I could do it, have the means, but I have no license. It would be against the National Electric Code and I could be fined for even installing a receptacle in public housing or commercial buildings. It's the rules.
It is pure and simple murder, just as some abortions (not all) are themselves, pure and simple murder. But, I can't allow my feelings to go against the law. I can, however, change the law to fit my feelings if I have the means.",152198,1,3643,1,"It disgusts me because this man has killed something which the law recongnises may be killed, and he even had the permission of the mother. The idea of spending years in the hell that is American jail because of whatever stupid reason they didn't have a proper abortion is agonising and ridiculous.

But what she did wasn't as Fox News admits. You can't say he should be in jail BECAUSE its the law and then ignore the law so you can put her there too. If she's done something wrong, then I see no moral difference to every other abortion. Would you put every mother who has an abortion and every doctor involved in jail? This is an unjust law because it does not tally with others.","http://www.4forums.com/political/abortion-debates/5572-someone-try-explain-difference-what-guy-did-what-abortionists-do.html",134254,20
"1-3643_21_20_1",3643,1,"2005-06-07 13:27:00",161,345,134288,"2005-06-07 13:10:00",152202,62,20,"I can allow my feelings to go against the law. If I had means to allow this man to escape imprisonment I would use them. I think a moral duty overrides obedience to law. Which abortions are 'pure and simple murder' BTW
chloe: 'On what basis?'
Finish reading the sentance, please....",152201,1,3643,1,"Even though I see where you're coming from - feelings play no part in it.
I would like to run the conduit and wire in our football stadium. I could do it, have the means, but I have no license. It would be against the National Electric Code and I could be fined for even installing a receptacle in public housing or commercial buildings. It's the rules.
It is pure and simple murder, just as some abortions (not all) are themselves, pure and simple murder. But, I can't allow my feelings to go against the law. I can, however, change the law to fit my feelings if I have the means.","http://www.4forums.com/political/abortion-debates/5572-someone-try-explain-difference-what-guy-did-what-abortionists-do.html",134274,21
"1-3643_22_21_1",3643,1,"2005-06-07 13:47:00",345,161,134304,"2005-06-07 13:27:00",152203,91,21,"And, once caught, be in there with him. I absolutely hate some of the laws, and like you (once upon a time) would fight the law, but soon figured out that the law does not discriminate and certainly couldn't care less about our feelings.

Very noble gesture, but ill advised. Outsmart the law - that's better.

The ones that are not are: Life and Death, Rape, Incest, Horrible Disease/Disorder...along those lines.",152202,1,3643,1,"I can allow my feelings to go against the law. If I had means to allow this man to escape imprisonment I would use them. I think a moral duty overrides obedience to law. Which abortions are 'pure and simple murder' BTW
chloe: 'On what basis?'
Finish reading the sentance, please....","http://www.4forums.com/political/abortion-debates/5572-someone-try-explain-difference-what-guy-did-what-abortionists-do.html",134288,22
