"key","quote_source_post_discussion_id","posts_dataset_id","posts_timestamp","posts_author_id","quote_source_author_id","posts_native_post_id","quote_source_timestamp","post_text_id","Word_Count","quote_source_post_id","post_text","quote_source_text_id","Dialog_Turn","posts_discussion_id","quote_source_post_dataset_id","Fullquote_text","discussion_url","quote_source_native_post_id","posts_post_id"
"1-4085_53_51_1",4085,1,"2005-09-06 10:38:00",303,51,160050,"2005-09-05 21:47:00",169786,199,51,"Steeeeve,

Brilliant, so you agree that we all have an equal right to life, otherwise what is the basis for laws against murder. If I did not have the right to live, then murdering me could not be against the law and laws passed against murdering me would be unconstitutional because murder would not be a violation of my rights.

Why don’t you check the Supreme Court docket for 2005. You may find more than one case regarding taxes was heard and decided. 
Check your facts before you make a statement. Unsubstantiated statements undermine everything else you say.

Based on your statement that the Supreme Court doesn’t get many cases on tax law, I have a good idea how many cases you have read. Is it 2 or 3?

So, simply put, a pregnant woman who iingests anything (alcohol, drugs, poison, etc.), thereby causing harm (brain damage say) to the human fetus she is carrying is guilty or harming a person. Do you agree with that?",169784,1,4085,1,"no, it doesn't say rights for a reason. Equal protection under the law means you can't say one group is allowed to be murdered while the others have the protection of the ""do not muder"" law. I guess if laws are rights to you then you can say that.

The Supreme Court doesn't get many income tax law cases. Once again, save it for another forum.

You have no idea how many cases I have read ;)

nonono, if our standard is going to be the dictionary then a human is a person and a fetus is a human. I will agree with all of the above then. If the fetus is a person then Roe vs Wade get overturned (as stated in the case) and thus the state laws on the books will go back to what they were and the killing the fetus would be the ""unlawful killing of a person"". So yeah, I'll admit to being wrong via the dictionary assuming thats our standard.
http://dictionary.reference.com/search?q=person
A living human
http://dictionary.reference.com/search?q=human
A member of the genus Homo and especially of the species H. sapiens.","http://www.4forums.com/political/abortion-debates/6158-personhood.html",159951,53
"1-4085_54_53_1",4085,1,"2005-09-06 17:34:00",51,303,160216,"2005-09-06 10:38:00",169787,112,53,"No its, true. I wouldn't say it otherwise. We don't need to agree about this here, however, most tax cases are heard in 'tax court' and rarely get up to the Supreme court level. The mainly only hear cases are of ""serious issue"" or that conflict between circuit courts.
(source: Concepts in Federal Taxation 2006 Edition; Murphy & Higgins)

Why are you so quick to ask another question? Are you saying what I said was correct? I want to know if our standard is dictionary definitions..answer that then I will answer yours.",169786,1,4085,1,"Why don’t you check the Supreme Court docket for 2005. You may find more than one case regarding taxes was heard and decided.
Check your facts before you make a statement. Unsubstantiated statements undermine everything else you say. ","http://www.4forums.com/political/abortion-debates/6158-personhood.html",160050,54
"1-4085_55_54_1",4085,1,"2005-09-06 17:52:00",303,51,160226,"2005-09-06 17:34:00",169788,94,54,"Try Grable & Sons Metal Products v. Darue Engineering, or Bllard v. Commissioner of Internal Revenue Service, or Comm’r v. Banks
They were all this year.

I am basing my question on your previous post:

So the question still stands: Do you agree that a pregnant woman who ingests anything (alcohol, drugs, poison, etc.), thereby causing harm (brain damage say) to the human fetus she is carrying is guilty of harming a person?",169787,1,4085,1,"No its, true. I wouldn't say it otherwise. We don't need to agree about this here, however, most tax cases are heard in 'tax court' and rarely get up to the Supreme court level. The mainly only hear cases are of ""serious issue"" or that conflict between circuit courts.
(source: Concepts in Federal Taxation 2006 Edition; Murphy & Higgins)

Why are you so quick to ask another question? Are you saying what I said was correct? I want to know if our standard is dictionary definitions..answer that then I will answer yours.","http://www.4forums.com/political/abortion-debates/6158-personhood.html",160216,55
"1-4085_56_55_1",4085,1,"2005-09-06 18:38:00",51,303,160241,"2005-09-06 17:52:00",169789,89,55,"Ok? I didn't say there were none. I said not many. Considering thats only three out of the many tax cases heard by the US Tax Code court I would say the Supreme Court doesn't hear that many. I don't think the Ballard case was about Income Tax either.

Why won't you answer my question? I want to know if we are on the same level with regards to dictionary definitions before I will answer yours...so whats it gonna be?",169788,1,4085,1,"Try Grable & Sons Metal Products v. Darue Engineering, or Bllard v. Commissioner of Internal Revenue Service, or Comm’r v. Banks
They were all this year. ","http://www.4forums.com/political/abortion-debates/6158-personhood.html",160226,56
"1-4085_57_56_1",4085,1,"2005-09-06 18:54:00",303,51,160247,"2005-09-06 18:38:00",169790,73,56,"That was 3 cases out of eighty. There were only three other subjects that took a greater percentage of the court's docket.

Maybe I am unclear. I thought I posted the thread where we agreed on terms and dictionary definitions. What words do you think we are still unclear on? Please include your definitions and I will let you know if I take issue with any of them",169789,1,4085,1,"Ok? I didn't say there were none. I said not many. Considering thats only three out of the many tax cases heard by the US Tax Code court I would say the Supreme Court doesn't hear that many. I don't think the Ballard case was about Income Tax either.

Why won't you answer my question? I want to know if we are on the same level with regards to dictionary definitions before I will answer yours...so whats it gonna be?","http://www.4forums.com/political/abortion-debates/6158-personhood.html",160241,57
"1-4085_60_57_1",4085,1,"2005-09-06 20:14:00",51,303,160269,"2005-09-06 18:54:00",169793,137,57,"3 outta 80 with one not even being about the income tax (which was the orginal point). We had 2 on the 10 commandments alone and thats not even a 'big' thing. However, I see it has the Supreme court took 3 outta the insane amount of tax cases heard in tax court. ANd looking at it that way will show that the Supreme Court barely touches the issue. They only tend to look at it for the reasons I stated a few posts up.
The dictionary definitions I was referring to would be the ones about person and human...just basic definitions and I thought that if we accept your definition then we have to accept mine as they are from the same source.",169790,1,4085,1,"That was 3 cases out of eighty. There were only three other subjects that took a greater percentage of the court's docket.

Maybe I am unclear. I thought I posted the thread where we agreed on terms and dictionary definitions. What words do you think we are still unclear on? Please include your definitions and I will let you know if I take issue with any of them","http://www.4forums.com/political/abortion-debates/6158-personhood.html",160247,60
