"key","quote_source_post_discussion_id","posts_dataset_id","posts_timestamp","posts_author_id","quote_source_author_id","posts_native_post_id","quote_source_timestamp","post_text_id","Word_Count","quote_source_post_id","post_text","quote_source_text_id","Dialog_Turn","posts_discussion_id","quote_source_post_dataset_id","Fullquote_text","discussion_url","quote_source_native_post_id","posts_post_id"
"1-4529_8_7_1",4529,1,"2005-10-30 17:19:00",137,51,175723,"2005-10-30 15:48:00",193037,73,7,"And how would the goverment do that? (in accordance with the subject of abortion only) By...

Why not just admit it, and move on? You think the government has the right to impose mandantory gestation and forced childbirth whereas others, like myself, think/know  that women have the right to make a decision about what to do with the human growing inside her?",193036,1,4529,1,"I would say we see it a bit different...
1. The government has a the right to stop one human from killing another
2. The government does not have the right to stop one human from killing another","http://www.4forums.com/political/abortion-debates/6722-two-arguments.html",175710,8
"1-4529_13_8_1",4529,1,"2005-10-30 19:40:00",51,137,175767,"2005-10-30 17:19:00",193042,34,8,"I actually looked in this whole thread and did not find a question mark typed by you. 

Can you just admit that you feel the need to rank humans like Hitler did?",193037,1,4529,1,"Why not just admit it, and move on? You think the government has the right to impose mandantory gestation and forced childbirth whereas others, like myself, think/know that women have the right to make a decision about what to do with the human growing inside her?","http://www.4forums.com/political/abortion-debates/6722-two-arguments.html",175723,13
"1-4529_18_13_1",4529,1,"2005-10-30 20:23:00",137,51,175792,"2005-10-30 19:40:00",193047,77,13,"I beg your pardon, I didn't know Hitler had an abortion.
P.S. Godwin's law. You lose.
Also, you didn't answer how the gov't would do this:

Wouldn't they have to by this?

I don't understand how that's hypocritical, nor do I understand how I ""misrepresented your position"". How do you disagree with the above quote by Howard Beale? Honestly, I don't get it.",193042,1,4529,1,"I actually looked in this whole thread and did not find a question mark typed by you. 

Can you just admit that you feel the need to rank humans like Hitler did?","http://www.4forums.com/political/abortion-debates/6722-two-arguments.html",175767,18
"1-4529_19_18_1",4529,1,"2005-10-30 21:27:00",51,137,175807,"2005-10-30 20:23:00",193048,17,18,"I just decided to make a strawman like you did. You lose? emoticonXRolleyes Grow up",193047,1,4529,1,"I beg your pardon, I didn't know Hitler had an abortion.
P.S. Godwin's law. You lose. ","http://www.4forums.com/political/abortion-debates/6722-two-arguments.html",175792,19
"1-4529_20_19_1",4529,1,"2005-10-31 08:51:00",137,51,175931,"2005-10-30 21:27:00",193049,102,19,"I didn't make a strawman, I stated facts. Please reread my previous post. And yes, under Godwin's law, you lose the argument. Why do you respond with emotionally charged comments instead of answering the questions? I'm actuallly on here to learn something, not to insult people that don't agree with me. You and I have had this happen before where you jump to defensiveness where it is not needed.
Do you have a response for my last post? How was I hypocritical, and how did I misrepresent your position?",193048,1,4529,1,"I just decided to make a strawman like you did. You lose? emoticonXRolleyes Grow up","http://www.4forums.com/political/abortion-debates/6722-two-arguments.html",175807,20
"1-4529_21_20_1",4529,1,"2005-10-31 09:08:00",51,137,175936,"2005-10-31 08:51:00",193050,107,20,"If you didn't mean to misrepresent me then I am sorry.
However, stating ""You think the government has the right to impose mandantory gestation and forced childbirth "" is emotionally charged and thus can become a strawman just like being comparing your view to Hitler. Your comment is not a fair representation of the pro-life message. Could you state it like you did? I suppose so, but then I can state your message as ranking humans like Hitler did. While accurate it doesn't really protray the actual view very well and it comes across is a wrong way.",193049,1,4529,1,"I didn't make a strawman, I stated facts. Please reread my previous post. And yes, under Godwin's law, you lose the argument. Why do you respond with emotionally charged comments instead of answering the questions? I'm actuallly on here to learn something, not to insult people that don't agree with me. You and I have had this happen before where you jump to defensiveness where it is not needed.
Do you have a response for my last post? How was I hypocritical, and how did I misrepresent your position?","http://www.4forums.com/political/abortion-debates/6722-two-arguments.html",175931,21
"1-4529_27_21_1",4529,1,"2005-10-31 11:44:00",137,51,176005,"2005-10-31 09:08:00",193056,177,21,"How is this statement: ""You think the government has the right to impose mandantory gestation and forced childbirth"" emotionally charged? Isn't that exactly what anti-choice people work for? Isn't that exactly what will happen if the anti-choice sentiments make it into law?
On the other hand, I, as a pro-choice person, do not work for ""ranking humans as Hitler did"". That is the emotional response. If you want to go head to head with facts, you'd be better off with a statement like ""you (I) believe that women have the right to kill their offspring as they grow inside of them"". I would go along with this, as would (I think) almost every pro-choice person.
I could give you an example of an emotionally charged statement that is anti-choice in nature, but they involve cattle and deities and all kinds of stuff we've heard before. :) I'm trying to avoid it.",193050,1,4529,1,"If you didn't mean to misrepresent me then I am sorry.
However, stating ""You think the government has the right to impose mandantory gestation and forced childbirth "" is emotionally charged and thus can become a strawman just like being comparing your view to Hitler. Your comment is not a fair representation of the pro-life message. Could you state it like you did? I suppose so, but then I can state your message as ranking humans like Hitler did. While accurate it doesn't really protray the actual view very well and it comes across is a wrong way.","http://www.4forums.com/political/abortion-debates/6722-two-arguments.html",175936,27
"1-4529_29_27_1",4529,1,"2005-10-31 12:05:00",51,137,176016,"2005-10-31 11:44:00",193058,127,27,"It is emotional to say ""government forcing..."" because you are trying to make pro-life something it is not. THe whole purpose of you stating it the way you did was to get an emotional response. The fact that you think it is just about having the government force things upon people shows that you don't get our position. I really mean this too. If anything, atleast understand our position as I try to understand yours. I realize your position is not all about ""ranking people"" but if I did then this would show how I don't understand your postition at all. Perhaps you would like me to PM you what pro-life is really about.",193056,1,4529,1,"How is this statement: ""You think the government has the right to impose mandantory gestation and forced childbirth"" emotionally charged? Isn't that exactly what anti-choice people work for? Isn't that exactly what will happen if the anti-choice sentiments make it into law?
On the other hand, I, as a pro-choice person, do not work for ""ranking humans as Hitler did"". That is the emotional response. If you want to go head to head with facts, you'd be better off with a statement like ""you (I) believe that women have the right to kill their offspring as they grow inside of them"". I would go along with this, as would (I think) almost every pro-choice person.
I could give you an example of an emotionally charged statement that is anti-choice in nature, but they involve cattle and deities and all kinds of stuff we've heard before. :) I'm trying to avoid it.","http://www.4forums.com/political/abortion-debates/6722-two-arguments.html",176005,29
"1-4529_35_29_1",4529,1,"2005-10-31 15:44:00",137,51,176090,"2005-10-31 12:05:00",193064,128,29,"Isn't that the result of the pro-life movement (""gov't imposing..."") ? And no, the whole purpose of stating it that way was not to get an emotional response. It is factual and what will happen if anti-choice gets it's way. 
I understand that that is not what the anti-choice/pro-life movement is about, it's about preserving life, but that is the end result regardless. Just like the pro-choice view isn't about killing feti, it's about choice, but that is the end result regardless. No one 'wins'.
You are more than welcome to PM, but I think others would benefit from hearing your points as well. Thanx! :)",193058,1,4529,1,"It is emotional to say ""government forcing..."" because you are trying to make pro-life something it is not. THe whole purpose of you stating it the way you did was to get an emotional response. The fact that you think it is just about having the government force things upon people shows that you don't get our position. I really mean this too. If anything, atleast understand our position as I try to understand yours. I realize your position is not all about ""ranking people"" but if I did then this would show how I don't understand your postition at all. Perhaps you would like me to PM you what pro-life is really about.","http://www.4forums.com/political/abortion-debates/6722-two-arguments.html",176016,35
"1-4529_42_35_1",4529,1,"2005-10-31 16:04:00",51,137,176109,"2005-10-31 15:44:00",193071,97,35,"Well if you want the end result of pro-life to be ""government imposing"" then my end result for pro-chioce will be ranking humans like Hitler did. Your end result will always be ranking one human over another.

But why do I have accept the consequences of my position but you don't have to accept yours? You want the government to support the killing of innocent humans and you want the government (and others) to rank peoples worth. I've accepted my strawman consequence..will you do the same?",193064,1,4529,1,"Isn't that the result of the pro-life movement (""gov't imposing..."") ? And no, the whole purpose of stating it that way was not to get an emotional response. It is factual and what will happen if anti-choice gets it's way. 
I understand that that is not what the anti-choice/pro-life movement is about, it's about preserving life, but that is the end result regardless. Just like the pro-choice view isn't about killing feti, it's about choice, but that is the end result regardless. No one 'wins'.
You are more than welcome to PM, but I think others would benefit from hearing your points as well. Thanx! :)","http://www.4forums.com/political/abortion-debates/6722-two-arguments.html",176090,42
"1-4529_28_26_2",4529,1,"2005-10-31 11:58:00",51,303,176014,"2005-10-31 11:43:00",193057,75,26,"I'm not sure how else you could answer it. The fact that you fail to see this is your own fault. A typical pro-choice pro-abortion way of doing things I suppose emoticonXRolleyes 
Lets try a third. You could state a consequence of pro-life as saying forced childbirth much the same way you could state pro-choice as forced human ranking like what Hitler did.
Maybe this time you won't be so arrogant",193055,2,4529,1,"Steeeeve:
So, I was correct all along, you side stepped the question and the issue as the whether one of the consequences of the pro-life, anti-abortion position is mandatory gestation and forced childbirth. No problem. It is typical of pro-life anti-abortion proponents.","http://www.4forums.com/political/abortion-debates/6722-two-arguments.html",176004,28
"1-4529_31_28_2",4529,1,"2005-10-31 12:19:00",303,51,176020,"2005-10-31 11:58:00",193060,8,28,"Still avoiding the question. No problem.",193057,2,4529,1,"I'm not sure how else you could answer it. The fact that you fail to see this is your own fault. A typical pro-choice pro-abortion way of doing things I suppose emoticonXRolleyes 
Lets try a third. You could state a consequence of pro-life as saying forced childbirth much the same way you could state pro-choice as forced human ranking like what Hitler did.
Maybe this time you won't be so arrogant","http://www.4forums.com/political/abortion-debates/6722-two-arguments.html",176014,31
"1-4529_38_31_2",4529,1,"2005-10-31 15:56:00",51,303,176099,"2005-10-31 12:19:00",193067,22,31,"You are avoiding the question Howard, not me. Why don't you answer it already and stop being a hypocrite.",193060,2,4529,1,"Still avoiding the question. No problem.","http://www.4forums.com/political/abortion-debates/6722-two-arguments.html",176020,38
"1-4529_41_38_2",4529,1,"2005-10-31 16:03:00",303,51,176108,"2005-10-31 15:56:00",193070,91,38,"Brilliant tactic, Steeeeve, you don't ask anything and then you accuse people of not answering the never-asked question... all the while you are running from the fact that you are the one who did not anwer the question asked of you. I have been on this merry-go-round with you before. I pose the question again.
Do you believe that a government should impose compulsory gestation and forced parturition?
I love to see you twist and turn and avoid. It is great entertainment.",193067,2,4529,1,"You are avoiding the question Howard, not me. Why don't you answer it already and stop being a hypocrite.","http://www.4forums.com/political/abortion-debates/6722-two-arguments.html",176099,41
"1-4529_44_41_2",4529,1,"2005-10-31 16:16:00",51,303,176114,"2005-10-31 16:03:00",193073,240,41,"Sorry Mr. Beale, this will be the FOURTH time I have answered this question. You accuse me of not ""ask(ing) anything and then you accuse people of not answering the never-asked question"" but you did the same thing

http://4forums.com/political/showpost.php?p=175733&postcount=9
However, before this there was neither a question by you nor a question by ANYONE but me in the second post on this thread. Stop lying to us Beale and get your facts straight.
So for the fourth time I will answer the question (which was asked four different ways), a consequence of pro-life would be for the government (for the most part) to force the mother not to kill her own child.
Lets recap how many times I have said this:
1)""Could you state it like you did? I suppose so""
http://4forums.com/political/showpost.php?p=175936&postcount=21
2)http://4forums.com/political/showpos...0&postcount=23
3) http://4forums.com/political/showpos...0&postcount=25
4) ""You could state a consequence of pro-life as saying forced childbirth""
http://4forums.com/political/showpost.php?p=176014&postcount=28
So it seems you are being somewhat of a liar to say I never answered the question that was asked some 3-4 different ways. If you ask me again I will not answer because I believe I have spent enough time explaining how I have. If you are too ignorant to see that, then it's your own fault.",193070,2,4529,1,"Brilliant tactic, Steeeeve, you don't ask anything and then you accuse people of not answering the never-asked question... all the while you are running from the fact that you are the one who did not anwer the question asked of you. I have been on this merry-go-round with you before. I pose the question again.
Do you believe that a government should impose compulsory gestation and forced parturition?
I love to see you twist and turn and avoid. It is great entertainment.","http://www.4forums.com/political/abortion-debates/6722-two-arguments.html",176108,44
"1-4529_46_44_2",4529,1,"2005-10-31 16:34:00",303,51,176127,"2005-10-31 16:16:00",193075,80,44,"Steeeeve:I am stunned. In a single paragraph you say you will answer the question for the fourth time and then you proceed to avoid it. The question remains: 
Do you believe that a government should impose compulsory gestation and forced parturition?
You claim that the following is your fourth answer:

You then call me a liar on several occasions. Your tactic of personal attack is not going to work, Steeeeve.",193073,2,4529,1,"Sorry Mr. Beale, this will be the FOURTH time I have answered this question. You accuse me of not ""ask(ing) anything and then you accuse people of not answering the never-asked question"" but you did the same thing

http://4forums.com/political/showpost.php?p=175733&postcount=9
However, before this there was neither a question by you nor a question by ANYONE but me in the second post on this thread. Stop lying to us Beale and get your facts straight.
So for the fourth time I will answer the question (which was asked four different ways), a consequence of pro-life would be for the government (for the most part) to force the mother not to kill her own child.
Lets recap how many times I have said this:
1)""Could you state it like you did? I suppose so""
http://4forums.com/political/showpost.php?p=175936&postcount=21
2)http://4forums.com/political/showpos...0&postcount=23
3) http://4forums.com/political/showpos...0&postcount=25
4) ""You could state a consequence of pro-life as saying forced childbirth""
http://4forums.com/political/showpost.php?p=176014&postcount=28
So it seems you are being somewhat of a liar to say I never answered the question that was asked some 3-4 different ways. If you ask me again I will not answer because I believe I have spent enough time explaining how I have. If you are too ignorant to see that, then it's your own fault.","http://www.4forums.com/political/abortion-debates/6722-two-arguments.html",176114,46
"1-4529_43_42_3",4529,1,"2005-10-31 16:13:00",303,51,176113,"2005-10-31 16:04:00",193072,38,42,"Steeeeve:

Because that is what grownups do, Steeeeve, accept the consequences of our words and actions. We don’t avoid the hard questions, we face them and address them.",193071,3,4529,1,"Well if you want the end result of pro-life to be ""government imposing"" then my end result for pro-chioce will be ranking humans like Hitler did. Your end result will always be ranking one human over another.

But why do I have accept the consequences of my position but you don't have to accept yours? You want the government to support the killing of innocent humans and you want the government (and others) to rank peoples worth. I've accepted my strawman consequence..will you do the same?","http://www.4forums.com/political/abortion-debates/6722-two-arguments.html",176109,43
"1-4529_45_43_3",4529,1,"2005-10-31 16:19:00",51,303,176116,"2005-10-31 16:13:00",193074,67,43,"Look as you selectivly quoting again.
I want everyone to how you mis-represent just about everything...


Besides the disregard for forum rules, you are just flat out lying. And once again, you ""avoid the question""
I hope my fellow forum posters will read this and realize that mis-quoting is wrong and I hope they will condemn what you do.",193072,3,4529,1,"Steeeeve:

Because that is what grownups do, Steeeeve, accept the consequences of our words and actions. We don’t avoid the hard questions, we face them and address them.","http://www.4forums.com/political/abortion-debates/6722-two-arguments.html",176113,45
"1-4529_47_45_3",4529,1,"2005-10-31 16:36:00",303,51,176129,"2005-10-31 16:19:00",193076,93,45,"Grownups take responsibility whether others do or not. That was the point of my quoting you and my response. I quoted the only relevant phrase, “But why do I have accept the consequences of my position” the ‘but’ doesn’t matter. Grownups accept the consequences of their positions no ifs, ands, or buts. 
As far as calling me a liar on numerous occasions, I suggest you stop slandering me.",193074,3,4529,1,"Look as you selectivly quoting again.
I want everyone to how you mis-represent just about everything...


Besides the disregard for forum rules, you are just flat out lying. And once again, you ""avoid the question""
I hope my fellow forum posters will read this and realize that mis-quoting is wrong and I hope they will condemn what you do.","http://www.4forums.com/political/abortion-debates/6722-two-arguments.html",176116,47
"1-4529_48_47_3",4529,1,"2005-10-31 16:40:00",51,303,176130,"2005-10-31 16:36:00",193077,74,47,"Well if the shoe fits....
You mis-quote me, say I didn't answer question, and misrepresent my position. That qualifies as a liar to me (but I am not going to say you are one). Not only this, but it looks hypocritical if you are not answering any of my questions.
I will ask it again. 
Do you believe in ranking humans like Hitler?",193076,3,4529,1,"Grownups take responsibility whether others do or not. That was the point of my quoting you and my response. I quoted the only relevant phrase, “But why do I have accept the consequences of my position” the ‘but’ doesn’t matter. Grownups accept the consequences of their positions no ifs, ands, or buts. 
As far as calling me a liar on numerous occasions, I suggest you stop slandering me.","http://www.4forums.com/political/abortion-debates/6722-two-arguments.html",176129,48
"1-4529_51_48_3",4529,1,"2005-10-31 16:51:00",303,51,176136,"2005-10-31 16:40:00",193080,142,48,"I never said that so I never thought you were posing the question to me, Steeeeve. The answer is No. I repeat No.
When I ask someone to repeat the question it is usually because I missed it in the postings or didn’t understand it.
You’re use of the word liar is a personal attack and should stop. I quote what you said that I responded to. I clarified it in an additional post at your request. Your tactic of personal attack to distract from the weakness of some of your positions won’t work Steeeeve. It is very transparent. And before you start accusing me again, why not ask pertinent questions or make substantive statements and request replies?",193077,3,4529,1,"Well if the shoe fits....
You mis-quote me, say I didn't answer question, and misrepresent my position. That qualifies as a liar to me (but I am not going to say you are one). Not only this, but it looks hypocritical if you are not answering any of my questions.
I will ask it again. 
Do you believe in ranking humans like Hitler?","http://www.4forums.com/political/abortion-debates/6722-two-arguments.html",176130,51
"1-4529_52_51_3",4529,1,"2005-10-31 17:00:00",51,303,176137,"2005-10-31 16:51:00",193081,188,51,"So you admit that when you said 

http://4forums.com/political/showpos...33&postcount=9
You really didn't know if I was avoiding the question or rather missed it/misunderstood it?

If you admit that you did not intend to misrepresent my post then in my next post I will correct myself in saying you were mistaken and not lying. However, there is a difference when someone says ""I don't believe I should have to accept the consequences of my position "" and ""why should I have accept the consequences of my position when you don't do the same yourself"". The second implies that the other person is making a double standard and does not imply (or say) that I don't believe I should accept the consequences of my position. You clearly made it seem like I don't believe in accepting the consequences of my position and thus it seemed to purposly mispresent my position..or lie as it is commonly called. If you can't see how it is twisting the facts then maybe you shouldn't be posting on these forums.",193080,3,4529,1,"I never said that so I never thought you were posing the question to me, Steeeeve. The answer is No. I repeat No.
When I ask someone to repeat the question it is usually because I missed it in the postings or didn’t understand it.
You’re use of the word liar is a personal attack and should stop. I quote what you said that I responded to. I clarified it in an additional post at your request. Your tactic of personal attack to distract from the weakness of some of your positions won’t work Steeeeve. It is very transparent. And before you start accusing me again, why not ask pertinent questions or make substantive statements and request replies?","http://www.4forums.com/political/abortion-debates/6722-two-arguments.html",176136,52
"1-4529_54_52_3",4529,1,"2005-10-31 17:12:00",303,51,176140,"2005-10-31 17:00:00",193083,43,52,"At your request I clarified my statement. At your request I will clarify further by stating I did not intend, nor did I try to misrepresent your post.
Will you apologize for slandering me by calling me a liar?",193081,3,4529,1,"So you admit that when you said 

http://4forums.com/political/showpos...33&postcount=9
You really didn't know if I was avoiding the question or rather missed it/misunderstood it?

If you admit that you did not intend to misrepresent my post then in my next post I will correct myself in saying you were mistaken and not lying. However, there is a difference when someone says ""I don't believe I should have to accept the consequences of my position "" and ""why should I have accept the consequences of my position when you don't do the same yourself"". The second implies that the other person is making a double standard and does not imply (or say) that I don't believe I should accept the consequences of my position. You clearly made it seem like I don't believe in accepting the consequences of my position and thus it seemed to purposly mispresent my position..or lie as it is commonly called. If you can't see how it is twisting the facts then maybe you shouldn't be posting on these forums.","http://www.4forums.com/political/abortion-debates/6722-two-arguments.html",176137,54
"1-4529_56_54_3",4529,1,"2005-10-31 17:16:00",51,303,176146,"2005-10-31 17:12:00",193085,40,54,"It would be nice for you to re-quote me in previous posts...but since you say you did not try to misrepresent me, I will take your word on this and apologize for assuming you were lying.",193083,3,4529,1,"At your request I clarified my statement. At your request I will clarify further by stating I did not intend, nor did I try to misrepresent your post.
Will you apologize for slandering me by calling me a liar?","http://www.4forums.com/political/abortion-debates/6722-two-arguments.html",176140,56
