"key","quote_source_post_discussion_id","posts_dataset_id","posts_timestamp","posts_author_id","quote_source_author_id","posts_native_post_id","quote_source_timestamp","post_text_id","Word_Count","quote_source_post_id","post_text","quote_source_text_id","Dialog_Turn","posts_discussion_id","quote_source_post_dataset_id","Fullquote_text","discussion_url","quote_source_native_post_id","posts_post_id"
"1-4544_33_32_1",4544,1,"2005-11-07 09:39:00",55,51,177701,"2005-11-07 08:43:00",193609,86,32,"""faith"" is believing in something in spite of the lack of evidence for it or the evidence against it. with logic, you believe in something because the evidence for it exists. logic is based on the predictable and consistent, faith is not. this is also why the amount of faith required to believe something varies as more evidence is added or removed. when you believe in somthing that is fully supported by evidence, no faith is required",193608,1,4544,1,"Every view is taken on faith my friend. Even your ""reasoning"" is based on logic that is taken on faith.","http://www.4forums.com/political/abortion-debates/6744-why-we-post-here.html",177691,33
"1-4544_35_33_1",4544,1,"2005-11-07 10:34:00",51,55,177720,"2005-11-07 09:39:00",193611,66,33,"No, logic is based on faith as well. you say a=b and b=c therefore a=c. But all of this is a faith that a,b, and c exists and that ""equals"" exists. In logic you are accepting a very basic premise and coming up with conclusions based on that faith based premise.",193609,1,4544,1,"""faith"" is believing in something in spite of the lack of evidence for it or the evidence against it. with logic, you believe in something because the evidence for it exists. logic is based on the predictable and consistent, faith is not. this is also why the amount of faith required to believe something varies as more evidence is added or removed. when you believe in somthing that is fully supported by evidence, no faith is required","http://www.4forums.com/political/abortion-debates/6744-why-we-post-here.html",177701,35
"1-4544_37_35_1",4544,1,"2005-11-07 11:35:00",55,51,177743,"2005-11-07 10:34:00",193613,55,35,"i can verify that a, b and c exists, and the concept of ""equal"" is both testable and consistently predictable. if 2 things are equal, they are the same. in mathematics, 2 equal things are of the same quantity. quantities are measureable. no faith required",193611,1,4544,1,"No, logic is based on faith as well. you say a=b and b=c therefore a=c. But all of this is a faith that a,b, and c exists and that ""equals"" exists. In logic you are accepting a very basic premise and coming up with conclusions based on that faith based premise.","http://www.4forums.com/political/abortion-debates/6744-why-we-post-here.html",177720,37
"1-4544_41_37_1",4544,1,"2005-11-07 12:06:00",51,55,177763,"2005-11-07 11:35:00",193617,33,37,"Like Beale said...you believe in the basics as being true...you can't prove they are in fact true. How you prove 'a' exists? You don't.",193613,1,4544,1,"i can verify that a, b and c exists, and the concept of ""equal"" is both testable and consistently predictable. if 2 things are equal, they are the same. in mathematics, 2 equal things are of the same quantity. quantities are measureable. no faith required","http://www.4forums.com/political/abortion-debates/6744-why-we-post-here.html",177743,41
"1-4544_42_41_1",4544,1,"2005-11-07 12:51:00",55,51,177780,"2005-11-07 12:06:00",193618,27,41,"dude, 'a' is a variable equal to a number i assign to it. if i say it exists, then it exists.",193617,1,4544,1,"Like Beale said...you believe in the basics as being true...you can't prove they are in fact true. How you prove 'a' exists? You don't.","http://www.4forums.com/political/abortion-debates/6744-why-we-post-here.html",177763,42
"1-4544_47_42_1",4544,1,"2005-11-07 19:53:00",51,55,177837,"2005-11-07 12:51:00",193623,49,42,"Just because you say so doesn't mean it is. ""I say there is a God""....I guess it must be true if we apply your standard. Just face it. You have faith in something even if you don't realize that you do.",193618,1,4544,1,"dude, 'a' is a variable equal to a number i assign to it. if i say it exists, then it exists.","http://www.4forums.com/political/abortion-debates/6744-why-we-post-here.html",177780,47
"1-4544_48_47_1",4544,1,"2005-11-08 05:34:00",55,51,177870,"2005-11-07 19:53:00",193624,152,47,"consider the sentence: ""the cow jumped over the moon."" this is sentence exists, because it exists in my mind. the proof that the sentence exists is the expression of the sentence as you just read it.
concepts, by nature, need no physical manifestation in order to exist. its a concept, and it exists the moment it is thought in the mind of anybody. a=b is a concept. both a and b exist, because they exist in my mind, and are defined in my mind as variable quanties of equal value. the proof that a and b exists is the expression i just wrote. no faith required
not everything works this way. god is not defined as a concept, so god cannot be proven to exist simply by expressing that he exists.",193623,1,4544,1,"Just because you say so doesn't mean it is. ""I say there is a God""....I guess it must be true if we apply your standard. Just face it. You have faith in something even if you don't realize that you do.","http://www.4forums.com/political/abortion-debates/6744-why-we-post-here.html",177837,48
"1-4544_52_48_1",4544,1,"2005-11-08 07:50:00",51,55,177894,"2005-11-08 05:34:00",193628,72,48,"Just like a and b. You just say you thought of it. Well, if I don't think a=b does this mean it doesn't exist? To a newborn they don't know what a or b are. They only exist so much as you have faith in their existence. You have faith in numbers and expressions...thats fine. You can't prove them at all.",193624,1,4544,1,"consider the sentence: ""the cow jumped over the moon."" this is sentence exists, because it exists in my mind. the proof that the sentence exists is the expression of the sentence as you just read it.
concepts, by nature, need no physical manifestation in order to exist. its a concept, and it exists the moment it is thought in the mind of anybody. a=b is a concept. both a and b exist, because they exist in my mind, and are defined in my mind as variable quanties of equal value. the proof that a and b exists is the expression i just wrote. no faith required
not everything works this way. god is not defined as a concept, so god cannot be proven to exist simply by expressing that he exists.","http://www.4forums.com/political/abortion-debates/6744-why-we-post-here.html",177870,52
"1-4544_54_52_1",4544,1,"2005-11-08 09:36:00",55,51,177915,"2005-11-08 07:50:00",193630,95,52,"lol a exists because i think about it. you not thinking about a doesnt cause it to stop existing. the proof that a exists is the same as the proof that a sentence, song, image or shape exists. it exists as long as a single mind thinks it up. and it proven to exist when it is expressed in a way that is communicable to another mind. 
squares exist. the scale of C exists. the sentence ""hello, world"" exists. no faith required",193628,1,4544,1,"Just like a and b. You just say you thought of it. Well, if I don't think a=b does this mean it doesn't exist? To a newborn they don't know what a or b are. They only exist so much as you have faith in their existence. You have faith in numbers and expressions...thats fine. You can't prove them at all.","http://www.4forums.com/political/abortion-debates/6744-why-we-post-here.html",177894,54
"1-4544_32_28_2",4544,1,"2005-11-07 08:43:00",51,1142,177691,"2005-11-06 16:45:00",193608,24,28,"Every view is taken on faith my friend. Even your ""reasoning"" is based on logic that is taken on faith.",193604,2,4544,1,"Since no belief system so far has been able to show any proof, no one belief system can be objectively claimed to be more valid than another - thus, they are all taken on faith, not proof. I think we agree that, since none can offer proof, laws should not be based on any one of them but purely on objective reasoning.","http://www.4forums.com/political/abortion-debates/6744-why-we-post-here.html",177610,32
"1-4544_34_32_2",4544,1,"2005-11-07 10:32:00",1142,51,177719,"2005-11-07 08:43:00",193610,183,32,"As a scientist, I usually assume that generally accepted scientific views are correct since they have a preponderance of proof, unlike religious views that depend on leaps of faith. By ""reasoning"", I refer to logical reasoning that does not need leaps of faith to understand or accept their veracity.
That does not mean that I do not take religious leaps of faith - I do, though they are often hard to reconcile with scientific beliefs. However, I strongly believe that, in making laws that affect all people (not just those of a particular belief system), the reasoning behind these laws cannot include leaps of faith but be logically based on proveable concepts.
On another subject:
Does this mean that pro-lifers would be willing to compromise if exceptions for ""women's health"" were more narrowly defined? Here, I'm talking about compromises that would leave first-trimester abortions up to the mother's choice, and restrict only third (and possibly also second) trimester abortions.",193608,2,4544,1,"Every view is taken on faith my friend. Even your ""reasoning"" is based on logic that is taken on faith.","http://www.4forums.com/political/abortion-debates/6744-why-we-post-here.html",177691,34
"1-4544_36_34_2",4544,1,"2005-11-07 10:38:00",51,1142,177723,"2005-11-07 10:32:00",193612,110,34,"Science is faith as well. You first have faith that experiments (etc) done in the based are correct. You also have a faith in existence. Science has just as many assumptions as religion does. In fact if we want to use logic then a logic mind would choose to believe in God. Unless you can explain to me the beginning you have taken large leaps of faith. Religion just happens to explain them while logic does not...and science uses the ""big bang theory"" which is aboug as much of a leap as the religious way.

No.",193610,2,4544,1,"As a scientist, I usually assume that generally accepted scientific views are correct since they have a preponderance of proof, unlike religious views that depend on leaps of faith. By ""reasoning"", I refer to logical reasoning that does not need leaps of faith to understand or accept their veracity.
That does not mean that I do not take religious leaps of faith - I do, though they are often hard to reconcile with scientific beliefs. However, I strongly believe that, in making laws that affect all people (not just those of a particular belief system), the reasoning behind these laws cannot include leaps of faith but be logically based on proveable concepts.
On another subject:
Does this mean that pro-lifers would be willing to compromise if exceptions for ""women's health"" were more narrowly defined? Here, I'm talking about compromises that would leave first-trimester abortions up to the mother's choice, and restrict only third (and possibly also second) trimester abortions.","http://www.4forums.com/political/abortion-debates/6744-why-we-post-here.html",177719,36
"1-4544_44_36_2",4544,1,"2005-11-07 14:21:00",1142,51,177797,"2005-11-07 10:38:00",193620,244,36,"Everything is a matter of degree. The assumption that the world exists (as opposed to the idea that we are dreaming all of this) is a basic assumption that everyone in the world makes in order to survive. Even those who ponder its non-existence have to assume its existence to run their everyday lives, so denial of such basic things as the existence of the world or the existence of ""equals"" (which is an abstract concept devised by man, not an object - so its existence is automatic) is merely an academic exercise with no basis in reality.
We have to have basic assumptions that what we observe is reality in order to live. Science is based on observeable experience and bad science is usually eventually weeded out through peer review. Religious faith simply makes assumptions without demanding any observeable proof or even self-consistency. Everything is explained by the convenient reason that God is all-powerful and that we cannot know his purposes. 
If God actually did speak to me directly, then I might also believe in the improbable scenarios that most religious beliefs hold. Otherwise, we simply have the word of man that is supposed to be the word of God. Most of the time, given the corruptibility of human nature, I remain very skeptical when someone claims to know God's will.",193612,2,4544,1,"Science is faith as well. You first have faith that experiments (etc) done in the based are correct. You also have a faith in existence. Science has just as many assumptions as religion does. In fact if we want to use logic then a logic mind would choose to believe in God. Unless you can explain to me the beginning you have taken large leaps of faith. Religion just happens to explain them while logic does not...and science uses the ""big bang theory"" which is aboug as much of a leap as the religious way.

No.","http://www.4forums.com/political/abortion-debates/6744-why-we-post-here.html",177723,44
"1-4544_46_44_2",4544,1,"2005-11-07 19:52:00",51,1142,177836,"2005-11-07 14:21:00",193622,18,44,"All this to say we have basic assumptions...you mean like a faith in something? emoticonXRolleyes",193620,2,4544,1,"Everything is a matter of degree. The assumption that the world exists (as opposed to the idea that we are dreaming all of this) is a basic assumption that everyone in the world makes in order to survive. Even those who ponder its non-existence have to assume its existence to run their everyday lives, so denial of such basic things as the existence of the world or the existence of ""equals"" (which is an abstract concept devised by man, not an object - so its existence is automatic) is merely an academic exercise with no basis in reality.
We have to have basic assumptions that what we observe is reality in order to live. Science is based on observeable experience and bad science is usually eventually weeded out through peer review. Religious faith simply makes assumptions without demanding any observeable proof or even self-consistency. Everything is explained by the convenient reason that God is all-powerful and that we cannot know his purposes. 
If God actually did speak to me directly, then I might also believe in the improbable scenarios that most religious beliefs hold. Otherwise, we simply have the word of man that is supposed to be the word of God. Most of the time, given the corruptibility of human nature, I remain very skeptical when someone claims to know God's will.","http://www.4forums.com/political/abortion-debates/6744-why-we-post-here.html",177797,46
"1-4544_50_46_2",4544,1,"2005-11-08 07:10:00",1142,51,177885,"2005-11-07 19:52:00",193626,195,46,"You seem to be saying that an assumption that the world exists is the same level of assumption as saying that God created the world and man, Adam and Eve were the original parents of all mankind, earthquakes happen due to God's wrath, etc. These are very different levels of assumptions. One (the existence of the world) is consistent with every experience all humans have ever had. The other (religious dogma) lies purely in the realm of people's imaginations - i.e. No one can demonstrate that any of it is true, it is only assumed as true and imagined, not experienced. 
Basically, the only way we can know the truth (as opposed to simply guessing it) is to experience it. Most things we know do come from the experience of others - where I trust scientists, you trust ancient sources written by men and the interpretation of modern men as to what they mean. The very large advantage of trusting scientists is that they show proof and this proof can be demonstrated time and time again.",193622,2,4544,1,"All this to say we have basic assumptions...you mean like a faith in something? emoticonXRolleyes","http://www.4forums.com/political/abortion-debates/6744-why-we-post-here.html",177836,50
