"key","quote_source_post_discussion_id","posts_dataset_id","posts_timestamp","posts_author_id","quote_source_author_id","posts_native_post_id","quote_source_timestamp","post_text_id","Word_Count","quote_source_post_id","post_text","quote_source_text_id","Dialog_Turn","posts_discussion_id","quote_source_post_dataset_id","Fullquote_text","discussion_url","quote_source_native_post_id","posts_post_id"
"1-4586_25_24_1",4586,1,"2005-11-16 06:57:00",1142,161,179663,"2005-11-16 03:04:00",195435,127,24,"Yes, in the absolute sense, the existence of the 'external world' is not proved. However, in the practical sense, all of us, including yourself, live as if the external world is proved and nothing has proven us wrong yet. Every experience we and all humanity have had is consistent with that, so we have no reason to doubt the existence of the external world. Ultimately, it would be extremely arrogant for any of us to believe that existence is only composed of our own minds. I am guessing that your doubts are simply doubts as to what that external world is really composed of and whether our senses are reading it correctly.",195434,1,4586,1,"No, it's simply that people often claim the existence of some sort of 'external world' is proved, when all statements about matter are simply statements about how our sense data is ordered.","http://www.4forums.com/political/abortion-debates/6811-metaphysical-discussions.html",179634,25
"1-4586_26_25_1",4586,1,"2005-11-16 09:34:00",161,1142,179696,"2005-11-16 06:57:00",195436,131,25,"To be fair, all our experiences are also consistent with other scenarios, such as demonic deception, that we find less palatble, or seem more unrealistic.
I think the claim that it would be 'arrogant' to think that existence is our own minds is strange... when trying to reach truth this shouldn't be a consideration. An atheist might call a religious person arrogant for thinking that the supreme being cares about them, and a religious person might call an atheist arrogant for 'denying God' or 'thinking there's nothing higher than them'. The philosophic position of solipsism is not the same as mere arrogance, although I know some who claim one who are merely the other.",195435,1,4586,1,"Yes, in the absolute sense, the existence of the 'external world' is not proved. However, in the practical sense, all of us, including yourself, live as if the external world is proved and nothing has proven us wrong yet. Every experience we and all humanity have had is consistent with that, so we have no reason to doubt the existence of the external world. Ultimately, it would be extremely arrogant for any of us to believe that existence is only composed of our own minds. I am guessing that your doubts are simply doubts as to what that external world is really composed of and whether our senses are reading it correctly.","http://www.4forums.com/political/abortion-debates/6811-metaphysical-discussions.html",179663,26
"1-4586_27_26_1",4586,1,"2005-11-16 10:14:00",1142,161,179705,"2005-11-16 09:34:00",195437,168,26,"However, there is nothing in our experiences which suggests that it is a demonic deception. As long as there is nothing to support it, it remains one of an infinite number of possible theories. We generally have to work with what we have.
Demonic posession also assumes an external existence (namely, at least the existence of the demon), so does the Matrix scenario (in the existence of the machine world). The only way that an external world would not exist - only our own single and solitary mind - would be if we were self-deceiving and self-created (or always existed) - essentially god-like characteristics which, yes, I still would consider arrogant. I am not saying that the idea of alternate versions of existence is an arrogant idea, just the idea that we are the only thing that exists is arrogant since its possibility would assume god-like qualities in ourselves.",195436,1,4586,1,"To be fair, all our experiences are also consistent with other scenarios, such as demonic deception, that we find less palatble, or seem more unrealistic.
I think the claim that it would be 'arrogant' to think that existence is our own minds is strange... when trying to reach truth this shouldn't be a consideration. An atheist might call a religious person arrogant for thinking that the supreme being cares about them, and a religious person might call an atheist arrogant for 'denying God' or 'thinking there's nothing higher than them'. The philosophic position of solipsism is not the same as mere arrogance, although I know some who claim one who are merely the other.","http://www.4forums.com/political/abortion-debates/6811-metaphysical-discussions.html",179696,27
"1-4586_28_27_1",4586,1,"2005-11-16 11:10:00",161,1142,179717,"2005-11-16 10:14:00",195438,92,27,"One of which is this idea of an 'outside world'. We generally have to work with what we have.
Well, by 'external' I was meaning apart from consciousness. The demon wouldn't necessarily exist physically. Another idea might be that we're one of many souls reaching closer to the truth of God or somesuch. The fact we have to think of these things in terms of an external world only shows how powerful a preconception it is, not that it's true.",195437,1,4586,1,"However, there is nothing in our experiences which suggests that itis a demonic deception. As long as there is nothing to support it, it remains one of an infinite number of possible theories.","http://www.4forums.com/political/abortion-debates/6811-metaphysical-discussions.html",179705,28
"1-4586_29_28_1",4586,1,"2005-11-16 11:42:00",1142,161,179732,"2005-11-16 11:10:00",195439,241,28,"What we have is the experiences of all humans where our senses tell of of an outside world. Our eyes tell us that there is a section of floor in front of us and, if we step on it, we will not fall to oblivion. Our senses tell us that the object we see in front of us will respond as if its real - we can touch it, etc. All of our senses are telling us that the things we see are real. Yes, our senses can deceive us, as in optical illusions or false images that people might see when mentally damaged. That's where the trust of mutual experience and investigation comes in. One person may have the mirage, but ten others will not, so one can recognize which one is imagining things. I haven't heard of any mutual experience that people have had that suggests that the outside world we believe exists indeed does not exist.
Yes, one scenario is a non-physical existence. However, once again, none of our mutual experiences have suggested that that is the case. That doesn't mean that it isn't, just that it has no support in human experience (which is the only means we as humans have of finding out about our world, besides the unreliable means of imagination).",195438,1,4586,1,"One of which is this idea of an 'outside world'. We generally have to work with what we have.
Well, by 'external' I was meaning apart from consciousness. The demon wouldn't necessarily exist physically. Another idea might be that we're one of many souls reaching closer to the truth of God or somesuch. The fact we have to think of these things in terms of an external world only shows how powerful a preconception it is, not that it's true.","http://www.4forums.com/political/abortion-debates/6811-metaphysical-discussions.html",179717,29
"1-4586_31_29_1",4586,1,"2005-11-17 05:53:00",161,1142,179878,"2005-11-16 11:42:00",195441,33,29,"Our experience doesn't tell us that there is a physical object. We seem to instinctively reach that conclusion, but no sense data can tell you what caused that sense data.",195439,1,4586,1,"What we have is the experiences of all humans where our senses tell of of an outside world. Our eyes tell us that there is a section of floor in front of us and, if we step on it, we will not fall to oblivion. Our senses tell us that the object we see in front of us will respond as if its real - we can touch it, etc. All of our senses are telling us that the things we see are real. Yes, our senses can deceive us, as in optical illusions or false images that people might see when mentally damaged. That's where the trust ofmutual experience and investigation comes in. One person may have the mirage, but ten others will not, so one can recognize which one is imagining things. I haven't heard of any mutual experience that people have had that suggests that the outside world we believe exists indeed does not exist.","http://www.4forums.com/political/abortion-debates/6811-metaphysical-discussions.html",179732,31
"1-4586_32_31_1",4586,1,"2005-11-17 07:20:00",1142,161,179896,"2005-11-17 05:53:00",195442,81,31,"Our sense data cannot tell us in an absolute sense that there is a real object, just that there appears to be a real object. All of the experiences of all humanity make it appear as if what we experience is real. Does that mean that it is absolutely real? Possibly not, but I would think that that possibility is small since NONE of our mutual experiences hint at those sensory inputs not being real.",195441,1,4586,1,"Our experience doesn't tell us that there is a physical object. We seem to instinctively reach that conclusion, but no sense data can tell you what caused that sense data.","http://www.4forums.com/political/abortion-debates/6811-metaphysical-discussions.html",179878,32
