"key","quote_source_post_discussion_id","posts_dataset_id","posts_timestamp","posts_author_id","quote_source_author_id","posts_native_post_id","quote_source_timestamp","post_text_id","Word_Count","quote_source_post_id","post_text","quote_source_text_id","Dialog_Turn","posts_discussion_id","quote_source_post_dataset_id","Fullquote_text","discussion_url","quote_source_native_post_id","posts_post_id"
"1-4594_74_62_1",4594,1,"2005-11-15 16:39:00",320,303,179601,"2005-11-15 10:01:00",195864,48,62,"Actually, there are exceptions to that statement. For example, a murderer that also causes the death of a fetus can be charged with a double homicide. Since that's possible, then there must be instances in which the State see abortion as murder.",195852,1,4594,1,"Sorry you misunderstood my post. I was simply stating that according to the law, abortion is not murder in the United States. That is a fact.
You are also correct that human slavery as well as indentured servitude are presently illegal in the US. Forcing a woman into compulsory gestation for months, a mandatory labor and a requisite birthing process is illegal as well. But in service to your personal beliefs I guess you think that it is acceptable.","http://www.4forums.com/political/abortion-debates/6821-im-christian-had-abortion.html",179496,74
"1-4594_75_74_1",4594,1,"2005-11-15 17:30:00",303,320,179609,"2005-11-15 16:39:00",195865,12,74,"There aren't. If you find any please let me know.",195864,1,4594,1,"Actually, there are exceptions to that statement. For example, a murderer that also causes the death of a fetus can be charged with a double homicide. Since that's possible, then there must be instances in which the State see abortion as murder.","http://www.4forums.com/political/abortion-debates/6821-im-christian-had-abortion.html",179601,75
"1-4594_78_75_1",4594,1,"2005-11-16 10:08:00",320,303,179704,"2005-11-15 17:30:00",195868,11,75,"Careful, your ignorance of the law is showing. :) 

",195865,1,4594,1,"There aren't. If you find any please let me know.","http://www.4forums.com/political/abortion-debates/6821-im-christian-had-abortion.html",179609,78
"1-4594_80_78_1",4594,1,"2005-11-16 14:56:00",303,320,179783,"2005-11-16 10:08:00",195870,20,78,"You are correct. I should have been clearer. I was speaking of abortion as a medical procedure.",195868,1,4594,1,"Careful, your ignorance of the law is showing. :) 

","http://www.4forums.com/political/abortion-debates/6821-im-christian-had-abortion.html",179704,80
"1-4594_82_80_1",4594,1,"2005-11-16 16:14:00",320,303,179794,"2005-11-16 14:56:00",195872,50,80,"Again, from my previous reference.
""Some of these laws do not contain exceptions for the woman or her doctor, which could possibly allow criminal proceedings for measures taken as a course of treatment (radiation treatment for cancer or antibiotics) or for abortion.""",195870,1,4594,1,"You are correct. I should have been clearer. I was speaking of abortion as a medical procedure.","http://www.4forums.com/political/abortion-debates/6821-im-christian-had-abortion.html",179783,82
"1-4594_83_82_1",4594,1,"2005-11-16 17:01:00",303,320,179815,"2005-11-16 16:14:00",195873,152,82,"There are many laws on the books that the Supreme Court has determined are unconstitutional. That is why you will hear legal scholars (even conservative ones like Justice John Roberts) say that Roe v. Wade is the law of the land. That is why you do not see any states prosecuting a woman for murder when she has had an abortion. There are also laws on the books (such as in Texas) against oral sex, interracial marriage and other things. A lot of the times state legislatures do not repeal all the specific laws that are rendered unconstitutional because of a Supreme Court decision. They just law fallow and are rendered useless. So technically you are right that the laws still exist, but legally they are not enforceable or technically legal -- which is what I was addressing.",195872,1,4594,1,"Again, from my previous reference.
""Some of these laws do not contain exceptions for the woman or her doctor, which could possibly allow criminal proceedings for measures taken as a course of treatment (radiation treatment for cancer or antibiotics) or for abortion.""","http://www.4forums.com/political/abortion-debates/6821-im-christian-had-abortion.html",179794,83
"1-4594_84_83_1",4594,1,"2005-11-16 18:23:00",320,303,179841,"2005-11-16 17:01:00",195874,60,83,"Rread the following link and you'll see that we aren't talking about archaic laws that just haven't been repealed. Many are recently enacted laws that probably haven't been enforced against abortions because the ""time"" wasn't right.
In PA, the law has been challenged on the basis of Roe v Wade and was upheld.

http://www.nrlc.org/Unborn_Victims/S...aws092302.html",195873,1,4594,1,"There are many laws on the books that the Supreme Court has determined are unconstitutional. That is why you will hear legal scholars (even conservative ones like Justice John Roberts) say that Roe v. Wade is the law of the land. That is why you do not see any states prosecuting a woman for murder when she has had an abortion. There are also laws on the books (such as in Texas) against oral sex, interracial marriage and other things. A lot of the times state legislatures do not repeal all the specific laws that are rendered unconstitutional because of a Supreme Court decision. They just law fallow and are rendered useless. So technically you are right that the laws still exist, but legally they are not enforceable or technically legal -- which is what I was addressing.","http://www.4forums.com/political/abortion-debates/6821-im-christian-had-abortion.html",179815,84
