"key","quote_source_post_discussion_id","posts_dataset_id","posts_timestamp","posts_author_id","quote_source_author_id","posts_native_post_id","quote_source_timestamp","post_text_id","Word_Count","quote_source_post_id","post_text","quote_source_text_id","Dialog_Turn","posts_discussion_id","quote_source_post_dataset_id","Fullquote_text","discussion_url","quote_source_native_post_id","posts_post_id"
"1-4944_57_56_1",4944,1,"2006-01-11 16:10:00",51,601,191583,"2006-01-11 16:08:00",209313,25,56,"I am actually impressed with your knowledge thus far in the constitution....do you see abortion as a right guarenteed by the constitution?",209312,1,4944,1,"No it isn't. The 9th Amendment doesn't enumerate any rights itself.","http://www.4forums.com/political/abortion-debates/7288-right-abortion-not-constiution.html",191581,57
"1-4944_97_57_1",4944,1,"2006-01-14 09:56:00",601,51,192207,"2006-01-11 16:10:00",209353,54,57,"No, I do not see it prohibited by the Constitution either. For me I wonder; is a woman's right to choose what she does with her body one of her liberties that is protected by the 14th Amendment since that liberty is not specifically prohibited anywhere else in the Constitution?",209313,1,4944,1,"I am actually impressed with your knowledge thus far in the constitution....do you see abortion as a right guarenteed by the constitution?","http://www.4forums.com/political/abortion-debates/7288-right-abortion-not-constiution.html",191583,97
"1-4944_98_97_1",4944,1,"2006-01-14 10:19:00",51,601,192211,"2006-01-14 09:56:00",209354,46,97,"I don't beleive that is up to a judge to decide. He doesn't get to define liberty. The only liberty that we know are the ones in the constitution. And abortion is not prohibited by the constitution, I agree with that.",209353,1,4944,1,"No, I do not see it prohibited by the Constitution either. For me I wonder; is a woman's right to choose what she does with her body one of her liberties that is protected by the 14th Amendment since that liberty is not specifically prohibited anywhere else in the Constitution?","http://www.4forums.com/political/abortion-debates/7288-right-abortion-not-constiution.html",192207,98
"1-4944_101_98_1",4944,1,"2006-01-14 10:54:00",601,51,192221,"2006-01-14 10:19:00",209357,6,98,"Is a liberty a right?",209354,1,4944,1,"I don't beleive that is up to a judge to decide. He doesn't get to define liberty. The only liberty that we know are the ones in the constitution. And abortion is not prohibited by the constitution, I agree with that.","http://www.4forums.com/political/abortion-debates/7288-right-abortion-not-constiution.html",192211,101
"1-4944_102_101_1",4944,1,"2006-01-14 11:07:00",51,601,192222,"2006-01-14 10:54:00",209358,183,101,"I think it is confussing to say liberty and liberties. I also have wondered if, when written, liberty meant ""to be free"" as it is commonly meant....as in you ""free"" as opposed to being a slave. This is more of a general liberty that doesn't really define much other than being free. This kind of fits with the other 2 which are life and property which seem to be general terms as well. You don't have a right to life no matter what. Even so you can have any of these taken away by Due Process of law. however, does liberty mean actual liberties as the courts now a days are thinking. IF this is true then there are certain liberties the constitution guarentees but what are they? I am not all certain this was the purpose of the word liberty. 
So maybe liberty is a right but a list of liberties to make up liberty is not.
I hope this makes sense.",209357,1,4944,1,"Is a liberty a right?","http://www.4forums.com/political/abortion-debates/7288-right-abortion-not-constiution.html",192221,102
"1-4944_103_102_1",4944,1,"2006-01-14 11:39:00",601,51,192225,"2006-01-14 11:07:00",209359,8,102,"What liberties are you referring to here?

",209358,1,4944,1,"I think it is confussing to say liberty and liberties. I also have wondered if, when written, liberty meant ""to be free"" as it is commonly meant....as in you ""free"" as opposed to being a slave. This is more of a general liberty that doesn't really define much other than being free. This kind of fits with the other 2 which are life and property which seem to be general terms as well. You don't have a right to life no matter what. Even so you can have any of these taken away by Due Process of law. however, does liberty mean actual liberties as the courts now a days are thinking. IF this is true then there are certain liberties the constitution guarentees but what are they? I am not all certain this was the purpose of the word liberty. 
So maybe liberty is a right but a list of liberties to make up liberty is not.
I hope this makes sense.","http://www.4forums.com/political/abortion-debates/7288-right-abortion-not-constiution.html",192222,103
"1-4944_36_33_2",4944,1,"2006-01-11 11:12:00",540,382,191494,"2006-01-11 10:34:00",209292,104,33,"I believe you are talking about the issue you raise in this thread. I'm fine with you discussing this issue in it's proper place (here perhaps), but I would prefer that you did not hijack this thread by injecting a discussion about homosexual marriage. The fact is, that irrespective of what the Constitution says about marriage, the fact doesn't change that the right to an abortion is not in the Constitution.
In case it's been forgotten, the topic of the thread is ""The Right to an Abortion is not in the Constitution.""",209289,2,4944,1,"What is intresting is that conservatives will argue that the right to an abortion is not in the constitution because the words are not physically there. Then turn around and argue that the words do not mean what they physically say in this case http://www.mass.gov/legis/const.htm#cart048.htm. It can not be both. Either one believes in the physical nature or the words or interprtation. Sounds like conservatives are trying to have it both ways when it comes to issues they believe in.","http://www.4forums.com/political/abortion-debates/7288-right-abortion-not-constiution.html",191475,36
"1-4944_39_36_2",4944,1,"2006-01-11 11:19:00",382,540,191499,"2006-01-11 11:12:00",209295,94,36,"I am not hyjacking this thread. I am pointing out the inconsistances of the conservative views on literal interpretation of the constitution; by using an example of where the constitution phisically says one thing but the conservatives say it doesn't mean what it physically says. I have a feeling that if the right to abortion was physically in the constitution the conservatives would argue that the words won't mean what they physically say. BTW if you read back my post makes a statement about the topic of this thread.",209292,2,4944,1,"I believe you are talking about the issue you raisein this thread. I'm fine with you discussing this issue in it's proper place (here perhaps), but I would prefer that you did not hijack this thread by injecting a discussion about homosexual marriage. 
In case it's been forgotten, the topic of the thread is ""The Right to an Abortion is not in the Constitution.""","http://www.4forums.com/political/abortion-debates/7288-right-abortion-not-constiution.html",191494,39
"1-4944_40_39_2",4944,1,"2006-01-11 11:28:00",540,382,191503,"2006-01-11 11:19:00",209296,51,39,"My point is that your point is moot. Regardless of what anyone thinks the Constitution says about whatever, it is an indisputable fact that the right to an abortion is not in the Constitution. In this case it does not matter if you are conservative or liberal.",209295,2,4944,1,"I am not hyjacking this thread. I am pointing out the inconsistances of the conservative views on literal interpretation of the constitution; by using an example of where the constitution phisically says one thing but the conservatives say it doesn't mean what it physically says. I have a feeling that if the right to abortion was physically in the constitution the conservatives would argue that the words won't mean what they physically say. BTW if you read back my post makes a statement about the topic of this thread.","http://www.4forums.com/political/abortion-debates/7288-right-abortion-not-constiution.html",191499,40
"1-4944_44_40_2",4944,1,"2006-01-11 11:35:00",382,540,191508,"2006-01-11 11:28:00",209300,7,40,"So there is no discussion allowed?",209296,2,4944,1,"My point is that your point is moot. Regardless of what anyone thinks the Constitution says about whatever, it is an indisputable fact that the right to an abortion is not in the Constitution. In this case it does not matter if you are conservative or liberal.","http://www.4forums.com/political/abortion-debates/7288-right-abortion-not-constiution.html",191503,44
"1-4944_46_44_2",4944,1,"2006-01-11 11:45:00",540,382,191516,"2006-01-11 11:35:00",209302,50,44,"So it wasn't a privacy issue before? Interesting.

I invited your discussion in this post, I simply asked you to discuss it in the proper place. I notice threads tend to go on tangents, and I wish to avoid that as much as possible.",209300,2,4944,1,"So there is no discussion allowed?","http://www.4forums.com/political/abortion-debates/7288-right-abortion-not-constiution.html",191508,46
"1-4944_47_46_2",4944,1,"2006-01-11 12:18:00",382,540,191529,"2006-01-11 11:45:00",209303,41,46,"Let me rephase my question since it was stated that my point was moot and my response ws not understood. So no discussion of the topic of the interpretation of the constitution regarding abortion is allowed in this thread?",209302,2,4944,1,"So it wasn't a privacy issue before? Interesting.

I invited your discussion in this post, I simply asked you to discuss it in the proper place. I notice threads tend to go on tangents, and I wish to avoid that as much as possible.","http://www.4forums.com/political/abortion-debates/7288-right-abortion-not-constiution.html",191516,47
"1-4944_50_47_2",4944,1,"2006-01-11 12:31:00",540,382,191535,"2006-01-11 12:18:00",209306,38,47,"No, that is not what I am saying. what is not relevant is any inconsistancies some might have when discussing the Constitution as it relates to abortion and the Constitution as it relates to marriage.",209303,2,4944,1,"Let me rephase my question since it was stated that my point was moot and my response ws not understood. So no discussion of the topic of the interpretation of the constitution regarding abortion is allowed in this thread?","http://www.4forums.com/political/abortion-debates/7288-right-abortion-not-constiution.html",191529,50
"1-4944_51_50_2",4944,1,"2006-01-11 12:36:00",382,540,191538,"2006-01-11 12:31:00",209307,26,50,"So if I had pointed to a santa clause case I would then be trying to hyjack the thread to talk about easter? emoticonXConfused emoticonXBanghead",209306,2,4944,1,"No, that is not what I am saying. what is not relevant is any inconsistancies some might have when discussing the Constitution as it relates to abortion and the Constitution as it relates to marriage.","http://www.4forums.com/political/abortion-debates/7288-right-abortion-not-constiution.html",191535,51
