"key","quote_source_post_discussion_id","posts_dataset_id","posts_timestamp","posts_author_id","quote_source_author_id","posts_native_post_id","quote_source_timestamp","post_text_id","Word_Count","quote_source_post_id","post_text","quote_source_text_id","Dialog_Turn","posts_discussion_id","quote_source_post_dataset_id","Fullquote_text","discussion_url","quote_source_native_post_id","posts_post_id"
"1-4948_12_11_1",4948,1,"2006-01-11 11:36:00",51,120,191509,"2006-01-11 11:17:00",209489,38,11,"Perhaps you should read the article....i'm searching for the actual findings.
As for a misleading title...It is similiar to the one from the article...you shouldn't judge based on the Title.",209488,1,4948,1,"Firstly, the thread title is misleading; it should have a ""can"" or ""may"" in it.
Secondly, what is the logical link that an abortion could lead to mental problems?
-Wez","http://www.4forums.com/political/abortion-debates/7295-abortion-hurts-womens-health.html",191498,12
"1-4948_13_12_1",4948,1,"2006-01-11 11:47:00",120,51,191517,"2006-01-11 11:36:00",209490,140,12,"I did read the article. Why do you ask?
""It was plausible that abortion might trigger mental illness, he said, because it could be a traumatic life event and involve loss - both of which are linked to increased psychological problems.""
That's the only statement related to my question. Lots of ifs and buts without strongly linking abortion to ""increased psychological problems"".

Firstly, it isn't that similar, because article's title includes ""linked to mental problems"" whereas yours says ""hurts"" and secondly two wrongs don't make a right. If the article used your title, it would be equally invalid. I didn't judge the article based on the title; I judged the title based on its factual inaccuracy.
-Wez",209489,1,4948,1,"Perhaps you should read the article....i'm searching for the actual findings.
As for a misleading title...It is similiar to the one from the article...you shouldn't judge based on the Title.","http://www.4forums.com/political/abortion-debates/7295-abortion-hurts-womens-health.html",191509,13
"1-4948_14_13_1",4948,1,"2006-01-11 11:53:00",51,120,191522,"2006-01-11 11:47:00",209491,41,13,"Well, the article says it is only some evidence and he really just wants there to be more in order to get an accurate reading...but..


If you find the title of my thread misleading I apologize.",209490,1,4948,1,"I did read the article. Why do you ask?
""It was plausible that abortion might trigger mental illness, he said, because it could be a traumatic life event and involve loss - both of which are linked to increased psychological problems.""
That's the only statement related to my question. Lots of ifs and buts without strongly linking abortion to ""increased psychological problems"".

Firstly, it isn't that similar, because article's title includes ""linked to mental problems"" whereas yours says ""hurts"" and secondly two wrongs don't make a right. If the article used your title, it would be equally invalid. I didn't judge the article based on the title; I judged the title based on its factual inaccuracy.
-Wez","http://www.4forums.com/political/abortion-debates/7295-abortion-hurts-womens-health.html",191517,14
"1-4948_15_14_1",4948,1,"2006-01-11 11:58:00",120,51,191524,"2006-01-11 11:53:00",209492,22,14,"It doesn't say why the two appear linked. It's missing 'cause and effect'.

NP:).
-Wez",209491,1,4948,1,"Well, the article says it is only some evidence and he really just wants there to be more in order to get an accurate reading...but..


If you find the title of my thread misleading I apologize.","http://www.4forums.com/political/abortion-debates/7295-abortion-hurts-womens-health.html",191522,15
"1-4948_16_15_1",4948,1,"2006-01-11 12:07:00",51,120,191526,"2006-01-11 11:58:00",209493,59,15,"I'm not sure it was to find why the two appeared to be linked...I think it was just finding if there was a link; however, I haven't read the actual study because I can't find it...although in the Alito Hearings today they added it to the record..so they got it emoticonXGood",209492,1,4948,1,"It doesn't say why the two appear linked. It's missing 'cause and effect'.

NP:).
-Wez","http://www.4forums.com/political/abortion-debates/7295-abortion-hurts-womens-health.html",191524,16
"1-4948_17_16_1",4948,1,"2006-01-11 12:15:00",120,51,191527,"2006-01-11 12:07:00",209494,64,16,"But it didn't really find there was a link. Woman, after an abortion, appear more likely to have mental problems. But, why can't it be linked to reality TV? There is more reality TV on now, than when they had the abortion and weren't depressed. Does this mean reality TV leads to depression?
-Wez",209493,1,4948,1,"I'm not sure it was to find why the two appeared to be linked...I think it was just finding if there was a link; however, I haven't read the actual study because I can't find it...although in the Alito Hearings today they added it to the record..so they got it emoticonXGood","http://www.4forums.com/political/abortion-debates/7295-abortion-hurts-womens-health.html",191526,17
"1-4948_18_17_1",4948,1,"2006-01-11 12:26:00",51,120,191533,"2006-01-11 12:15:00",209495,35,17,"I don't understand what your point is? Are you saying that the scientists didn't come to the correct conclusion? We haven't even read the actual findings since I can't even find it.",209494,1,4948,1,"But it didn't really find there was a link. Woman, after an abortion, appear more likely to have mental problems. But, why can't it be linked to reality TV? There is more reality TV on now, than when they had the abortion and weren't depressed. Does this mean reality TV leads to depression?
-Wez","http://www.4forums.com/political/abortion-debates/7295-abortion-hurts-womens-health.html",191527,18
"1-4948_23_18_1",4948,1,"2006-01-11 14:13:00",120,51,191559,"2006-01-11 12:26:00",209500,106,18,"My point is the article doesn't find a connection between abortion and mental problems. It finds that the people asked, after abortion had more mental problems, but it doesn't find that they suffer the problems because of the abortion.
They might be suffering the problems for reasons linked to the cause of the abortion. For example if they have an abortion for financial reasons, then after the abortion they'll still be poor, so may be more likely to suffer depression.

The study needs to establish that abortions can cause an increase in mental problems first.
-Wez",209495,1,4948,1,"I don't understand what your point is? Are you saying that the scientists didn't come to the correct conclusion? We haven't even read the actual findings since I can't even find it.","http://www.4forums.com/political/abortion-debates/7295-abortion-hurts-womens-health.html",191533,23
"1-4948_24_23_1",4948,1,"2006-01-11 14:21:00",51,120,191561,"2006-01-11 14:13:00",209501,72,23,"It did, that was the whole purpose of it. It established the following:

yeah it did, that was the point of the findings...once again we don;t have the exact study to look at though, but what the researchers said they found are clear in the article.

Without reading the actual findings you can't say this was a flaw in the findings.",209500,1,4948,1,"My point is the article doesn't find a connection between abortion and mental problems. It finds that the people asked, after abortion had more mental problems, but it doesn't find that they suffer the problems because of the abortion.
They might be suffering the problems for reasons linked to the cause of the abortion. For example if they have an abortion for financial reasons, then after the abortion they'll still be poor, so may be more likely to suffer depression.

The study needs to establish that abortions can cause an increase in mental problems first.
-Wez","http://www.4forums.com/political/abortion-debates/7295-abortion-hurts-womens-health.html",191559,24
"1-4948_33_24_1",4948,1,"2006-01-12 12:02:00",120,51,191783,"2006-01-11 14:21:00",209510,86,24,"Because someone who has an abortion doesn't want or can't have the baby. If the reason is that they're an alcoholic, incredibly poor, a drug addict or in an abusive relationship then there's a higher chance that they will be depressed later on in life. They're more likely to be depressed because of their lifestyle, not necessarily because they had an abortion.
What part of this do you disagree with?

The quote provided is an opinion.
-Wez",209501,1,4948,1,"It did, that was the whole purpose of it. It established the following:

yeah it did, that was the point of the findings...once again we don;t have the exact study to look at though, but what the researchers said they found are clear in the article.

Without reading the actual findings you can't say this was a flaw in the findings.","http://www.4forums.com/political/abortion-debates/7295-abortion-hurts-womens-health.html",191561,33
"1-4948_34_33_1",4948,1,"2006-01-12 12:30:00",51,120,191790,"2006-01-12 12:02:00",209511,95,33,"an opinion of the person doing the research. His opinion is backed by research. I agree that all scientific research is opinion but that seem irrelevant.

The part that the abortion played no role. After the abortion depression and other mental illinesses increased. The abortion was still the cause of an increase. The circumstances are irrelevant to one seeing if abortion increases certain mental problems. 
Once again though, read the study first before you say the findings are wrong...I can't find the study though.",209510,1,4948,1,"Because someone who has an abortion doesn't want or can't have the baby. If the reason is that they're an alcoholic, incredibly poor, a drug addict or in an abusive relationship then there's a higher chance that they will be depressed later on in life. They're more likely to be depressed because of their lifestyle, not necessarily because they had an abortion.
What part of this do you disagree with?

The quote provided is an opinion.
-Wez","http://www.4forums.com/political/abortion-debates/7295-abortion-hurts-womens-health.html",191783,34
"1-4948_35_34_1",4948,1,"2006-01-12 12:43:00",120,51,191793,"2006-01-12 12:30:00",209512,54,34,"The research also backs up my opinion.

That isn't part of what I said: strawman. 
Prove it.

The depression can be caused by many other factors and you know that full well.

What does ""the findings"" refer to? The statistics or the conclusions?
-Wez",209511,1,4948,1,"an opinion of the person doing the research. His opinion is backed by research. I agree that all scientific research is opinion but that seem irrelevant.

The part that the abortion played no role. After the abortion depression and other mental illinesses increased. The abortion was still the cause of an increase. The circumstances are irrelevant to one seeing if abortion increases certain mental problems. 
Once again though, read the study first before you say the findings are wrong...I can't find the study though.","http://www.4forums.com/political/abortion-debates/7295-abortion-hurts-womens-health.html",191790,35
"1-4948_37_35_1",4948,1,"2006-01-12 13:53:00",51,120,191802,"2006-01-12 12:43:00",209514,86,35,"what? this guys research backs up your opinion of what?

Maybe I misunderstood you. The research talks about how abortion plays a role in mental health.

That is what they did...It is what the article is about.

of course...but when you have x level of depression before an abortion and then afterwards it increases, do you think that the person just decided to be more depressed? 

im not sure what you are asking here.",209512,1,4948,1,"The research also backs up my opinion.

That isn't part of what I said: strawman. 
Prove it.

The depression can be caused by many other factors and you know that full well.

What does ""the findings"" refer to? The statistics or the conclusions?
-Wez","http://www.4forums.com/political/abortion-debates/7295-abortion-hurts-womens-health.html",191793,37
"1-4948_43_37_1",4948,1,"2006-01-13 08:36:00",120,51,191963,"2006-01-12 13:53:00",209520,164,37,"That women after an abortion are more likely to suffer mental problems (for a variety of reasons).

I didn't say it played no role.

No it's not. The article says women are more likely to suffer depression after an abortion. Full stop. Nothing more. It doesn't say, for definite, why and as such you can't say for definite that abortion increases the risk of mental problems. Others factors contribute to abortion.
A woman who is perfectly happy, can have a child and wants the child won't have an abortion and being a perfectly happy woman is unlikely to suffer depression.
A woman who has an abortion obviously has a problem somewhere.

Depression form alcoholism, family problems, abusive husbands, poverty etc. doesn't always appear as soon as the problem appears. It can take some time. For example, till after then abortion.
-Wez",209514,1,4948,1,"what? this guys research backs up your opinion of what?

Maybe I misunderstood you. The research talks about how abortion plays a role in mental health.

That is what they did...It is what the article is about.

of course...but when you have x level of depression before an abortion and then afterwards it increases, do you think that the person just decided to be more depressed? 

im not sure what you are asking here.","http://www.4forums.com/political/abortion-debates/7295-abortion-hurts-womens-health.html",191802,43
"1-4948_44_43_1",4948,1,"2006-01-13 09:30:00",51,120,191978,"2006-01-13 08:36:00",209521,122,43,"I believe he said abortion may lead to more mental problems...You could say that the platletes(sp) clogging in your viens is what caused the heart attack and not the 50 Big Macs you ate every week for ten years but you gotta say thats a reason.
His findings were to say the ""big macs"" helped in causing the problem.

I didn't say it was the only role.

But this was their findings...that abortions may increase mental problems. 
This says it all:

This is all I am trying to say...and what his research says.

Ok but the abortion still triggered it like the article suggests.",209520,1,4948,1,"That women after an abortion are more likely to suffer mental problems (for a variety of reasons).

I didn't say it played no role.

No it's not. The article says women are more likely to suffer depression after an abortion. Full stop. Nothing more. It doesn't say, for definite, why and as such you can't say for definite that abortion increases the risk of mental problems. Others factors contribute to abortion.
A woman who is perfectly happy, can have a child and wants the child won't have an abortion and being a perfectly happy woman is unlikely to suffer depression.
A woman who has an abortion obviously has a problem somewhere.

Depression form alcoholism, family problems, abusive husbands, poverty etc. doesn't always appear as soon as the problem appears. It can take some time. For example, till after then abortion.
-Wez","http://www.4forums.com/political/abortion-debates/7295-abortion-hurts-womens-health.html",191963,44
"1-4948_45_44_1",4948,1,"2006-01-13 09:40:00",120,51,191980,"2006-01-13 09:30:00",209522,112,44,"Not really as a cause for depression was likely to be there before the abortion took place, hence the fact the abortion was undertaken.

You said claimed my argument involved: ""The part that the abortion played no role."" In fact it doesn't.

Fresh air may cause mental problems as well. They didn't establish that abortion leads to an increased chance of getting mental problems.

Yep and fresh air may cause an increase in mental problems as well. hey didn't establish that abortion leads to an increased chance of getting mental problems.

The article doesn't actually state that though.
-Wez",209521,1,4948,1,"I believe he said abortion may lead to more mental problems...You could say that the platletes(sp) clogging in your viens is what caused the heart attack and not the 50 Big Macs you ate every week for ten years but you gotta say thats a reason.
His findings were to say the ""big macs"" helped in causing the problem.

I didn't say it was the only role.

But this was their findings...that abortions may increase mental problems. 
This says it all:

This is all I am trying to say...and what his research says.

Ok but the abortion still triggered it like the article suggests.","http://www.4forums.com/political/abortion-debates/7295-abortion-hurts-womens-health.html",191978,45
"1-4948_46_45_1",4948,1,"2006-01-13 10:12:00",51,120,191985,"2006-01-13 09:40:00",209523,31,45,"I acknowledged that I misunderstood you here.
I think I said what I wanted to on the rest of the article...we are just going in circles now.",209522,1,4948,1,"Not really as a cause for depression was likely to be there before the abortion took place, hence the fact the abortion was undertaken.

You said claimed my argument involved: ""The part that the abortion played no role."" In fact it doesn't.

Fresh air may cause mental problems as well. They didn't establish that abortion leads to an increased chance of getting mental problems.

Yep and fresh air may cause an increase in mental problems as well. hey didn't establish that abortion leads to an increased chance of getting mental problems.

The article doesn't actually state that though.
-Wez","http://www.4forums.com/political/abortion-debates/7295-abortion-hurts-womens-health.html",191980,46
