"key","quote_source_post_discussion_id","posts_dataset_id","posts_timestamp","posts_author_id","quote_source_author_id","posts_native_post_id","quote_source_timestamp","post_text_id","Word_Count","quote_source_post_id","post_text","quote_source_text_id","Dialog_Turn","posts_discussion_id","quote_source_post_dataset_id","Fullquote_text","discussion_url","quote_source_native_post_id","posts_post_id"
"1-5030_21_20_1",5030,1,"2006-01-25 09:15:00",51,120,194682,"2006-01-25 07:30:00",212511,37,20,"Are you really curious or are you trying to set up an extreme argument where if I am not spending 100% of my time getting rid of abortion then I must not really be against it?",212510,1,5030,1,"What have you done about this apparent genocide on your doorstep steeeve?
-Wez","http://www.4forums.com/political/abortion-debates/7406-happy-kill-40-million-people-day.html",194663,21
"1-5030_25_21_1",5030,1,"2006-01-25 10:49:00",120,51,194712,"2006-01-25 09:15:00",212515,41,21,"Well, I'm curious if so many people are pro-life and truly believe tens of millions of people are murdered, why so much effort is put into combating terrorism, drugs etc. instead of making abortion illegal.
-Wez",212511,1,5030,1,"Are you really curious or are you trying to set up an extreme argument where if I am not spending 100% of my time getting rid of abortion then I must not really be against it?","http://www.4forums.com/political/abortion-debates/7406-happy-kill-40-million-people-day.html",194682,25
"1-5030_26_25_1",5030,1,"2006-01-25 10:58:00",51,120,194714,"2006-01-25 10:49:00",212516,65,25,"You mean in a federal dollar sense? Well, the Supreme Court kind of put a set back on the whole anti-abortion thing....that is what the pro-lifers are working on now...which is oddly enough a joint battle to get the Supreme Court back to where it should be. Does this question your question or was it something different?",212515,1,5030,1,"Well, I'm curious if so many people are pro-life and truly believe tens of millions of people are murdered, why so much effort is put into combating terrorism, drugs etc. instead of making abortion illegal.
-Wez","http://www.4forums.com/political/abortion-debates/7406-happy-kill-40-million-people-day.html",194712,26
"1-5030_27_26_1",5030,1,"2006-01-25 11:13:00",120,51,194719,"2006-01-25 10:58:00",212517,80,26,"It does, but it seems like a fairly weak effort if people really think hundreds of Americans are murdered every day. If 100s of Americans were picked at random and shot I reckon there'd be a greater outcry.
What I'm getting is that I'm doubtful whether most pro-lifers really consider the life of a foetus as important as that of a grown up, or whether they are against abortion for other reasons.
-Wez",212516,1,5030,1,"You mean in a federal dollar sense? Well, the Supreme Court kind of put a set back on the whole anti-abortion thing....that is what the pro-lifers are working on now...which is oddly enough a joint battle to get the Supreme Court back to where it should be. Does this question your question or was it something different?","http://www.4forums.com/political/abortion-debates/7406-happy-kill-40-million-people-day.html",194714,27
"1-5030_28_27_1",5030,1,"2006-01-25 11:38:00",51,120,194722,"2006-01-25 11:13:00",212518,107,27,"There wouldn't be an outcry if half the country was ok with it. Believe me when I say that pro-lifers (most) believe strongly that the unbron is just as important as anyone else. I also believe many people aren't informed about abortion. If you showed one of those people a picture of a 6 week old unborn and said ""would you support aborting this?"" I wonder what they might say. I think there might be more of a rationlization to say the unborn is not as important as grown up then to say it is as important.",212517,1,5030,1,"It does, but it seems like a fairly weak effort if people really think hundreds of Americans are murdered every day. If 100s of Americans were picked at random and shot I reckon there'd be a greater outcry.
What I'm getting is that I'm doubtful whether most pro-lifers really consider the life of a foetus as important as that of a grown up, or whether they are against abortion for other reasons.
-Wez","http://www.4forums.com/political/abortion-debates/7406-happy-kill-40-million-people-day.html",194719,28
