"key","quote_source_post_discussion_id","posts_dataset_id","posts_timestamp","posts_author_id","quote_source_author_id","posts_native_post_id","quote_source_timestamp","post_text_id","Word_Count","quote_source_post_id","post_text","quote_source_text_id","Dialog_Turn","posts_discussion_id","quote_source_post_dataset_id","Fullquote_text","discussion_url","quote_source_native_post_id","posts_post_id"
"1-5174_23_21_1",5174,1,"2006-02-16 13:46:00",51,382,198759,"2006-02-16 07:02:00",217660,24,21,"So you for strict regulation of business but not people? Interesting...do you know who runs businesses? Yeah, people.",217658,1,5174,1,"Yes I believe in strict government regulation of business. I see the agenda behind the question.","http://www.4forums.com/political/abortion-debates/7590-government-overstepping.html",198674,23
"1-5174_28_23_1",5174,1,"2006-02-16 16:33:00",382,51,198821,"2006-02-16 13:46:00",217665,29,23,"This is in line with my middle left political views. Green party all the way.Unregulated capitalism is a very bad thing. Ever read Dickens?",217660,1,5174,1,"So you for strict regulation of business but not people? Interesting...do you know who runs businesses? Yeah, people.","http://www.4forums.com/political/abortion-debates/7590-government-overstepping.html",198759,28
"1-5174_29_28_1",5174,1,"2006-02-16 17:45:00",51,382,198834,"2006-02-16 16:33:00",217666,109,28,"I think there is a difference in saying what you must have and saying what you can't have. 

Ok, does this apply to only businesses? What if the advisory panel says ""in order to maintain health for the state, every citizen is required to own a toothbrush"". 
A free society works by saying ""you can't do this stuff but everything else is up to you guys"". If you go around saying ""you must do it this way"" then you really aren't a free society but you have the government controlling instead. 

It is just inconsistent.",217665,1,5174,1,"This is in line with my middle left political views. Green party all the way.Unregulated capitalism is a very bad thing. Ever read Dickens?","http://www.4forums.com/political/abortion-debates/7590-government-overstepping.html",198821,29
"1-5174_30_29_1",5174,1,"2006-02-16 18:47:00",382,51,198845,"2006-02-16 17:45:00",217667,80,29,"No not at all it all comes down to individual rights. Business has proven that when it comes to individuial rights they can not be trusted and need to be regulated. Business will pollute the enviornment, extort the public, and exploit the poor. Unbrideled capitialism is unjust. Once again have your read Dickens?
BTW why is this in the abortion forum. Unless of course you have an agenda with this thread.",217666,1,5174,1,"I think there is a difference in saying what you must have and saying what you can't have. 

Ok, does this apply to only businesses? What if the advisory panel says ""in order to maintain health for the state, every citizen is required to own a toothbrush"". 
A free society works by saying ""you can't do this stuff but everything else is up to you guys"". If you go around saying ""you must do it this way"" then you really aren't a free society but you have the government controlling instead. 

It is just inconsistent.","http://www.4forums.com/political/abortion-debates/7590-government-overstepping.html",198834,30
"1-5174_31_30_1",5174,1,"2006-02-16 21:11:00",51,382,198865,"2006-02-16 18:47:00",217668,190,30,"I like how you say ""individual rights"" as if a business is some machine made up out of nowhere coming to attack the human race. A business is made up of ""individuals"" that are performing an activity. The activity of selling makes it a business. You can say individuals pollute and extort etc but you aren't for regulating their activity. So I take a consistent approach to this whole issue. You can regulate individuals and their activities so long as the people approve of it (which doesn't mean I may agree with what the people wish to regulate). Therefore if the people want to say ""businesses can't pollute and homosexuals can't marry"" then I believe they have every right to do so. Of course it becomes harder to regulate when mess with the constitution--assuming US-- (which none of the examples do). I think you are just wrong to imply someone in a business is not part of the public.

It has to do with the morning after pill",217667,1,5174,1,"No not at all it all comes down to individual rights. Business has proven that when it comes to individuial rights they can not be trusted and need to be regulated. Business will pollute the enviornment, extort the public, and exploit the poor. Unbrideled capitialism is unjust. Once again have your read Dickens?
BTW why is this in the abortion forum. Unless of course you have an agenda with this thread.","http://www.4forums.com/political/abortion-debates/7590-government-overstepping.html",198845,31
"1-5174_35_31_1",5174,1,"2006-02-17 04:32:00",382,51,198889,"2006-02-16 21:11:00",217672,138,31,"Look at the state of business in the late 19th century when there was no regulation. Business in the name of profits would have no problem dumpping all kinds of toxic garbage into rivers and landfills if not regulated not to. If not forced to pay a minimum wage business in the name of profits would pay people an unjust wage and take advantage of thier being desprate. Business in the name of profits would cut worker safety. Busisness in the name of profits would do almost anything to cut costs.People in business, unless it effects them personally, are allways looking out for the bottom line and if there were no regulations on safety, pollution, and wages people in business will take any opportunity to cut costs.",217668,1,5174,1,"I like how you say ""individual rights"" as if a business is some machine made up out of nowhere coming to attack the human race. A business is made up of ""individuals"" that are performing an activity. The activity of selling makes it a business. You can say individuals pollute and extort etc but you aren't for regulating their activity. So I take a consistent approach to this whole issue. You can regulate individuals and their activities so long as the people approve of it (which doesn't mean I may agree with what the people wish to regulate). Therefore if the people want to say ""businesses can't pollute and homosexuals can't marry"" then I believe they have every right to do so. Of course it becomes harder to regulate when mess with the constitution--assuming US-- (which none of the examples do). I think you are just wrong to imply someone in a business is not part of the public.

It has to do with the morning after pill","http://www.4forums.com/political/abortion-debates/7590-government-overstepping.html",198865,35
"1-5174_38_35_1",5174,1,"2006-02-17 06:20:00",51,382,198906,"2006-02-17 04:32:00",217675,202,35,"Notice what you said here... You don't want a business to do this or that. These are restrictions as opposed to instructions. I am all for regulating some business activities as I am for regulating any individual actions. Individuals have done their fair share of ""harm"" outside of the activity of business. 
ou

The thread is pretty clear about the topic...none the less, you are inconsistent here. Why are prescription drugs any different from other products? I doctor told me the other day to get a certain piece of equipment in order to help my back. Should I force WalMart to carry it? Tell me, what if the morning after pill becomes OTC? Should this change anything? Does WalMart have to carry IBuprofin along with Tylenol even though IBuprofin can cause some damage to your health? What gives the government the right to force ONE individual to sell something to another individual? I could understand the company forcing the one pharmacist to sell the drugs but at that point the company still had a choice instead of being forced by the government.",217672,1,5174,1,"Look at the state of business in the late 19th century when there was no regulation. Business in the name of profits would have no problem dumpping all kinds of toxic garbage into rivers and landfills if not regulated not to. If not forced to pay a minimum wage business in the name of profits would pay people an unjust wage and take advantage of thier being desprate. Business in the name of profits would cut worker safety. Busisness in the name of profits would do almost anything to cut costs.People in business, unless it effects them personally, are allways looking out for the bottom line and if there were no regulations on safety, pollution, and wages people in business will take any opportunity to cut costs.","http://www.4forums.com/political/abortion-debates/7590-government-overstepping.html",198889,38
