"key","quote_source_post_discussion_id","posts_dataset_id","posts_timestamp","posts_author_id","quote_source_author_id","posts_native_post_id","quote_source_timestamp","post_text_id","Word_Count","quote_source_post_id","post_text","quote_source_text_id","Dialog_Turn","posts_discussion_id","quote_source_post_dataset_id","Fullquote_text","discussion_url","quote_source_native_post_id","posts_post_id"
"1-5267_21_18_1",5267,1,"2006-03-07 07:37:00",51,68,201564,"2006-03-07 07:08:00",221508,36,18,"What a confusing statement then. Your statement is so obvious that of course someone would look farther into it. Yes, if something violates the constitution then the state can't make that law.",221505,1,5267,1,"I did not say it did. I said that SCOTUS can strike down State laws that violate constitutional rights in response to you saying that States can do what they wish regarding abortion. Obviously they cannot if a woman has a constitutional right to terminate her pregnancy.","http://www.4forums.com/political/abortion-debates/7705-here-we-go.html",201557,21
"1-5267_24_21_1",5267,1,"2006-03-07 08:20:00",68,51,201574,"2006-03-07 07:37:00",221511,30,21,"One would indeed think what I said was obvious. However, what Cone said was as obviously incorrect so such an obvious statement was needed to counteract it.",221508,1,5267,1,"What a confusing statement then. Your statement is so obvious that of course someone would look farther into it. Yes, if something violates the constitution then the state can't make that law.","http://www.4forums.com/political/abortion-debates/7705-here-we-go.html",201564,24
"1-5267_25_24_1",5267,1,"2006-03-07 08:37:00",51,68,201582,"2006-03-07 08:20:00",221512,54,24,"they can do what they want regarding abortion as it is not in the constitution. He was not incorrect about that. Saying ""the state can create laws against speeding"" is not incorrect eventhough you don't include ""unless it violates the constitution""...it would never violate it.",221511,1,5267,1,"One would indeed think what I said was obvious. However, what Cone said was as obviously incorrect so such an obvious statement was needed to counteract it.","http://www.4forums.com/political/abortion-debates/7705-here-we-go.html",201574,25
"1-5267_27_25_1",5267,1,"2006-03-07 08:54:00",68,51,201588,"2006-03-07 08:37:00",221514,82,25,"Oh Steve. Steve Steve Steve. Abortion obviously has been a Constitution issue for many years now. It obviously has been considered a Constitutional right for a woman to have the freedom to acquire one. Whether you agree with that or not, that is the truth in practice. Therefore, obviously, States cannot ""do what they wish"" regarding abortion.
I doubt Cone needs, wants or appreciates your help.

Hopefully not.",221512,1,5267,1,"they can do what they want regarding abortion as it is not in the constitution. He was not incorrect about that. Saying ""the state can create laws against speeding"" is not incorrect eventhough you don't include ""unless it violates the constitution""...it would never violate it.","http://www.4forums.com/political/abortion-debates/7705-here-we-go.html",201582,27
"1-5267_28_27_1",5267,1,"2006-03-07 09:06:00",51,68,201590,"2006-03-07 08:54:00",221515,87,27,"I looked again today, abortion is not in there. However, if you make stuff up in a magical world, I suppose it is there. I think the US Tax code contains a right to abortion as well...since I say it does then it must!
I agree that states right now cannot do what they want...however, if we actually thought words had meaning they, in theory, they can do what they way regarding abortion.",221514,1,5267,1,"Oh Steve. Steve Steve Steve. Abortion obviously has been a Constitution issue for many years now. It obviously has been considered a Constitutional right for a woman to have the freedom to acquire one. Whether you agree with that or not, that is the truth in practice. Therefore, obviously, States cannot ""do what they wish"" regarding abortion.
I doubt Cone needs, wants or appreciates your help.

Hopefully not.","http://www.4forums.com/political/abortion-debates/7705-here-we-go.html",201588,28
