"key","quote_source_post_discussion_id","posts_dataset_id","posts_timestamp","posts_author_id","quote_source_author_id","posts_native_post_id","quote_source_timestamp","post_text_id","Word_Count","quote_source_post_id","post_text","quote_source_text_id","Dialog_Turn","posts_discussion_id","quote_source_post_dataset_id","Fullquote_text","discussion_url","quote_source_native_post_id","posts_post_id"
"1-5646_58_51_1",5646,1,"2006-07-20 13:23:00",63,36,223674,"2006-07-20 09:49:00",237428,125,51,"There is also almost an entire year in between conception and that adoption. Pregnancy ain't easy or cheap.

Quit trivializing pregnancy. It ticks me off.
You asked how abortion is pro-family. If my already born family starves because I can't work an abortion would certainly be pro-family. If a pregnancy will endanger my life and leave my child motherless - an abortion could be pro-family. It could also be pro-child when you consider the possibility of multiple children.
I am know my examples are possibly the extremes, but I felt inclined to answer.
By the way - hello folks - I have been out awhile. Life got busy and tough for a bit.",237421,1,5646,1,"What about the possibility of adoption? We so often act like there are only two choices, raise the child or abort it. There are many other options, including being careful in the first place.
Just because a child is inconvenient seems to be a poor reason to abort it.","http://www.4forums.com/political/abortion-debates/8206-38-416-good-news-south-dakota.html",223620,58
"1-5646_60_58_1",5646,1,"2006-07-20 13:33:00",36,63,223681,"2006-07-20 13:23:00",237430,103,58,"If you will please note, I have already been very careful to consider the health and safety of the mother. Please reread my posts. Some folks have abortions simply because they are too lazy to use birth control or too stupid to simply not have sex. That is not true in all cases and I think I already made that clear. I have trivialized nothing. Others trivialize the potential for life within them. Please stop trivializing that. Please don't call it ""just a lump of tissue"" that is simply not true.
EF",237428,1,5646,1,"There is also almost an entire year in between conception and that adoption. Pregnancy ain't easy or cheap..","http://www.4forums.com/political/abortion-debates/8206-38-416-good-news-south-dakota.html",223674,60
"1-5646_61_60_1",5646,1,"2006-07-20 13:38:00",63,36,223683,"2006-07-20 13:33:00",237431,73,60,"When you consider any cisrcumstance in a woman's except her health - ""incovenience"" or ""laziness"" or ""stupidity"" you do trivialize women. Life is not that simple. 
For starters one area that lifers continue to overlook is FINANCIAL. Pregnancies are EXPENSIVE. Doctors - new clothes - meds - hospital stays - potentail loss of work leading to unpayed bills, lost homes, etc.",237430,1,5646,1,"If you will please note, I have already been very careful to consider the health and safety of the mother. Please reread my posts. Some folks have abortions simply because they are too lazy to use birth control or too stupid to simply not have sex. That is not true in all cases and I think I already made that clear. I have trivialized nothing. Others trivialize the potential for life within them. Please stop trivializing that. Please don't call it ""just a lump of tissue"" that is simply not true.
EF","http://www.4forums.com/political/abortion-debates/8206-38-416-good-news-south-dakota.html",223681,61
"1-5646_64_61_1",5646,1,"2006-07-20 13:47:00",36,63,223691,"2006-07-20 13:38:00",237434,87,61,"Financial difficulties are overcome almost everyday. Do you think that because it is expensive to have a vasectomy that some men should not do that?
I see a lot of men and women buying cars they cannot afford.
Please just admit that some women (and men) make a stupid choice which leads to pregnancy. I never said they were all that way and your characterization of me in that vein is unfair, illogical, and in bad taste.
EF",237431,1,5646,1,"When you consider any cisrcumstance in a woman's except her health - ""incovenience"" or ""laziness"" or ""stupidity"" you do trivialize women. Life is not that simple. 
For starters one area that lifers continue to overlook is FINANCIAL. Pregnancies are EXPENSIVE. Doctors - new clothes - meds - hospital stays - potentail loss of work leading to unpayed bills, lost homes, etc.","http://www.4forums.com/political/abortion-debates/8206-38-416-good-news-south-dakota.html",223683,64
"1-5646_65_64_1",5646,1,"2006-07-20 14:02:00",63,36,223695,"2006-07-20 13:47:00",237435,151,64,"And people starve every day. Even in the US.

Not in my neighborhood. Nor in the five years I lived in poorest state in this country. I am not talking about things being tight for awhile. I am talking about being able to feed yourself - or get to a doctor when you are pregnant.

Are you kidding - people do stupid stuff all the time. Irresponsbility ticks me off, too. (But not as much as a governments, churches and neo-cons making major medical decisions for strangers without their input). 

So is was your implication that abortion for any reason outside of ones health is a ""convenience"" matter.
But I don't really wanna battle with you anyway. You seem more interested in education than imposition - and I am all for that. :)",237434,1,5646,1,"Financial difficulties are overcome almost everyday. Do you think that because it is expensive to have a vasectomy that some men should not do that?
I see a lot of men and women buying cars they cannot afford.
Please just admit that some women (and men) make a stupid choice which leads to pregnancy. I never said they were all that way and your characterization of me in that vein is unfair, illogical, and in bad taste.
EF","http://www.4forums.com/political/abortion-debates/8206-38-416-good-news-south-dakota.html",223691,65
"1-5646_66_65_1",5646,1,"2006-07-20 15:32:00",36,63,223710,"2006-07-20 14:02:00",237436,154,65,"I never intended to say that abortion is always a matter of convenience.
I appreciate your willingness to consider my full position. I am still opposed to abortion in a later term. I am opposed to some abortion procedures completely. I also believe women need to be told about the possibilities. I also believe Children are not able to clearly make that decision. I also believe certain abortion clinics are not held accountable as they should be. 
I am christian and I am also a TRUE conservative (I don't really fit the neo con mold). I would not judge a person who decides to have an abortion. I would want to counsel them that it is a very grave decision and that they may regret it and that they should consider other alternatives if possible.
That is my stance.'
EF",237435,1,5646,1,"And people starve every day. Even in the US.

Not in my neighborhood. Nor in the five years I lived in poorest state in this country. I am not talking about things being tight for awhile. I am talking about being able to feed yourself - or get to a doctor when you are pregnant.

Are you kidding - people do stupid stuff all the time. Irresponsbility ticks me off, too. (But not as much as a governments, churches and neo-cons making major medical decisions for strangers without their input). 

So is was your implication that abortion for any reason outside of ones health is a ""convenience"" matter.
But I don't really wanna battle with you anyway. You seem more interested in education than imposition - and I am all for that. :)","http://www.4forums.com/political/abortion-debates/8206-38-416-good-news-south-dakota.html",223695,66
"1-5646_34_33_2",5646,1,"2006-07-17 11:35:00",381,36,222928,"2006-07-17 11:30:00",237404,54,33,"I provided something to the contrary. Please note.
[As an aside, what possible good would come from checking with the AMA (a political organization) or the NIH, of which the NIMH is a part (a research institute that does not publish primary research)?]",237403,2,5646,1,"irrelavent since you provide nothing to the contrarty. These are standards currently accepted in medical arenas. Check with the AMA or NIMH or NIH if you want.
EF","http://www.4forums.com/political/abortion-debates/8206-38-416-good-news-south-dakota.html",222924,34
"1-5646_36_34_2",5646,1,"2006-07-17 11:38:00",36,381,222930,"2006-07-17 11:35:00",237406,99,34,"I am answering you separately.
The AMA places standards for treatment that are used as an authority in legal procedings and is acceptable. My comments here are simply in response to Simone's statement that the studies posted are relatively old. The standard of care and of physiology can be easily documented.
Lastly,
Again,
My argument is simply that abortion is in no way ""pro child"" There is nothing in any post so far to show even a shred of evidence that abortion is good for the one being aborted.
EF",237404,2,5646,1,"I provided something to the contrary. Please note.
[As an aside, what possible good would come from checking with the AMA (a political organization) or the NIH, of which the NIMH is a part (a research institute that does not publish primary research)?]","http://www.4forums.com/political/abortion-debates/8206-38-416-good-news-south-dakota.html",222928,36
"1-5646_38_36_2",5646,1,"2006-07-17 11:48:00",381,36,222934,"2006-07-17 11:38:00",237408,74,36,"It most certainly does not.
Standards for care are based on local practice and are regulated by state boards of medical examiners. The AMA has nothing to do with that.
You clearly are making up statements. 
You do not seem to know much about medicine or science. That is fine. You should therefore be more careful before making medical claims -such as claptrap about fetal physiology.",237406,2,5646,1,"I am answering you separately.
The AMA places standards for treatment that are used as an authority in legal procedings and is acceptable. EF","http://www.4forums.com/political/abortion-debates/8206-38-416-good-news-south-dakota.html",222930,38
"1-5646_39_38_2",5646,1,"2006-07-17 13:20:00",36,381,222954,"2006-07-17 11:48:00",237409,196,38,"http://www.ama-assn.org/
You might try looking under their ethics and standards section. They are most certainly a setter of the standards of care. Where do you think the local boards get their standards of care. It is that which is decided by the AMA.
Also, you may have been arguing about my statement that babies have brainwaves as early as 6 weeks. You have yet to disporve that only you have proven the reason for them. Irrelevant. You simply cannot argue the point that I was making so you headed down a rabbit trail trying to derail my argument that ""pro choice is not pro child"" which I posted the physiology information to simply support my claim that these are babies and not some amorphous blob of tissue which is what the abortion advocates will claim so as to make it seem okay to kill a human before they exit the womb. 
My comments about post term abortions are to show the illogic of defining life by sentience or capabilities etc when taken to the extreme. Clearly you have little in logic training.
EF",237408,2,5646,1,"It most certainly does not.
Standards for care are based on local practice and are regulated by state boards of medical examiners. The AMA has nothing to do with that.
You clearly are making up statements. 
You do not seem to know much about medicine or science. That is fine. You should therefore be more careful before making medical claims -such as claptrap about fetal physiology.","http://www.4forums.com/political/abortion-debates/8206-38-416-good-news-south-dakota.html",222934,39
"1-5646_40_39_2",5646,1,"2006-07-17 13:29:00",381,36,222960,"2006-07-17 13:20:00",237410,130,39,"This will be my last post to you on this.
The AMA has no function other than advocacy. I am a XXXXXX. I know this. Linking me to the home page of the AMA is not a very convincing argument.
My reference demonstrated that brain waves do not appear until much later. It had big words so maybe you missed it.
I would be interested in knowing where you got your ""logic training"", whatever that is, and if you can get your money back. How can you look at yourself in the mirror when you know you are posting ideas beyond your comprehension and present them as facts? You are not fooling anyone about your limitations.",237409,2,5646,1,"http://www.ama-assn.org/
You might try looking under their ethics and standards section. They are most certainly a setter of the standards of care. Where do you think the local boards get their standards of care. It is that which is decided by the AMA.
Also, you may have been arguing about my statement that babies have brainwaves as early as 6 weeks. You have yet to disporve that only you have proven the reason for them. Irrelevant. You simply cannot argue the point that I was making so you headed down a rabbit trail trying to derail my argument that ""pro choice is not pro child"" which I posted the physiology information to simply support my claim that these are babies and not some amorphous blob of tissue which is what the abortion advocates will claim so as to make it seem okay to kill a human before they exit the womb. 
My comments about post term abortions are to show the illogic of defining life by sentience or capabilities etc when taken to the extreme. Clearly you have little in logic training.
EF","http://www.4forums.com/political/abortion-debates/8206-38-416-good-news-south-dakota.html",222954,40
"1-5646_41_40_2",5646,1,"2006-07-17 13:44:00",36,381,222966,"2006-07-17 13:29:00",237411,72,40,"My last post too. It is not beyond my comprehension. I resent your statement. I find you arrogant and without a shred of intellectual integrity. You may be a fine physician. While the AMA is advocacy, are you saying you do not anwer to them at all concerning any standards of care and a medical board never references them. Yipes you are arrogant.
EF",237410,2,5646,1,"This will be my last post to you on this.
The AMA has no function other than advocacy. I am a physician. I know this. Linking me to the home page of the AMA is not a very convincing argument.
My reference demonstrated that brain waves do not appear until much later. It had big words so maybe you missed it.
I would be interested in knowing where you got your ""logic training"", whatever that is, and if you can get your money back. How can you look at yourself in the mirror when you know you are posting ideas beyond your comprehension and present them as facts? You are not fooling anyone about your limitations.","http://www.4forums.com/political/abortion-debates/8206-38-416-good-news-south-dakota.html",222960,41
