"key","quote_source_post_discussion_id","posts_dataset_id","posts_timestamp","posts_author_id","quote_source_author_id","posts_native_post_id","quote_source_timestamp","post_text_id","Word_Count","quote_source_post_id","post_text","quote_source_text_id","Dialog_Turn","posts_discussion_id","quote_source_post_dataset_id","Fullquote_text","discussion_url","quote_source_native_post_id","posts_post_id"
"1-6182_16_14_1",6182,1,"2006-10-15 19:37:00",51,176,235046,"2006-10-15 17:41:00",259550,13,14,"Perhaps you wish for the Trojan company to pay for the abortion?",259548,1,6182,1,"So its their fault if the condom breaks? Dont speak of people this way until you are in their shoes. Im sure that there are some lazy people out there, but ill be the majority was just accidents, and therefore cannot be blamed on the woman.","http://www.4forums.com/political/abortion-debates/9021-antiabortionists-wave-femenist-flag-huh.html",235034,16
"1-6182_19_16_1",6182,1,"2006-10-17 17:50:00",176,51,235306,"2006-10-15 19:37:00",259553,6,16,"Its better than banning abortion.",259550,1,6182,1,"Perhaps you wish for the Trojan company to pay for the abortion?","http://www.4forums.com/political/abortion-debates/9021-antiabortionists-wave-femenist-flag-huh.html",235046,19
"1-6182_20_19_1",6182,1,"2006-10-17 20:42:00",51,176,235354,"2006-10-17 17:50:00",259554,33,19,"Isn't it their fault now? Why don't you want them to pay for the abortion..or part of it. It is the fault of the maker is it not?",259553,1,6182,1,"Its better than banning abortion.","http://www.4forums.com/political/abortion-debates/9021-antiabortionists-wave-femenist-flag-huh.html",235306,20
"1-6182_24_20_1",6182,1,"2006-10-18 17:58:00",176,51,235509,"2006-10-17 20:42:00",259558,23,20,"Its nobody's fault. Why do you always have to blame someone. You think we can fix this by total criminalization?",259554,1,6182,1,"Isn't it their fault now? Why don't you want them to pay for the abortion..or part of it. It is the fault of the maker is it not?","http://www.4forums.com/political/abortion-debates/9021-antiabortionists-wave-femenist-flag-huh.html",235354,24
"1-6182_28_24_1",6182,1,"2006-10-18 19:43:00",51,176,235523,"2006-10-18 17:58:00",259562,11,24,"no ones fault so you kill the kid....great.",259558,1,6182,1,"Its nobody's fault. Why do you always have to blame someone. You think we can fix this by total criminalization?","http://www.4forums.com/political/abortion-debates/9021-antiabortionists-wave-femenist-flag-huh.html",235509,28
"1-6182_30_28_1",6182,1,"2006-10-18 21:12:00",176,51,235528,"2006-10-18 19:43:00",259564,7,28,"Were not killing any kids dude.",259562,1,6182,1,"no ones fault so you kill the kid....great.","http://www.4forums.com/political/abortion-debates/9021-antiabortionists-wave-femenist-flag-huh.html",235523,30
