"key","quote_source_post_discussion_id","posts_dataset_id","posts_timestamp","posts_author_id","quote_source_author_id","posts_native_post_id","quote_source_timestamp","post_text_id","Word_Count","quote_source_post_id","post_text","quote_source_text_id","Dialog_Turn","posts_discussion_id","quote_source_post_dataset_id","Fullquote_text","discussion_url","quote_source_native_post_id","posts_post_id"
"1-6328_3_2_1",6328,1,"2006-11-18 14:12:00",176,851,240338,"2006-11-18 13:58:00",265330,170,2,"And the mother has not done anything to be forced to give birth.

So sex is only a privelage for those who can phisically give birth? Abortion is not Black and White as you are trying to paint it to be. It's much more complicated. Having a baby, even giving it up, causes a lot of emotional and phisical pain, and most people just cant have babys. They cannot care for it, and they cannot bear to be thinking that their child is out there somewhere. As I have said before, this is much more complicated than you think. Abortion should always be availible in the first and maybe second trimester, so that women wont have to live the rest of their life in fear and abstinence because they cannot support a baby.
This is an interesting article:
http://www.msnbc.msn.com/id/15173072/site/newsweek/
I would suggest reading it, just to get a better Idea of our position.",265329,1,6328,1,"Yes, that is generally the main debate, because the fetus has not done anything to deserve to get aborted.

Yes, she does. But, she has had sex, and thus as a consequence, should carry the baby. Then if she does not want the baby, she should put it up for adoption. So it can go to a family who desperately wants a baby.","http://www.4forums.com/political/abortion-debates/9211-point-too-often-passed-over.html",240337,3
"1-6328_8_3_1",6328,1,"2006-11-18 16:55:00",851,176,240357,"2006-11-18 14:12:00",265335,90,3,"Why do I think that she has inherent value? Because she's a person. 

Since when is having sex not doing anything? Sex is something, therefore having sex, is doing something.

In other threads, I've said that it isn't black and white. For those who can not physically give birth(those who it would kill or seriously hurt), I support abortion for. 

And you think that killing your baby doesn't cause any emotional and/or physical pain?",265330,1,6328,1,"And the mother has not done anything to be forced to give birth.

So sex is only a privelage for those who can phisically give birth? Abortion is not Black and White as you are trying to paint it to be. It's much more complicated. Having a baby, even giving it up, causes a lot of emotional and phisical pain, and most people just cant have babys. They cannot care for it, and they cannot bear to be thinking that their child is out there somewhere. As I have said before, this is much more complicated than you think. Abortion should always be availible in the first and maybe second trimester, so that women wont have to live the rest of their life in fear and abstinence because they cannot support a baby.
This is an interesting article:
http://www.msnbc.msn.com/id/15173072/site/newsweek/
I would suggest reading it, just to get a better Idea of our position.","http://www.4forums.com/political/abortion-debates/9211-point-too-often-passed-over.html",240338,8
"1-6328_10_8_1",6328,1,"2006-11-19 09:37:00",176,851,240413,"2006-11-18 16:55:00",265337,104,8,"Glad you figured that part out.

Sex is a norman part of a healthy relationship.

What about those who cannot emotionally or financially support a Baby. What if I told you you were pregnant right now (lets just assume you're a girl), and that abortion was illegal. It would suck, your future would be ruined, and you probably wouldn't be able to lead a normal life again. You have no Idea what women go through when they're pregnant.

Much less so if any. There is no post-abortive psycosis, or whatever.",265335,1,6328,1,"Why do I think that she has inherent value? Because she's a person. 

Since when is having sex not doing anything? Sex is something, therefore having sex, is doing something.

In other threads, I've said that it isn't black and white. For those who can not physically give birth(those who it would kill or seriously hurt), I support abortion for. 

And you think that killing your baby doesn't cause any emotional and/or physical pain?","http://www.4forums.com/political/abortion-debates/9211-point-too-often-passed-over.html",240357,10
"1-6328_11_10_1",6328,1,"2006-11-19 09:51:00",851,176,240419,"2006-11-19 09:37:00",265338,182,10,"Yes, but it also has consequences. 

I don't know, you may not have heard of this new thing, it's called adoption.

Right now, you are assuming. And, as I told georged in another thread a minute ago, don't assume, as you make an XXX out of u and me. So, back to what you said, how do you know that I don't have a 16 year old pregnant sister/friend/other? You said it would suck. Yes, it would suck a little bit, but I decided to have sex, fully knowing the consequences, and now I would have to deal with it. Actually yes, I could live a normal life. I could continue to go to school, give birth to the baby, and then give the baby up for adoption. It would be hard, yes, but possible.

I'm sorry, I was refering to those selective people who have a conseince.",265337,1,6328,1,"Glad you figured that part out.

Sex is a norman part of a healthy relationship.

What about those who cannot emotionally or financially support a Baby. What if I told you you were pregnant right now (lets just assume you're a girl), and that abortion was illegal. It would suck, your future would be ruined, and you probably wouldn't be able to lead a normal life again. You have no Idea what women go through when they're pregnant.

Much less so if any. There is no post-abortive psycosis, or whatever.","http://www.4forums.com/political/abortion-debates/9211-point-too-often-passed-over.html",240413,11
"1-6328_15_11_1",6328,1,"2006-11-19 10:30:00",176,851,240429,"2006-11-19 09:51:00",265342,229,11,"No, thats what we have abortion for.

Most women can't handle adoption, next...

You are painting this as such a black and white issue. You cant just not have sex. You cant just put the baby up for adoption. Many women can become emotionally unstable and maybe even hurt someone else or themselves after giving birth. Its not black and white. Abortion is the only option for most women, and taking that option away would not only be morally wrong, it would be downwright primitive. We dont need extra babys. Unwanted children means poverty and crime, we don't need all of these unwanted children. What would be the point of having them? There are waay too many children no one gives a XXXX about in this world.
Have you read that article that I posted yet? I think you might find it interesting.

After having a baby, most people arent worrying about their conscience. Even when they're pregnant, they whole lifestyle is in danger. Most women cant have a baby because they cannot emotionally and financially support it, therefore most of them must have an abortion, and many of them feel sad about that. As I said before, READ THAT ARTICLE!",265338,1,6328,1,"Yes, but it also has consequences. 

I don't know, you may not have heard of this new thing, it's called adoption.

Right now, you are assuming. And, as I told georged in another thread a minute ago, don't assume, as you make an XXX out of u and me. So, back to what you said, how do you know that I don't have a 16 year old pregnant sister/friend/other? You said it would suck. Yes, it would suck a little bit, but I decided to have sex, fully knowing the consequences, and now I would have to deal with it. Actually yes, I could live a normal life. I could continue to go to school, give birth to the baby, and then give the baby up for adoption. It would be hard, yes, but possible.

I'm sorry, I was refering to those selective people who have a conseince.","http://www.4forums.com/political/abortion-debates/9211-point-too-often-passed-over.html",240419,15
"1-6328_18_15_1",6328,1,"2006-11-19 10:41:00",851,176,240432,"2006-11-19 10:30:00",265345,83,15,"Your statistics are useless as they don't concern babies. As babies don't go to foster care. There are people on one to two/three year WAITING lists to adopt a baby. Also, I don't understand why killing your baby would cause less emotional pain, as opposed to giveing it to a loving family.

Why? Are we that much of animals, that we can't control ourselves? Is it physically impossible to be celibate?",265342,1,6328,1,"No, thats what we have abortion for.

Most women can't handle adoption, next...

You are painting this as such a black and white issue. You cant just not have sex. You cant just put the baby up for adoption. Many women can become emotionally unstable and maybe even hurt someone else or themselves after giving birth. Its not black and white. Abortion is the only option for most women, and taking that option away would not only be morally wrong, it would be downwright primitive. We dont need extra babys. Unwanted children means poverty and crime, we don't need all of these unwanted children. What would be the point of having them? There are waay too many children no one gives a XXXX about in this world.
Have you read that article that I posted yet? I think you might find it interesting.

After having a baby, most people arent worrying about their conscience. Even when they're pregnant, they whole lifestyle is in danger. Most women cant have a baby because they cannot emotionally and financially support it, therefore most of them must have an abortion, and many of them feel sad about that. As I said before, READ THAT ARTICLE!","http://www.4forums.com/political/abortion-debates/9211-point-too-often-passed-over.html",240429,18
"1-6328_19_18_1",6328,1,"2006-11-19 10:56:00",176,851,240435,"2006-11-19 10:41:00",265346,151,18,"Frankly, im not concerned with a fetus at the moment. Im concerned with the living human being, who feels pain and sorrow, who's life you are about to throw away if you criminalize abortion. You still havent answered my question, why do we need all of these extra unwanted babys?
And I also refer you to the quote I posted before.

Have you had sex before? I havent, but it is foolish of you to make these assumptions. Sex is part of a healthy relationship and life, and no one will live in abstinence just because they have a chance of having a baby. That's what abortion is for.
I refer you to my signature, why do you feel that the government should seize women's reproductive rights and take away their personal choice and freedom?",265345,1,6328,1,"Your statistics are useless as they don't concern babies. As babies don't go to foster care. There are people on one to two/three year WAITING lists to adopt a baby. Also, I don't understand why killing your baby would cause less emotional pain, as opposed to giveing it to a loving family.

Why? Are we that much of animals, that we can't control ourselves? Is it physically impossible to be celibate?","http://www.4forums.com/political/abortion-debates/9211-point-too-often-passed-over.html",240432,19
"1-6328_21_19_1",6328,1,"2006-11-19 11:46:00",851,176,240444,"2006-11-19 10:56:00",265348,51,19,"Well that's your problem, because I am.

So just because they're unwanted, doesn't mean that they don't deserve to live? What if one of those aborted babies, may have been the person who discovered the cure for cancer? Have you ever thought of that?",265346,1,6328,1,"Frankly, im not concerned with a fetus at the moment. Im concerned with the living human being, who feels pain and sorrow, who's life you are about to throw away if you criminalize abortion. You still havent answered my question, why do we need all of these extra unwanted babys?
And I also refer you to the quote I posted before.

Have you had sex before? I havent, but it is foolish of you to make these assumptions. Sex is part of a healthy relationship and life, and no one will live in abstinence just because they have a chance of having a baby. That's what abortion is for.
I refer you to my signature, why do you feel that the government should seize women's reproductive rights and take away their personal choice and freedom?","http://www.4forums.com/political/abortion-debates/9211-point-too-often-passed-over.html",240435,21
"1-6328_26_21_1",6328,1,"2006-11-19 15:24:00",176,851,240468,"2006-11-19 11:46:00",265353,145,21,"""If your morals or your religion are getting in the way of your politics, you're not helping anyone.We don't have civil rights so we can be politically correct. We have civil rights so we can be different and offensive.""- madmike, 2/18/04 

What if the woman who was forced to have babys discovered the cure for cancer, but couldn't pursue her dreams because she had to care for her children. They don't deserve to live if they are living inside of another, sucking up all of their resources, and causing them emotional pain and suffering. Actually, Its up to the mother.
The mother knows the circumstances best, you do not. Therefore, she must make the descision for the child, not you, not the government.",265348,1,6328,1,"Well that's your problem, because I am.

So just because they're unwanted, doesn't mean that they don't deserve to live? What if one of those aborted babies, may have been the person who discovered the cure for cancer? Have you ever thought of that?","http://www.4forums.com/political/abortion-debates/9211-point-too-often-passed-over.html",240444,26
