"key","quote_source_post_discussion_id","posts_dataset_id","posts_timestamp","posts_author_id","quote_source_author_id","posts_native_post_id","quote_source_timestamp","post_text_id","Word_Count","quote_source_post_id","post_text","quote_source_text_id","Dialog_Turn","posts_discussion_id","quote_source_post_dataset_id","Fullquote_text","discussion_url","quote_source_native_post_id","posts_post_id"
"1-6408_225_222_1",6408,1,"2007-04-03 14:36:00",44,2039,256709,"2007-04-03 13:49:00",268587,40,222,"If I order a chicken salad sandwich but you give me egg salad can I send it back for cause? Btw fetuses don't represent an ethnic group. Are you purposely being thick or is it a condition?",268584,1,6408,1,"Elucidate. 

I'm not talking about the wanted unborn, I'm talking about all the “Unwanted Unborn”.

Like I said:
I'm not talking about the wanted unborn, I'm talking about all the “Unwanted Unborn”.","http://www.4forums.com/political/abortion-debates/9324-abortion-right-worng.html",256693,225
"1-6408_227_225_1",6408,1,"2007-04-03 15:45:00",2039,44,256727,"2007-04-03 14:36:00",268589,9,225,"Do you dispute that unborn humans are human?",268587,1,6408,1,"If I order a chicken salad sandwich but you give me egg salad can I send it back for cause? Btw fetuses don't represent an ethnic group. Are you purposely being thick or is it a condition?","http://www.4forums.com/political/abortion-debates/9324-abortion-right-worng.html",256709,227
"1-6408_229_227_1",6408,1,"2007-04-03 17:05:00",44,2039,256736,"2007-04-03 15:45:00",268591,9,227,"Why is unplugging brain dead humans not murder?",268589,1,6408,1,"Do you dispute that unborn humans are human?","http://www.4forums.com/political/abortion-debates/9324-abortion-right-worng.html",256727,229
"1-6408_230_229_1",6408,1,"2007-04-03 17:14:00",2039,44,256737,"2007-04-03 17:05:00",268592,4,229,"You tell me.",268591,1,6408,1,"Why is unplugging brain dead humans not murder?","http://www.4forums.com/political/abortion-debates/9324-abortion-right-worng.html",256736,230
"1-6408_236_230_1",6408,1,"2007-04-04 08:34:00",44,2039,256821,"2007-04-03 17:14:00",268598,7,230,"Can one spill an empty vessel?",268592,1,6408,1,"You tell me.","http://www.4forums.com/political/abortion-debates/9324-abortion-right-worng.html",256737,236
"1-6408_240_236_1",6408,1,"2007-04-04 18:30:00",2039,44,256947,"2007-04-04 08:34:00",268602,25,236,"So when I asked:
""Do you dispute that unborn humans are human?"".
What you are saying is: No.",268598,1,6408,1,"Can one spill an empty vessel?","http://www.4forums.com/political/abortion-debates/9324-abortion-right-worng.html",256821,240
"1-6408_242_240_1",6408,1,"2007-04-04 19:49:00",44,2039,256951,"2007-04-04 18:30:00",268604,47,240,"You must find this style of debate most effective. To answer in my own words- I don't dispute that early fetuses are human, I don't think it can be shown they are humans. Now, care to answer either of my questions?",268602,1,6408,1,"So when I asked:
""Do you dispute that unborn humans are human?"".
What you are saying is: No.","http://www.4forums.com/political/abortion-debates/9324-abortion-right-worng.html",256947,242
"1-6408_243_242_1",6408,1,"2007-04-04 20:06:00",2039,44,256952,"2007-04-04 19:49:00",268605,22,242,"So you think they are not humans.
What are they if they are not humans?
What species are they?",268604,1,6408,1,"You must find this style of debate most effective. To answer in my own words- I don't dispute that early fetuses are human, I don't think it can be shown they are humans. Now, care to answer either of my questions?","http://www.4forums.com/political/abortion-debates/9324-abortion-right-worng.html",256951,243
"1-6408_277_243_1",6408,1,"2007-04-06 07:39:00",44,2039,257232,"2007-04-04 20:06:00",268639,40,243,"To answer you I would be using human as an adjective. Human as noun implying ""human being"" otherwise referred to as ""person"" is what I think there's a problem in demonstrating for early fetuses.",268605,1,6408,1,"So you think they are not humans.
What are they if they are not humans?
What species are they?","http://www.4forums.com/political/abortion-debates/9324-abortion-right-worng.html",256952,277
"1-6408_131_130_2",6408,1,"2007-03-26 11:15:00",63,2039,255574,"2007-03-26 11:13:00",268493,25,130,"Refusing to debate with you is not conceding. No wonder you think women get themselves pregnant. You live by the double standard.",268492,2,6408,1,"It is too bad that you feel the need to concede.","http://www.4forums.com/political/abortion-debates/9324-abortion-right-worng.html",255572,131
"1-6408_132_131_2",6408,1,"2007-03-26 11:19:00",2039,63,255576,"2007-03-26 11:15:00",268494,6,131,"In my opinion it is.",268493,2,6408,1,"Refusing to debate with you is not conceding. No wonder you think women get themselves pregnant. You live by the double standard.","http://www.4forums.com/political/abortion-debates/9324-abortion-right-worng.html",255574,132
"1-6408_137_132_2",6408,1,"2007-03-26 12:21:00",63,2039,255594,"2007-03-26 11:19:00",268499,24,132,"Your lack of willingness to answer a straight question seems to indicate a lack of willingness to debate and therefor you conceded first.",268494,2,6408,1,"In my opinion it is.","http://www.4forums.com/political/abortion-debates/9324-abortion-right-worng.html",255576,137
"1-6408_140_137_2",6408,1,"2007-03-27 11:31:00",2039,63,255733,"2007-03-26 12:21:00",268502,39,137,"I asked the question first:
What or how do I force women to carry their pregnancies to term?
What do I actively do to force them?
I have not had this answered. 
I win.",268499,2,6408,1,"Your lack of willingness to answer a straight question seems to indicate a lack of willingness to debate and therefor you conceded first.","http://www.4forums.com/political/abortion-debates/9324-abortion-right-worng.html",255594,140
"1-6408_141_140_2",6408,1,"2007-03-27 11:35:00",63,2039,255735,"2007-03-27 11:31:00",268503,73,140,"It wasn't asked of me. Nor am I convinced this is the first question - but I will answer.
You actually can't. You would like to try. For removing the possibility of them terminating a pregnancy if they choose is by default forcing them to go through with it. However - you really can't do this. Even if illegal - women will seek and obtain abortions.",268502,2,6408,1,"I asked the question first:
What or how do I force women to carry their pregnancies to term?
What do I actively do to force them?
I have not had this answered. 
I win.","http://www.4forums.com/political/abortion-debates/9324-abortion-right-worng.html",255733,141
"1-6408_143_141_2",6408,1,"2007-03-27 11:45:00",2039,63,255743,"2007-03-27 11:35:00",268505,27,141,"I did ask the question first, just read the thread for proof. 

Thank you.
So you agree that I do not force anything.",268503,2,6408,1,"It wasn't asked of me. Nor am I convinced this is the first question - but I will answer.
You actually can't. You would like to try. For removing the possibility of them terminating a pregnancy if they choose is by default forcing them to go through with it. However - you really can't do this. Even if illegal - women will seek and obtain abortions.","http://www.4forums.com/political/abortion-debates/9324-abortion-right-worng.html",255735,143
"1-6408_215_214_3",6408,1,"2007-04-03 13:07:00",98,2039,256677,"2007-04-03 12:58:00",268577,56,214,"Perhaps you got on this bus by mistake. Sperm fertilizes the egg...the egg (human) never hatches.
Genocide is the deliberate and systematic destruction of a racial, political or cultural group. You'd have to make a big stretch to have it applicable to the worldwide practice of abortion.",268576,3,6408,1,"Maybe, there is no shame in failing tests or being young. 
However, if you are to use that analogy, then I can say the analogy fails at the point the human egg is hatched by the sperm. 

The very fact that I said abortion is genocide means that it is not necessary for support to be shown to the unborn, since classic genocide is the organised dehumanisation of people.","http://www.4forums.com/political/abortion-debates/9324-abortion-right-worng.html",256674,215
"1-6408_216_215_3",6408,1,"2007-04-03 13:12:00",2039,98,256680,"2007-04-03 13:07:00",268578,16,215,"Settled.
Humans are nothing like chickens.

Where is the stretching to be done?",268577,3,6408,1,"Perhaps you got on this bus by mistake. Sperm fertilizes the egg...the egg (human) never hatches.
Genocide is the deliberate and systematic destruction of a racial, political or cultural group. You'd have to make a big stretch to have it applicable to the worldwide practice of abortion.","http://www.4forums.com/political/abortion-debates/9324-abortion-right-worng.html",256677,216
"1-6408_219_216_3",6408,1,"2007-04-03 13:21:00",98,2039,256685,"2007-04-03 13:12:00",268581,93,216,"Okay.

Oh contrare! We each have two eyes, two feet, two breasts, one pecker, we breath oxygen, we can die of heat exhaustion, we sometimes fight to the death, we....

If there was a systematic, deliberate move on somewhere in the world to kill all unborn children, you might have a starting point. There is none.
Besides, even if you found one, it would likely be called 'extinctocide' since we'd eventually all be dead.",268578,3,6408,1,"Settled.
Humans are nothing like chickens.

Where is the stretching to be done?","http://www.4forums.com/political/abortion-debates/9324-abortion-right-worng.html",256680,219
"1-6408_220_219_3",6408,1,"2007-04-03 13:29:00",2039,98,256687,"2007-04-03 13:21:00",268582,26,219,"Sweet my analogy stands. 

Where ever abortion was first legalised, (Russia I think). 

Not true, nether is that word.",268581,3,6408,1,"Okay.

Oh contrare! We each have two eyes, two feet, two breasts, one pecker, we breath oxygen, we can die of heat exhaustion, we sometimes fight to the death, we....

If there was a systematic, deliberate move on somewhere in the world to kill all unborn children, you might have a starting point. There is none.
Besides, even if you found one, it would likely be called 'extinctocide' since we'd eventually all be dead.","http://www.4forums.com/political/abortion-debates/9324-abortion-right-worng.html",256685,220
"1-6408_221_220_3",6408,1,"2007-04-03 13:41:00",98,2039,256690,"2007-04-03 13:29:00",268583,177,220,"No, little darlin'. You missed the point about the analogies. 

Regardless of where or when abortion was first legalized, there has never been a deliberate, systematic targeting of ALL unborn babies. There was just permission given to rid one's womb of an unwanted attachment. Women who wanted children could stay pregnant. 

Nether is? I've been to the Netherlands, so it must mean something.
I know 'extinctocide' is not a currently defined word. But when the day comes that there's a deliberate, systematic drive to kill all unborn children, we'll have to make up a word for it. Genocide generally implies that someone is trying to get rid of an enemy. If we're trying to kill all unborn children, we're getting rid of ourselves...causing ourselves to become extinct...hence 'extinctocide"" would be a good word to coin. You just need to remember when that day comes that I own the word.",268582,3,6408,1,"Sweet my analogy stands. 

Where ever abortion was first legalised, (Russia I think). 

Not true, nether is that word.","http://www.4forums.com/political/abortion-debates/9324-abortion-right-worng.html",256687,221
"1-6408_222_221_3",6408,1,"2007-04-03 13:49:00",2039,98,256693,"2007-04-03 13:41:00",268584,50,221,"Elucidate. 

I'm not talking about the wanted unborn, I'm talking about all the “Unwanted Unborn”.

Like I said:
I'm not talking about the wanted unborn, I'm talking about all the “Unwanted Unborn”.",268583,3,6408,1,"No, little darlin'. You missed the point about the analogies. 

Regardless of where or when abortion was first legalized, there has never been a deliberate, systematic targeting of ALL unborn babies. There was just permission given to rid one's womb of an unwanted attachment. Women who wanted children could stay pregnant. 

Nether is? I've been to the Netherlands, so it must mean something.
I know 'extinctocide' is not a currently defined word. But when the day comes that there's a deliberate, systematic drive to kill all unborn children, we'll have to make up a word for it. Genocide generally implies that someone is trying to get rid of an enemy. If we're trying to kill all unborn children, we're getting rid of ourselves...causing ourselves to become extinct...hence 'extinctocide"" would be a good word to coin. You just need to remember when that day comes that I own the word.","http://www.4forums.com/political/abortion-debates/9324-abortion-right-worng.html",256690,222
"1-6408_235_222_3",6408,1,"2007-04-04 07:09:00",98,2039,256797,"2007-04-03 13:49:00",268597,89,222,"Originally Posted by jim's trucking 
No, little darlin'. You missed the point about the analogies. 

Rather than go way off topic with attempts to explain analogies, let's let it suffice to say that you could stand some tutoring. Having to guess your age and educational history makes it difficult to choose a starting point.
As you mature and learn the use of analogies, please remember that there is not necessarily an equality implied between the objects used within the analogy.",268584,3,6408,1,"Elucidate.
...","http://www.4forums.com/political/abortion-debates/9324-abortion-right-worng.html",256693,235
"1-6408_241_235_3",6408,1,"2007-04-04 18:33:00",2039,98,256948,"2007-04-04 07:09:00",268603,12,235,"So what are the unborn humans if they are not human?",268597,3,6408,1,"Originally Posted by jim's trucking 
No, little darlin'. You missed the point about the analogies. 

Rather than go way off topic with attempts to explain analogies, let's let it suffice to say that you could stand some tutoring. Having to guess your age and educational history makes it difficult to choose a starting point.
As you mature and learn the use of analogies, please remember that there is not necessarily an equality implied between the objects used within the analogy.","http://www.4forums.com/political/abortion-debates/9324-abortion-right-worng.html",256797,241
"1-6408_349_346_4",6408,1,"2007-04-09 07:50:00",98,2039,257666,"2007-04-08 02:01:00",268711,110,346,"Perhaps if you would present something using valid logic people might believe what you say.
You seem to be suffering greatly from attachment to one of the simplest of false logics. Commies wear red hats. John wears a red hat. John is a Commie.
This is false logic.
You miss the main identifier of genocide...it is an effort to WIPE OUT a group...not a vehicle to kill a selected few of a group.
Roe vs. Wade merely gives people a legal way to abort...it does not compel abortion.
Get some help in the logic department.",268708,4,6408,1,"You will never be satisfied, no matter what I present. 
Genocide in all its forms kills the inconvenient, a fact that is present in all genocide.","http://www.4forums.com/political/abortion-debates/9324-abortion-right-worng.html",257497,349
"1-6408_353_349_4",6408,1,"2007-04-09 14:58:00",2039,98,257762,"2007-04-09 07:50:00",268715,35,349,"Legalising abortion became the systematic process that was vital in order to identify abortion as genocide, and it is the only method that can allow for the entire destruction of the unwanted unborn.",268711,4,6408,1,"Perhaps if you would present something using valid logic people might believe what you say.
You seem to be suffering greatly from attachment to one of the simplest of false logics. Commies wear red hats. John wears a red hat. John is a Commie.
This is false logic.
You miss the main identifier of genocide...it is an effort to WIPE OUT a group...not a vehicle to kill a selected few of a group.
Roe vs. Wade merely gives people a legal way to abort...it does not compel abortion.
Get some help in the logic department.","http://www.4forums.com/political/abortion-debates/9324-abortion-right-worng.html",257666,353
"1-6408_356_353_4",6408,1,"2007-04-09 15:39:00",98,2039,257778,"2007-04-09 14:58:00",268718,106,353,"It is you that has misidentified abortion as genocide. It clearly does not fit the definition.
(You do realize that we use words AS THEY ARE DEFINED to produce meaningful sentences, don't you?)
What legalized abortion does is reduce the number of illegal and inherently dangerous (often deadly) abortions that will take place in the absense of legal means. Get used to it. Many people do not want to have children and they get 'stuck' with one accidently. Your insistence that they should have known better has no bearing on the situation.",268715,4,6408,1,"Legalising abortion became the systematic process that was vital in order to identify abortion as genocide, and it is the only method that can allow for the entire destruction of the unwanted unborn.","http://www.4forums.com/political/abortion-debates/9324-abortion-right-worng.html",257762,356
"1-6408_358_356_4",6408,1,"2007-04-10 19:19:00",2039,98,258074,"2007-04-09 15:39:00",268720,12,356,"LINK
Read it, or better yet read the entire thread.",268718,4,6408,1,"It is you that has misidentified abortion as genocide. It clearly does not fit the definition.
(You do realize that we use words AS THEY ARE DEFINED to produce meaningful sentences, don't you?)
What legalized abortion does is reduce the number of illegal and inherently dangerous (often deadly) abortions that will take place in the absense of legal means. Get used to it. Many people do not want to have children and they get 'stuck' with one accidently. Your insistence that they should have known better has no bearing on the situation.","http://www.4forums.com/political/abortion-debates/9324-abortion-right-worng.html",257778,358
"1-6408_359_358_4",6408,1,"2007-04-11 07:10:00",98,2039,258134,"2007-04-10 19:19:00",268721,174,358,"I did. You merely repeat the same invalid 'logic' you have presented here.
genocide=the systematic and deliberate destruction of a racial, political or cultural group.
If the law included a method by which some appointed group would determine who gets abortions, you might have a point in that the system could be skewed to abort all blacks or all hispanics or all christians or all blondes. However, that is not the case. As I pointed out earlier, legalized abortion merely gives people the right to obtain abortions and reduces the number of illegal abortions that would occur were it not legal. It is not a deliberate and systematic destruction of any group.
You can attach all the similarities you can conjure up in your attempt to equate the two. Each one of these similarities is simply another red hat that does NOT necessarily make John a Commie. You do remember that logical falacy, don't you?",268720,4,6408,1,"LINK
Read it, or better yet read the entire thread.","http://www.4forums.com/political/abortion-debates/9324-abortion-right-worng.html",258074,359
"1-6408_360_359_4",6408,1,"2007-04-11 18:59:00",2039,98,258305,"2007-04-11 07:10:00",268722,14,359,"Let's do this step by step. 
The law is systematic, right?",268721,4,6408,1,"I did. You merely repeat the same invalid 'logic' you have presented here.
genocide=the systematic and deliberate destruction of a racial, political or cultural group.
If the law included a method by which some appointed group would determine who gets abortions, you might have a point in that the system could be skewed to abort all blacks or all hispanics or all christians or all blondes. However, that is not the case. As I pointed out earlier, legalized abortion merely gives people the right to obtain abortions and reduces the number of illegal abortions that would occur were it not legal. It is not a deliberate and systematic destruction of any group.
You can attach all the similarities you can conjure up in your attempt to equate the two. Each one of these similarities is simply another red hat that does NOT necessarily make John a Commie. You do remember that logical falacy, don't you?","http://www.4forums.com/political/abortion-debates/9324-abortion-right-worng.html",258134,360
"1-6408_361_360_4",6408,1,"2007-04-12 08:08:00",98,2039,258353,"2007-04-11 18:59:00",268723,74,360,"...to which I might ask, ""Which one?""
There's no sense in playing sentence tag with you. Just lay out your entire argument in a string of sentences...using definitions printed in Webster's or equivalent English dictionary, not your personal interpretations of definitions. Write as if you are trying to convince the King by way of letter that arbortion=genocide and should be stopped.",268722,4,6408,1,"Let's do this step by step. 
The law is systematic, right?","http://www.4forums.com/political/abortion-debates/9324-abortion-right-worng.html",258305,361
"1-6408_362_361_4",6408,1,"2007-04-13 22:07:00",2039,98,258594,"2007-04-12 08:08:00",268724,7,361,"So you dispute law is systematic?",268723,4,6408,1,"...to which I might ask, ""Which one?""
There's no sense in playing sentence tag with you. Just lay out your entire argument in a string of sentences...using definitions printed in Webster's or equivalent English dictionary, not your personal interpretations of definitions. Write as if you are trying to convince the King by way of letter that arbortion=genocide and should be stopped.","http://www.4forums.com/political/abortion-debates/9324-abortion-right-worng.html",258353,362
"1-6408_363_362_4",6408,1,"2007-04-16 07:14:00",98,2039,258914,"2007-04-13 22:07:00",268725,56,362,"Apparently, you have difficulties understanding English. I said there will be no 'one-sentence-sparring'...and nothing that I have said justifies your conclusion that I might dispute your initial, rhetorical question.
Make your entire case in a paragraph or so. Try to keep it below a thousand words.",268724,4,6408,1,"So you dispute law is systematic?","http://www.4forums.com/political/abortion-debates/9324-abortion-right-worng.html",258594,363
"1-6408_364_363_4",6408,1,"2007-04-16 08:36:00",2039,98,258926,"2007-04-16 07:14:00",268726,41,363,"I will make my case, on a level you will understand, obviously any other level is beyond you. 
Now lets do this step by step. 
Do you agree or disagree that ""Law"" is systematic?",268725,4,6408,1,"Apparently, you have difficulties understanding English. I said there will be no 'one-sentence-sparring'...and nothing that I have said justifies your conclusion that I might dispute your initial, rhetorical question.
Make your entire case in a paragraph or so. Try to keep it below a thousand words.","http://www.4forums.com/political/abortion-debates/9324-abortion-right-worng.html",258914,364
"1-6408_365_364_4",6408,1,"2007-04-16 08:53:00",98,2039,258931,"2007-04-16 08:36:00",268727,42,364,"You are not worth the effort.
I'm guessing now you will claim to have won whatever argument it is that you can't seem to put together. So be it. I have better things to do with my time.",268726,4,6408,1,"I will make my case, on a level you will understand, obviously any other level is beyond you. 
Now lets do this step by step. 
Do you agree or disagree that ""Law"" is systematic?","http://www.4forums.com/political/abortion-debates/9324-abortion-right-worng.html",258926,365
"1-6408_366_365_4",6408,1,"2007-04-18 16:33:00",2039,98,259367,"2007-04-16 08:53:00",268728,10,365,"I agree, you would be wasting your time.",268727,4,6408,1,"You are not worth the effort.
I'm guessing now you will claim to have won whatever argument it is that you can't seem to put together. So be it. I have better things to do with my time.","http://www.4forums.com/political/abortion-debates/9324-abortion-right-worng.html",258931,366
"1-6408_293_292_5",6408,1,"2007-04-06 15:07:00",137,2039,257322,"2007-04-06 14:33:00",268655,33,292,"I know it is wishful thinking for ""_____"" to write anything of value for me, but I want to point out that the above bolded statement needs further definition.",268654,5,6408,1,"Well I think it is highly unlikely that I would miss the point on every single one of your comments all of a sudden, just as it so happens that I bring the debate to a conclusion. You were quite happy to accept my earlier comments, when it looked slightly less gloomy for you. 
Let me wrap things up:
A human is a person, I think we both agree on that, the dictionary is very clear about it.
An unborn is a human therefore it is a person.
Killing people in the millions is genocide if the reason is to kill them for convenience.
If killing the unborn is killing people than it is hardly necessary for me to prove the the unwanted unborn are an ethnic group in order to prove their deaths amount to genocide, regardless I have you that they are. I could also show how they fit the description of other formats to include them as an ethnic group.
In fact it is easier to show that the killing of the unwanted unborn is genocide, than it would to show the same conclusion of all black people, so you demonstrated, since you failed miserably to prove it.
Conclusion, abortion is genocide.","http://www.4forums.com/political/abortion-debates/9324-abortion-right-worng.html",257312,293
"1-6408_296_293_5",6408,1,"2007-04-06 15:23:00",2039,137,257327,"2007-04-06 15:07:00",268658,38,293,"Well who would dispute it?
Look at every example of genocide ever perpetrated, those that died were inconvenient.
Or are you claiming that they are convenient, and their deaths were just for fun?",268655,5,6408,1,"I know it is wishful thinking for ""_____"" to write anything of value for me, but I want to point out that the above bolded statement needs further definition.","http://www.4forums.com/political/abortion-debates/9324-abortion-right-worng.html",257322,296
"1-6408_298_296_5",6408,1,"2007-04-06 15:33:00",137,2039,257330,"2007-04-06 15:23:00",268660,57,296,"You've shown that in your logic that abortion = genocide, if it's done mainly for convenience. I do not agree that abortion is done mainly for convenience, therefore, by your logic, I do not agree that abortion = genocide.
That's why I was suggesting more clarification on ""convenience"".",268658,5,6408,1,"Well who would dispute it?
Look at every example of genocide ever perpetrated, those that died were inconvenient.
Or are you claiming that they are convenient, and their deaths were just for fun?","http://www.4forums.com/political/abortion-debates/9324-abortion-right-worng.html",257327,298
"1-6408_299_298_5",6408,1,"2007-04-06 15:49:00",2039,137,257335,"2007-04-06 15:33:00",268661,87,298,"No, I have shown that this is true regardless, the killing of the unwanted unborn is genocide.
I have shown that killing in the millions is genocide.
I have also shown the killing in the millions for convenience is genocide.
Why did so many Jews die in WW2? They were inconvenient. 
Why did so many Kurds die at the hands of Sadam? They were inconvenient. 
Why do so many Unwanted unborn die? They are inconvenient.",268660,5,6408,1,"You've shown that in your logic that abortion = genocide, if it's done mainly for convenience. I do not agree that abortion is done mainly for convenience, therefore, by your logic, I do not agree that abortion = genocide.
That's why I was suggesting more clarification on ""convenience"".","http://www.4forums.com/political/abortion-debates/9324-abortion-right-worng.html",257330,299
"1-6408_306_299_5",6408,1,"2007-04-07 07:48:00",137,2039,257387,"2007-04-06 15:49:00",268668,71,299,"Your statement was that...""Killing people in the millions is genocide if the reason is to kill them for convenience"". 
You have not defined 'convenience' in the case of abortion. Therefore, you have not shown concretely with your logic how abortion = genocide.
I would be interested in your proof that the 'unwanted unborn die because they are inconvenient'.",268661,5,6408,1,"No, I have shown that this is true regardless, the killing of the unwanted unborn is genocide.
I have shown that killing in the millions is genocide.
I have also shown the killing in the millions for convenience is genocide.
Why did so many Jews die in WW2? They were inconvenient. 
Why did so many Kurds die at the hands of Sadam? They were inconvenient. 
Why do so many Unwanted unborn die? They are inconvenient.","http://www.4forums.com/political/abortion-debates/9324-abortion-right-worng.html",257335,306
"1-6408_308_306_5",6408,1,"2007-04-07 08:11:00",2039,137,257391,"2007-04-07 07:48:00",268670,13,306,"Why are they killed then?
I would be interested to know?",268668,5,6408,1,"Your statement was that...""Killing people in the millions is genocide if the reason is to kill them for convenience"". 
You have not defined 'convenience' in the case of abortion. Therefore, you have not shown concretely with your logic how abortion = genocide.
I would be interested in your proof that the 'unwanted unborn die because they are inconvenient'.","http://www.4forums.com/political/abortion-debates/9324-abortion-right-worng.html",257387,308
"1-6408_310_308_5",6408,1,"2007-04-07 08:56:00",137,2039,257396,"2007-04-07 08:11:00",268672,56,308,"Let's not get sidetracked.
You need to define convenience for your equation (abortion = genocide) to be sound, unless you want to edit your equation.
Since this is a point of contention for many people (what is a convenience and what is not) I'm interested in your proof.",268670,5,6408,1,"Why are they killed then?
I would be interested to know?","http://www.4forums.com/political/abortion-debates/9324-abortion-right-worng.html",257391,310
"1-6408_311_310_5",6408,1,"2007-04-07 09:24:00",2039,137,257401,"2007-04-07 08:56:00",268673,116,310,"con·ven·ience (kən-vēn'yəns) 
n. 
1.The quality of being suitable to one's comfort, purposes, or needs: the convenience of living near shops, schools, and libraries. 
2.Personal comfort or advantage: services that promote the customer's convenience. 
3.Something that increases comfort or saves work: household conveniences such as a washing machine, an electric can opener, and disposable diapers. See synonyms at amenity. 
4.A suitable or agreeable time: Fill out the form at your earliest convenience. 
5.Chiefly British. A lavatory.",268672,5,6408,1,"Let's not get sidetracked.
You need to define convenience for your equation (abortion = genocide) to be sound, unless you want to edit your equation.
Since this is a point of contention for many people (what is a convenience and what is not) I'm interested in your proof.","http://www.4forums.com/political/abortion-debates/9324-abortion-right-worng.html",257396,311
"1-6408_312_311_5",6408,1,"2007-04-07 09:33:00",137,2039,257406,"2007-04-07 09:24:00",268674,13,311,"Please site your source.
Then apply to the situation at hand.",268673,5,6408,1,"con·ven·ience (kən-vēn'yəns) 
n. 
1.The quality of being suitable to one's comfort, purposes, or needs: the convenience of living near shops, schools, and libraries. 
2.Personal comfort or advantage: services that promote the customer's convenience. 
3.Something that increases comfort or saves work: household conveniences such as a washing machine, an electric can opener, and disposable diapers. See synonyms at amenity. 
4.A suitable or agreeable time: Fill out the form at your earliest convenience. 
5.Chiefly British. A lavatory.","http://www.4forums.com/political/abortion-debates/9324-abortion-right-worng.html",257401,312
"1-6408_313_312_5",6408,1,"2007-04-07 09:41:00",2039,137,257407,"2007-04-07 09:33:00",268675,5,312,"Let's not get sidetracked.",268674,5,6408,1,"Please site your source.
Then apply to the situation at hand.","http://www.4forums.com/political/abortion-debates/9324-abortion-right-worng.html",257406,313
"1-6408_314_313_5",6408,1,"2007-04-07 09:49:00",137,2039,257408,"2007-04-07 09:41:00",268676,34,313,"Apply the definition you have posted to prove that abortions are done for convenience and, by your logic, prove that abortion = genocide.
Don't forget to cite your sources. emoticonXAngel",268675,5,6408,1,"Let's not get sidetracked.","http://www.4forums.com/political/abortion-debates/9324-abortion-right-worng.html",257407,314
"1-6408_315_314_5",6408,1,"2007-04-07 09:55:00",2039,137,257409,"2007-04-07 09:49:00",268677,32,314,"I think it is time for you to answer some of my questions for a change.
Why are most abortions carried out if not because the unwanted unborn are inconvenient.",268676,5,6408,1,"Apply the definition you have posted to prove that abortions are done for convenience and, by your logic, prove that abortion = genocide.
Don't forget to cite your sources. emoticonXAngel","http://www.4forums.com/political/abortion-debates/9324-abortion-right-worng.html",257408,315
"1-6408_316_315_5",6408,1,"2007-04-07 10:05:00",137,2039,257413,"2007-04-07 09:55:00",268678,18,315,"I do not need to prove your hypothesis, you do. 
I learned that from you.",268677,5,6408,1,"I think it is time for you to answer some of my questions for a change.
Why are most abortions carried out if not because the unwanted unborn are inconvenient.","http://www.4forums.com/political/abortion-debates/9324-abortion-right-worng.html",257409,316
"1-6408_317_316_5",6408,1,"2007-04-07 10:39:00",2039,137,257415,"2007-04-07 10:05:00",268679,11,316,"I don't need to show you twice, do I?",268678,5,6408,1,"I do not need to prove your hypothesis, you do. 
I learned that from you.","http://www.4forums.com/political/abortion-debates/9324-abortion-right-worng.html",257413,317
"1-6408_320_317_5",6408,1,"2007-04-07 10:47:00",137,2039,257418,"2007-04-07 10:39:00",268682,8,317,"No, only once.
Still waiting...",268679,5,6408,1,"I don't need to show you twice, do I?","http://www.4forums.com/political/abortion-debates/9324-abortion-right-worng.html",257415,320
"1-6408_321_320_5",6408,1,"2007-04-07 11:00:00",2039,137,257419,"2007-04-07 10:47:00",268683,36,320,"Well as I have said before, every case of genocide sees the victims killed merely for convenience. 
Show me one case where it is not true, that would be easier, surely.",268682,5,6408,1,"No, only once.
Still waiting...","http://www.4forums.com/political/abortion-debates/9324-abortion-right-worng.html",257418,321
"1-6408_322_321_5",6408,1,"2007-04-07 11:08:00",137,2039,257422,"2007-04-07 11:00:00",268684,24,321,"It is not my responsibility to prove your hypothesis. If it's too difficult for you, you need to edit your equation.",268683,5,6408,1,"Well as I have said before, every case of genocide sees the victims killed merely for convenience. 
Show me one case where it is not true, that would be easier, surely.","http://www.4forums.com/political/abortion-debates/9324-abortion-right-worng.html",257419,322
"1-6408_324_322_5",6408,1,"2007-04-07 11:17:00",2039,137,257425,"2007-04-07 11:08:00",268686,66,322,"Every case of genocide sees the victim as an inconvenience.
That means that not in just two cases of genocide, or three cases of genocide or four or five cases of genocide, but in every single case of genocide the victims were inconvenient. 
I have proved beyond reasonable doubt that genocide seeks to kill the inconvenient.
Well and truly proven.",268684,5,6408,1,"It is not my responsibility to prove your hypothesis. If it's too difficult for you, you need to edit your equation.","http://www.4forums.com/political/abortion-debates/9324-abortion-right-worng.html",257422,324
"1-6408_333_324_5",6408,1,"2007-04-07 11:49:00",137,2039,257435,"2007-04-07 11:17:00",268695,57,324,"No, you haven't proven anything. You've just repeated yourself.
First, you need to prove your statement that ""every case of genocide sees the victim as an inconvenience"". You need to include an accepted definition of convenience.
If you cannot do this, then you must revise your statement: 
",268686,5,6408,1,"Every case of genocide sees the victim as an inconvenience.
That means that not in just two cases of genocide, or three cases of genocide or four or five cases of genocide, but in every single case of genocide the victims were inconvenient. 
I have proved beyond reasonable doubt that genocide seeks to kill the inconvenient.
Well and truly proven.","http://www.4forums.com/political/abortion-debates/9324-abortion-right-worng.html",257425,333
"1-6408_335_333_5",6408,1,"2007-04-07 12:05:00",2039,137,257438,"2007-04-07 11:49:00",268697,35,333,"Some how my interpretation that all the victims are inconvenient, seems to fit better than your interpretation that they are convenient, which is what you are saying when you challenge my comment.",268695,5,6408,1,"No, you haven't proven anything. You've just repeated yourself.
First, you need to prove your statement that ""every case of genocide sees the victim as an inconvenience"". You need to include an accepted definition of convenience.
If you cannot do this, then you must revise your statement: 
","http://www.4forums.com/political/abortion-debates/9324-abortion-right-worng.html",257435,335
"1-6408_341_335_5",6408,1,"2007-04-07 16:06:00",137,2039,257454,"2007-04-07 12:05:00",268703,60,335,"Let's not get sidetracked. 
Asserting what I may or may not be saying by challenging your comment is not proof of your statement. 
I'm still waiting to hear how every instance of genocide was for convenience, especially abortion. Support your interpretation.
Don't forget to define convenience, and please cite your source this time.",268697,5,6408,1,"Some how my interpretation that all the victims are inconvenient, seems to fit better than your interpretation that they are convenient, which is what you are saying when you challenge my comment.","http://www.4forums.com/political/abortion-debates/9324-abortion-right-worng.html",257438,341
"1-6408_342_341_5",6408,1,"2007-04-07 16:40:00",2039,137,257459,"2007-04-07 16:06:00",268704,4,341,"Read post 324.",268703,5,6408,1,"Let's not get sidetracked. 
Asserting what I may or may not be saying by challenging your comment is not proof of your statement. 
I'm still waiting to hear how every instance of genocide was for convenience, especially abortion. Support your interpretation.
Don't forget to define convenience, and please cite your source this time.","http://www.4forums.com/political/abortion-debates/9324-abortion-right-worng.html",257454,342
"1-6408_343_342_5",6408,1,"2007-04-07 16:52:00",137,2039,257463,"2007-04-07 16:40:00",268705,39,342,"From that post:

And we go 'round and 'round, because you cannot, and have not proved this statement, and thus your equation that abortion = genocide is not shown to be true.",268704,5,6408,1,"Read post 324.","http://www.4forums.com/political/abortion-debates/9324-abortion-right-worng.html",257459,343
"1-6408_344_343_5",6408,1,"2007-04-07 16:55:00",2039,137,257464,"2007-04-07 16:52:00",268706,172,343,"A Sobering Future
But where is the drive to legalize abortion leading modern nations? What is the acceptance of abortion doing to our societies? Judge Robert Bork calls the U.S. Supreme Court’s Roe v. Wade decision, which legalized abortion, an attempt by liberal secular elites to impose their values on the rest of the nation (see Bork, p. 174). He observes: ""Abortion has coarsened us"" and it reflects ""the brutalization of our culture"" (ibid., p. 182). He states: ""The systematic killing of unborn children in huge numbers is part of a general disregard for human life that has been growing for some time. Abortion… deepens and legitimates the nihilism [disregard for traditional values] that is spreading in our culture and finds killing for convenience acceptable"" (ibid, p. 192).
Link
By Douglas S. Winnail",268705,5,6408,1,"From that post:

And we go 'round and 'round, because you cannot, and have not proved this statement, and thus your equation that abortion = genocide is not shown to be true.","http://www.4forums.com/political/abortion-debates/9324-abortion-right-worng.html",257463,344
"1-6408_345_344_5",6408,1,"2007-04-07 22:46:00",137,2039,257488,"2007-04-07 16:55:00",268707,28,344,"An opinion piece is not proof of anything. It's like you posted a picture of a cloud. 
I suggest you revisit your ""logic"".",268706,5,6408,1,"A Sobering Future
But where is the drive to legalize abortion leading modern nations? What is the acceptance of abortion doing to our societies? Judge Robert Bork calls the U.S. Supreme Court’s Roe v. Wade decision, which legalized abortion, an attempt by liberal secular elites to impose their values on the rest of the nation (see Bork, p. 174). He observes: ""Abortion has coarsened us"" and it reflects ""the brutalization of our culture"" (ibid., p. 182). He states: ""The systematic killing of unborn children in huge numbers is part of a general disregard for human life that has been growing for some time. Abortion… deepens and legitimates the nihilism [disregard for traditional values] that is spreading in our culture and finds killing for convenience acceptable"" (ibid, p. 192).
Link
By Douglas S. Winnail","http://www.4forums.com/political/abortion-debates/9324-abortion-right-worng.html",257464,345
"1-6408_346_345_5",6408,1,"2007-04-08 02:01:00",2039,137,257497,"2007-04-07 22:46:00",268708,30,345,"You will never be satisfied, no matter what I present. 
Genocide in all its forms kills the inconvenient, a fact that is present in all genocide.",268707,5,6408,1,"An opinion piece is not proof of anything. It's like you posted a picture of a cloud. 
I suggest you revisit your ""logic"".","http://www.4forums.com/political/abortion-debates/9324-abortion-right-worng.html",257488,346
"1-6408_350_346_5",6408,1,"2007-04-09 09:47:00",137,2039,257678,"2007-04-08 02:01:00",268712,57,346,"You're absolutely correct about one thing; until you present facts to substantiate your ""logic"", I will not be satisfied. And neither should you; you owe it to yourself to base your opinions on factual evidence.

I had completely missed this. What a great point. Thanks, jim!",268708,5,6408,1,"You will never be satisfied, no matter what I present. 
Genocide in all its forms kills the inconvenient, a fact that is present in all genocide.","http://www.4forums.com/political/abortion-debates/9324-abortion-right-worng.html",257497,350
"1-6408_355_350_5",6408,1,"2007-04-09 15:05:00",2039,137,257766,"2007-04-09 09:47:00",268717,76,350,"I know now, you will reject any comment I present to you. 
You know that I'm right, all you need to do is show one example of where my comment fails, and you can't.
Just accept the facts or prove them wrong. I have shown examples that this is true, and that is alls I need to do, the onus is on you now. 
Good luck.",268712,5,6408,1,"You're absolutely correct about one thing; until you present facts to substantiate your ""logic"", I will not be satisfied. And neither should you; you owe it to yourself to base your opinions on factual evidence.

I had completely missed this. What a great point. Thanks, jim!","http://www.4forums.com/political/abortion-debates/9324-abortion-right-worng.html",257678,355
"1-6408_357_355_5",6408,1,"2007-04-09 17:57:00",137,2039,257821,"2007-04-09 15:05:00",268719,103,355,"You have presented no facts to accept. When unable to prove your logic, you turned to me to prove it for you. When I refused, you posted an opinion article. When called out on that, you claim that I will reject anything you have to say.
If you post something to back up your logic, you might find me willing to change my mind. It's happened before; I do not think myself so infalliable that I could never be wrong or that someone else might think something I hadn't thought of before.",268717,5,6408,1,"I know now, you will reject any comment I present to you. 
You know that I'm right, all you need to do is show one example of where my comment fails, and you can't.
Just accept the facts or prove them wrong. I have shown examples that this is true, and that is alls I need to do, the onus is on you now. 
Good luck.","http://www.4forums.com/political/abortion-debates/9324-abortion-right-worng.html",257766,357
"1-6408_358_357_5",6408,1,"2007-04-10 19:19:00",2039,137,258074,"2007-04-09 17:57:00",268720,12,357,"LINK
Read it, or better yet read the entire thread.",268719,5,6408,1,"You have presented no facts to accept. When unable to prove your logic, you turned to me to prove it for you. When I refused, you posted an opinion article. When called out on that, you claim that I will reject anything you have to say.
If you post something to back up your logic, you might find me willing to change my mind. It's happened before; I do not think myself so infalliable that I could never be wrong or that someone else might think something I hadn't thought of before.","http://www.4forums.com/political/abortion-debates/9324-abortion-right-worng.html",257821,358
"1-6408_326_307_6",6408,1,"2007-04-07 11:21:00",176,2039,257428,"2007-04-07 08:09:00",268688,25,307,"There has already been many, and they prove that an embryo does not have mental existence. Hence, they are legally dead.",268669,6,6408,1,"You have just applied a test to see if there is a person in the coffin, where is the test for the unborn?","http://www.4forums.com/political/abortion-debates/9324-abortion-right-worng.html",257390,326
"1-6408_327_326_6",6408,1,"2007-04-07 11:24:00",2039,176,257429,"2007-04-07 11:21:00",268689,6,326,"How does something dead grow?",268688,6,6408,1,"There has already been many, and they prove that an embryo does not have mental existence. Hence, they are legally dead.","http://www.4forums.com/political/abortion-debates/9324-abortion-right-worng.html",257428,327
"1-6408_329_327_6",6408,1,"2007-04-07 11:26:00",176,2039,257431,"2007-04-07 11:24:00",268691,32,327,"I never said it was dead. However, a plant is technically legally dead, as in it has no mental existence and no brain, yet it still grows.",268689,6,6408,1,"How does something dead grow?","http://www.4forums.com/political/abortion-debates/9324-abortion-right-worng.html",257429,329
"1-6408_332_329_6",6408,1,"2007-04-07 11:36:00",2039,176,257434,"2007-04-07 11:26:00",268694,7,329,"A plant is very much alive.",268691,6,6408,1,"I never said it was dead. However, a plant is technically legally dead, as in it has no mental existence and no brain, yet it still grows.","http://www.4forums.com/political/abortion-debates/9324-abortion-right-worng.html",257431,332
"1-6408_336_332_6",6408,1,"2007-04-07 12:06:00",176,2039,257439,"2007-04-07 11:36:00",268698,45,332,"Are you telling me a plant has a brain and can think? That it mentally exists? Of course it is alive, so are my kidneys, but that doesn't automatically make them people. They must be sentient to be people.",268694,6,6408,1,"A plant is very much alive.","http://www.4forums.com/political/abortion-debates/9324-abortion-right-worng.html",257434,336
"1-6408_338_336_6",6408,1,"2007-04-07 12:27:00",2039,176,257441,"2007-04-07 12:06:00",268700,21,336,"a·live (ə-līv') 
adj.
Having life; living.",268698,6,6408,1,"Are you telling me a plant has a brain and can think? That it mentally exists? Of course it is alive, so are my kidneys, but that doesn't automatically make them people. They must be sentient to be people.","http://www.4forums.com/political/abortion-debates/9324-abortion-right-worng.html",257439,338
"1-6408_100_99_7",6408,1,"2007-03-23 14:36:00",375,2039,255346,"2007-03-23 14:25:00",268462,44,99,"That's really stretching it.
And how many women who go through artificial insemination (an expensive procedure that you'd only go through if you WANT to get pregnant or have a chance of getting pregnant) then go and get an abortion?",268461,7,6408,1,"Artificial insemination.
Yes they do.","http://www.4forums.com/political/abortion-debates/9324-abortion-right-worng.html",255344,100
"1-6408_101_100_7",6408,1,"2007-03-23 16:14:00",2039,375,255349,"2007-03-23 14:36:00",268463,33,100,"The number of people that do this is irrelevant, alls that counts is the very fact that it happens, and so it invalidates the the sweeping statement that suggested otherwise.",268462,7,6408,1,"That's really stretching it.
And how many women who go through artificial insemination (an expensive procedure that you'd only go through if you WANT to get pregnant or have a chance of getting pregnant) then go and get an abortion?","http://www.4forums.com/political/abortion-debates/9324-abortion-right-worng.html",255346,101
"1-6408_102_101_7",6408,1,"2007-03-23 17:34:00",375,2039,255353,"2007-03-23 16:14:00",268464,44,101,"Even then, your statement does nothing. They aren't ""getting themselves pregnant"". A doctor is doing a medical procedure, that may or may not result in a pregnancy (ya know, those little sperm thingies?) emoticonXAngel",268463,7,6408,1,"The number of people that do this is irrelevant, alls that counts is the very fact that it happens, and so it invalidates the the sweeping statement that suggested otherwise.","http://www.4forums.com/political/abortion-debates/9324-abortion-right-worng.html",255349,102
"1-6408_103_102_7",6408,1,"2007-03-23 18:05:00",2039,375,255355,"2007-03-23 17:34:00",268465,6,102,"Home DIY kits are available.",268464,7,6408,1,"Even then, your statement does nothing. They aren't ""getting themselves pregnant"". A doctor is doing a medical procedure, that may or may not result in a pregnancy (ya know, those little sperm thingies?) emoticonXAngel","http://www.4forums.com/political/abortion-debates/9324-abortion-right-worng.html",255353,103
"1-6408_104_103_7",6408,1,"2007-03-23 18:20:00",375,2039,255356,"2007-03-23 18:05:00",268466,5,103,"Ya got a source?",268465,7,6408,1,"Home DIY kits are available.","http://www.4forums.com/political/abortion-debates/9324-abortion-right-worng.html",255355,104
"1-6408_105_104_7",6408,1,"2007-03-23 18:25:00",2039,375,255357,"2007-03-23 18:20:00",268467,1,104,"http://www.fertility4life.com/mni/",268466,7,6408,1,"Ya got a source?","http://www.4forums.com/political/abortion-debates/9324-abortion-right-worng.html",255356,105
"1-6408_122_121_8",6408,1,"2007-03-26 10:26:00",375,2039,255560,"2007-03-26 10:13:00",268484,27,121,"So, he's expected to just answer your question, but you don't hold yourself to those same standards and answer his question. Typical. emoticonXRolleyes",268483,8,6408,1,"Would you allow a woman to abort a perfectly healthy baby that is two days from being born?","http://www.4forums.com/political/abortion-debates/9324-abortion-right-worng.html",255557,122
"1-6408_123_122_8",6408,1,"2007-03-26 10:38:00",2039,375,255564,"2007-03-26 10:26:00",268485,7,122,"He has not answered my question.",268484,8,6408,1,"So, he's expected to just answer your question, but you don't hold yourself to those same standards and answer his question. Typical. emoticonXRolleyes","http://www.4forums.com/political/abortion-debates/9324-abortion-right-worng.html",255560,123
"1-6408_126_123_8",6408,1,"2007-03-26 11:00:00",375,2039,255568,"2007-03-26 10:38:00",268488,92,123,"What the heck are you on about? You just quoted his very answer in post number 121. 
Here is how it went: you asked a question, expected him to answer it, then when he answered it and then asked a question of you, you asked another question, expecting him to answer that as well, and not answering his. Now he has answered this latest question, and you have yet to answer his. Hold yourself to your own standards, dude.",268485,8,6408,1,"He has not answered my question.","http://www.4forums.com/political/abortion-debates/9324-abortion-right-worng.html",255564,126
"1-6408_128_126_8",6408,1,"2007-03-26 11:06:00",2039,375,255570,"2007-03-26 11:00:00",268490,28,126,"My question has not been answered:
I want to know how I:
""would forcefully have her take her pregnancy to term"".
How?",268488,8,6408,1,"What the heck are you on about? You just quoted his very answer in post number 121. 
Here is how it went: you asked a question, expected him to answer it, then when he answered it and then asked a question of you, you asked another question, expecting him to answer that as well, and not answering his. Now he has answered this latest question, and you have yet to answer his. Hold yourself to your own standards, dude.","http://www.4forums.com/political/abortion-debates/9324-abortion-right-worng.html",255568,128
"1-6408_129_128_8",6408,1,"2007-03-26 11:10:00",375,2039,255571,"2007-03-26 11:06:00",268491,43,128,"The answer was given in post #120, which you yourself quoted in post #121. Now stop your dishonesty and answer the question. This will be my last post to you here until you own up to your own standards.",268490,8,6408,1,"My question has not been answered:
I want to know how I:
""would forcefully have her take her pregnancy to term"".
How?","http://www.4forums.com/political/abortion-debates/9324-abortion-right-worng.html",255570,129
"1-6408_130_129_8",6408,1,"2007-03-26 11:13:00",2039,375,255572,"2007-03-26 11:10:00",268492,12,129,"It is too bad that you feel the need to concede.",268491,8,6408,1,"The answer was given in post #120, which you yourself quoted in post #121. Now stop your dishonesty and answer the question. This will be my last post to you here until you own up to your own standards.","http://www.4forums.com/political/abortion-debates/9324-abortion-right-worng.html",255571,130
"1-6408_261_259_9",6408,1,"2007-04-05 12:37:00",375,2039,257080,"2007-04-05 12:23:00",268623,39,259,"*sigh*
Looks like it is once again time to ask Mr. Dictionary. Here is what he says: 
Perhaps you could show us what distinctive culture, religion, language, etc. foetuses and zygotes have?",268621,9,6408,1,"My definition is this one, it is neutral, I would not trust an organisation that is corrupt and perpetrates genocide to define the definition, that would be silly.
gen·o·cide (jĕn'ə-sīd') 
n. 
The systematic and planned extermination of an entire national, racial, political, or ethnic group.
List all the points you believe I have not addressed, lets see them.","http://www.4forums.com/political/abortion-debates/9324-abortion-right-worng.html",257072,261
"1-6408_263_261_9",6408,1,"2007-04-05 12:40:00",2039,375,257082,"2007-04-05 12:37:00",268625,4,261,"Read post 262.",268623,9,6408,1,"*sigh*
Looks like it is once again time to ask Mr. Dictionary. Here is what he says: 
Perhaps you could show us what distinctive culture, religion, language, etc. foetuses and zygotes have?","http://www.4forums.com/political/abortion-debates/9324-abortion-right-worng.html",257080,263
"1-6408_264_263_9",6408,1,"2007-04-05 12:43:00",375,2039,257085,"2007-04-05 12:40:00",268626,11,263,"Read post 261 and answer the d@mn question.",268625,9,6408,1,"Read post 262.","http://www.4forums.com/political/abortion-debates/9324-abortion-right-worng.html",257082,264
"1-6408_265_264_9",6408,1,"2007-04-05 12:58:00",2039,375,257091,"2007-04-05 12:43:00",268627,27,264,"Aggressive requests are not necessary.
Sure I will answer your question, when you show me how the same definition applies to all black people.",268626,9,6408,1,"Read post 261 and answer the d@mn question.","http://www.4forums.com/political/abortion-debates/9324-abortion-right-worng.html",257085,265
"1-6408_266_265_9",6408,1,"2007-04-05 13:05:00",375,2039,257092,"2007-04-05 12:58:00",268628,25,265,"Apparently you can't even comprehend the word ""racial"". Now answer the question (or can you not comprehend that either?)",268627,9,6408,1,"Aggressive requests are not necessary.
Sure I will answer your question, when you show me how the same definition applies to all black people.","http://www.4forums.com/political/abortion-debates/9324-abortion-right-worng.html",257091,266
"1-6408_267_266_9",6408,1,"2007-04-05 13:06:00",2039,375,257093,"2007-04-05 13:05:00",268629,7,266,"Black people make up many races.",268628,9,6408,1,"Apparently you can't even comprehend the word ""racial"". Now answer the question (or can you not comprehend that either?)","http://www.4forums.com/political/abortion-debates/9324-abortion-right-worng.html",257092,267
"1-6408_157_156_10",6408,1,"2007-03-28 14:43:00",1142,2039,255900,"2007-03-28 14:35:00",268519,159,156,"Though I would like to finish this particular discussion, this question at least moves the discussion forward. I talked about abortion in the early trimesters being a responsible answer to unwanted pregnancy and that it has the advantage of letting the woman choose whereas you would force her. I will grant you that, since I did not specifically say in that paragraph that I would allow abortion to be outlawed (i.e. pregnancy forced) in the third trimester (though I have said it in many other posts), that might have left room for you to jump to conclusions that I think all such force is wrong. So, just to get this discussion over with, I'll strike a compromise: You were wrong for jumping to conclusions and I was wrong for leaving things unsaid which made it easier for you to jump to those conclusions. Fine?",268518,10,6408,1,"How else can I interpret this?
You said: “you would forcefully have her take her pregnancy to term”.
Yet you would do the same later in the pregnancy.
Therefore we both use force. 
Why did you bother to state that I force if not to suggest it is wrong?","http://www.4forums.com/political/abortion-debates/9324-abortion-right-worng.html",255898,157
"1-6408_158_157_10",6408,1,"2007-03-28 14:49:00",2039,1142,255902,"2007-03-28 14:43:00",268520,39,157,"Not an acceptable compromise, I was left with no other conclusion than to interpret your comment as though I was wrong for using force, yet your own use is not. 
It was clearly double standards.",268519,10,6408,1,"Though I would like to finish this particular discussion, this question at least moves the discussion forward. I talked about abortion in the early trimesters being a responsible answer to unwanted pregnancy and that it has the advantage of letting the woman choose whereas you would force her. I will grant you that, since I did not specifically say in that paragraph that I would allow abortion to be outlawed (i.e. pregnancy forced) in the third trimester (though I have said it in many other posts), that might have left room for you to jump to conclusions that I think all such force is wrong. So, just to get this discussion over with, I'll strike a compromise: You were wrong for jumping to conclusions and I was wrong for leaving things unsaid which made it easier for you to jump to those conclusions. Fine?","http://www.4forums.com/political/abortion-debates/9324-abortion-right-worng.html",255900,158
"1-6408_159_158_10",6408,1,"2007-03-28 14:55:00",1142,2039,255904,"2007-03-28 14:49:00",268521,118,158,"The conclusion which you jumped to was that I think all use of force is wrong. You jumped to this conclusion based on my claim that use of force in this particular situation (early trimesters) is wrong. I cannot be blamed for your extrapolation. I have presented a reasonable compromise that you have rejected. I see that there is no way to reach an agreement so, unless you introduce some new compelling arguement, I will just drop this discussion. I, and probably any others who might still be reading this, no longer find any usefulness to the discussion. Bye - onto other threads / subjects.",268520,10,6408,1,"Not an acceptable compromise, I was left with no other conclusion than to interpret your comment as though I was wrong for using force, yet your own use is not. 
It was clearly double standards.","http://www.4forums.com/political/abortion-debates/9324-abortion-right-worng.html",255902,159
"1-6408_160_159_10",6408,1,"2007-03-28 15:01:00",2039,1142,255905,"2007-03-28 14:55:00",268522,46,159,"So what you want me to accept is: You can use force when you like, but if I use force, it is wrong, and you will not debate any more unless I accept this.
You don't know how to debate.",268521,10,6408,1,"The conclusion which you jumped to was that I think all use of force is wrong. You jumped to this conclusion based on my claim that use of force in this particular situation (early trimesters) is wrong. I cannot be blamed for your extrapolation. I have presented a reasonable compromise that you have rejected. I see that there is no way to reach an agreement so, unless you introduce some new compelling arguement, I will just drop this discussion. I, and probably any others who might still be reading this, no longer find any usefulness to the discussion. Bye - onto other threads / subjects.","http://www.4forums.com/political/abortion-debates/9324-abortion-right-worng.html",255904,160
"1-6408_161_160_10",6408,1,"2007-03-28 15:15:00",1142,2039,255910,"2007-03-28 15:01:00",268523,193,160,"Please don't misrepresent my view. I said that the use of force (through law) has to be justified. I generally like freedom so I think the use of force should be avoided unless it has justifications. You are not wrong in using force because it is you who said it. If you present good justifications for the use of force in outlawing abortion in the early trimesters, then that use of force would be valid. However, I haven't seen good justifications coming from you.
Of course, all of our opinions on what is a just arguement and what isn't are based on our own views. You might think my use of force in wanting violent anti-abortion protests curtailed unjust. The justice or injustice of our views has to rest mainly on our arguements. Personally, I would prefer to delve more deeply into these arguements than to continue this discussion (which I have broken my own intentions in continuing - mostly because I would prefer not to leave the discussion on a misunderstanding of my arguements).",268522,10,6408,1,"So what you want me to accept is: You can use force when you like, but if I use force, it is wrong, and you will not debate any more unless I accept this.
You don't know how to debate.","http://www.4forums.com/political/abortion-debates/9324-abortion-right-worng.html",255905,161
"1-6408_162_161_10",6408,1,"2007-03-28 15:27:00",2039,1142,255913,"2007-03-28 15:15:00",268524,57,161,"I'm not misrepresenting your view.
You said I was wrong for using force, yet you claimed the use of force is right when you use it.
That is a fair summation of the debate. 
You didn't claim I was wrong for any other reason other than force.
It is double standards.",268523,10,6408,1,"Please don't misrepresent my view. I said that the use of force (through law) has to be justified. I generally like freedom so I think the use of force should be avoided unless it has justifications. You are not wrong in using force because it is you who said it. If you present good justifications for the use of force in outlawing abortion in the early trimesters, then that use of force would be valid. However, I haven't seen good justifications coming from you.
Of course, all of our opinions on what is a just arguement and what isn't are based on our own views. You might think my use of force in wanting violent anti-abortion protests curtailed unjust. The justice or injustice of our views has to rest mainly on our arguements. Personally, I would prefer to delve more deeply into these arguements than to continue this discussion (which I have broken my own intentions in continuing - mostly because I would prefer not to leave the discussion on a misunderstanding of my arguements).","http://www.4forums.com/political/abortion-debates/9324-abortion-right-worng.html",255910,162
"1-6408_163_162_10",6408,1,"2007-03-28 15:41:00",1142,2039,255916,"2007-03-28 15:27:00",268525,227,162,"I said you were wrong in using force ***IN THAT SITUATION***. That doesn't mean that I think it is wrong for you to use force in any situation. Also, I did not claim the use of force is right whenever I use it. Neither of us can justify the use of force unless we present valid arguements to support that force. 
If you want to discuss those arguments, I would be happy to. At least such a discussion will serve a purpose. I am convinced now that you will not stop misinterpreting my views until you get me to admit to something I am not guilty of - that is something I am unwilling to do. I see we will have to agree to disagree - at least I see that we will continue to disagree. I have little doubt that you will keep harping on this issue. I personally see now that there is no hope in resolving this issue so it is best to drop it.
Again, I am willing to go into discussions on justifiable reasons for using force through law where abortion is concerned. As for this inane arguement, I really am stopping my participation here since I need to log off and leave the computer.",268524,10,6408,1,"I'm not misrepresenting your view.
You said I was wrong for using force, yet you claimed the use of force is right when you use it.
That is a fair summation of the debate. 
You didn't claim I was wrong for any other reason other than force.
It is double standards.","http://www.4forums.com/political/abortion-debates/9324-abortion-right-worng.html",255913,163
"1-6408_164_163_10",6408,1,"2007-03-28 15:48:00",2039,1142,255917,"2007-03-28 15:41:00",268526,55,163,"Exactly, so I'm not wrong on those grounds, you need to find a reason why I'm wrong, if there is one, you have yet to present it. Then, and only then can you mount an argument to claim I'm wrong, until then please don't make inaccurate accusations.",268525,10,6408,1,"That doesn't mean that I think it is wrong for you to use force in any situation. Also, I did not claim the use of force is right whenever I use it. Neither of us can justify the use of force unless we present valid arguements to support that force.
If you want to discuss those arguments, I would be happy to. At least such a discussion will serve a purpose. I am convinced now that you will not stop misinterpreting my views until you get me to admit to something I am not guilty of - that is something I am unwilling to do. I see we will have to agree to disagree - at least I see that we will continue to disagree. I have little doubt that you will keep harping on this issue. I personally see now that there is no hope in resolving this issue so it is best to drop it.
Again, I am willing to go into discussions on justifiable reasons for using force through law where abortion is concerned. As for this inane arguement, I really am stopping my participation here since I need to log off and leave the computer.","http://www.4forums.com/political/abortion-debates/9324-abortion-right-worng.html",255916,164
"1-6408_185_184_11",6408,1,"2007-03-30 11:43:00",1142,2039,256164,"2007-03-30 10:38:00",268547,47,184,"Neurological science, as summarized in my links, is the proof that I have. If you don't agree with science, then that is your problem.

You still have not described the SPECIFIC attributes of what you value in that human/person.",268546,11,6408,1,"Like I said, you have no proof. ...No proof again.","http://www.4forums.com/political/abortion-debates/9324-abortion-right-worng.html",256155,185
"1-6408_186_185_11",6408,1,"2007-03-30 11:56:00",2039,1142,256167,"2007-03-30 11:43:00",268548,57,185,"Yes you provided a link, but it doesn't prove for a fact that someone who gives of brainwaves has mental existence. 

A person is a human, a human is a member of the modern species of humans, the only extant species of the primate family Hominidae.
What else can be said?",268547,11,6408,1,"Neurological science, as summarized in my links, is the proof that I have. If you don't agree with science, then that is your problem.

You still have not described the SPECIFIC attributes of what you value in that human/person.","http://www.4forums.com/political/abortion-debates/9324-abortion-right-worng.html",256164,186
"1-6408_187_186_11",6408,1,"2007-03-30 12:04:00",1142,2039,256169,"2007-03-30 11:56:00",268549,136,186,"How many times do I need to repeat this before you understand it: The existence of brainwaves does not automatically mean mental existence. What it does mean is the POSSIBILITY of mental existence, which is good enough for me to give rights in this abortion debate. Without brainwaves and a sufficiently developed cerebral cortex to generate them, there is NO mental existence. What is it about this view that you don't understand?

Simple question: what is it specifically that you value in a zygote? If you say - because it is human, what do you mean by that? What aspects do you value - the human DNA? There has to be more than that. I am asking you to go into specifics.",268548,11,6408,1,"Yes you provided a link, but it doesn't prove for a fact that someone who gives of brainwaves has mental existence. 

A person is a human, a human is a member of the modern species of humans, the only extant species of the primate family Hominidae.
What else can be said?","http://www.4forums.com/political/abortion-debates/9324-abortion-right-worng.html",256167,187
"1-6408_188_187_11",6408,1,"2007-03-30 12:15:00",2039,1142,256171,"2007-03-30 12:04:00",268550,54,187,"Exactly! It is only a possibility! There is no prove that this is actually the case!

It is a human, it deserves human rights, what is wrong with you? What is so valuable about a body that just emits brain waves for the rest of its life?",268549,11,6408,1,"How many times do I need to repeat this before you understand it: The existence of brainwaves does not automatically mean mental existence. What it does mean is the POSSIBILITY of mental existence, which is good enough for me to give rights in this abortion debate. Without brainwaves and a sufficiently developed cerebral cortex to generate them, there is NO mental existence. What is it about this view that you don't understand?

Simple question: what is it specifically that you value in a zygote? If you say - because it is human, what do you mean by that? What aspects do you value - the human DNA? There has to be more than that. I am asking you to go into specifics.","http://www.4forums.com/political/abortion-debates/9324-abortion-right-worng.html",256169,188
"1-6408_189_188_11",6408,1,"2007-03-30 12:38:00",1142,2039,256174,"2007-03-30 12:15:00",268551,129,188,"What exactly are you advocating for here - that rights be given only once that mental existence is proven? I give the benefit of the doubt in giving rights when the mind first CAN exist. You are the first pro-life person who seems to be advocating that rights should be pushed further out. Otherwise, I cannot fathom what point you are trying to make in this discussion.

When most people say ""human rights"" they certainly don't have a zygote in mind. Furthermore, once again, you are avoiding my question. What SPECIFICALLY in the zygote do you value - ex. that it has human DNA? That it has the potential to grow into a full person?",268550,11,6408,1,"Exactly! It is only a possibility! There is no prove that this is actually the case!

It is a human, it deserves human rights, what is wrong with you? What is so valuable about a body that just emits brain waves for the rest of its life?","http://www.4forums.com/political/abortion-debates/9324-abortion-right-worng.html",256171,189
"1-6408_190_189_11",6408,1,"2007-03-30 17:29:00",2039,1142,256186,"2007-03-30 12:38:00",268552,119,189,"There is no proof, is there? So the conditions that you establish are flawed, the whole principle your argument is built on crumbles. There is no proof. 
Here I will say it again: There is no proof. 

The man that established the whole human rights act specified the unborn, he had them in mind, and I think that says a lot. I do not discriminate between humans and their abilities unlike you, a human being is a human being. How can you say that it has the potential to grow into a human being? It is a human being, a human is a person.",268551,11,6408,1,"What exactly are you advocating for here - that rights be given only once that mental existence is proven? I give the benefit of the doubt in giving rights when the mind first CAN exist. You are the first pro-life person who seems to be advocating that rights should be pushed further out. Otherwise, I cannot fathom what point you are trying to make in this discussion.

When most people say ""human rights"" they certainly don't have a zygote in mind. Furthermore, once again, you are avoiding my question. What SPECIFICALLY in the zygote do you value - ex. that it has human DNA? That it has the potential to grow into a full person?","http://www.4forums.com/political/abortion-debates/9324-abortion-right-worng.html",256174,190
