"key","quote_source_post_discussion_id","posts_dataset_id","posts_timestamp","posts_author_id","quote_source_author_id","posts_native_post_id","quote_source_timestamp","post_text_id","Word_Count","quote_source_post_id","post_text","quote_source_text_id","Dialog_Turn","posts_discussion_id","quote_source_post_dataset_id","Fullquote_text","discussion_url","quote_source_native_post_id","posts_post_id"
"1-6421_186_179_1",6421,1,"2007-02-06 06:20:00",63,748,249833,"2007-02-05 14:13:00",269396,218,179,"This is a gross oversimplification and trivialization of why women choose abortions. There are a miriad of reasons, VALID reasons, women abort. Addressing those will do miles more to reduce abortion than all the self righteous preaching, demonization and trivialization will.
When I was pregnant I considered abortion. Not to ""correct a past mistake"" (why is sex necesarily a mistake? we are so damned puritanical) - but because I was being denied access to medical care and I was worried about finishing my degree (birth control failure with a year left of university). Had abortion been illegal, those realities would have still existed for me. I didn't need abortion restricted - I had valid issues that needed to be addressed. They were and I was delighted - and I had my baby, my medical care and got my degree - which has helped make it possible for me to succesfully raise that baby (jobs and education are not irrelevant selfish needs). A law that disempowered me while trivializing my needs would not have resulted in a happy ending to this story.
You seem to be of the mind that pregnancy should be used punitively.",269389,1,6421,1,"I still think that it is morally wrong to kill an child in order to correct one's past mistakes. 
By having an abortion, it does nothing to clear your conscience or what you have done in the past that concluded in an abortion.
Abortions should only be done to victims of or if either the mother or child's health is at risk, in these circumstances. Other then that, one cannot clear their past mistakes by choosing to have an abortion. 
If abortions are still legal, they should require parental consent for minors in all U.S. states. That way minors should feel guilty about the mistakes that they made in the past, unless they were d. By having parental consent, the parents can deal with their daughter, instead of the government.","http://www.4forums.com/political/abortion-debates/9341-does-flower-pot-deserve-rights.html",249703,186
"1-6421_188_186_1",6421,1,"2007-02-06 14:12:00",748,63,249931,"2007-02-06 06:20:00",269398,131,186,"S*x is considered a mistake if you have it before you are married. Even though there are ures that encourage teenagers to have children, they are married first. S*x is supposed to be shared by a husband and a wife, however, in our society, teens have lost all morality based on this concept, so therefore it is a mistake. But abortion does not correct a mistake because you believe that you had s*x to early, but yet creates another mistake. Unless there are health issues. Even a victim shouldn't resort to getting an abortion, in contrast to what I previously stated a few posts ago. I just cannot see how someone could give up something so precious.",269396,1,6421,1,"This is a gross oversimplification and trivialization of why women choose abortions. There are a miriad of reasons, VALID reasons, women abort. Addressing those will do miles more to reduce abortion than all the self righteous preaching, ization and trivialization will.
When I was pregnant I considered abortion. Not to ""correct a past mistake"" (why is necesarily a mistake? we are so damned puritanical) - but because I was being denied access to medical care and I was worried about finishing my degree (birth control failure with a year left of university). Had abortion been illegal, those realities would have still existed for me. I didn't need abortion restricted - I had valid issues that needed to be addressed. They were and I was delighted - and I had my baby, my medical care and got my degree - which has helped make it possible for me to succesfully raise that baby (jobs and education are not irrelevant selfish needs). A law that disempowered me while trivializing my needs would not have resulted in a happy ending to this story.
You seem to be of the mind that pregnancy should be used punitively.","http://www.4forums.com/political/abortion-debates/9341-does-flower-pot-deserve-rights.html",249833,188
"1-6421_192_188_1",6421,1,"2007-02-06 14:37:00",63,748,249938,"2007-02-06 14:12:00",269402,207,188,"By you. This is the second time in your posts I have seen you make a sweeping generalization like this. Personally I have had plenty of sex that I have no regrets about - however, my marriage was a mistake.

Um - I think you have an over-inflated idea about who is getting abortions. There are plenty of grown women, women in relationships, and married women who also get abortions. 

Pregnancy is a REALLY big deal. Huge impacts to life, health, and finances (try tens of thousands of dollars just to get through pregnancy). Believe it or not - women, as a rule, aren't sitting doing nothing except waiting to be pregnant. They have lives, responsibilities, jobs, stuff oing on. The very concept that a woman's life should be forfeit for nine months due to a rapist is one that I find beyond abhorant. 

I am glad that you find the potential impacts of rape precious. Having been raped - I don't.
By the way - the fact that your computer edits out words like RAPE and SEX - is very telling.",269398,1,6421,1,"S*x is considered a mistake if you have it before you are married. Even though there are ures that encourage teenagers to have children, they are married first. S*x is supposed to be shared by a husband and a wife, however, in our society, teens have lost all morality based on this concept, so therefore it is a mistake. But abortion does not correct a mistake because you believe that you had s*x to early, but yet creates another mistake. Unless there are health issues. Even a victim shouldn't resort to getting an abortion, in contrast to what I previously stated a few posts ago. I just cannot see how someone could give up something so precious.","http://www.4forums.com/political/abortion-debates/9341-does-flower-pot-deserve-rights.html",249931,192
"1-6421_193_192_1",6421,1,"2007-02-06 14:45:00",748,63,249942,"2007-02-06 14:37:00",269403,115,192,"Look, I'm just a devoted Catholic that thinks it's wrong to get an abortion. The mur*ering of innocent infants is cruel, and yes, I consider abortion to be mur*er. It's just like ki*ling a defenseless person. You should be ashamed of yourself... Even if you're a victim of r*pe, you still don't ""mur*er"" a precious, innocent, and defenseless infant. The infant had nothing to do with what happened in the past, so why are you punishing them for what someone else did to you? You should punish the rap*st for what they did to you, not the infant.",269402,1,6421,1,"By you. This is the second time in your posts I have seen you make a sweeping generalization like this. Personally I have had plenty of that I have no regrets about - however, my marriage was a mistake.
Um - I think you have an over-inflated idea about who is getting abortions. There are plenty of grown women, women in relationships, and married women who also get abortions. 
Pregnancy is a REALLY big deal. Huge impacts to life, health, and finances (try tens of thousands of dollars just to get through pregnancy). Believe it or not - women, as a rule, aren't sitting doing nothing except waiting to be pregnant. They have lives, responsibilities, jobs, stuff oing on. The very concept that a woman's life should be forfeit for nine months due to a rapist is one that I find beyond abhorant. 
I am glad that you find the potential impacts of precious. Having been d - I don't.
By the way - the fact that your computer edits out words like and - is very telling.","http://www.4forums.com/political/abortion-debates/9341-does-flower-pot-deserve-rights.html",249938,193
"1-6421_194_193_1",6421,1,"2007-02-06 14:53:00",63,748,249947,"2007-02-06 14:45:00",269404,125,193,"I hate this stupid argument. It has NOTHING to do with punishment. Like I said - women have LIVES. I have a job, house, mortgage, child, health, and a livlihood. I will allow none of these things to be put at risk due to a rape. Hell - I would not put them at risk due to ANY pregnancy, but I mitigate that by safe sex practices and even having my tubes tied. Expecting any woman put her life on hold and herself, family or responsibilities at risk due to a rape is straight up hateful. Demanding it against her will is a violation - just like the rape was.",269403,1,6421,1,"Look, I'm just a devoted Catholic that thinks it's wrong to get an abortion. The mur*ering of innocent infants is cruel, and yes, I consider abortion to be mur*er. It's just like ki*ling a defenseless person. You should be ashamed of yourself... Even if you're a victim of r*pe, you still don't ""mur*er"" a precious, innocent, and defenseless infant. The infant had nothing to do with what happened in the past, so why are you punishing them for what someone else did to you? You should punish the rap*st for what they did to you, not the infant.","http://www.4forums.com/political/abortion-debates/9341-does-flower-pot-deserve-rights.html",249942,194
"1-6421_195_194_1",6421,1,"2007-02-06 15:02:00",748,63,249953,"2007-02-06 14:53:00",269405,28,194,"So you're saying that you're life and other people's lives are more important than the life of an infant that did nothing wrong to deserve an abortion?",269404,1,6421,1,"I this stupid argument. It has NOTHING to do with punishment. Like I said - women have LIVES. I have a job, house, mortgage, child, health, and a livlihood. I will allow none of these things to be put at risk due to a . Hell - I would not put them at risk due to ANY pregnancy, but I mitigate that by safe practices and even having my tubes tied. Expecting any woman put her life on hold and herself, family or responsibilities at risk due to a is straight up ful. Demanding it against her will is a violation - just like the was.","http://www.4forums.com/political/abortion-debates/9341-does-flower-pot-deserve-rights.html",249947,195
"1-6421_207_195_1",6421,1,"2007-02-06 17:40:00",63,748,250057,"2007-02-06 15:02:00",269417,87,195,"No. I am saying that when the needs of the mother and the needs of the fetus are in conflict - only one can prevail. 
Are you saying that a fetus is more important than me or my son? 

Take a biology course not sponsored by the Catholic church.

Having different morals than you does not indicate a lack of them. Broaden your mind to the fact that there is a wide world full of people who aren't just like you.",269405,1,6421,1,"So you're saying that you're life and other people's lives are more important than the life of an infant that did nothing wrong to deserve an abortion?","http://www.4forums.com/political/abortion-debates/9341-does-flower-pot-deserve-rights.html",249953,207
"1-6421_208_207_1",6421,1,"2007-02-06 17:45:00",748,63,250064,"2007-02-06 17:40:00",269418,43,207,"I don't mean having different morals and such from me. But Pro-Choicers have lost all sense of morality based on their choices.
Basically, you and the rest of the Pro-Choicers are saying that the k*lling of infants is alright...",269417,1,6421,1,"No. I am saying that when the needs of the mother and the needs of the fetus are in conflict - only one can prevail. 
Are you saying that a fetus is more important than me or my son? 

Take a biology course not sponsored by the Catholic church.

Having different morals than you does not indicate a lack of them. Broaden your mind to the fact that there is a wide world full of people who aren't just like you.","http://www.4forums.com/political/abortion-debates/9341-does-flower-pot-deserve-rights.html",250057,208
"1-6421_123_122_2",6421,1,"2007-01-30 10:46:00",2246,2245,248941,"2007-01-30 10:40:00",269333,14,122,"Then they are getting out of the responsablitiy of taking of another child.",269332,2,6421,1,"So what about people who have abortions and already have a child or children?","http://www.4forums.com/political/abortion-debates/9341-does-flower-pot-deserve-rights.html",248940,123
"1-6421_136_123_2",6421,1,"2007-02-01 11:14:00",2245,2246,249207,"2007-01-30 10:46:00",269346,39,123,"Well, I was keeping the responsibility I took on with my daughter, and if I had another child I would be living in poverty with her, and that's not something I was prepared to do.",269333,2,6421,1,"Then they are getting out of the responsablitiy of taking of another child.","http://www.4forums.com/political/abortion-debates/9341-does-flower-pot-deserve-rights.html",248941,136
"1-6421_138_136_2",6421,1,"2007-02-01 21:36:00",2246,2245,249289,"2007-02-01 11:14:00",269348,40,136,"So you are saying that you would not have another child right? I know that living in poverty is something that is hard to do. But there are programs out there that help people in that situation.",269346,2,6421,1,"Well, I was keeping the responsibility I took on with my daughter, and if I had another child I would be living in poverty with her, and that's not something I was prepared to do.","http://www.4forums.com/political/abortion-debates/9341-does-flower-pot-deserve-rights.html",249207,138
"1-6421_142_138_2",6421,1,"2007-02-02 09:45:00",2245,2246,249359,"2007-02-01 21:36:00",269352,35,138,"We just bought a house. To get benefits you cannot have assets, so I'd have to sell our house, and our house is an investment for our and our daughters future.",269348,2,6421,1,"So you are saying that you would not have another child right? I know that living in poverty is something that is hard to do. But there are programs out there that help people in that situation.","http://www.4forums.com/political/abortion-debates/9341-does-flower-pot-deserve-rights.html",249289,142
"1-6421_151_142_2",6421,1,"2007-02-02 13:11:00",2246,2245,249396,"2007-02-02 09:45:00",269361,54,142,"Now some say, Bearing hardships is irresponsible. But here you are making a way for yourself and your daughter. That is every bit of responsible. And shows that at least you're not afraid of taking on what life throws at you. I can respect someone like that.:)",269352,2,6421,1,"We just bought a house. To get benefits you cannot have assets, so I'd have to sell our house, and our house is an investment for our and our daughters future.","http://www.4forums.com/political/abortion-debates/9341-does-flower-pot-deserve-rights.html",249359,151
