"key","quote_source_post_discussion_id","posts_dataset_id","posts_timestamp","posts_author_id","quote_source_author_id","posts_native_post_id","quote_source_timestamp","post_text_id","Word_Count","quote_source_post_id","post_text","quote_source_text_id","Dialog_Turn","posts_discussion_id","quote_source_post_dataset_id","Fullquote_text","discussion_url","quote_source_native_post_id","posts_post_id"
"1-6711_19_18_1",6711,1,"2007-04-05 12:05:00",2039,375,257064,"2007-04-05 11:56:00",283022,4,18,"Post the article.",283021,1,6711,1,"You feel like that because that is exactly what the article is trying to do. It is very common for things like that when looking at a pro-life biased article.
If you read the actual study (I gave a link to the canadian one), you will see no such shifting of the blame, in fact you will see quite the opposite of what the articles posted by ""____"" say.","http://www.4forums.com/political/abortion-debates/9721-link-between-abortion-domestic-violence-against-women.html",257062,19
"1-6711_20_19_1",6711,1,"2007-04-05 12:29:00",375,2039,257076,"2007-04-05 12:05:00",283023,123,19,"So you pretty much admit here that you did not read the actual report of the study? 
Anyway, I already gave a link back in post#3 of the candaian study (which came from the first article you linked which was different from the actual cut and paste article you posted), so apparently we have soid evidence that you don't bother to read the posts of other people.
Here it is once again: Violence and abortions: What's a doctor to do?
Since you seem to have problems looking at the links provided by other people, here is the full text of the actual article that your first link had a link to: 
",283022,1,6711,1,"Post the article.","http://www.4forums.com/political/abortion-debates/9721-link-between-abortion-domestic-violence-against-women.html",257064,20
"1-6711_21_20_1",6711,1,"2007-04-05 12:49:00",2039,375,257088,"2007-04-05 12:29:00",283024,10,20,"No, I asked that you post the article.",283023,1,6711,1,"So you pretty much admit here that you did not read the actual report of the study? 
Anyway, I already gave a link back in post#3 of the candaian study (which came from the first article you linked which was different from the actual cut and paste article you posted), so apparently we have soid evidence that you don't bother to read the posts of other people.
Here it is once again: Violence and abortions: What's a doctor to do?
Since you seem to have problems looking at the links provided by other people, here is the full text of the actual article that your first link had a link to: 
","http://www.4forums.com/political/abortion-debates/9721-link-between-abortion-domestic-violence-against-women.html",257076,21
"1-6711_22_21_1",6711,1,"2007-04-05 13:06:00",375,2039,257094,"2007-04-05 12:49:00",283025,11,21,"What the f-ing hell do you think I just did?",283024,1,6711,1,"No, I asked that you post the article.","http://www.4forums.com/political/abortion-debates/9721-link-between-abortion-domestic-violence-against-women.html",257088,22
"1-6711_23_22_1",6711,1,"2007-04-05 13:09:00",2039,375,257095,"2007-04-05 13:06:00",283026,30,22,"Just because I asked you to post the article it doesn't mean anything other than a request to post the article, you read too much into the request.",283025,1,6711,1,"What the f-ing hell do you think I just did?","http://www.4forums.com/political/abortion-debates/9721-link-between-abortion-domestic-violence-against-women.html",257094,23
