"key","quote_source_post_discussion_id","posts_dataset_id","posts_timestamp","posts_author_id","quote_source_author_id","posts_native_post_id","quote_source_timestamp","post_text_id","Word_Count","quote_source_post_id","post_text","quote_source_text_id","Dialog_Turn","posts_discussion_id","quote_source_post_dataset_id","Fullquote_text","discussion_url","quote_source_native_post_id","posts_post_id"
"1-7196_41_40_1",7196,1,"2007-11-08 21:51:00",503,76,290255,"2007-11-08 21:12:00",309942,11,40,"Mosaic law is superseded by Christ in almost all circumstances.",309941,1,7196,1,"Oh, it's enlightening alright...
When somebody tells me to read the Bible, I usually say something like, ""Yes, please do.""
A friend of mine just introduced me to what he calls ""Bible Roulette."" Open the book randomly, and in only two or three inches, chances are that you'll find an abomination of some sort.

This is the church's way to test for infidelity: cause an abortion.
Now, watch nate chime in with a defense about saying ""as a whole"" and ""with the exception of ..."" What he really means is that he's picking and choosing the parts that he likes.

Except that ordained guy in the church, who gets ""permission"" from this book...","http://www.4forums.com/political/abortion-debates/10320-abortion-advocated-only-persons-who-have-themselves-been-born.html",290252,41
"1-7196_42_41_1",7196,1,"2007-11-08 22:30:00",76,503,290256,"2007-11-08 21:51:00",309943,145,41,"Where does the Bible say that Jesus rejected this act?
If the Bible is the word of God, why do the laws therein have to be changed? Did God make mistakes? Moral absolutes aren't so absolute? This guy Jesus came along and declared all these laws to be obsolete, but he's revered? Does that mean that, 2000 years later, those who reject the Bible completely should be deified, or just honored?
Translation: You get to reject the laws from the Old Testament because you don't like them. You don't get your morals from the Bible, you base your interpretation of the Bible's morals on your opinion of right or wrong... or -- as is often the case -- on the opinion of someone else who had authority over you.",309942,1,7196,1,"Mosaic law is superseded by Christ in almost all circumstances.","http://www.4forums.com/political/abortion-debates/10320-abortion-advocated-only-persons-who-have-themselves-been-born.html",290255,42
"1-7196_45_42_1",7196,1,"2007-11-09 15:30:00",503,76,290338,"2007-11-08 22:30:00",309946,62,42,"If you don't know basic Christian theology, I suggest you not use it as a point. On your other point, if someone wants to throw out the bible for them, then they can I guess, but in our belief Jesus was one of God's forms, and well God can amend his laws, can't he.",309943,1,7196,1,"Where does the Bible say that Jesus rejected this act?
If the Bible is the word of God, why do the laws therein have to be changed? Did God make mistakes? Moral absolutes aren't so absolute? This guy Jesus came along and declared all these laws to be obsolete, but he's revered? Does that mean that, 2000 years later, those who reject the Bible completely should be deified, or just honored?
Translation: You get to reject the laws from the Old Testament because you don't like them. You don't get your morals from the Bible, you base your interpretation of the Bible's morals on your opinion of right or wrong... or -- as is often the case -- on the opinion of someone else who had authority over you.","http://www.4forums.com/political/abortion-debates/10320-abortion-advocated-only-persons-who-have-themselves-been-born.html",290256,45
"1-7196_48_45_1",7196,1,"2007-11-09 18:00:00",76,503,290349,"2007-11-09 15:30:00",309949,123,45,"And don't forget my other questions:
Why would God need to change His laws? Were His first ones wrong?
Or maybe circumstances have changed? So it used to be fine to ""murder an innocent, unborn person"" because his or her mother was unfaithful.
Seems to me that it's got to be one or the other. Maybe there's a possibility I'm missing, in which case you're more than welcome to forward it. Otherwise, it seems your ""basic Christian theology"" isn't helping you.
Maybe I'm the next coming of God telling you to get with the program. After all, I can do whatever I want, right?",309946,1,7196,1,"If you don't know basic Christian theology, I suggest you not use it as a point. On your other point, if someone wants to throw out the bible for them, then they can I guess, but in our belief Jesus was one of God's forms, and well God can amend his laws, can't he.","http://www.4forums.com/political/abortion-debates/10320-abortion-advocated-only-persons-who-have-themselves-been-born.html",290338,48
"1-7196_49_48_1",7196,1,"2007-11-09 18:16:00",503,76,290350,"2007-11-09 18:00:00",309950,127,48,"According to the ancient Jewish sages there are seven that all must obey (not the deadly ones) they are (1)to establish courts of justice (bet you didn't know criminal trials originated in the Mosaic Law) (2) idolatry (4) blasphemy (4) murder (5) incest and adultery (6) robbery (7) eating flesh cut from a living animal. Now admittedly the last is weird, but when was the last time anyone thought to go and eat a deer while living.
In Christianity there can be no more men who claim to be God as there was only one who would become the Messiah/Son of God.",309949,1,7196,1,"And don't forget my other questions:
Why would God need to change His laws? Were His first ones wrong?
Or maybe circumstances have changed? So it used to be fine to ""murder an innocent, unborn person"" because his or her mother was unfaithful.
Seems to me that it's got to be one or the other. Maybe there's a possibility I'm missing, in which case you're more than welcome to forward it. Otherwise, it seems your ""basic Christian theology"" isn't helping you.
Maybe I'm the next coming of God telling you to get with the program. After all, I can do whatever I want, right?","http://www.4forums.com/political/abortion-debates/10320-abortion-advocated-only-persons-who-have-themselves-been-born.html",290349,49
"1-7196_55_53_2",7196,1,"2007-11-09 21:23:00",76,503,290362,"2007-11-09 19:28:00",309956,82,53,"I'll find the Ten Commandments (any one of the many versions) in English Common Law? Really? Show me.

Who are you to determine whether abortion is murder?
The ""don't have sex"" argument is a bit tardy if she's already pregnant, isn't it? I'll counter the tardy objection with: she could use birth control. Why didn't you mention this option? I bet you're opposed to that, aren't you?",309954,2,7196,1,"Me, adopt children, and would you have them starve to death, I'm too young.
Those ""scribblings"" are the basis of English Common Law, only an illiterate dolt wouldn't know that.
Stop repeating yourself like a broken record, ""why should a bureaucrat/government decide,"" for the final time, it isn't a woman's right to determine when to murder children. If the woman didn't want children at that moment, don't have sex or adopt it out, there are waiting lists to get children, not the other way around. 
P.S. When I do grow older I may adopt children, depending upon my circumstances, if not then maybe I'll help their lives in other ways.","http://www.4forums.com/political/abortion-debates/10320-abortion-advocated-only-persons-who-have-themselves-been-born.html",290359,55
"1-7196_57_55_2",7196,1,"2007-11-10 11:17:00",503,76,290393,"2007-11-09 21:23:00",309958,82,55,"Y'all keep repeating the same arguments over and over, I've already refuted them. I guess it is true that you can lead a camel to water but you can't make him take a drink.
I wouldn't be defining murder, my elected officials would be, and defining what constitutes any crime is and what the punishment should be is one of the primary purposes of government.
I'm not responding unless you come up with something new.",309956,2,7196,1,"I'll find the Ten Commandments (any one of the many versions) in English Common Law? Really? Show me.

Who are you to determine whether abortion is murder?
The ""don't have sex"" argument is a bit tardy if she's already pregnant, isn't it? I'll counter the tardy objection with: she could use birth control. Why didn't you mention this option? I bet you're opposed to that, aren't you?","http://www.4forums.com/political/abortion-debates/10320-abortion-advocated-only-persons-who-have-themselves-been-born.html",290362,57
"1-7196_64_57_2",7196,1,"2007-11-10 18:29:00",76,503,290414,"2007-11-10 11:17:00",309965,233,57,"That's not water, that's a mirage of wishful thinking. I'm quite happy not gulping down buckets of sand. You should try it sometime.
You've refuted nothing. You say your beliefs come from the Bible. I show that your beliefs are contradicted by the Bible. Your response is as vacuous as your position, and then you ignore my subsequent comments.

You get pro-abortion Bible quotes thrown at you every day? Why have you no response for that? Why have you no response to the question of where Jesus/God rescinded this law? Why do you not answer the questions of why, if it is none of your business, you make it your business? Why don't you respond to my question of whether you are against contraception?
The answer is: you have no answer. You have your beliefs, which have been pounded into your brain in such a way that you truly believe that the Bible backs you up. It doesn't.
Perhaps you think you're a good Christian. Do you stone people who work on the sabbath? Do you punish smart-mouthed offspring with death? Do you pray only in your closet? If not, you're not a good enough Christian.
Read the Bible. It'll surprise you.",309958,2,7196,1,"Y'all keep repeating the same arguments over and over, I've already refuted them. I guess it is true that you can lead a camel to water but you can't make him take a drink.
I wouldn't be defining murder, my elected officials would be, and defining what constitutes any crime is and what the punishment should be is one of the primary purposes of government.
I'm not responding unless you come up with something new.","http://www.4forums.com/political/abortion-debates/10320-abortion-advocated-only-persons-who-have-themselves-been-born.html",290393,64
"1-7196_65_64_2",7196,1,"2007-11-10 18:32:00",503,76,290415,"2007-11-10 18:29:00",309966,38,64,"Jesus said himself ""let who has not sin cast the first stone"" when referring to an adulterous woman so you're the one who forgot to read the new testament.
Say what verse promotes abortion.",309965,2,7196,1,"That's not water, that's a mirage of wishful thinking. I'm quite happy not gulping down buckets of sand. You should try it sometime.
You've refuted nothing. You say your beliefs come from the Bible. I show that your beliefs are contradicted by the Bible. Your response is as vacuous as your position, and then you ignore my subsequent comments.

You get pro-abortion Bible quotes thrown at you every day? Why have you no response for that? Why have you no response to the question of where Jesus/God rescinded this law? Why do you not answer the questions of why, if it is none of your business, you make it your business? Why don't you respond to my question of whether you are against contraception?
The answer is: you have no answer. You have your beliefs, which have been pounded into your brain in such a way that you truly believe that the Bible backs you up. It doesn't.
Perhaps you think you're a good Christian. Do you stone people who work on the sabbath? Do you punish smart-mouthed offspring with death? Do you pray only in your closet? If not, you're not a good enough Christian.
Read the Bible. It'll surprise you.","http://www.4forums.com/political/abortion-debates/10320-abortion-advocated-only-persons-who-have-themselves-been-born.html",290414,65
"1-7196_69_65_2",7196,1,"2007-11-10 23:07:00",76,503,290425,"2007-11-10 18:32:00",309970,155,65,"So you think I'm an adulterous woman? Is that the best you can come up with?

I did, except that I left out the book and chapter: Hosea 13.
Or at least, this shows that God causes abortions.
If you want promotion of abortion, try Numbers 5:
And, in case you wanted Biblical confirmation that a fetus is not regarded as a life, here's Exodus 21:
In a world where the law is life for life, when the woman is caused to miscarry but not otherwise injured, the guilty party merely pays a fine.
But you're still not supporting your points. Can you show where this pro-abortion law is rescinded by Jesus? Hmmm? Can you answer any of the other questions you've been posed? Or will you just keep running away and calling me names?",309966,2,7196,1,"Jesus said himself ""let who has not sin cast the first stone"" when referring to an adulterous woman so you're the one who forgot to read the new testament.
Say what verse promotes abortion.","http://www.4forums.com/political/abortion-debates/10320-abortion-advocated-only-persons-who-have-themselves-been-born.html",290415,69
"1-7196_72_69_2",7196,1,"2007-11-11 09:38:00",503,76,290445,"2007-11-10 23:07:00",309973,67,69,"First, the second one says there is punishment for merely for causing infertility, hardly promoting abortion.
The first one, if the woman is guilty, she becomes infertile, which was the punishment since Genesis for women who committed adultery, hardly promoting abortion. Moreover it shows that the Hebrews were unique in their love of children in the ancient world.",309970,2,7196,1,"So you think I'm an adulterous woman? Is that the best you can come up with?

I did, except that I left out the book and chapter: Hosea 13.
Or at least, this shows that God causes abortions.
If you want promotion of abortion, try Numbers 5:
And, in case you wanted Biblical confirmation that a fetus is not regarded as a life, here's Exodus 21:
In a world where the law is life for life, when the woman is caused to miscarry but not otherwise injured, the guilty party merely pays a fine.
But you're still not supporting your points. Can you show where this pro-abortion law is rescinded by Jesus? Hmmm? Can you answer any of the other questions you've been posed? Or will you just keep running away and calling me names?","http://www.4forums.com/political/abortion-debates/10320-abortion-advocated-only-persons-who-have-themselves-been-born.html",290425,72
