"key","quote_source_post_discussion_id","posts_dataset_id","posts_timestamp","posts_author_id","quote_source_author_id","posts_native_post_id","quote_source_timestamp","post_text_id","Word_Count","quote_source_post_id","post_text","quote_source_text_id","Dialog_Turn","posts_discussion_id","quote_source_post_dataset_id","Fullquote_text","discussion_url","quote_source_native_post_id","posts_post_id"
"1-7748_143_139_1",7748,1,"2008-03-24 20:46:00",51,213,306732,"2008-03-24 19:48:00",337269,76,139,"Yet every claim of a ""right to your own body"" always ends up with exceptions when it violates a right of another person. For example you don't have the right to use your body to hit me. So now when someone claims the unborn is a person then needless to say the supposed ""right to one's own body"" is no longer an issue as it is as best trumped.",337265,1,7748,1,"The government can't even make us organ donors at death. The presumption is in favor of the individual's rights over their own body -- even after they're dead, and there is no disagreement as to whether or not a person is present.","http://www.4forums.com/political/abortion-debates/11073-horton-hears-who.html",306726,143
"1-7748_148_143_1",7748,1,"2008-03-24 21:36:00",213,51,306737,"2008-03-24 20:46:00",337274,168,143,"That's a bottom line, isn't it. Though of course the person view is a religious or metaphysical position. Not what you can establish. Which we thus leave up to individual discretion. Then, there are rights and there are what people can do, regardless of the State. Is that not, at times, a right?
Phyllis,
Speed limits are left to the states and certainly are addressed by the Constitution in a broader sense. 
Suicide is a good example of what people can do, regardless of the State. If an individual wants to take their life, there's not much the government can do about it, to that person, that is, once they're gone.
I would say that suicide is a right, though often not an advisable course of action, and open to argument as to whether or not it is the right/wrong thing to do.",337269,1,7748,1,"Yet every claim of a ""right to your own body"" always ends up with exceptions when it violates a right of another person. For example you don't have the right to use your body to hit me. So now when someone claims the unborn is a person then needless to say the supposed ""right to one's own body"" is no longer an issue as it is as best trumped.","http://www.4forums.com/political/abortion-debates/11073-horton-hears-who.html",306732,148
"1-7748_156_148_1",7748,1,"2008-03-25 06:49:00",51,213,306759,"2008-03-24 21:36:00",337282,95,148,"Generally it is not let up to an individual's discretion because I can't go around claiming you are not a person and therefore claim it is ok to beat you up. The whole point is that a ""right to your own body"" is not a claim that can go anywhere in the abortion debate and I'd go further to say that the right is not even an absolute or true right. It has elements that may be true but I don't see a blanket absolute right being the case here.",337274,1,7748,1,"That's a bottom line, isn't it. Though of course the person view is a religious or metaphysical position. Not what you can establish. Which we thus leave up to individual discretion. Then, there are rights and there are what people can do, regardless of the State. Is that not, at times, a right?
Phyllis,
Speed limits are left to the states and certainly are addressed by the Constitution in a broader sense. 
Suicide is a good example of what people can do, regardless of the State. If an individual wants to take their life, there's not much the government can do about it, to that person, that is, once they're gone.
I would say that suicide is a right, though often not an advisable course of action, and open to argument as to whether or not it is the right/wrong thing to do.","http://www.4forums.com/political/abortion-debates/11073-horton-hears-who.html",306737,156
"1-7748_169_156_1",7748,1,"2008-03-25 09:19:00",213,51,306782,"2008-03-25 06:49:00",337295,94,156,"There is no dispute as to my personhood or your own. And even then, it is not about absolute rights, an absolute right not having been asserted. 
But there is dispute as to the personhood of a developing fetus -- and widespread agreement on a lack of pertinent evidence; therefore, you are free to practice what amounts to your religious/spiritual/metaphysical beliefs about the nature of that being, and insofar as your own body is concerned; but not mine, thank you.",337282,1,7748,1,"Generally it is not let up to an individual's discretion because I can't go around claiming you are not a person and therefore claim it is ok to beat you up. The whole point is that a ""right to your own body"" is not a claim that can go anywhere in the abortion debate and I'd go further to say that the right is not even an absolute or true right. It has elements that may be true but I don't see a blanket absolute right being the case here.","http://www.4forums.com/political/abortion-debates/11073-horton-hears-who.html",306759,169
"1-7748_173_169_1",7748,1,"2008-03-25 10:30:00",51,213,306789,"2008-03-25 09:19:00",337299,75,169,"When I claim you are not a person there is a dispute about whether or not you are a person. So since a dispute exists does that mean I can now harm you? Since when does dispute mean we have to default to doing nothing? ""I think slavery is ok but you don't so therefore you should just mind your own business"". That kind of logic is crazy.",337295,1,7748,1,"There is no dispute as to my personhood or your own. And even then, it is not about absolute rights, an absolute right not having been asserted. 
But there is dispute as to the personhood of a developing fetus -- and widespread agreement on a lack of pertinent evidence; therefore, you are free to practice what amounts to your religious/spiritual/metaphysical beliefs about the nature of that being, and insofar as your own body is concerned; but not mine, thank you.","http://www.4forums.com/political/abortion-debates/11073-horton-hears-who.html",306782,173
"1-7748_179_173_1",7748,1,"2008-03-25 15:32:00",213,51,306797,"2008-03-25 10:30:00",337305,96,173,"Get real. It is not just about dispute, but widespread agreement on a lack of pertinent evidence. A 150 cell blastocyst is just that. No more, no less. Except as a matter of individuals' beliefs.
Btw, I can assure you that there is plenty of factual evidence as to my personhood, that I severely bite back when harmed, and that I possess full legal status to do so, too. Even if the other human being thinks I am but a lamppost. ;)",337299,1,7748,1,"When I claim you are not a person there is a dispute about whether or not you are a person. So since a dispute exists does that mean I can now harm you? Since when does dispute mean we have to default to doing nothing? ""I think slavery is ok but you don't so therefore you should just mind your own business"". That kind of logic is crazy.","http://www.4forums.com/political/abortion-debates/11073-horton-hears-who.html",306789,179
"1-7748_182_179_1",7748,1,"2008-03-25 18:52:00",51,213,306803,"2008-03-25 15:32:00",337308,58,179,"And this speaks to nothing about the differences in a dispute. By your logic the idea that slavery was ok by 50+% of people in the 1800s should have led to everyone just leaving it alone and not trying to get their view passed as law. The notion just doesn't hold up.",337305,1,7748,1,"Get real. It is not just about dispute, but widespread agreement on a lack of pertinent evidence. A 150 cell blastocyst is just that. No more, no less. Except as a matter of individuals' beliefs.
Btw, I can assure you that there is plenty of factual evidence as to my personhood, that I severely bite back when harmed, and that I possess full legal status to do so, too. Even if the other human being thinks I am but a lamppost. ;)","http://www.4forums.com/political/abortion-debates/11073-horton-hears-who.html",306797,182
"1-7748_183_182_1",7748,1,"2008-03-25 19:16:00",213,51,306804,"2008-03-25 18:52:00",337309,61,182,"Yes, I have more than once already, but you are ignoring it.

You keep drawing these false comparisons. There is no evidence that a 150 cell zygote is a person. All we can agree on is that it is a 150 cell zygote.
Nothing more, nothing less.
Deal with it, Steeeeve.",337308,1,7748,1,"And this speaks to nothing about the differences in a dispute. By your logic the idea that slavery was ok by 50+% of people in the 1800s should have led to everyone just leaving it alone and not trying to get their view passed as law. The notion just doesn't hold up.","http://www.4forums.com/political/abortion-debates/11073-horton-hears-who.html",306803,183
"1-7748_184_183_1",7748,1,"2008-03-25 19:26:00",51,213,306805,"2008-03-25 19:16:00",337310,200,183,"Even though you are wrong, this wasn't your argument to begin with. Your basic argument was that when something is in dispute we should default to leaving up to an ""individual's discretion"". I claim this is a poor position to take because it would make any dispute over a right subject to just being tossed aside. I gave the example of slavery because whether or not slavery was ok was a moral question dealing with rights. If we say ""well, it's in dispute so just leave it up to 'individual discretion'' is a position I don't think many are willing to accept.
Now if you argument is only that we should leave it up to ""individual's discretion"" when talking about persons then we really have two issues. Number 1, you already have to know what an individual is before you can tell them they should be able to decide this...thus being a circular statement. Number 2, on what basis is this a good idea? I simply disagree with it as it is arbitrary even for the abortion debate.",337309,1,7748,1,"Yes, I have more than once already, but you are ignoring it.

You keep drawing these false comparisons. There is no evidence that a 150 cell zygote is a person. All we can agree on is that it is a 150 cell zygote.
Nothing more, nothing less.
Deal with it, Steeeeve.","http://www.4forums.com/political/abortion-debates/11073-horton-hears-who.html",306804,184
"1-7748_186_184_1",7748,1,"2008-03-25 19:30:00",213,51,306807,"2008-03-25 19:26:00",337312,80,184,"No, and I already corrected you on this point. There was another factor I clearly stated from the outset regarding evidence. And what I basically provided was a description of how our reasoning as a society works, its justification. Which I support. 
One would have to oppose scientific thinking, not to.
Be convinced that they were entitled to impose their religious/metaphysical views on others, and against their will.",337310,1,7748,1,"Even though you are wrong, this wasn't your argument to begin with. Your basic argument was that when something is in dispute we should default to leaving up to an ""individual's discretion"". I claim this is a poor position to take because it would make any dispute over a right subject to just being tossed aside. I gave the example of slavery because whether or not slavery was ok was a moral question dealing with rights. If we say ""well, it's in dispute so just leave it up to 'individual discretion'' is a position I don't think many are willing to accept.
Now if you argument is only that we should leave it up to ""individual's discretion"" when talking about persons then we really have two issues. Number 1, you already have to know what an individual is before you can tell them they should be able to decide this...thus being a circular statement. Number 2, on what basis is this a good idea? I simply disagree with it as it is arbitrary even for the abortion debate.","http://www.4forums.com/political/abortion-debates/11073-horton-hears-who.html",306805,186
"1-7748_187_186_1",7748,1,"2008-03-25 19:36:00",51,213,306808,"2008-03-25 19:30:00",337313,138,186,"Evidence of what? Moral belief is often times outside of evidence. If you claim the unborn is not a person then I simply say why should we use your definition of person? Person as defined in the dictionary says an unborn can be called a person. Does that mean anything? Not really but neither does your view. 
The same could be said about slavery. If you are just of the belief that blacks should be slaves then there really isn't anywhere you can go with that. There is no evidence that any person that believes that really doesn't believe that. And thus we circle around back to my original point that disregarding in a dispute makes no sense.

Science offers no answers on the morality of abortion.",337312,1,7748,1,"No, and I already corrected you on this point. There was another factor I clearly stated from the outset regarding evidence. And what I basically provided was a description of how our reasoning as a society works, its justification. Which I support. 
One would have to oppose scientific thinking, not to.
Be convinced that they were entitled to impose their religious/metaphysical views on others, and against their will.","http://www.4forums.com/political/abortion-debates/11073-horton-hears-who.html",306807,187
"1-7748_188_187_1",7748,1,"2008-03-25 19:46:00",213,51,306810,"2008-03-25 19:36:00",337314,212,187,"There is only evidence of a 150 cell zygote, with none of the characteristics which we do know give us our own personhood.

Agreed. Sometimes it is based on faith or other aspects of human experience that are not rational.

I am not claiming that a developing fetus is not a person. I am simply saying that it is a matter of opinion.
That you or I are people, is a matter of fact.

It means people can say a lot of things, even write them in dictionaries. 

Slavery is quite another thing. You have clearly evidenced equal human beings whose integrity and worth is discounted because of race, class, ethnicity, gender, etc.
A 150 cell zygote is still, by all accounts, just that. The rest is a matter of belief.

No. But neither does religion or ethics. The views vary tremendously.
However, there is a clear paradigm upon which we can agree -- this is fact -- and this (the rest), is a view based on faith, metaphysics, religion, different values, etc.
Not quite the stuff for a murder conviction.",337313,1,7748,1,"Evidence of what? Moral belief is often times outside of evidence. If you claim the unborn is not a person then I simply say why should we use your definition of person? Person as defined in the dictionary says an unborn can be called a person. Does that mean anything? Not really but neither does your view. 
The same could be said about slavery. If you are just of the belief that blacks should be slaves then there really isn't anywhere you can go with that. There is no evidence that any person that believes that really doesn't believe that. And thus we circle around back to my original point that disregarding in a dispute makes no sense.

Science offers no answers on the morality of abortion.","http://www.4forums.com/political/abortion-debates/11073-horton-hears-who.html",306808,188
"1-7748_189_188_1",7748,1,"2008-03-25 19:57:00",51,213,306812,"2008-03-25 19:46:00",337315,199,188,"This, of course, is a matter of opinion. Perhaps to me you don't have the characteristics of what makes someone a person.

What fact? If person is an established word then please tell me why your definition is the right one. Why should we use that definition as opposed to one that says personhood starts at 18 years old?

It only is ""quite another thing"" when we use your definition of what a person is. I'm saying why should we use that? The definition of person is merely belief. Your's may be no better than mine. You have no evidence that yours is right and mine wrong in terms of science because there isn't a science answer for this moral question.

No there isn't. And what you argue here is that only that which is clearly agreed upon is ""fact"" and true. So when blacks were slaves and this was not clear then how would your argument work? It just wouldn't. Once again we circle around to the same point that disregarding in a dispute makes no sense.",337314,1,7748,1,"There is only evidence of a 150 cell zygote, with none of the characteristics which we do know give us our own personhood.

Agreed. Sometimes it is based on faith or other aspects of human experience that are not rational.

I am not claiming that a developing fetus is not a person. I am simply saying that it is a matter of opinion.
That you or I are people, is a matter of fact.

It means people can say a lot of things, even write them in dictionaries. 

Slavery is quite another thing. You have clearly evidenced equal human beings whose integrity and worth is discounted because of race, class, ethnicity, gender, etc.
A 150 cell zygote is still, by all accounts, just that. The rest is a matter of belief.

No. But neither does religion or ethics. The views vary tremendously.
However, there is a clear paradigm upon which we can agree -- this is fact -- and this (the rest), is a view based on faith, metaphysics, religion, different values, etc.
Not quite the stuff for a murder conviction.","http://www.4forums.com/political/abortion-debates/11073-horton-hears-who.html",306810,189
"1-7748_190_189_1",7748,1,"2008-03-25 20:39:00",213,51,306813,"2008-03-25 19:57:00",337316,44,189,"No, identifying a zygote is an matter of fact. 
Here is a site I googled that discusses the distinctions between fact and opinion. One can review the material and test themselves on how well they can tell the difference:
http://mrsdell.org/gr2/factopinion.html",337315,1,7748,1,"This, of course, is a matter of opinion. Perhaps to me you don't have the characteristics of what makes someone a person.

What fact? If person is an established word then please tell me why your definition is the right one. Why should we use that definition as opposed to one that says personhood starts at 18 years old?

It only is ""quite another thing"" when we use your definition of what a person is. I'm saying why should we use that? The definition of person is merely belief. Your's may be no better than mine. You have no evidence that yours is right and mine wrong in terms of science because there isn't a science answer for this moral question.

No there isn't. And what you argue here is that only that which is clearly agreed upon is ""fact"" and true. So when blacks were slaves and this was not clear then how would your argument work? It just wouldn't. Once again we circle around to the same point that disregarding in a dispute makes no sense.","http://www.4forums.com/political/abortion-debates/11073-horton-hears-who.html",306812,190
"1-7748_191_190_1",7748,1,"2008-03-25 20:51:00",51,213,306814,"2008-03-25 20:39:00",337317,44,190,"I object to the following as a matter of fact: ""with none of the characteristics which we do know give us our own personhood.""
Unless you have a proven definition of personhood I'd say your statement was an opinion.",337316,1,7748,1,"No, identifying a zygote is an matter of fact. 
Here is a site I googled that discusses the distinctions between fact and opinion. One can review the material and test themselves on how well they can tell the difference:
http://mrsdell.org/gr2/factopinion.html","http://www.4forums.com/political/abortion-debates/11073-horton-hears-who.html",306813,191
"1-7748_300_295_2",7748,1,"2008-04-07 09:02:00",51,865,307832,"2008-04-02 18:32:00",337426,68,295,"Why can't it be said that choice is made prior to having sex?

What about if a woman had no choice for 9 months after birth? In other words, adoption wasn't available. Would this same rule apply? Seems given the first quote you would say no because all of a sudden an obligation is there. So what is the standard here?",337421,2,7748,1,"No there is a difference and trying to say that allowing abortion will lead to the 'right' to terminate children after birth is just ridiculous. Once a woman CHOOSES have the baby she has assumed certain responsibilities. Once she takes those responsibilities she must legally and morally uphold her end. Of course, she could give the baby up for adoption or whatever. But this initial choice is the woman's. Once she does choose to have a child she MUST take care of it or face the consequences. But because of those consequences (and the physical ones as well) the woman must have the opportunity to make that choice of her own free will.","http://www.4forums.com/political/abortion-debates/11073-horton-hears-who.html",307320,300
"1-7748_303_300_2",7748,1,"2008-04-07 19:36:00",865,51,307896,"2008-04-07 09:02:00",337429,121,300,"[QUOTE]
Because women have every right to enjoy sex, just as men do. However, there is no 100% certain method to ensure that she doesn't get pregnant. To say that a woman MUST give up sex as the only way to 100% be sure that she won't get pregnant is unjust and creates a lower caste system for women.

I'm not sure I understand your scenario. But at some point in the pregnancy the woman decides she's going to have her baby (right now it is the limit at which to have an abortion). After choosing to carry on past that time, she assumes responsibility for the baby.",337426,2,7748,1,"Why can't it be said that choice is made prior to having sex?

What about if a woman had no choice for 9 months after birth? In other words, adoption wasn't available. Would this same rule apply? Seems given the first quote you would say no because all of a sudden an obligation is there. So what is the standard here?","http://www.4forums.com/political/abortion-debates/11073-horton-hears-who.html",307832,303
"1-7748_304_303_2",7748,1,"2008-04-08 10:39:00",51,865,307949,"2008-04-07 19:36:00",337430,212,303,"Every standard you come up with is arbitrary with no logic. It seems like you have the solution and are creating a standard to get that answer. 
Why is ""choice"" not allowed after birth? What changed? If one does not to believe that all persons deserve equal rights then you open up the idea that any person can have rights removed for whatever reason. In this case I do argue a slippery slope because there is no instance in human history where declaring people unequal is justified (and before we get the ""what about criminals"" argument let me say I believe they have equal rights because they were treated the same as anyone would have).

Why can't this be after birth? 
I disagree with the idea that this comes down to a woman's right to anything. I am of the idea that we all get equal rights and equal treatment. At no point would any ""right to one's own body"" outweigh a right to life when those two are at odds with each other. It can't because this doesn't apply across the board meaning another standard is used to degrade an unborn person.",337429,2,7748,1,"[QUOTE]
Because women have every right to enjoy sex, just as men do. However, there is no 100% certain method to ensure that she doesn't get pregnant. To say that a woman MUST give up sex as the only way to 100% be sure that she won't get pregnant is unjust and creates a lower caste system for women.

I'm not sure I understand your scenario. But at some point in the pregnancy the woman decides she's going to have her baby (right now it is the limit at which to have an abortion). After choosing to carry on past that time, she assumes responsibility for the baby.","http://www.4forums.com/political/abortion-debates/11073-horton-hears-who.html",307896,304
"1-7748_305_304_2",7748,1,"2008-04-08 14:56:00",865,51,307961,"2008-04-08 10:39:00",337431,220,304,"[QUOTE]
What are you talking about? You said that simply having sex = the choice to be responsible to carry a baby for 9 months. I said that that's not correct. That women have the right to have intercourse without having to be afraid that they'd get stuck with a baby. No method of contraception is 100% except abstinence. Women should be able to enjoy sex as well as men or we're going to have one of those 'unequal' situations you are worried about.

That choice happens when a woman doesn't get an abortion. By CHOOSING to carry the baby to term, she's obligated herself to taking care of it (or giving it to someone who will or whatever)

Because that's neglect.

But it does. The fetus (or unborn baby) can't force a woman to carry it if she doesn't want. The woman must make that choice. Once she does, she's on the hook. Right now there is a time limit in which to get an abortion. A woman must make the choice by then, that is her responsibility. If she chooses to carry the baby past that time, she's made her decision.",337430,2,7748,1,"Every standard you come up with is arbitrary with no logic. It seems like you have the solution and are creating a standard to get that answer. 
Why is ""choice"" not allowed after birth? What changed? If one does not to believe that all persons deserve equal rights then you open up the idea that any person can have rights removed for whatever reason. In this case I do argue a slippery slope because there is no instance in human history where declaring people unequal is justified (and before we get the ""what about criminals"" argument let me say I believe they have equal rights because they were treated the same as anyone would have).

Why can't this be after birth? 
I disagree with the idea that this comes down to a woman's right to anything. I am of the idea that we all get equal rights and equal treatment. At no point would any ""right to one's own body"" outweigh a right to life when those two are at odds with each other. It can't because this doesn't apply across the board meaning another standard is used to degrade an unborn person.","http://www.4forums.com/political/abortion-debates/11073-horton-hears-who.html",307949,305
"1-7748_308_305_2",7748,1,"2008-04-08 18:48:00",51,865,307977,"2008-04-08 14:56:00",337434,165,305,"The point is that all of these are random inconsistent standards. You think equality is important but only sometimes. You think choice is important but only sometimes. You think a right to your own body is important but only sometimes. All of these ""sometimes"" just so happen to allow abortion. What is the logic behind these? Why the exceptions?

This violates what I said: ""At no point would any ""right to one's own body"" outweigh a right to life when those two are at odds with each other. It can't because this doesn't apply across the board meaning another standard is used to degrade an unborn person.""
So what are you saying ""but it does to"". You are creating a standard but have provided no logical explanation for it. Is there a reason for this belief or is this just what your belief is?",337431,2,7748,1,"What are you talking about? You said that simply having sex = the choice to be responsible to carry a baby for 9 months. I said that that's not correct. That women have the right to have intercourse without having to be afraid that they'd get stuck with a baby. No method of contraception is 100% except abstinence. Women should be able to enjoy sex as well as men or we're going to have one of those 'unequal' situations you are worried about.
That choice happens when a woman doesn't get an abortion. By CHOOSING to carry the baby to term, she's obligated herself to taking care of it (or giving it to someone who will or whatever)
Because that's neglect.","http://www.4forums.com/political/abortion-debates/11073-horton-hears-who.html",307961,308
"1-7748_311_308_2",7748,1,"2008-04-08 19:30:00",865,51,307983,"2008-04-08 18:48:00",337437,150,308,"Wait, wait. You are the one that for twenty posts kept saying 'but pretend that IF unborn were considered people' and now you are saying that I'm the one saying the 'it does to [sic]'. Nice try. The standard is that no person in a free society can have the control of their bodies taken from them to the extent that forcing a baby on someone does. Your saying 'what I said was at no point....' Which is your 'because I said so. An unborn baby ISN'T a person (even if you assume it is) and even if it were, the rights of the mother always would outweigh the rights of the embryo (at least to a point after which she has 'chosen' to keep it).",337434,2,7748,1,"The point is that all of these are random inconsistent standards. You think equality is important but only sometimes. You think choice is important but only sometimes. You think a right to your own body is important but only sometimes. All of these ""sometimes"" just so happen to allow abortion. What is the logic behind these? Why the exceptions?

This violates what I said: ""At no point would any ""right to one's own body"" outweigh a right to life when those two are at odds with each other. It can't because this doesn't apply across the board meaning another standard is used to degrade an unborn person.""
So what are you saying ""but it does to"". You are creating a standard but have provided no logical explanation for it. Is there a reason for this belief or is this just what your belief is?","http://www.4forums.com/political/abortion-debates/11073-horton-hears-who.html",307977,311
"1-7748_313_311_2",7748,1,"2008-04-09 06:20:00",51,865,308018,"2008-04-08 19:30:00",337439,193,311,"The unborn isn't controlling the woman in a pregnancy but merely is living in the only environment allowable to live. The woman can still do many things granted a restriction is now placed. So what is the standard for restriction? If the burden is caused from a born child and is equal to the burden of a unborn child then wouldn't think standard, if consistent, allow you to kill both? Are you going to say ""the woman has accepted the responsibility to take care of the child""? If this is the case then why does it have to be before birth? Where did this come from? Finally, why would a woman be granted the power to bestow rights? Do you prefer unequal treatment?
You standard is still seems nothing more than a conclusion followed by a means to get there. I still can't figure out if this is just pure belief or if you have some logic behind it. There is nothing wrong with pure belief but I'd like to ask where it was derived from.",337437,2,7748,1,"Wait, wait. You are the one that for twenty posts kept saying 'but pretend that IF unborn were considered people' and now you are saying that I'm the one saying the 'it does to [sic]'. Nice try. The standard is that no person in a free society can have the control of their bodies taken from them to the extent that forcing a baby on someone does. Your saying 'what I said was at no point....' Which is your 'because I said so. An unborn baby ISN'T a person (even if you assume it is) and even if it were, the rights of the mother always would outweigh the rights of the embryo (at least to a point after which she has 'chosen' to keep it).","http://www.4forums.com/political/abortion-debates/11073-horton-hears-who.html",307983,313
"1-7748_523_520_3",7748,1,"2008-05-21 10:22:00",381,2845,311499,"2008-05-21 09:00:00",337649,168,520,"It's OK to have opinions. Any opinion. However, the point of a debate forum is to make a logical argument upon which those opinions are based. Having an opinion ""just because"" or ""because my pastor said so"" or because ""I believe in my heart"" is open to criticism in a forum such as this, unless you also supply a reason behind those ideas. Also, I think that's a rather irresponsible way to go through life. If we don't think these things through, we have no basis upon which to make decisions when faced with novel information. Doing something solely based on another's urgings without examining the underlying reasoning is childish behavior.
On reason you did supply is ""I know that my bible teaches of the value of life at the moment of conception, and I believe my bible"". Where does it say that in your bible?",337646,3,7748,1,"some of you are trying to push the fact that it is ok to abort babies, and I still disagree, it is murder and I can not bring myself to believe other wise. I know that my bible teaches of the value of life at the moment of conception, and I believe my bible, and my pastor, but most of all I believe in my heart that abortion is murder. I think some of you need to look at a bible and do some soul searching, I am not the hateful one here.","http://www.4forums.com/political/abortion-debates/11073-horton-hears-who.html",311488,523
"1-7748_524_523_3",7748,1,"2008-05-21 10:42:00",2845,381,311501,"2008-05-21 10:22:00",337650,139,523,"THIER ARE SEVERAL VERSUS, SUCH AS THE 10 COMMANDMENTS, THOU SHALL NOT KILL OR COMMIT MURDER, CALL IT WHAT YOU WILL. AND JEREMIAH CHAPTER 1 VERSE 5, SPEAKS OF THE VALUE OF LIFE IN A SENCE. THIER ARE ALSO VERSUS THAT SPEAKS OF COMMITING ADULTRY AND HAVING SEX WHEN YOU ARE NOT MARRIED. IF A WOMEN IS HAVING SEX SHE SHOULD BE MARRIED AND SHE WOULD NOT HAVE TO HAVE TO MAKE THESE CHOICES OF BRINGING BABIES INTO THE WORLD WITH NO FATHER. FURTHER MORE PARENTS SHOULD BE TEACHING THIER CHILDREN GOOD MORAL VALUES AS CHILDREN SO THEY DONT MAKE THESE MISTAKES IN THE FIRST PLACE. I KNOW I DO. IT IS CHILDISH AND IRRESPONSIBLE TO PUT YOURSELF IN IDIOT SITUATIONS IN THE FIRST PLACE DONT YOU THINK?",337649,3,7748,1,"It's OK to have opinions. Any opinion. However, the point of a debate forum is to make a logical argument upon which those opinions are based. Having an opinion ""just because"" or ""because my pastor said so"" or because ""I believe in my heart"" is open to criticism in a forum such as this, unless you also supply a reason behind those ideas. Also, I think that's a rather irresponsible way to go through life. If we don't think these things through, we have no basis upon which to make decisions when faced with novel information. Doing something solely based on another's urgings without examining the underlying reasoning is childish behavior.
On reason you did supply is ""I know that my bible teaches of the value of life at the moment of conception, and I believe my bible"". Where does it say that in your bible?","http://www.4forums.com/political/abortion-debates/11073-horton-hears-who.html",311499,524
"1-7748_528_524_3",7748,1,"2008-05-21 11:48:00",381,2845,311511,"2008-05-21 10:42:00",337654,173,524,"Your first post did not address my post in any way.
The second sorta touched on it.
I would appreciate if you could supply the passage itself rather than just the reference. In addition to merely spouting bible passages, you should express the ideas in your own words as much of the bible is inscrutable to me. Please tell me why you feel the way you do. 
You say the bible speaks of not harming the unborn child. Please show that specifically. I would indeed also like to see where the bible states specifically that idea that we need to protect the conceptus immediately after sperm meets egg. You say that is the case ""if I perceive it correctly"". Maybe you don't. Please provide a logical argument. 
Thanks for finally losing the ALL CAPS. That was really irritating. Now work on spelling and grammar and it will be much easier to read and understand your posts.",337650,3,7748,1,"THIER ARE SEVERAL VERSUS, SUCH AS THE 10 COMMANDMENTS, THOU SHALL NOT KILL OR COMMIT MURDER, CALL IT WHAT YOU WILL. AND JEREMIAH CHAPTER 1 VERSE 5, SPEAKS OF THE VALUE OF LIFE IN A SENCE. THIER ARE ALSO VERSUS THAT SPEAKS OF COMMITING ADULTRY AND HAVING SEX WHEN YOU ARE NOT MARRIED. IF A WOMEN IS HAVING SEX SHE SHOULD BE MARRIED AND SHE WOULD NOT HAVE TO HAVE TO MAKE THESE CHOICES OF BRINGING BABIES INTO THE WORLD WITH NO FATHER. FURTHER MORE PARENTS SHOULD BE TEACHING THIER CHILDREN GOOD MORAL VALUES AS CHILDREN SO THEY DONT MAKE THESE MISTAKES IN THE FIRST PLACE. I KNOW I DO. IT IS CHILDISH AND IRRESPONSIBLE TO PUT YOURSELF IN IDIOT SITUATIONS IN THE FIRST PLACE DONT YOU THINK?","http://www.4forums.com/political/abortion-debates/11073-horton-hears-who.html",311501,528
"1-7748_530_528_3",7748,1,"2008-05-21 14:00:00",2845,381,311524,"2008-05-21 11:48:00",337656,140,528,"The bible states that your body belongs to God. 1st corinthians 6- 19 states that your body is a temple of the holy spirit whom is on you, whom you have recieved from god, you are not your own , therfor honor god with your body. A women who is consenting to an abortion is not honoring her body, nor the life that she carries. You shall not commit murder is stated in the ten commandments, and murder can also translate into dash into pieces, which is a very accurate description of an abortion procedure. Exodus 23 7 states we should not put the innocent to death, well a fetus is an innocent. And off the subject sorry about my grammer I usually use a spell checker.",337654,3,7748,1,"Your first post did not address my post in any way.
The second sorta touched on it.
I would appreciate if you could supply the passage itself rather than just the reference. In addition to merely spouting bible passages, you should express the ideas in your own words as much of the bible is inscrutable to me. Please tell me why you feel the way you do. 
You say the bible speaks of not harming the unborn child. Please show that specifically. I would indeed also like to see where the bible states specifically that idea that we need to protect the conceptus immediately after sperm meets egg. You say that is the case ""if I perceive it correctly"". Maybe you don't. Please provide a logical argument. 
Thanks for finally losing the ALL CAPS. That was really irritating. Now work on spelling and grammar and it will be much easier to read and understand your posts.","http://www.4forums.com/political/abortion-debates/11073-horton-hears-who.html",311511,530
"1-7748_537_530_3",7748,1,"2008-05-21 16:12:00",381,2845,311538,"2008-05-21 14:00:00",337663,177,530,"Looks like you failed to support your contention, and I asked you to supply passages/text with your interpretations, not merely citations.
Your answer is that the body is a temple of the holy spirit who is ""on me"" (whatever that means), and is not mine, but god's.
Fine.
From that you extrapolate that abortion is not honoring one's body. There is no mention in that passage about a fetus. 
I could go on. I asked you a simple question. Twice.
You have been unable to support your assertion that the bible states that we must protect the zygote immediately after conception. 
I thank you for your response, your avoidance of upper case, and your better attention to spelling.
You needn't respond again. It appears you are not interested in a dialogue, but merely restating your original points without being willing to defend them by answering questions put to you.
Thanks anyway.",337656,3,7748,1,"The bible states that your body belongs to God. 1st corinthians 6- 19 states that your body is a temple of the holy spirit whom is on you, whom you have recieved from god, you are not your own , therfor honor god with your body. A women who is consenting to an abortion is not honoring her body, nor the life that she carries. You shall not commit murder is stated in the ten commandments, and murder can also translate into dash into pieces, which is a very accurate description of an abortion procedure. Exodus 23 7 states we should not put the innocent to death, well a fetus is an innocent. And off the subject sorry about my grammer I usually use a spell checker.","http://www.4forums.com/political/abortion-debates/11073-horton-hears-who.html",311524,537
"1-7748_375_374_4",7748,1,"2008-04-12 16:37:00",1566,421,308439,"2008-04-12 16:20:00",337501,31,374,"The Newfoundland & Labrador Right to Life Association is a known religious propaganda site. Wouldn't put it past them to Photoshop those pictures just for 'shock' value emoticonXRolleyes",337500,4,7748,1,"Here's the picture of the aborted babies in the garbage can. And here's the complete link:","http://www.4forums.com/political/abortion-debates/11073-horton-hears-who.html",308434,375
"1-7748_376_375_4",7748,1,"2008-04-12 16:56:00",421,1566,308443,"2008-04-12 16:37:00",337502,38,375,"Thanks for contributing absolutely nothing as you make unfounded claims without supporting them with even the slightest proof. But hey, talks cheap; and you've proven you've got plenty of that since showing up here.",337501,4,7748,1,"The Newfoundland & Labrador Right to Life Association is a known religious propaganda site. Wouldn't put it past them to Photoshop those pictures just for 'shock' value emoticonXRolleyes","http://www.4forums.com/political/abortion-debates/11073-horton-hears-who.html",308439,376
"1-7748_377_376_4",7748,1,"2008-04-12 17:25:00",1566,421,308449,"2008-04-12 16:56:00",337503,86,376,"That's right it is, so if those pictures are real and not just propaganda then you should be able to back up that they really existed. Surely you can support your 'claim' by showing everyone a newspaper article, police report or other legal document for them breaking the law by disposing of human remains in that fashion. We'll wait for you to back up your claims. Like you said, talks cheap, Photoshop costs some bucks though ;)",337502,4,7748,1,"Thanks for contributing absolutely nothing as you make unfounded claims without supporting them with even the slightest proof. But hey, talks cheap; and you've proven you've got plenty of that since showing up here.","http://www.4forums.com/political/abortion-debates/11073-horton-hears-who.html",308443,377
"1-7748_378_377_4",7748,1,"2008-04-12 19:02:00",421,1566,308460,"2008-04-12 17:25:00",337504,104,377,"First of all, you're jumping to a huge conclusion and making a giant unsupportable leap by claiming that any human remains were disposed of illegally at all. So since you're making that ridiculous claim, it's on you to prove that assertion and then I'll be happy to produce a record reporting it.
You liberals are incredible!!! You think you can just proclaim a law has been broken and then demand proof of it when no law at all has been broken in reality. It's just more evidence of the delusions that have clouded your thought processes. emoticonXDonno",337503,4,7748,1,"That's right it is, so if those pictures are real and not just propaganda then you should be able to back up that they really existed. Surely you can support your 'claim' by showing everyone a newspaper article, police report or other legal document for them breaking the law by disposing of human remains in that fashion. We'll wait for you to back up your claims. Like you said, talks cheap, Photoshop costs some bucks though ;)","http://www.4forums.com/political/abortion-debates/11073-horton-hears-who.html",308449,378
"1-7748_380_378_4",7748,1,"2008-04-12 19:51:00",1566,421,308467,"2008-04-12 19:02:00",337506,85,378,"Sorry but that's not how it works in the real world. Whomever posted the link to the image has the responsibility to prove that the image is legit. Whether that's you or not I don't know, but whomever it is they need to show some verifiable documentation. They can't just post propaganda and claim that the everyone else needs to prove it's propaganda. If it's real then it should be easy to document. No documentation, no legitimacy.",337504,4,7748,1,"First of all, you're jumping to a huge conclusion and making a giant unsupportable leap by claiming that any human remains were disposed of illegally at all. So since you're making that ridiculous claim, it's on you to prove that assertion and then I'll be happy to produce a record reporting it.
You liberals are incredible!!! You think you can just proclaim a law has been broken and then demand proof of it when no law at all has been broken in reality. It's just more evidence of the delusions that have clouded your thought processes. emoticonXDonno","http://www.4forums.com/political/abortion-debates/11073-horton-hears-who.html",308460,380
"1-7748_384_380_4",7748,1,"2008-04-14 07:19:00",421,1566,308611,"2008-04-12 19:51:00",337510,119,380,"Wrong again ingus. I posted a valid link. If you're going to make wild accusations about its legitimacy, then it's on you to prove it. I stand by this link as valid and accurate. The organization named in it is real and verifiable as legitimate. If you believe these photos are fraudulent, then prove it. Otherwise, stop the denials and accept the cold hard truth of what abortion represents in the real World.
http://home.thezone.net/~nfrtla/phot...ted-babies.htm
Since you came here, this debate has stopped being about abortion and has degraded to semantics and your attempts to make accusations against posters rather than actually debate the issues we were discussing.",337506,4,7748,1,"Sorry but that's not how it works in the real world. Whomever posted the link to the image has the responsibility to prove that the image is legit. Whether that's you or not I don't know, but whomever it is they need to show some verifiable documentation. They can't just post propaganda and claim that the everyone else needs to prove it's propaganda. If it's real then it should be easy to document. No documentation, no legitimacy.","http://www.4forums.com/political/abortion-debates/11073-horton-hears-who.html",308467,384
"1-7748_482_481_5",7748,1,"2008-05-19 15:23:00",1566,2845,311315,"2008-05-19 15:06:00",337608,163,481,"Freedom of choice should be illegal? emoticonXRolleyes That is pretty warped and asinine. Should it also be illegal for a woman to take vitamins? According to you - yes - because a certain dosage of vitamin C will cause a miscarriage. You'll NEVER stop abortions as they have been happening since mankind has first walked this Earth. One way or another women will control their own bodies regardless of slavery nazis like yourself who try to control women, and only see women as being invisible.

Wow, what in your head makes you think that's OK? emoticonXRolleyes First of all it isn't murder, so please learn the very basic definition of the words you 'try' to use. Secondly, according to your so-called reasoning, if a woman dies while giving birth then the baby should also be sentenced to the max for committing her murder. Deal with it.",337607,5,7748,1,"Thier is a big difference between an unfortunant event such as a miscariage and an abortion. And thier are many people who are willing to adopt, my parents have dedicated thier lives to adopting mentally dissabled and troubled children and have made a huge difference in lives. And I dont stand in front of clinics and I am not mean to those who have abortions, but It should be illegal and I will support in making illegal. The bottom line is we all know, including these teenagers that having sex has many consequenses and if you cant take responsibilty then dont have sex. These women are ignorant cowards. You know if someone kills a women who is preagnant that person is charged with not only the murder of the mother but also the unborn child, and a women who has an abortion should be charged with murder and senenced to the max for the simple fact that abortions are a brutal act of violence against a child. And by the way the doctor should be charged to!","http://www.4forums.com/political/abortion-debates/11073-horton-hears-who.html",311309,482
"1-7748_483_482_5",7748,1,"2008-05-19 15:39:00",2845,1566,311319,"2008-05-19 15:23:00",337609,75,482,"OK, well freedom of choice is ####, We do not have freedom if we kill someone and I beg to differ but abortion is murder, and a very brutall murder at that. If a women does not want a child then she should close them legs and keep them that way. If her life is in danger then again keep those legs closed, adoption is a great choice.",337608,5,7748,1,"Freedom of choice should be illegal? emoticonXRolleyes That is pretty warped and asinine. Should it also be illegal for a woman to take vitamins? According to you - yes - because a certain dosage of vitamin C will cause a miscarriage. You'll NEVER stop abortions as they have been happening since mankind has first walked this Earth. One way or another women will control their own bodies regardless of slavery nazis like yourself who try to control women, and only see women as being invisible.

Wow, what in your head makes you think that's OK? emoticonXRolleyes First of all it isn't murder, so please learn the very basic definition of the words you 'try' to use. Secondly, according to your so-called reasoning, if a woman dies while giving birth then the baby should also be sentenced to the max for committing her murder. Deal with it.","http://www.4forums.com/political/abortion-debates/11073-horton-hears-who.html",311315,483
"1-7748_484_483_5",7748,1,"2008-05-19 19:19:00",1566,2845,311353,"2008-05-19 15:39:00",337610,126,483,"I'm sure our founding fathers appreciate your ignorance. Maybe since you don't appreciate freedom of choice you should move to russia where you'll get a refresher course on its importance emoticonXGood 

You can beg all you want but it does NOT meet ANY of the terms qualifications. Deal with it. In society you can't just make up your own definitions for words like you do. Do you know what they medically call someone that makes up their own definitions to words? Psychotic ;)

Now you're just being ignorant emoticonXRolleyes Thank God for Karma and the fact that people who think like you usually end up having a bad life from all the bad energy generated around them. How poetic emoticonXBye",337609,5,7748,1,"OK, well freedom of choice is ####, We do not have freedom if we kill someone and I beg to differ but abortion is murder, and a very brutall murder at that. If a women does not want a child then she should close them legs and keep them that way. If her life is in danger then again keep those legs closed, adoption is a great choice.","http://www.4forums.com/political/abortion-debates/11073-horton-hears-who.html",311319,484
"1-7748_485_484_5",7748,1,"2008-05-19 19:33:00",2845,1566,311356,"2008-05-19 19:19:00",337611,39,484,"I am not the one having a bad life, I did not abort my children. As far as freedom goes you dont have the freedom to kill your neighbor, but the freedom to kill your child",337610,5,7748,1,"I'm sure our founding fathers appreciate your ignorance. Maybe since you don't appreciate freedom of choice you should move to russia where you'll get a refresher course on its importance emoticonXGood 

You can beg all you want but it does NOT meet ANY of the terms qualifications. Deal with it. In society you can't just make up your own definitions for words like you do. Do you know what they medically call someone that makes up their own definitions to words? Psychotic ;)

Now you're just being ignorant emoticonXRolleyes Thank God for Karma and the fact that people who think like you usually end up having a bad life from all the bad energy generated around them. How poetic emoticonXBye","http://www.4forums.com/political/abortion-debates/11073-horton-hears-who.html",311353,485
"1-7748_486_485_5",7748,1,"2008-05-19 21:04:00",1566,2845,311360,"2008-05-19 19:33:00",337612,156,485,"You can't say that as there is a lot that can happen between now and when it ends. One thing that I know is true, no one, not even you, can out maneuver Karma. All of that bitterness that runs through your veins, all of that hate for fellow adults, all of that justification for all of those lies that you try to convince yourself of, all of that poison in your head that makes you think that you can selfishly control another person... it all adds up in Karmas eyes, and as usual Karma will win. Looks like it sucks to be you, as God sees nothing wrong with abortion, as he causes them through miscarriages everyday of the week emoticonXBye 

Earth to Christina, this is a forum about medical abortion. NO ONE is killing their ""neighbors"" emoticonXRolleyes",337611,5,7748,1,"I am not the one having a bad life, I did not abort my children. As far as freedom goes you dont have the freedom to kill your neighbor, but the freedom to kill your child","http://www.4forums.com/political/abortion-debates/11073-horton-hears-who.html",311356,486
"1-7748_492_486_5",7748,1,"2008-05-20 08:50:00",2845,1566,311401,"2008-05-19 21:04:00",337618,80,486,"you are correct this is about abortion, my point is we do not have the right or freedom to kill one another, so how can a mother havethe right to kill her child? And I am not a hateful person, I do not hate one who kills her child, I only wonder why she is so hateful and selfish. And God has the right to take these innocent lives, we do not.",337612,5,7748,1,"You can't say that as there is a lot that can happen between now and when it ends. One thing that I know is true, no one, not even you, can out maneuver Karma. All of that bitterness that runs through your veins, all of that hate for fellow adults, all of that justification for all of those lies that you try to convince yourself of, all of that poison in your head that makes you think that you can selfishly control another person... it all adds up in Karmas eyes, and as usual Karma will win. Looks like it sucks to be you, as God sees nothing wrong with abortion, as he causes them through miscarriages everyday of the week emoticonXBye 

Earth to Christina, this is a forum about medical abortion. NO ONE is killing their ""neighbors"" emoticonXRolleyes","http://www.4forums.com/political/abortion-debates/11073-horton-hears-who.html",311360,492
