"key","quote_source_post_discussion_id","posts_dataset_id","posts_timestamp","posts_author_id","quote_source_author_id","posts_native_post_id","quote_source_timestamp","post_text_id","Word_Count","quote_source_post_id","post_text","quote_source_text_id","Dialog_Turn","posts_discussion_id","quote_source_post_dataset_id","Fullquote_text","discussion_url","quote_source_native_post_id","posts_post_id"
"1-7792_20_18_1",7792,1,"2008-04-12 15:59:00",76,1566,308429,"2008-04-12 15:46:00",339394,31,18,"I can ""claim"" that two added to two results in a sum of four. Does that mean that I don't know that 2+2=4?",339392,1,7792,1,"LOL :p If you knew it was a fact ... then you wouldn't have called it a 'claim'","http://www.4forums.com/political/abortion-debates/11136-how-important-soul-pro-life-views.html",308427,20
"1-7792_22_20_1",7792,1,"2008-04-12 16:18:00",1566,76,308433,"2008-04-12 15:59:00",339396,94,20,"You can claim anything that you want, but that doesn't make it true. 
Many people claim that the Easter Bunny and Santa Clause are real, but most adults know it isn't true. 
They used to claim that the moon was made out of cheese, but most adults know that isn't true. 
They used to claim that the world was flat, but most adults know that isn't true either. 
You can claim anything that you want, but claims and facts are not the same thing ;)",339394,1,7792,1,"I can ""claim"" that two added to two results in a sum of four. Does that mean that I don't know that 2+2=4?","http://www.4forums.com/political/abortion-debates/11136-how-important-soul-pro-life-views.html",308429,22
"1-7792_23_22_1",7792,1,"2008-04-12 16:36:00",76,1566,308437,"2008-04-12 16:18:00",339397,96,22,"I didn't say that they were. You said that there can't be overlap. There can be overlap; calling something a claim doesn't make it false, nor does it make it of unknown truth value.
I'm making the assertion that your ""excluded or"" statement is incorrect. That you are wrong is my claim. You are indeed wrong, as shown by the 2+2=4 example. Therefore my claim is true, just like my claim that 2+2=4 is true.",339396,1,7792,1,"You can claim anything that you want, but that doesn't make ittrue. ...
You can claim anything that you want, but claims and facts are not the same thing ;)","http://www.4forums.com/political/abortion-debates/11136-how-important-soul-pro-life-views.html",308433,23
"1-7792_24_23_1",7792,1,"2008-04-12 16:47:00",1566,76,308440,"2008-04-12 16:36:00",339398,47,23,"No, I was saying that overlap doesn't mean squat. A claim is just that, a claim. It is neither true or false. The fact that some claims may be true is a moot point. That is pure argumentum ad ignorantiam emoticonXGood",339397,1,7792,1,"I didn't say that they were. You said that there can't be overlap. There can be overlap; calling something a claim doesn't make it false, nor does it make it of unknown truth value.
I'm making the assertion that your ""excluded or"" statement is incorrect. That you are wrong is my claim. You are indeed wrong, as shown by the 2+2=4 example. Therefore my claim is true, just like my claim that 2+2=4 is true.","http://www.4forums.com/political/abortion-debates/11136-how-important-soul-pro-life-views.html",308437,24
"1-7792_26_24_1",7792,1,"2008-04-12 16:58:00",76,1566,308444,"2008-04-12 16:47:00",339400,58,24,"You were saying that he wouldn't have called it a claim if it were a known fact. Now you say that claims can be true, but you're avoiding my point, which is that something that is a known truth can be stated as a ""claim."" Why are you being so evasive?",339398,1,7792,1,"No, I was saying that overlap doesn't mean squat. A claim is just that, a claim. It is neither true or false. The fact that some claims may be true is a moot point. That is pure argumentum ad ignorantiam emoticonXGood","http://www.4forums.com/political/abortion-debates/11136-how-important-soul-pro-life-views.html",308440,26
"1-7792_32_26_1",7792,1,"2008-04-12 17:31:00",1566,76,308451,"2008-04-12 16:58:00",339406,45,26,"No, that's NOT what I said at all. Go back and read what I actually wrote, and not just what you want to read. If you still need help, just ask ;) 

I've already said this so that's redundant.",339400,1,7792,1,"You were saying that he wouldn't have called it a claim if it were a known fact. Now you say that claims can be true, but you're avoiding my point, which is that something that is a known truth can be stated as a ""claim."" Why are you being so evasive?","http://www.4forums.com/political/abortion-debates/11136-how-important-soul-pro-life-views.html",308444,32
"1-7792_33_32_1",7792,1,"2008-04-12 17:51:00",76,1566,308452,"2008-04-12 17:31:00",339407,9,32,"Okay:
Whatever you say, Colonel. emoticonXRolleyes",339406,1,7792,1,"No, that's NOT what I said at all. Go back and read what I actually wrote..","http://www.4forums.com/political/abortion-debates/11136-how-important-soul-pro-life-views.html",308451,33
"1-7792_39_36_2",7792,1,"2008-04-12 19:17:00",76,1566,308462,"2008-04-12 18:44:00",339413,204,36,"Bull hockey. It is common to refer to statements as claims regardless of their truth value. This is especially true in philosophical/logical arguments.

I'm a new part of that education system, bub. The fact is that you said you didn't say what you actually did say, and now you're trying to cover that up by giving an alternate explanation that ignores the fact that this is a debate forum where ""claims"" are labeled for what they are: claims. It's a shame our education system has to compete with numbskulls who hold their misplaced opinions in higher regard than people trained in those areas.

News flash, Holmes: I never said that souls existed. I never even implied such. I took a quick rip at Archie's pathetic arguments early in the thread and have since been arguing with you about why calling something a claim would mean that it isn't believed. If you want to argue that souls don't exist, or that nobody has shown that souls do exist, then your arguments had better be better than vacuous attempts to nail someone for faulty phraseology.",339410,2,7792,1,"You need to read the statement from the person who was saying it's point of view. A person would not say ""my claim is that the sun is hot"" if theyreally knew it was hot, they would just say ""the sun is hot"".","http://www.4forums.com/political/abortion-debates/11136-how-important-soul-pro-life-views.html",308457,39
"1-7792_41_39_2",7792,1,"2008-04-12 19:44:00",1566,76,308465,"2008-04-12 19:17:00",339415,103,39,"I know what I said and so does everyone else. It's a matter of public record emoticonXGood Quit trying to manipulate the facts. It just wastes everyones time and leads the topic even more off course than it already is emoticonXRolleyes 

Sorry electrolyte, that one was my fault :( I wasn't trying to suggest that you made that comment, just that I was still waiting for said proof. My appologies. I should have re-quoted the person that did say it but now I think they ran away. Oh well... guess they can't prove it :)",339413,2,7792,1,"Bull hockey. It is common to refer to statements as claims regardless of their truth value. This is especially true in philosophical/logical arguments.

I'm a new part of that education system, bub. The fact is that you said you didn't say what you actually did say, and now you're trying to cover that up by giving an alternate explanation that ignores the fact that this is a debate forum where ""claims"" are labeled for what they are: claims. It's a shame our education system has to compete with numbskulls who hold their misplaced opinions in higher regard than people trained in those areas.

News flash, Holmes: I never said that souls existed. I never even implied such. I took a quick rip at Archie's pathetic arguments early in the thread and have since been arguing with you about why calling something a claim would mean that it isn't believed. If you want to argue that souls don't exist, or that nobody has shown that souls do exist, then your arguments had better be better than vacuous attempts to nail someone for faulty phraseology.","http://www.4forums.com/political/abortion-debates/11136-how-important-soul-pro-life-views.html",308462,41
"1-7792_43_41_2",7792,1,"2008-04-12 20:04:00",76,1566,308470,"2008-04-12 19:44:00",339417,152,41,"But I'm not manipulating the facts. Any reader with the inability to read your mind (which is everybody on the planet besides you) can read your words but apparently not know what you mean, since you say what you don't mean. I posted our statements right next to each other for everybody to read.

This is the point. They can't prove it. They can't even present halfway decent arguments. So let's make that the issue instead of pulling claims of psychology-induced Freudian slips.
And no, he's still here. He just loves ""allowing"" the thread to be derailed. Trust me, he does it himself, especially when he's getting his XXX kicked. Keep pointing out that he hasn't shown (and can't show) that souls exist, and he'll stop posting in the thread.",339415,2,7792,1,"I know what I said and so does everyone else. It's a matter of public record emoticonXGood Quit trying to manipulate the facts. It just wastes everyones time and leads the topic even more off course than it already is emoticonXRolleyes 

Sorry electrolyte, that one was my fault :( I wasn't trying to suggest that you made that comment, just that I was still waiting for said proof. My appologies. I should have re-quoted the person that did say it but now I think they ran away. Oh well... guess they can't prove it :)","http://www.4forums.com/political/abortion-debates/11136-how-important-soul-pro-life-views.html",308465,43
"1-7792_46_43_2",7792,1,"2008-04-12 20:29:00",1566,76,308475,"2008-04-12 20:04:00",339420,76,43,"Yes you did. Funny how your interpretation was different emoticonXGood To be honest I'm not even sure what this thread is about anymore, this is the abortion section isn't it? :p

My oh my how on Earth do you ever debate someone like that? Seems it would just waste a lot of precious time. In any event THANK YOU for the heads up. Looking forward to a great debate emoticonXSmilie",339417,2,7792,1,"But I'm not manipulating the facts. Any reader with the inability to read your mind (which is everybody on the planet besides you) can read your words but apparently not know what you mean, since you say what you don't mean. I posted our statements right next to each other for everybody to read.

This is the point. They can't prove it. They can't even present halfway decent arguments. So let's make that the issue instead of pulling claims of psychology-induced Freudian slips.
And no, he's still here. He just loves ""allowing"" the thread to be derailed. Trust me, he does it himself, especially when he's getting his XXX kicked. Keep pointing out that he hasn't shown (and can't show) that souls exist, and he'll stop posting in the thread.","http://www.4forums.com/political/abortion-debates/11136-how-important-soul-pro-life-views.html",308470,46
"1-7792_48_46_2",7792,1,"2008-04-12 20:51:00",76,1566,308477,"2008-04-12 20:29:00",339422,158,46,"This is what happens on internet debate forums when you aren't very clear. Sadly enough, some people here can take a statement that is only the tiniest bit unclear, spin it, and then continue to misrepresent it even after explicit clarification.
(Free preemptive tip: don't try to be sarcastic online unless you somehow make it incredibly obvious that it's sarcasm.)

With Archie, it's not ""debate"" at all. I beat him over the head with the Truth Stick of No Mercy™ and expect no rational response.

Another free tip: don't look forward to many of those with Archie. Other people here do show promise, though.

He's not; he's just purely irrational. His irrationality stems from the fundy mindset he's locked himself into. Beware the vile he'll spew at you when you kick his XXX.",339420,2,7792,1,"Funny how yourinterpretation was different","http://www.4forums.com/political/abortion-debates/11136-how-important-soul-pro-life-views.html",308475,48
"1-7792_51_48_2",7792,1,"2008-04-12 21:42:00",1566,76,308480,"2008-04-12 20:51:00",339425,25,48,"[sarcasm]The cow jumped over the moon[/sarcasm] emoticonXClown 

LOL emoticonXSmilie 

He's probably just frustrated (or constipated) :p",339422,2,7792,1,"This is what happens on internet debate forums when you aren't very clear. Sadly enough, some people here can take a statement that is only the tiniest bit unclear, spin it, and then continue to misrepresent it even after explicit clarification.
(Free preemptive tip: don't try to be sarcastic online unless you somehow make it incredibly obvious that it's sarcasm.)

With Archie, it's not ""debate"" at all. I beat him over the head with the Truth Stick of No Mercy™ and expect no rational response.

Another free tip: don't look forward to many of those with Archie. Other people here do show promise, though.

He's not; he's just purely irrational. His irrationality stems from the fundy mindset he's locked himself into. Beware the vile he'll spew at you when you kick his XXX.","http://www.4forums.com/political/abortion-debates/11136-how-important-soul-pro-life-views.html",308477,51
"1-7792_81_79_3",7792,1,"2008-04-13 16:18:00",76,1566,308563,"2008-04-13 15:21:00",339455,124,79,"You say, ""If site A, which contains word x in the URL, links to site B that explains what word y means, then word x is within the URL of the website that explains what word y means.""
A1: http://dictionary.reference.com/medical/
x1: medical
B1: http://acronyms.thefreedictionary.com/Zef
y1: ZEF
A2: http://www.4forums.com/political/308518-post.html
x2: 4forums
B2: http://www3.baylor.edu/~Renee_Michalski/exam1.htm
y2: ZEF
I say the same thing and call it absurd. You call it a fallacy.
You're wrong. The argument form is invalid. My argument followed the same form to expose the fallacy by coming to a clearly absurd conclusion; this is called a logical parody.",339453,3,7792,1,"Good. I plan on checking out our medical library section as well. Until then see this. Hope you can recognize the word 'medical' listed at the top of the page emoticonXRolleyes 

Not at all. It was (is) a red herring and so that's what I called it. Can't be simpler than that.

Strawman argument.

By twisting it around, but then you already know that emoticonXRolleyes 

Redundant, and already addressed.

Another red herring (you must like fish). The term ZEF has been explained many times now, and by several people. I don't care if a medical website sends you to the Walt Disney site, all that is important is that it ORIGINATES from a medical site and it explains what it stands for! You obviously don't care about the terms authenticity or meaning because if you did you wouldn't be acting so petty now. Sorry, but I'm not continuing on with your little one man game. You can chase your own tail emoticonXCool","http://www.4forums.com/political/abortion-debates/11136-how-important-soul-pro-life-views.html",308560,81
"1-7792_83_81_3",7792,1,"2008-04-13 16:31:00",1566,76,308565,"2008-04-13 16:18:00",339457,56,81,"It's also called argumentum ad nauseam. LOL emoticonXGood 

Then don't waste anyones time. Embryology/obstetrics topics are rarely covered in something as generic as that, but I guess you want to look just so you can cry about it not being in there huh? emoticonXRolleyes
You're fooling no one here.",339455,3,7792,1,"You say, ""If site A, which contains word x in the URL, links to site B that explains what word y means, then word x is within the URL of the website that explains what word y means.""
A1: http://dictionary.reference.com/medical/
x1: medical
B1: http://acronyms.thefreedictionary.com/Zef
y1: ZEF
A2: http://www.4forums.com/political/308518-post.html
x2: 4forums
B2: http://www3.baylor.edu/~Renee_Michalski/exam1.htm
y2: ZEF
I say the same thing and call it absurd. You call it a fallacy.
You're wrong. The argument form is invalid. My argument followed the same form to expose the fallacy by coming to a clearly absurd conclusion; this is called a logical parody.","http://www.4forums.com/political/abortion-debates/11136-how-important-soul-pro-life-views.html",308563,83
"1-7792_84_83_3",7792,1,"2008-04-13 18:09:00",76,1566,308572,"2008-04-13 16:31:00",339458,61,83,"No, that's entirely different, like when you say ""Yes it is!"" thirty times without acknowledging any of the numerous reasons your assertion hasn't been substantiated.

Of course I'm fooling no one; I'm not trying to. All I'm doing is exposing a foolish assertion you've made and a foolish attempted defense of it.",339457,3,7792,1,"It's also calledargumentum ad nauseam.","http://www.4forums.com/political/abortion-debates/11136-how-important-soul-pro-life-views.html",308565,84
"1-7792_85_84_3",7792,1,"2008-04-13 18:13:00",1566,76,308573,"2008-04-13 18:09:00",339459,30,84,"Gee... that's like saying that you're going to prove that water doesn't put out fires by using gasoline, since they are both liquids. What a joke emoticonXGood",339458,3,7792,1,"No, that's entirely different, like when you say ""Yes it is!"" thirty times without acknowledging any of the numerous reasons your assertion hasn't been substantiated.

Of course I'm fooling no one; I'm not trying to. All I'm doing is exposing a foolish assertion you've made and a foolish attempted defense of it.","http://www.4forums.com/political/abortion-debates/11136-how-important-soul-pro-life-views.html",308572,85
"1-7792_86_85_3",7792,1,"2008-04-13 18:14:00",76,1566,308574,"2008-04-13 18:13:00",339460,6,85,"Yeah? How is that?",339459,3,7792,1,"Gee... that's like saying that you're going to prove that water doesn't put out fires by using gasoline, since they are both liquids. What a joke emoticonXGood","http://www.4forums.com/political/abortion-debates/11136-how-important-soul-pro-life-views.html",308573,86
"1-7792_87_86_3",7792,1,"2008-04-13 18:49:00",1566,76,308577,"2008-04-13 18:14:00",339461,54,86,"Because you are (admittedly) going to use the wrong kind of book to look something up. Oh well it's your time, waste it any way that you want. Hopefully it will be in there but the odds are against it. That kind of book is too generic.",339460,3,7792,1,"Yeah? How is that?","http://www.4forums.com/political/abortion-debates/11136-how-important-soul-pro-life-views.html",308574,87
"1-7792_15_12_4",7792,1,"2008-04-12 15:08:00",421,1566,308420,"2008-04-12 12:25:00",339389,85,12,"I know that the soul exists, which is why I made my claim. Just as sin isn't a man made concept but a reality that is proven whenever you feel guilty for doing wrong. I mean only sociopaths feel no guilt when sinning, are you saying that you're a sociopath?

What's a ZEF? Is that another secular humanist term that's intended to marginalize the unborn babies that pro-abortionists endorse killing to the tune of 1.4 million a year?",339386,4,7792,1,"I agree with you, that's just plain silly. First of all we don't know if a soul even exist, and secondly, even if we had proof that it did, we have no way of knowing when it becomes reality for that person. Maybe it's like sin, you know, aman-made concept ;)","http://www.4forums.com/political/abortion-debates/11136-how-important-soul-pro-life-views.html",308408,15
"1-7792_18_15_4",7792,1,"2008-04-12 15:46:00",1566,421,308427,"2008-04-12 15:08:00",339392,106,15,"LOL :p If you knew it was a fact (which is impossible) then you wouldn't have called it a 'claim' ;)
Ooh... that's gotta hurt emoticonXGood 

If that's true then you should be able to prove it. Knock your socks off. You'll excuse everyone else if we don't hold our breath. 

OH MY GOD! You're in an abortion debate and you don't even know what a ZEF is? What a joke! emoticonXIc You have just lost all credibility. Please wait for the ride to come to a complete stop before attempting to exit.",339389,4,7792,1,"I know that the soul exists, which is why I made myclaim.","http://www.4forums.com/political/abortion-debates/11136-how-important-soul-pro-life-views.html",308420,18
"1-7792_25_18_4",7792,1,"2008-04-12 16:47:00",421,1566,308441,"2008-04-12 15:46:00",339399,205,18,"Why not? I can make any claims I want to make about any facts I choose to make them about. Is there some grammatical rule that states that using the word claim in conjunction with a fact is improper or fallacious? Be clear son, you're not making any sense. So no, it doesn't gotta hurt at all, for me anyway.

Duh... me so dumb. And evidently google is too because nothing came up in reference to the unborn or abortion when I googled it either. I must assume that I hit the nail right on the head when I said this: What's a ZEF? Is that another secular humanist term that's intended to marginalize the unborn babies that pro-abortionists endorse killing to the tune of 1.4 million a year? 
Which explains why you edited everything after my question in order to attempt to ridicule me with just the question. Kind of lame and a very weak style of debating, not to mention dishonest. Now if ZEF means anything different than how I defined it, then own up and define it unless you just made it up.",339392,4,7792,1,"LOL :p If you knew it was a fact (which is impossible) then you wouldn't have called it a 'claim' ;)
Ooh... that's gotta hurt emoticonXGood 

If that's true then you should be able to prove it. Knock your socks off. You'll excuse everyone else if we don't hold our breath. 

OH MY GOD! You're in an abortion debate and you don't even know what a ZEF is? What a joke! emoticonXIc You have just lost all credibility. Please wait for the ride to come to a complete stop before attempting to exit.","http://www.4forums.com/political/abortion-debates/11136-how-important-soul-pro-life-views.html",308427,25
"1-7792_28_25_4",7792,1,"2008-04-12 17:16:00",1566,421,308446,"2008-04-12 16:47:00",339402,62,25,"Most anti-choicers do :p

Since when do grammatical rules have anything to do with proof about souls existing? emoticonXRolleyes We're still waiting for that hard core proof ;)

That doesn't say much for google now does it emoticonXIc Try a medical dictionary or a dictionary with acronyms. It's a well known medical term so I'm sure you'll find it.",339399,4,7792,1,"Why not? I can make any claims I want to make about any facts I choose to make them about. Is there some grammatical rule that states that using the word claim in conjunction with a fact is improper or fallacious? Be clear son, you're not making any sense. So no, it doesn't gotta hurt at all, for me anyway.

Duh... me so dumb. And evidently google is too because nothing came up in reference to the unborn or abortion when I googled it either. I must assume that I hit the nail right on the head when I said this: What's a ZEF? Is that another secular humanist term that's intended to marginalize the unborn babies that pro-abortionists endorse killing to the tune of 1.4 million a year? 
Which explains why you edited everything after my question in order to attempt to ridicule me with just the question. Kind of lame and a very weak style of debating, not to mention dishonest. Now if ZEF means anything different than how I defined it, then own up and define it unless you just made it up.","http://www.4forums.com/political/abortion-debates/11136-how-important-soul-pro-life-views.html",308441,28
"1-7792_37_28_4",7792,1,"2008-04-12 18:49:00",421,1566,308458,"2008-04-12 17:16:00",339411,119,28,"You're a sanctimonious fraud ingus. There's no definition for the word ZEF in the online medical dictionary.
 No match for ZEF
Sorry, the term ZEF is not in the dictionary. Check the spelling and try removing suffixes like ""-ing"" and ""-s"".
Here, check for yourself. http://cancerweb.ncl.ac.uk/omd/
Now stop playing games and just admit that you made the word up or tell us what you claim it means. Are you referring to the word zygote? And I ask only because it starts with a z also. Either way, stop calling me ignorant if you can't explain what a word you used means.",339402,4,7792,1,"Most anti-choicers do :p

Since when do grammatical rules have anything to do with proof about souls existing? emoticonXRolleyes We're still waiting for that hard core proof ;)

That doesn't say much for google now does it emoticonXIc Try a medical dictionary or a dictionary with acronyms. It's a well known medical term so I'm sure you'll find it.","http://www.4forums.com/political/abortion-debates/11136-how-important-soul-pro-life-views.html",308446,37
"1-7792_40_37_4",7792,1,"2008-04-12 19:36:00",1566,421,308464,"2008-04-12 18:49:00",339414,198,37,"Well that's not very christian of you now is it? :p

There is only one online medical dictionary? 

So just because you aren't educated in these matters that suddenly means that the other person is playing games or made something up? emoticonXRolleyes Stop acting so immature, and stop making accusations. No one made anything up. Ask a midwife or a Obstetrician if you don't believe me emoticonXIdea 

Archangel if you don't know these BASIC medical terms then how can you claim that you know anything about abortion? If I just give you the link then what would you have learned? I've read at least 3 posts from you where you have displayed an immature outburst. Debating the topic of abortion is one of the most heated issues that you will find. If you can't swim in the deep end of the pool then you should be in the shallow end. Quit embarrassing yourself while your ahead emoticonXGood If I, or someone else has to post a link, that's going to take away all of your credibility. You wouldn't want that now would you?",339411,4,7792,1,"You're a sanctimonious fraud ingus. There's no definition for the word ZEF in the online medical dictionary.
 No match for ZEF
Sorry, the term ZEF is not in the dictionary. Check the spelling and try removing suffixes like ""-ing"" and ""-s"".
Here, check for yourself. http://cancerweb.ncl.ac.uk/omd/
Now stop playing games and just admit that you made the word up or tell us what you claim it means. Are you referring to the word zygote? And I ask only because it starts with a z also. Either way, stop calling me ignorant if you can't explain what a word you used means.","http://www.4forums.com/political/abortion-debates/11136-how-important-soul-pro-life-views.html",308458,40
