"key","quote_source_post_discussion_id","posts_dataset_id","posts_timestamp","posts_author_id","quote_source_author_id","posts_native_post_id","quote_source_timestamp","post_text_id","Word_Count","quote_source_post_id","post_text","quote_source_text_id","Dialog_Turn","posts_discussion_id","quote_source_post_dataset_id","Fullquote_text","discussion_url","quote_source_native_post_id","posts_post_id"
"1-7830_8_6_1",7830,1,"2008-04-29 17:15:00",236,421,310168,"2008-04-29 17:09:00",341519,28,6,"If your god were to 'destroy his creations' because they are 'flawed', how come any one of us is still here?
Smiley",341517,1,7830,1,"Precisely, if a master craftsman destroys his finest creation because it is flawed, is he doing something wrong? Or isn't it his right to do what he wishes with his creation. So it is with the maker of all that is. So they may seem like terrible acts from your VERY LIMITED PERSPECTIVE, but from the perspective of a perfect and holy God, His judgement was a righteous one on all levels. But why would one expect you to get that?","http://www.4forums.com/political/abortion-debates/11185-question-archangel.html",310165,8
"1-7830_9_8_1",7830,1,"2008-04-29 17:18:00",421,236,310170,"2008-04-29 17:15:00",341520,43,8,"Because God is free to show grace to some and judgement to others. It is what makes Him God and we can't begin to understand His perspective. He is not obliged to explain His eternal perspective to us at all.",341519,1,7830,1,"If your god were to 'destroy his creations' because they are 'flawed', how come any one of us is still here?
Smiley","http://www.4forums.com/political/abortion-debates/11185-question-archangel.html",310168,9
"1-7830_10_9_1",7830,1,"2008-04-29 17:41:00",236,421,310173,"2008-04-29 17:18:00",341521,31,9,"If we cannot begin to understand his perspective (or indeed him), how can you possibly claim to understand him any better than the rest of us?
Smiley",341520,1,7830,1,"Because God is free to show grace to some and judgement to others. It is what makes Him God and we can't begin to understand His perspective. He is not obliged to explain His eternal perspective to us at all.","http://www.4forums.com/political/abortion-debates/11185-question-archangel.html",310170,10
"1-7830_13_10_1",7830,1,"2008-04-29 18:08:00",421,236,310176,"2008-04-29 17:41:00",341524,85,10,"I don't claim to understand the mind of God, but He has revealed His nature to us in His word. So although I don't understand why He chose to reveal Himself to me on a personal level and not others, I know through His Word that it is His right to have done it.
Rom 9:21 Does not the potter have power over the clay, from the same lump to make one vessel for honor and another for dishonor?
",341521,1,7830,1,"If we cannot begin to understand his perspective (or indeed him), how can you possibly claim to understand him any better than the rest of us?
Smiley","http://www.4forums.com/political/abortion-debates/11185-question-archangel.html",310173,13
"1-7830_14_13_1",7830,1,"2008-04-29 18:22:00",236,421,310177,"2008-04-29 18:08:00",341525,156,13,"You're always claiming to understand him. It is just we the spiritually dead than cannot possibly understand him. You claim to be indwelled by the holy spirit (probably means you've drunk to much).
If your god is so all powerful, omniscient, unfathomable, etc etc etc (a claim that is all too often made by your ilk), then there is not a chance in hell that any mere mortal could come close to understand him/her/it. How you can say that you are any closer to the real god than muslims, shintoists, zoroastrianists, yoruba is pure idiocy.
Smiley
PS Your scripture quote is just an excuse for those in power to say that whatever they decide to do is god's will and should not be questioned. Seems you're gullible enough to fall for that one too.",341524,1,7830,1,"I don't claim to understand the mind of God, but He has revealed His nature to us in His word. So although I don't understand why He chose to reveal Himself to me on a personal level and not others, I know through His Word that it is His right to have done it.
Rom 9:21 Does not the potter have power over the clay, from the same lump to make one vessel for honor and another for dishonor?
","http://www.4forums.com/political/abortion-debates/11185-question-archangel.html",310176,14
"1-7830_15_14_1",7830,1,"2008-04-29 18:37:00",421,236,310179,"2008-04-29 18:22:00",341526,187,14,"I'm sorry for you smiley. I really am. I can't help it that you are blind and deaf to the things of God, and that as worthless as I am, that I have a personal relationship with Him. But I can tell you this for certain, even though I am no more worthy than any other person alive; because I sought THE TRUTH as a young person, and not just my personal truth as you did, that the living God responded to my sincere search by revealing Himself to me. So I am born again by grace through faith in Him who died for my sins.
Just think about those words as you scoff and mock me for the ignorance I reveal in your sight by admitting that I am submitting the authority over my life to an invisible God. The reason you don't get it smiley is the difference between eternal death and eternal life. And the time to decide which of us is being deceived is now, in this lifetime.",341525,1,7830,1,"You're always claiming to understand him. It is just we the spiritually dead than cannot possibly understand him. You claim to be indwelled by the holy spirit (probably means you've drunk to much).
If your god is so all powerful, omniscient, unfathomable, etc etc etc (a claim that is all too often made by your ilk), then there is not a chance in hell that any mere mortal could come close to understand him/her/it. How you can say that you are any closer to the real god than muslims, shintoists, zoroastrianists, yoruba is pure idiocy.
Smiley
PS Your scripture quote is just an excuse for those in power to say that whatever they decide to do is god's will and should not be questioned. Seems you're gullible enough to fall for that one too.","http://www.4forums.com/political/abortion-debates/11185-question-archangel.html",310177,15
"1-7830_16_15_1",7830,1,"2008-04-29 18:45:00",236,421,310180,"2008-04-29 18:37:00",341527,12,15,"Don't worry, Archie. I feel sorry for you too.",341526,1,7830,1,"I'm sorry for you smiley. I really am. I can't help it that you are blind and deaf to the things of God, and that as worthless as I am, that I have a personal relationship with Him. But I can tell you this for certain, even though I am no more worthy than any other person alive; because I sought THE TRUTH as a young person, and not just my personal truth as you did, that the living God responded to my sincere search by revealing Himself to me. So I am born again by grace through faith in Him who died for my sins.
Just think about those words as you scoff and mock me for the ignorance I reveal in your sight by admitting that I am submitting the authority over my life to an invisible God. The reason you don't get it smiley is the difference between eternal death and eternal life. And the time to decide which of us is being deceived is now, in this lifetime.","http://www.4forums.com/political/abortion-debates/11185-question-archangel.html",310179,16
"1-7830_17_16_1",7830,1,"2008-04-29 18:51:00",421,236,310181,"2008-04-29 18:45:00",341528,17,16,"Thanks for your concern. As misplaced as it is, I truly appreciate it. emoticonXAngel",341527,1,7830,1,"Don't worry, Archie. I feel sorry for you too.","http://www.4forums.com/political/abortion-debates/11185-question-archangel.html",310180,17
