"key","quote_source_post_discussion_id","posts_dataset_id","posts_timestamp","posts_author_id","quote_source_author_id","posts_native_post_id","quote_source_timestamp","post_text_id","Word_Count","quote_source_post_id","post_text","quote_source_text_id","Dialog_Turn","posts_discussion_id","quote_source_post_dataset_id","Fullquote_text","discussion_url","quote_source_native_post_id","posts_post_id"
"1-7867_50_49_1",7867,1,"2008-07-25 07:13:00",164,343,317655,"2008-07-25 06:09:00",343154,26,49,"Once again, you can call it a Rotweiller of you wish.
The only thing that matters is what the pregnant woman calls it.",343153,1,7867,1,"Regarding the terminology of ""baby"" versus ""zygote""/""embryo""/""fetus"", I wonder how many ultrasound technicians that say ""oh, there's your embryro!"" or ""oh, look, your fetus is moving around!"". Or how many people come up to expecting mothers asking ""when is your fetus due?"" Probably not many. No, as a rule, people tend to call it a 'baby', and with good reason--as a rule, terminology reflects that people obviously tend to value life, and don't just refer to it only in sterile, clinical terms.","http://www.4forums.com/political/abortion-debates/11234-how-many-you-have-seen-abortion-performed.html",317646,50
"1-7867_51_50_1",7867,1,"2008-07-25 08:05:00",343,164,317665,"2008-07-25 07:13:00",343155,34,50,"Yeah, and we all know pro-choice people always ask every pregnant woman before referring to it, ""now what would YOU like your fetus/baby/whatever called?"" emoticonXRolleyes",343154,1,7867,1,"Once again, you can call it a Rotweiller of you wish.
The only thing that matters is what the pregnant woman calls it.","http://www.4forums.com/political/abortion-debates/11234-how-many-you-have-seen-abortion-performed.html",317655,51
"1-7867_52_51_1",7867,1,"2008-07-25 08:55:00",164,343,317671,"2008-07-25 08:05:00",343156,56,51,"Whatever!! 
It's still none of anyone's business except the pregnant woman.
If you want the law to say she must to carry her fetus to term, I want the law to say that each and every profetallifer must adopt the ""child"" she/he ""saves.""
DEAL??emoticonXSmilie",343155,1,7867,1,"Yeah, and we all know pro-choice people always ask every pregnant woman before referring to it, ""now what would YOU like your fetus/baby/whatever called?"" emoticonXRolleyes","http://www.4forums.com/political/abortion-debates/11234-how-many-you-have-seen-abortion-performed.html",317665,52
"1-7867_53_52_1",7867,1,"2008-07-25 09:21:00",343,164,317680,"2008-07-25 08:55:00",343157,116,52,"Have you stopped to think about how silly that request is? That's like saying that, if a person opposes the death penalty, they should personally turn their homes into prisons to cover the extra inmates. Or if they are for gun control and don't want people to be able to use a gun to defend themselves, they should personally be a bodyguard for every person who would ever need a gun. Is that really the way you want to approach debates like this in society? These are broad society debates, and people should be able to discuss this sort of thing without those sorts of silly approaches.",343156,1,7867,1,"Whatever!! 
It's still none of anyone's business except the pregnant woman.
If you want the law to say she must to carry her fetus to term, I want the law to say that each and every profetallifer must adopt the ""child"" she/he ""saves.""
DEAL??emoticonXSmilie","http://www.4forums.com/political/abortion-debates/11234-how-many-you-have-seen-abortion-performed.html",317671,53
"1-7867_54_53_1",7867,1,"2008-07-25 09:50:00",164,343,317689,"2008-07-25 09:21:00",343158,81,53,"Translation: Don't bother me; I'm only concerned with the ""unborn"". What happens to the little brats after birth in none of my concern.
Too bad that the best analogy you can supply is a prisoner.
The issue, no matter how far you try to shift the goalposts, is using the law to foist a prticular POV on others.
Don't like it when you gander is sauced, do you?emoticonXSmilie",343157,1,7867,1,"Have you stopped to think about how silly that request is? That's like saying that, if a person opposes the death penalty, they should personally turn their homes into prisons to cover the extra inmates. Or if they are for gun control and don't want people to be able to use a gun to defend themselves, they should personally be a bodyguard for every person who would ever need a gun. Is that really the way you want to approach debates like this in society? These are broad society debates, and people should be able to discuss this sort of thing without those sorts of silly approaches.","http://www.4forums.com/political/abortion-debates/11234-how-many-you-have-seen-abortion-performed.html",317680,54
"1-7867_55_54_1",7867,1,"2008-07-25 10:09:00",343,164,317695,"2008-07-25 09:50:00",343159,28,54,"Ooh yeah, that's it. Boy you sure nailed it. Sauced everybody's gander. emoticonXRolleyes 
(Actually no, you completely missed the point.)",343158,1,7867,1,"Translation: Don't bother me; I'm only concerned with the ""unborn"". What happens to the little brats after birth in none of my concern.
Too bad that the best analogy you can supply is a prisoner.
The issue, no matter how far you try to shift the goalposts, is using the law to foist a prticular POV on others.
Don't like it when you gander is sauced, do you?emoticonXSmilie","http://www.4forums.com/political/abortion-debates/11234-how-many-you-have-seen-abortion-performed.html",317689,55
"1-7867_11_3_2",7867,1,"2008-06-23 19:24:00",1063,435,314008,"2008-06-18 13:59:00",343115,20,3,"You claim to have researched the facts... but I don't see any ""facts"" in your post.",343107,2,7867,1,"Yes, yes, yes, and..................yes!","http://www.4forums.com/political/abortion-debates/11234-how-many-you-have-seen-abortion-performed.html",313512,11
"1-7867_13_11_2",7867,1,"2008-06-24 04:10:00",435,1063,314027,"2008-06-23 19:24:00",343117,71,11,"Then you show a typical reaction to truth clashing with your worldview. Blindness.
Have I seen an abortion performed? ........ Yes. Fact.
Do I believe it is OK? ............................ Yes. Fact.
Have I researched the facts? ..................Yes. Fact.
Do I think the choice is the woman's? .......Yes. Fact.
How many facts do you need?",343115,2,7867,1,"You claim to have researched the facts... but I don't see any ""facts"" in your post.","http://www.4forums.com/political/abortion-debates/11234-how-many-you-have-seen-abortion-performed.html",314008,13
"1-7867_14_13_2",7867,1,"2008-06-24 12:23:00",1063,435,314086,"2008-06-24 04:10:00",343118,35,13,"That what I asked you. When I ask ""What are the facts?"", you don't say ""I've researched the facts"". You tell me the ""facts"".",343117,2,7867,1,"Then you show a typical reaction to truth clashing with your worldview. Blindness.
Have I seen an abortion performed? ........ Yes. Fact.
Do I believe it is OK? ............................ Yes. Fact.
Have I researched the facts? ..................Yes. Fact.
Do I think the choice is the woman's? .......Yes. Fact.
How many facts do you need?","http://www.4forums.com/political/abortion-debates/11234-how-many-you-have-seen-abortion-performed.html",314027,14
"1-7867_16_14_2",7867,1,"2008-06-24 19:32:00",435,1063,314119,"2008-06-24 12:23:00",343120,48,14,"You asked me nothing, you made a statement.
""You claim to have researched the facts... but I don't see any ""facts"" in your post.""
I spelled out the facts you overlooked, which were present in my post. emoticonXRolleyes",343118,2,7867,1,"That what I asked you. When I ask ""What are the facts?"", you don't say ""I've researched the facts"". You tell me the ""facts"".","http://www.4forums.com/political/abortion-debates/11234-how-many-you-have-seen-abortion-performed.html",314086,16
"1-7867_19_16_2",7867,1,"2008-06-26 13:38:00",1063,435,314281,"2008-06-24 19:32:00",343123,35,16,"My God, you're oblivious. WHAT FACTS DID YOU RESEARCH? 
""Yes, yes, yes..."" doesn't give any facts about abortion - just about what you've claimed to do.",343120,2,7867,1,"You asked me nothing, you made a statement.
""You claim to have researched the facts... but I don't see any ""facts"" in your post.""
I spelled out the facts you overlooked, which were present in my post. emoticonXRolleyes","http://www.4forums.com/political/abortion-debates/11234-how-many-you-have-seen-abortion-performed.html",314119,19
