"key","quote_source_post_discussion_id","posts_dataset_id","posts_timestamp","posts_author_id","quote_source_author_id","posts_native_post_id","quote_source_timestamp","post_text_id","Word_Count","quote_source_post_id","post_text","quote_source_text_id","Dialog_Turn","posts_discussion_id","quote_source_post_dataset_id","Fullquote_text","discussion_url","quote_source_native_post_id","posts_post_id"
"1-7875_5_4_1",7875,1,"2008-05-24 19:31:00",164,931,311812,"2008-05-24 14:12:00",343553,33,4,"No more so than the Scalia/Uncle Clarence Thomas cabal opining that the words NO LAW mean something other than what they do when they rule in a First Amendment case.",343552,1,7875,1,"Because you cannot reverse an incorrect United States Supreme Court decision with a ballot. Simple as that.
Additionally, prior to 1973, abortion was already settled democratically in most states.
And, regardless of whether 99.9% of the people in the US approve of the court's decision in Roe, that decision would still be judicial activism, and as such, would still merit reversal by the Supreme Court.","http://www.4forums.com/political/abortion-debates/11243-why-dont-they-put-ballot.html",311792,5
"1-7875_6_5_1",7875,1,"2008-05-24 19:47:00",931,164,311813,"2008-05-24 19:31:00",343554,93,5,"I doubt you can cite Scalia as an activist in First Amendment cases when he has voted to overturn bans on flag burning. You really should try to think before you speak; or perhaps you actually did, in which case we should simply conclude that you have no idea what you are talking about.
Regardless, any decision that holds that something is in the Constitution, when in fact it really is not, is wrong and merits reversal no matter which judges perpetrate the wrong decision.",343553,1,7875,1,"No more so than the Scalia/Uncle Clarence Thomas cabal opining that the words NO LAW mean something other than what they do when they rule in a First Amendment case.","http://www.4forums.com/political/abortion-debates/11243-why-dont-they-put-ballot.html",311812,6
"1-7875_8_6_1",7875,1,"2008-05-25 03:34:00",164,931,311823,"2008-05-24 19:47:00",343556,99,6,"So then, are we to presume that you would favor the sale and distribution of, to take the worst possible example, kiddie porn with no restrictions?
After all, the First Amendment says ""Congress shall make NO LAW abridging freedom of the press.
BTW, re. Texas v. Johnson: Is a flag burning speech, and where in the Constitution does it say so?emoticonXFrazzled 
I agree with the decision, which simply goes to prove that even a blind Antonin can find a peanut now and then.",343554,1,7875,1,"I doubt you can cite Scalia as an activist in First Amendment cases when he has voted to overturn bans on flag burning. You really should try to think before you speak; or perhaps you actually did, in which case we should simply conclude that you have no idea what you are talking about.
Regardless, any decision that holds that something is in the Constitution, when in fact it really is not, is wrong and merits reversal no matter which judges perpetrate the wrong decision.","http://www.4forums.com/political/abortion-debates/11243-why-dont-they-put-ballot.html",311813,8
"1-7875_11_8_1",7875,1,"2008-05-25 05:59:00",931,164,311831,"2008-05-25 03:34:00",343559,66,8,"No, we should not presume that. In fact, I support legislation banning the same because the Constitution has never, ever protected obscenity. In fact, its original import was far less protective of certain categories of speech than it even is today.

Is sign language speech?

You agree with the decision, but evidently for the wrong reasons.",343556,1,7875,1,"So then, are we to presume that you would favor the sale and distribution of, to take the worst possible example, kiddie porn with no restrictions?
After all, the First Amendment says ""Congress shall make NO LAW abridging freedom of the press.
BTW, re. Texas v. Johnson: Is a flag burning speech, and where in the Constitution does it say so?emoticonXFrazzled 
I agree with the decision, which simply goes to prove that even a blind Antonin can find a peanut now and then.","http://www.4forums.com/political/abortion-debates/11243-why-dont-they-put-ballot.html",311823,11
"1-7875_12_11_1",7875,1,"2008-05-25 07:50:00",164,931,311837,"2008-05-25 05:59:00",343560,99,11,"You can favor banning it all you want; just remember that this is exactly the same type of ""legislating from the bench"" you have decried.emoticonXSmilie 
Can you spin the words NO LAW in any other manner than NO LAW?
And Scalia and Uncle Clarence Thomas call themselves ""Textualists"". Old Nino himself said so on 60 Minutes when Leslie Stahl skewered him but good.
HUMBUG!! 
They write their personal predilections into their opinions just as much as any other Justice. It's just that you like their biases.",343559,1,7875,1,"No, we should not presume that. In fact, I support legislation banning the same because the Constitution has never, ever protected obscenity. In fact, its original import was far less protective of certain categories of speech than it even is today.

Is sign language speech?

You agree with the decision, but evidently for the wrong reasons.","http://www.4forums.com/political/abortion-debates/11243-why-dont-they-put-ballot.html",311831,12
"1-7875_15_12_1",7875,1,"2008-05-25 11:33:00",931,164,311847,"2008-05-25 07:50:00",343563,153,12,"No, it isn't.

The question is not whether congress can make a law, the question is: what is ""the freedom of exercise, speech, press, assembly."" These terms have objective, historic meaning, and from that it is clear that the First Amendment does not prohibit Congress (or state legislatures) from prohibiting the possession or distribution of obscenity.
The First Amendment also happens not to cover many other forms of ""speech/press."" For example, under the objective and historic meaning of the First Amendment, Congress certainly may ban a news agency from publishing nuclear secrets, etc.

Actually, Scalia and Thomas are originalists. Originalism uses textualism as a starting point in Constitutional construction.

No, they really don't. And no, I don't like or dislike their alleged biases.",343560,1,7875,1,"You can favor banning it all you want; just remember that this is exactly the same type of ""legislating from the bench"" you have decried.emoticonXSmilie 
Can you spin the words NO LAW in any other manner than NO LAW?
And Scalia and Uncle Clarence Thomas call themselves ""Textualists"". Old Nino himself said so on 60 Minutes when Leslie Stahl skewered him but good.
HUMBUG!! 
They write their personal predilections into their opinions just as much as any other Justice. It's just that you like their biases.","http://www.4forums.com/political/abortion-debates/11243-why-dont-they-put-ballot.html",311837,15
