"key","quote_source_post_discussion_id","posts_dataset_id","posts_timestamp","posts_author_id","quote_source_author_id","posts_native_post_id","quote_source_timestamp","post_text_id","Word_Count","quote_source_post_id","post_text","quote_source_text_id","Dialog_Turn","posts_discussion_id","quote_source_post_dataset_id","Fullquote_text","discussion_url","quote_source_native_post_id","posts_post_id"
"1-8094_224_223_1",8094,1,"2008-09-18 20:46:00",68,164,324221,"2008-09-18 20:39:00",358735,33,223,"My posts do not deviate far from that topic, as far as I can see. Or is this thread more for the moral aspect of private life vs. governmental intrusion?",358734,1,8094,1,"Sigma,
Beware of those here who would hijack the debate so that it is fought on their terms.
The issue is privacy vs. big brother government reaching into what must needs be a very private matter.
Let's keep focused.","http://www.4forums.com/political/abortion-debates/11563-watch-out-abortion-lovers-here-comes-governor-palin.html",324220,224
"1-8094_225_224_1",8094,1,"2008-09-18 20:59:00",164,68,324222,"2008-09-18 20:46:00",358736,168,224,"As you can see, many posters here go on endlessly about the (im)morality of abortion, yet they become strangely silent when confronted with the question of the extent to which government can/should intervene in personal matters.
The pro-choice folks here have no objection to those profetallifers who would apply the ""no abortion"" rules within their own families, but we have strong objection to having the law make that choice for our families.
I have 3 daughters of child bearing age, and two granddaughters who soon will be.
I will fight to the last to keep the decision of whether or not they carry their pregnancies to term where it belongs - with them.
If they choose to give birth, I will love them and their child(ren); if they choose abortion, I will love them just as much.
Just keep the law out of the decision.",358735,1,8094,1,"My posts do not deviate far from that topic, as far as I can see. Or is this thread more for the moral aspect of private life vs. governmental intrusion?","http://www.4forums.com/political/abortion-debates/11563-watch-out-abortion-lovers-here-comes-governor-palin.html",324221,225
"1-8094_226_225_1",8094,1,"2008-09-18 21:10:00",68,164,324223,"2008-09-18 20:59:00",358737,98,225,"Aye, it has changed little in the four years I have been registered.
It is a delicate issue for both sides. Keep in mind that were there no other issue involved then allowing the fetus to grow and develop would be so obvious as to almost disallow debate. While I agree that there is virtually no benefit that would justify the cost of the loss of freedom that would necessarily occur were the gov't to disallow abortion, we cannot lose sight of the fact that there is a reason for the opposition.",358736,1,8094,1,"As you can see, many posters here go on endlessly about the (im)morality of abortion, yet they become strangely silent when confronted with the question of the extent to which government can/should intervene in personal matters.
The pro-choice folks here have no objection to those profetallifers who would apply the ""no abortion"" rules within their own families, but we have strong objection to having the law make that choice for our families.
I have 3 daughters of child bearing age, and two granddaughters who soon will be.
I will fight to the last to keep the decision of whether or not they carry their pregnancies to term where it belongs - with them.
If they choose to give birth, I will love them and their child(ren); if they choose abortion, I will love them just as much.
Just keep the law out of the decision.","http://www.4forums.com/political/abortion-debates/11563-watch-out-abortion-lovers-here-comes-governor-palin.html",324222,226
"1-8094_227_226_1",8094,1,"2008-09-18 21:16:00",164,68,324224,"2008-09-18 21:10:00",358738,52,226,"I can understand that there may or may not be a reason for opposition to abortion in a particular family.
What I can never understand is how that opposition can be transferred, via the overweening power of government, to anyone else's family.emoticonXBanghead
I'm out for tonight.",358737,1,8094,1,"Aye, it has changed little in the four years I have been registered.
It is a delicate issue for both sides. Keep in mind that were there no other issue involved then allowing the fetus to grow and develop would be so obvious as to almost disallow debate. While I agree that there is virtually no benefit that would justify the cost of the loss of freedom that would necessarily occur were the gov't to disallow abortion, we cannot lose sight of the fact that there is a reason for the opposition.","http://www.4forums.com/political/abortion-debates/11563-watch-out-abortion-lovers-here-comes-governor-palin.html",324223,227
"1-8094_232_227_1",8094,1,"2008-09-19 11:00:00",68,164,324281,"2008-09-18 21:16:00",358743,43,227,"Like anyone on any issue, every person thinks what he or she believes is reasonable. If it is reasonable, those who believe the opposite are unreasonable. 
It's a natural desire to want the law to support reasonable beliefs.",358738,1,8094,1,"I can understand that there may or may not be a reason for opposition to abortion in a particular family.
What I can never understand is how that opposition can be transferred, via the overweening power of government, to anyone else's family.emoticonXBanghead
I'm out for tonight.","http://www.4forums.com/political/abortion-debates/11563-watch-out-abortion-lovers-here-comes-governor-palin.html",324224,232
"1-8094_40_38_2",8094,1,"2008-09-09 06:01:00",164,250,323068,"2008-09-09 04:56:00",358551,191,38,"I'm not sure that your point is correct.
""Soul"" is a theological concept, not a legal one. Faiths can and do differ as to whether or not such a thing exists at all.
Read carefully, that was the crux on Mr. Justice Blackmun's original opinion on Roe.
He argued quite elegantly that, in light of the theological differences among faiths, it was not the job of the civil law to favor one theory over another, and that, therfore, the decision must needs be left to the pregnant woman.
Since you are one who clearly favors the pro-choice position, I respect both:
A) The fact that you believe that there is such a thing as a ""souls""
B) That it exists from the moment of conception
C) That, for you the preferred choice is that women carry their pregnancies to term and
D) You respect the right of other women to make other choices.
Those points are, in a nutshell, the essence of the pro-choice position.",358549,2,8094,1,"Shooterandproud:
I've taken a health class. More than that, I've given birth to two wonderful children and understand biology. Sperm contains HALF of the DNA necessary to combine with the other HALF of the DNA contained within a female's egg to produce human life. That new DOUBLE-helix of life, with all of its unique individual genetic markers, cannot occur without input from male and female. Sperm is not clay, but it is not viable life. Now if you want to get into the issue of human cloning and whether it is possible to clone a human being from sperm alone, I think you are entering extremely controversial and dangerous ground, completely different from abortion. ","http://www.4forums.com/political/abortion-debates/11563-watch-out-abortion-lovers-here-comes-governor-palin.html",323061,40
"1-8094_41_40_2",8094,1,"2008-09-09 06:40:00",250,164,323074,"2008-09-09 06:01:00",358552,90,40,"Chester:

Ah, well that's because lawyers are the exception to the rule because THEY HAVE NO SOULS! emoticonXHoho
Kidding aside, the FACT that the soul is a theological concept, and I will grant you that, does not give lawyers/judges the right to rule in favor of those who wish to destroy a soul, as they can neither prove nor disprove its existence. Just because the pregnant mother may not believe in a soul, doesn't mean it doesn't exist.",358551,2,8094,1,"I'm not sure that your point is correct.
""Soul"" is a theological concept, not a legal one. Faiths can and do differ as to whether or not such a thing exists at all.
Read carefully, that was the crux on Mr. Justice Blackmun's original opinion on Roe.
He argued quite elegantly that, in light of the theological differences among faiths, it was not the job of the civil law to favor one theory over another, and that, therfore, the decision must needs be left to the pregnant woman.
Since you are one who clearly favors the pro-choice position, I respect both:
A) The fact that you believe that there is such a thing as a ""souls""
B) That it exists from the moment of conception
C) That, for you the preferred choice is that women carry their pregnancies to term and
D) You respect the right of other women to make other choices.
Those points are, in a nutshell, the essence of the pro-choice position.","http://www.4forums.com/political/abortion-debates/11563-watch-out-abortion-lovers-here-comes-governor-palin.html",323068,41
"1-8094_42_41_2",8094,1,"2008-09-09 07:44:00",164,250,323076,"2008-09-09 06:40:00",358553,115,41,"Neither does it give lawyers/judges the right to take into account the fact that there are religious differences of opinion on the topic.
As John F. Kennedy's confessor, Richard Cardinal Cushing of Boston said, ""Any faith which depends on the force of law to compel obedience to its tenets is weak.""
Mr. Justice Blackmun had it spot on in Roe when he said that the law must needs not intrude on questions of theology.
Therefore he concluded quite rightly, that this was a matter for each woman to choose for herself.
But you knew that and have stated it on this forum previously.",358552,2,8094,1,"Chester:

Ah, well that's because lawyers are the exception to the rule because THEY HAVE NO SOULS! emoticonXHoho
Kidding aside, the FACT that the soul is a theological concept, and I will grant you that, does not give lawyers/judges the right to rule in favor of those who wish to destroy a soul, as they can neither prove nor disprove its existence. Just because the pregnant mother may not believe in a soul, doesn't mean it doesn't exist.","http://www.4forums.com/political/abortion-debates/11563-watch-out-abortion-lovers-here-comes-governor-palin.html",323074,42
"1-8094_44_42_2",8094,1,"2008-09-09 09:04:00",250,164,323085,"2008-09-09 07:44:00",358555,111,42,"Chester:

WRONG! Congress shall make no law respecting an establishment of religion, or prohibiting the free exercise thereof;
Abortion denies the growing human life the right to free exercise thereof when it becomes of age to be cognizant of religion. Why? Because it will never ""come of age"".
I remember what I said. AT THE VERY LEAST. That doesn't mean I don't believe that life begins at conception, but that in order to reach some sort of compromise, the law as it stands needs to be overturned or revised to favor life more than it does currently.",358553,2,8094,1,"Neither does it give lawyers/judges the right to take into account the fact that there are religious differences of opinion on the topic.
As John F. Kennedy's confessor, Richard Cardinal Cushing of Boston said, ""Any faith which depends on the force of law to compel obedience to its tenets is weak.""
Mr. Justice Blackmun had it spot on in Roe when he said that the law must needs not intrude on questions of theology.
Therefore he concluded quite rightly, that this was a matter for each woman to choose for herself.
But you knew that and have stated it on this forum previously.","http://www.4forums.com/political/abortion-debates/11563-watch-out-abortion-lovers-here-comes-governor-palin.html",323076,44
"1-8094_45_44_2",8094,1,"2008-09-09 09:11:00",164,250,323086,"2008-09-09 09:04:00",358556,49,44,"Please, babe, your second paragraph is a real stretch. Surely even you recognize that.
Surely you also recognize that ANY deviation from the ""no abortion under any circumstances"" mantra espoused by Palin, Randall Terry, and others is a pro-choice position.",358555,2,8094,1,"Chester:

WRONG! Congress shall make no law respecting an establishment of religion, or prohibiting the free exercise thereof;
Abortion denies the growing human life the right to free exercise thereof when it becomes of age to be cognizant of religion. Why? Because it will never ""come of age"".
I remember what I said. AT THE VERY LEAST. That doesn't mean I don't believe that life begins at conception, but that in order to reach some sort of compromise, the law as it stands needs to be overturned or revised to favor life more than it does currently.","http://www.4forums.com/political/abortion-debates/11563-watch-out-abortion-lovers-here-comes-governor-palin.html",323085,45
"1-8094_48_45_2",8094,1,"2008-09-09 11:46:00",250,164,323106,"2008-09-09 09:11:00",358559,97,45,"Chester:

You are simply desperate to lump me into your pro-abortion coven, aren't you? Sorry, ain't happening. Your group's usage of the word ""choice"" is much like Obama's usage of the word ""change"". Neither of you have exclusive rights to either word. If one side is pro-choice, then the other side must be anti-choice. Not so. If one side is pro-life, then the other must be anti-life. So? Or not so?
CHOOSE life. CHANGE Roe vs. Wade.",358556,2,8094,1,"Please, babe, your second paragraph is a real stretch. Surely even you recognize that.
Surely you also recognize that ANY deviation from the ""no abortion under any circumstances"" mantra espoused by Palin, Randall Terry, and others is a pro-choice position.","http://www.4forums.com/political/abortion-debates/11563-watch-out-abortion-lovers-here-comes-governor-palin.html",323086,48
"1-8094_97_96_3",8094,1,"2008-09-11 10:32:00",250,164,323378,"2008-09-11 09:22:00",358608,65,96,"Cappy:
Learn to read, I answered your question.

As to:

I would think that the fines would have to vary from State to State and be reflective of the cost of living index in each area. In an area like NY, something along the lines of $2,500 to the patient and $5,000 to the doctor performing the procedure.",358607,3,8094,1,"babe,
Nice rant; now answer the question.
Just in case you forgot, the question was, ""If your 14-year old daughter were impregnated as a result her of being molested by a family member, would you want the government to tell her that she had to bear the child so conceived?""
The key here is the government.
Still saying ""Marxist"" as though it were a bad thing, we see.
BTW, just how ""hefty"" a fine are you proposing?","http://www.4forums.com/political/abortion-debates/11563-watch-out-abortion-lovers-here-comes-governor-palin.html",323367,97
"1-8094_98_97_3",8094,1,"2008-09-11 11:13:00",164,250,323383,"2008-09-11 10:32:00",358609,131,97,"Why you old softie you.
You really do think that this small fine is sufficient sanction for, how did you put it again?
Oh, yes, I have your words now, ""Or, a woman can immorally and (hopefully soon to be) illegally choose to find an abortionist to rip the growing life from within her.""
Whoever would have thought that the babe would be soft on crime.;)
BTW, it's nice that YOU approve of abortion in the case of rape or incest, but that wasn't the question at all. 
The question was about how you would react if the government said your 14-year old granddaughter had to carry the baby to term.",358608,3,8094,1,"Cappy:
I would think that the fines would have to vary from State to State and be reflective of the cost of living index in each area. In an area like NY, something along the lines of $2,500 to the patient and $5,000 to the doctor performing the procedure.","http://www.4forums.com/political/abortion-debates/11563-watch-out-abortion-lovers-here-comes-governor-palin.html",323378,98
"1-8094_102_98_3",8094,1,"2008-09-12 05:01:00",250,164,323474,"2008-09-11 11:13:00",358613,128,98,"Cappy:

Liar. Your question, which you accused me of not answering and which I answered again ANYWAY but now you wish to ""edit"" was:

I replied, AGAIN, that I approve of abortion in the case of rape or incest where a pregnancy has resulted as the result of the woman's/young lady's free will being violated. What is it about my answer that you are unable to grasp?
You continue to display your cognitive dissonance by accusing me of having gone ""soft"" on the abortion issue by recommending fines in the $2500/$5000 neighborhood and then start bawling about how abortion will only be available to the rich. Which is it Cappy?",358609,3,8094,1,"Why you old softie you.
You really do think that this small fine is sufficient sanction for, how did you put it again?
Oh, yes, I have your words now, ""Or, a woman can immorally and (hopefully soon to be) illegally choose to find an abortionist to rip the growing life from within her.""
Whoever would have thought that the babe would be soft on crime.;)
BTW, it's nice that YOU approve of abortion in the case of rape or incest, but that wasn't the question at all. 
The question was about how you would react if the government said your 14-year old granddaughter had to carry the baby to term.","http://www.4forums.com/political/abortion-debates/11563-watch-out-abortion-lovers-here-comes-governor-palin.html",323383,102
"1-8094_103_102_3",8094,1,"2008-09-12 05:09:00",164,250,323475,"2008-09-12 05:01:00",358614,178,102,"The part that is an answer to the question.
Once again, it's not relevant what you think the law SHOULD say; it's what you would say/feel/do in the situation where the law forbids what you approve of - abortion ""in the case of rape or incest where a pregnancy has resulted as the result of the woman's/young lady's free will being violated.""
Remember that in Sarah Palin's ideal world and in the world of the true believer in the righttofetallife movement, the exemption you seek would be precluded.
In that event, would you take her for an ""illegal"" abortion, knowing that both you and the doctor would be fined a relatively paltry sum?
BTW, I love watching you go ballistic when I quote your words back at you, especially those relating to choices and sanctions.
That's not twisting a thing, sweetie; I just quote you and stand back waiting for the explosion.emoticonXSmilie",358613,3,8094,1,"Cappy:
I replied, AGAIN, that I approve of abortion in the case of rape or incest where a pregnancy has resulted as the result of the woman's/young lady's free will being violated. What is it about my answer that you are unable to grasp?","http://www.4forums.com/political/abortion-debates/11563-watch-out-abortion-lovers-here-comes-governor-palin.html",323474,103
"1-8094_105_103_3",8094,1,"2008-09-12 05:23:00",250,164,323478,"2008-09-12 05:09:00",358616,136,103,"Cappy:
My, you're up early.

Oh? Well, the law says a 14 year old can get an abortion without parental consent, whether the pregnancy is the result of rape or not. I think that's disgusting. Speculating as to what the Supreme Court might rule if Roe vs. Wade were to be reintroduced under a McCain/Palin white house is just that, pure speculation. Archangel posted results elsewhere in this forum regarding general opinion on the issue of rape and abortion and I am of the opinion that despite Palin's very fundamental religious beliefs, the vast majority would agree that such a condition is worthy of being an exception. Therefore your question, rephrased 20 ways to Sunday, is moot and ridiculous.",358614,3,8094,1,"The part that is an answer to the question.
Once again, it's not relevant what you think the law SHOULD say; it's what you would say/feel/do in the situation where the law forbids what you approve of - abortion ""in the case of rape or incest where a pregnancy has resulted as the result of the woman's/young lady's free will being violated.""
Remember that in Sarah Palin's ideal world and in the world of the true believer in the righttofetallife movement, the exemption you seek would be precluded.
In that event, would you take her for an ""illegal"" abortion, knowing that both you and the doctor would be fined a relatively paltry sum?
BTW, I love watching you go ballistic when I quote your words back at you, especially those relating to choices and sanctions.
That's not twisting a thing, sweetie; I just quote you and stand back waiting for the explosion.emoticonXSmilie","http://www.4forums.com/political/abortion-debates/11563-watch-out-abortion-lovers-here-comes-governor-palin.html",323475,105
"1-8094_106_105_3",8094,1,"2008-09-12 06:16:00",164,250,323482,"2008-09-12 05:23:00",358617,168,105,"Still refusing to give a direct answer, we see.
Tell us, were you the victim of a Jesuitical education?
The question still remains, in the situation where, despite the protests, a profetallife Congress passes an antiabortion law with no exceptions - none, nada, bupkus, zilch - and if your 14-year old granddaughter is impregnated by a molesting family member, will you break the law or encourage her parents to break the law, knowing that the worst penalty is a paltry fine?
Yes, it's a hypothetical situation at the present, but the real time profetallife screamers, Palin included, are pushing for just such a law.
After all, if we should adopt their idiotic reasoning that ""Abortion is Murder"", then how can the nation sit back and permit some murders?emoticonXConfused
BTW, for all you know, I may be up LATE!!:)",358616,3,8094,1,"Oh? Well, the law says a 14 year old can get an abortion without parental consent, whether the pregnancy is the result of rape or not. I think that's disgusting. Speculating as to what the Supreme Court might rule ifRoe vs. Wade were to be reintroduced under a McCain/Palin white house is just that, pure speculation. Archangel posted results elsewhere in this forum regarding general opinion on the issue of rape and abortion and I am of the opinion that despite Palin's very fundamental religious beliefs, the vast majority would agree that such a condition is worthy of being an exception. Therefore your question, rephrased 20 ways to Sunday, is moot and ridiculous.","http://www.4forums.com/political/abortion-debates/11563-watch-out-abortion-lovers-here-comes-governor-palin.html",323478,106
"1-8094_107_106_3",8094,1,"2008-09-12 06:40:00",250,164,323486,"2008-09-12 06:16:00",358618,46,106,"Cappy:

Duh! How big of you to admit that instead of calling me a liar for not responding to your constantly morphing question.

Just as it's not relevant what you think the law MIGHT be changed to.
Good night, Cappy.",358617,3,8094,1,"Still refusing to give a direct answer, we see.
Tell us, were you the victim of a Jesuitical education?
The question still remains, in the situation where, despite the protests, a profetallife Congress passes an antiabortion law with no exceptions - none, nada, bupkus, zilch - and if your 14-year old granddaughter is impregnated by a molesting family member, will you break the law or encourage her parents to break the law, knowing that the worst penalty is a paltry fine?
Yes, it's a hypothetical situation at the present, but the real time profetallife screamers, Palin included, are pushing for just such a law.
After all, if we should adopt their idiotic reasoning that ""Abortion is Murder"", then how can the nation sit back and permit some murders?emoticonXConfused
BTW, for all you know, I may be up LATE!!:)","http://www.4forums.com/political/abortion-debates/11563-watch-out-abortion-lovers-here-comes-governor-palin.html",323482,107
"1-8094_108_107_3",8094,1,"2008-09-12 07:37:00",164,250,323495,"2008-09-12 06:40:00",358619,72,107,"Oh but it is.
Even as I write, the profetallifers are organizing to create a law and/or Constitutional Amendment to do just that.
Here in Colorado the people will vote this November on an Amendment to our Constitution defining a person as existing from the moment of conception.
What do you think will happen to abortion in this state if that absurdity should pass?emoticonXConfused",358618,3,8094,1,"Cappy:

Duh! How big of you to admit that instead of calling me a liar for not responding to your constantly morphing question.

Just as it's not relevant what you think the law MIGHT be changed to.
Good night, Cappy.","http://www.4forums.com/political/abortion-debates/11563-watch-out-abortion-lovers-here-comes-governor-palin.html",323486,108
"1-8094_390_389_4",8094,1,"2008-09-26 19:03:00",421,164,325384,"2008-09-26 17:15:00",358901,111,389,"What is not only illogical but patently false is the assertion that the unborn baby is making his mother a slave of any kind. Did that baby force her to conceive it? Is that baby the equivalent of a tumor as the pro abortionists claim them to be? NO, it is an unborn human being who just needs the time to grow and develop in order to be a sentient being just as we are as we type on these keyboards. 

That explains everything about how irrational you are! But based on your posts though, I think they already pulled the plug. emoticonXFrazzledemoticonXDonno 
",358900,4,8094,1,"And yet you continue to support the illogic of a potential person having the right to make a slave of a person in being.
Incredible.
And, yes, if I am in a persistent vegetative state, I have authorized my family to direct my physicians to pull the plug.
I'm not there.","http://www.4forums.com/political/abortion-debates/11563-watch-out-abortion-lovers-here-comes-governor-palin.html",325375,390
"1-8094_391_390_4",8094,1,"2008-09-26 19:47:00",164,421,325385,"2008-09-26 19:03:00",358902,48,390,"Ho Hum.
Yet one more ad hom.
Do you have any idea how boring they have become?
I think the correct Shakespeare quote is, ""It is a tale told by an idiot, full of sound and fury, signifying nothing.""",358901,4,8094,1,"What is not only illogical but patently false is the assertion that the unborn baby is making his mother a slave of any kind. Did that baby force her to conceive it? Is that baby the equivalent of a tumor as the pro abortionists claim them to be? NO, it is an unborn human being who just needs the time to grow and develop in order to be a sentient being just as we are as we type on these keyboards. 

That explains everything about how irrational you are! But based on your posts though, I think they already pulled the plug. emoticonXFrazzledemoticonXDonno 
","http://www.4forums.com/political/abortion-debates/11563-watch-out-abortion-lovers-here-comes-governor-palin.html",325384,391
"1-8094_392_391_4",8094,1,"2008-09-26 20:07:00",421,164,325386,"2008-09-26 19:47:00",358903,39,391,"How is pointing out how obviously irrational you are an ad hom? What is incredible is that it is completely lost on you that you just called me an idiot. Talk about pulling a kronus! emoticonXBye",358902,4,8094,1,"Ho Hum.
Yet one more ad hom.
Do you have any idea how boring they have become?
I think the correct Shakespeare quote is, ""It is a tale told by an idiot, full of sound and fury, signifying nothing.""","http://www.4forums.com/political/abortion-debates/11563-watch-out-abortion-lovers-here-comes-governor-palin.html",325385,392
"1-8094_396_392_4",8094,1,"2008-09-27 05:12:00",164,421,325408,"2008-09-26 20:07:00",358907,95,392,"You keep waving bye bye with your emoticon, yet you continue to respond to my posts.
If you wish, I'll even pay for the Geek Squad guy to come to your house and fix your ""Ignore"" button.
And, yes, I would rather cavort with the Devil in Hell than spend eternity your version of Heaven.
And Archie, please, PLEASE don't bother telling me where you think I'm going. Don't ever be so presumptuous as to think you know the mind of God.",358903,4,8094,1,"How is pointing out how obviously irrational you are an ad hom? What is incredible is that it is completely lost on you that you just called me an idiot. Talk about pulling a kronus! emoticonXBye","http://www.4forums.com/political/abortion-debates/11563-watch-out-abortion-lovers-here-comes-governor-palin.html",325386,396
"1-8094_398_396_4",8094,1,"2008-09-27 15:42:00",421,164,325428,"2008-09-27 05:12:00",358909,73,396,"I'm waving bye bye in the hope that you will wander off into oblivion like the lost soul that you are. It doesn't mean that I'm going anywhere.

Fear not yon sinner, your day will come. And you will rue the day you made this claim. emoticonXWow As disgusting and repulsive as I find what you represent, I still mourn you for what awaits you. emoticonXCry",358907,4,8094,1,"You keep waving bye bye with your emoticon, yet you continue to respond to my posts.
If you wish, I'll even pay for the Geek Squad guy to come to your house and fix your ""Ignore"" button.
And, yes, I would rather cavort with the Devil in Hell than spend eternity your version of Heaven.
And Archie, please, PLEASE don't bother telling me where you think I'm going. Don't ever be so presumptuous as to think you know the mind of God.","http://www.4forums.com/political/abortion-debates/11563-watch-out-abortion-lovers-here-comes-governor-palin.html",325408,398
"1-8094_399_398_4",8094,1,"2008-09-27 18:02:00",164,421,325438,"2008-09-27 15:42:00",358910,19,398,"And I for you, for when you take your last breath you realize that IT'S OVER!!!emoticonXBye",358909,4,8094,1,"I'm waving bye bye in the hope that you will wander off into oblivion like the lost soul that you are. It doesn't mean that I'm going anywhere.

Fear not yon sinner, your day will come. And you will rue the day you made this claim. emoticonXWow As disgusting and repulsive as I find what you represent, I still mourn you for what awaits you. emoticonXCry","http://www.4forums.com/political/abortion-debates/11563-watch-out-abortion-lovers-here-comes-governor-palin.html",325428,399
"1-8094_400_399_4",8094,1,"2008-09-27 19:22:00",421,164,325446,"2008-09-27 18:02:00",358911,81,399,"cap0, if the annihilation of the soul is what awaits us in death, then what would I possibly mourn or be sorry for? I would no longer be. The only reason any of this will matter is if we believers in God and His promises are right, and the death of this body represents the beginning of eternal life, whether it be with Him, or apart from Him is our individual choices.",358910,4,8094,1,"And I for you, for when you take your last breath you realize that IT'S OVER!!!emoticonXBye","http://www.4forums.com/political/abortion-debates/11563-watch-out-abortion-lovers-here-comes-governor-palin.html",325438,400
"1-8094_332_331_5",8094,1,"2008-09-24 06:29:00",931,164,324994,"2008-09-24 06:14:00",358843,66,331,"Yeah, just like all those who presently advocate using government assistance to enforce their warped moral value against murdering already born people are on the wrong side of that moral issue. 
The suggestion is absurd.
I wonder how you, as a moral relativist, can even come to the conclusion that somebody is on the wrong side of a moral issue.",358842,5,8094,1,"And are we to suppose that the profetallifers never, NEVER manipulate thier questions to give them the desired effect?emoticonXBanghead
BTW, you know you won't ever answer my question because you know that to admit that you need the assistance of government to enforce your warped values means that you're on the wrong side of the moral issue involved.emoticonXSmilie","http://www.4forums.com/political/abortion-debates/11563-watch-out-abortion-lovers-here-comes-governor-palin.html",324988,332
"1-8094_333_332_5",8094,1,"2008-09-24 06:44:00",164,931,324997,"2008-09-24 06:29:00",358844,61,332,"Obfuscation, bluster, blather, and bloviation.
Why not simply admit up front that your ""side"" has FAILED in its pathetic attempts at moral suasion, and now you feel you need to resort to the force of law to impose your values on those who do not share them.
Welcome to Brave New World!",358843,5,8094,1,"Yeah, just like all those who presently advocate using government assistance to enforce their warped moral value against murdering already born people are on the wrong side of that moral issue. 
The suggestion is absurd.
I wonder how you, as a moral relativist, can even come to the conclusion that somebody is on the wrong side of a moral issue.","http://www.4forums.com/political/abortion-debates/11563-watch-out-abortion-lovers-here-comes-governor-palin.html",324994,333
"1-8094_335_333_5",8094,1,"2008-09-24 07:05:00",931,164,325002,"2008-09-24 06:44:00",358846,141,333,"This is not at all what has happened. A quick survey of the history reveals that a sufficient number of people thought abortion was wrong to the degree that most state legislatures were persuaded to prohibit abortion in the years prior to Roe v. Wade. It wasn't the other way around. However, it took 7 Supreme Court justices exercising their power illegitimately to establish the right to choice. Therefore, it was the abortion movement that was (and still has been) unable to persuade the population at large that they are in the right. This is just a guess, but that may simply be due to the fact that the abortion movement has its roots in the morally bankrupt ground of eugenics and racism. The moral high ground indeed.",358844,5,8094,1,"Why not simply admit up front that your ""side"" hasFAILED in its pathetic attempts at moral suasion, and now you feel you need to resort to the force of law to impose your values on those who do not share them.","http://www.4forums.com/political/abortion-debates/11563-watch-out-abortion-lovers-here-comes-governor-palin.html",324997,335
"1-8094_338_335_5",8094,1,"2008-09-24 09:16:00",164,931,325034,"2008-09-24 07:05:00",358849,123,335,"NOT SO!!
You have had 36 years to try to amend the US Constitution, and you have failed miserably.
If there is such an upswelling of support, you and your ilk could have done it via the state convention route.
The fact that you have not even tried shows the intellectual and moral bankruptcy of your position.
The people of America, given a taste of choice, will not go back to being dictated to.
The South Dakota vote last year provided ample evidence.:)
Brown and West Virginia v. Barnette are proof of that.
The women of America will never again be shoved to the back of the bus.emoticonXIdea",358846,5,8094,1,"This is not at all what has happened. A quick survey of the history reveals that a sufficient number of people thought abortion was wrong to the degree that most state legislatures were persuaded to prohibit abortion in the years prior to Roe v. Wade. It wasn't the other way around. However, it took 7 Supreme Court justices exercising their power illegitimately to establish the right to choice. Therefore, it was the abortion movement that was (and still has been) unable to persuade the population at large that they are in the right. This is just a guess, but that may simply be due to the fact that the abortion movement has its roots in the morally bankrupt ground of eugenics and racism. The moral high ground indeed.","http://www.4forums.com/political/abortion-debates/11563-watch-out-abortion-lovers-here-comes-governor-palin.html",325002,338
"1-8094_339_338_5",8094,1,"2008-09-24 09:28:00",931,164,325038,"2008-09-24 09:16:00",358850,227,338,"It took 77 years to amend the Constitution to prohibit slavery. Does this mean that banning slavery was not the moral thing to do, since it took so long to do so?
It took 132 years to amend the Constitution to prohibit the practice of refusing women the franchise on account of their sex. Does this mean that it was not the moral thing to do, since it took so long to do so?

So could the abolitionists and the suffragettes. That they were unable to do so means that they were on the wrong side of these respective moral issues?

People have tried to amend the Constitution to overturn Roe. The mere fact that they have been unsuccessful does not mean they are wrong on the moral issue.

We simply do not know this to be the case simply because the people of America have not been given the opportunity to express their will. The Supreme Court took that choice away from them. So much for getting a taste of choice.
Polling data does indicate that the policy generally supported by the American public would not support legal abortion in roughly 90% of the cases that abortion is used today.

Ample evidence of what? That the pro-life argument is wrong?",358849,5,8094,1,"NOT SO!!
You have had 36 years to try to amend the US Constitution, and you have failed miserably.
If there is such an upswelling of support, you and your ilk could have done it via the state convention route.
The fact that you have not even tried shows the intellectual and moral bankruptcy of your position.
The people of America, given a taste of choice, will not go back to being dictated to.
The South Dakota vote last year provided ample evidence.:)
Brown and West Virginia v. Barnette are proof of that.
The women of America will never again be shoved to the back of the bus.emoticonXIdea","http://www.4forums.com/political/abortion-debates/11563-watch-out-abortion-lovers-here-comes-governor-palin.html",325034,339
"1-8094_340_339_5",8094,1,"2008-09-24 09:44:00",164,931,325040,"2008-09-24 09:28:00",358851,101,339,"Whatever you do, don't insult the intelligence of those who post here.
You and your ilk have had 38 years to spew your propaganda, so please spare us the hearts and flowers.
You have had more than enough time to win the argument in this country; the fact that you have not been able to do so speaks to its bankruptcy.
Yes, it did take 70+ years to eliminate slavery, and now you want to overturn that as well and make a woman a slave to her fetus. 
NICE!!emoticonXAngry",358850,5,8094,1,"It took 77 years to amend the Constitution to prohibit slavery. Does this mean that banning slavery was not the moral thing to do, since it took so long to do so?
It took 132 years to amend the Constitution to prohibit the practice of refusing women the franchise on account of their sex. Does this mean that it was not the moral thing to do, since it took so long to do so?

So could the abolitionists and the suffragettes. That they were unable to do so means that they were on the wrong side of these respective moral issues?

People have tried to amend the Constitution to overturn Roe. The mere fact that they have been unsuccessful does not mean they are wrong on the moral issue.

We simply do not know this to be the case simply because the people of America have not been given the opportunity to express their will. The Supreme Court took that choice away from them. So much for getting a taste of choice.
Polling data does indicate that the policy generally supported by the American public would not support legal abortion in roughly 90% of the cases that abortion is used today.

Ample evidence of what? That the pro-life argument is wrong?","http://www.4forums.com/political/abortion-debates/11563-watch-out-abortion-lovers-here-comes-governor-palin.html",325038,340
"1-8094_341_340_5",8094,1,"2008-09-24 09:59:00",931,164,325047,"2008-09-24 09:44:00",358852,77,340,"This is as ridiculous as saying that after 30 years, the abolitionists had enough time to win the slavery argument in this country; and the fact that they were unable to do so speaks to the bankruptcy of their cause.
Successfully persuading somebody that a fetus is a person entitled to legal protections has absolutely nothing to do with whether the fetus is, in fact, a person entitled to legal protections.",358851,5,8094,1,"Whatever you do, don't insult the intelligence of those who post here.
You and your ilk have had 38 years to spew your propaganda, so please spare us the hearts and flowers.
You have had more than enough time to win the argument in this country; the fact that you have not been able to do so speaks to its bankruptcy.
Yes, it did take 70+ years to eliminate slavery, and now you want to overturn that as well and make a woman a slave to her fetus. 
NICE!!emoticonXAngry","http://www.4forums.com/political/abortion-debates/11563-watch-out-abortion-lovers-here-comes-governor-palin.html",325040,341
"1-8094_7_5_6",8094,1,"2008-09-04 16:20:00",176,250,322564,"2008-09-04 12:04:00",358518,95,5,"Everything about war is emotional too. Does that mean emotion should be factored into starting wars? People would be starting wars because another country ""hurt their feelings"", or we wouldn't go to war with threat country because ""what if someone dies""?
You can be emotional whenever you want. Emotion should never be factored into making laws, especially laws that will cause emotional hardship for some people. Intellectual thought and rationality should be the basis for our legal system. Not ""emotions"".",358516,6,8094,1,"Charlie horse:

You can't. Why? Because emotions, by and large, are human characteristics. Bringing a new human life into the world is an emotional issue. Preventing that new human life from entering this world is an emotional issue. The condition of becoming pregnant is most often due to hormonally controlled emotions at the time of conception. Everything about the abortion issue is emotional. Deal with it.","http://www.4forums.com/political/abortion-debates/11563-watch-out-abortion-lovers-here-comes-governor-palin.html",322535,7
"1-8094_8_7_6",8094,1,"2008-09-05 04:53:00",250,176,322641,"2008-09-04 16:20:00",358519,26,7,"Then by your reasoning, Roe vs. Wade should never have been brought to court and decided. Ok, I'll go with that. emoticonXGood",358518,6,8094,1,"Everything about war is emotional too. Does that mean emotion should be factored into starting wars? People would be starting wars because another country ""hurt their feelings"", or we wouldn't go to war with threat country because ""what if someone dies""?
You can be emotional whenever you want. Emotion should never be factored into making laws, especially laws that will cause emotional hardship for some people. Intellectual thought and rationality should be the basis for our legal system. Not ""emotions"".","http://www.4forums.com/political/abortion-debates/11563-watch-out-abortion-lovers-here-comes-governor-palin.html",322564,8
"1-8094_9_8_6",8094,1,"2008-09-05 06:47:00",176,250,322650,"2008-09-05 04:53:00",358520,28,8,"Is that so?
Obviously every law has some emotion behind it, but it should be soley based on facts and logic. Do you disagree?",358519,6,8094,1,"Then by your reasoning, Roe vs. Wade should never have been brought to court and decided. Ok, I'll go with that. emoticonXGood","http://www.4forums.com/political/abortion-debates/11563-watch-out-abortion-lovers-here-comes-governor-palin.html",322641,9
"1-8094_11_9_6",8094,1,"2008-09-05 13:46:00",250,176,322718,"2008-09-05 06:47:00",358522,72,9,"Shooterandproud:
Again with your inconsistent line of reasoning. First you insist:

Then when I say, well, if that's the case, Roe vs. Wade should be overturned you reply with:

Roe vs. Wade was a decidedly EMOTIONAL decision in favor of those who don't wish to endure the EMOTIONAL distress or inconvenience of carrying a pregnancy to term.
You can't have it both ways.",358520,6,8094,1,"Is that so?
Obviously every law has some emotion behind it, but it should be soley based on facts and logic. Do you disagree?","http://www.4forums.com/political/abortion-debates/11563-watch-out-abortion-lovers-here-comes-governor-palin.html",322650,11
"1-8094_14_11_6",8094,1,"2008-09-05 15:40:00",176,250,322740,"2008-09-05 13:46:00",358525,185,11,"Yes, I can.
Everything has emotion behind it, however basing something soley on emotion is stupid. Every law we make is because of emotions, however logic and reason are the primarily what are used when deciding to or not to enact a law. Making a law that says anyone who bullies another should be sent to a work camp and spend their lives there is based on emotion, however it is not logical.
The law against murder however, is to deter more murders from happening and therefore stopping murders, preventing emotional distress. This is logical, because society would degrade if murder were legal.
Making abortion illegal however, is based soley on emotion. Sure, seeing things that slightly resemble humans being killed can be emotionally disheartening, however when logic, reason, and science are used you will discover that these little creatures have no mental existence. Therefore, there is no reason for them to have rights, because mental existence is the basis for rights.",358522,6,8094,1,"Shooterandproud:
Again with your inconsistent line of reasoning. First you insist:

Then when I say, well, if that's the case, Roe vs. Wade should be overturned you reply with:

Roe vs. Wade was a decidedly EMOTIONAL decision in favor of those who don't wish to endure the EMOTIONAL distress or inconvenience of carrying a pregnancy to term.
You can't have it both ways.","http://www.4forums.com/political/abortion-debates/11563-watch-out-abortion-lovers-here-comes-governor-palin.html",322718,14
"1-8094_61_60_7",8094,1,"2008-09-09 20:24:00",176,421,323184,"2008-09-09 20:13:00",358572,12,60,"The tooth fairy has a different function than the Easter bunny.",358571,7,8094,1,"What you guys need to learn is that the soul has a different function than a brain.","http://www.4forums.com/political/abortion-debates/11563-watch-out-abortion-lovers-here-comes-governor-palin.html",323182,61
"1-8094_63_61_7",8094,1,"2008-09-10 05:38:00",421,176,323210,"2008-09-09 20:24:00",358574,72,61,"Some friendly advice, If you don't want comments about your age being written, then stop making such juvenile and off topic statements. Unless you're claiming that the brain and the soul are fictional, as are the Tooth Fairy and the Easter Bunny? If that's the claim you're making, then you really need to get a clue and the first sentence I wrote is accurate. emoticonXBanghead",358572,7,8094,1,"The tooth fairy has a different function than the Easter bunny.","http://www.4forums.com/political/abortion-debates/11563-watch-out-abortion-lovers-here-comes-governor-palin.html",323184,63
"1-8094_91_63_7",8094,1,"2008-09-10 21:42:00",176,421,323334,"2008-09-10 05:38:00",358602,73,63,"The brain exists and has a function. Not so sure about the soul. This statement is not juvenile or off topic. You are using something fictional while debating, what could be more juvenile than that?
And threatening another debater with the use of prejudice and ageism doesn't make you look intelligent. Calling BS on the use of something completely unproven is not juvenile or off topic.",358574,7,8094,1,"Some friendly advice, If you don't want comments about your age being written, then stop making such juvenile and off topic statements. Unless you're claiming that the brain and the soul are fictional, as are the Tooth Fairy and the Easter Bunny? If that's the claim you're making, then you really need to get a clue and the first sentence I wrote is accurate. emoticonXBanghead","http://www.4forums.com/political/abortion-debates/11563-watch-out-abortion-lovers-here-comes-governor-palin.html",323210,91
"1-8094_92_91_7",8094,1,"2008-09-11 04:27:00",421,176,323340,"2008-09-10 21:42:00",358603,156,91,"I'm using something fictional while debating against something real?!?!? Really? Read your previous post and you'll clearly see that it was ""YOU"" who compared the tooth fairy to the easter bunny in comparison to the existence of the brain and the soul. So how do you then that I AM using something fictional?

Stop playing the victim shooter. Nobody has threatened anyone at all, nor promoted prejudice against you at all. And you're being redundant by even using both words together since ageism means to be prejudice on the basis of a persons age. So show where I have promoted prejudice against you in any way! 
ageism|ˈājˌizəm| (also agism)
noun
prejudice or discrimination on the basis of a person's age.
DERIVATIVES
ageist (also agist) adjective & noun
",358602,7,8094,1,"The brain exists and has a function. Not so sure about the soul. This statement is not juvenile or off topic. You are using something fictional while debating, what could be more juvenile than that?
And threatening another debater with the use of prejudice and ageism doesn't make you look intelligent. Calling BS on the use of something completely unproven is not juvenile or off topic.","http://www.4forums.com/political/abortion-debates/11563-watch-out-abortion-lovers-here-comes-governor-palin.html",323334,92
"1-8094_99_92_7",8094,1,"2008-09-11 16:04:00",176,421,323422,"2008-09-11 04:27:00",358610,59,92,"That was an analogy. You are using something fictional because you are factoring in the soul, which cannot be proven.

""If you don't want comments about your age being written, then stop making such juvenile and off topic statements.""
Really, archie?
What ""comments"" would those have been?",358603,7,8094,1,"I'm using something fictional while debating against something real?!?!? Really? Read your previous post and you'll clearly see that it was ""YOU"" who compared the tooth fairy to the easter bunny in comparison to the existence of the brain and the soul. So how do you then that I AM using something fictional?

Stop playing the victim shooter. Nobody has threatened anyone at all, nor promoted prejudice against you at all. And you're being redundant by even using both words together since ageism means to be prejudice on the basis of a persons age. So show where I have promoted prejudice against you in any way! 
ageism|ˈājˌizəm| (also agism)
noun
prejudice or discrimination on the basis of a person's age.
DERIVATIVES
ageist (also agist) adjective & noun
","http://www.4forums.com/political/abortion-debates/11563-watch-out-abortion-lovers-here-comes-governor-palin.html",323340,99
"1-8094_216_212_8",8094,1,"2008-09-18 18:19:00",931,176,324207,"2008-09-18 17:42:00",358727,149,212,"You can only legally kill a burglar if you have good reason to believe that your life is in danger. Should you arrive one day at your house and discover a burglar who clearly poses no threat to your person, you may not legally kill him though he walk out with all your earthly possessions. Yes, the burglar may be infringing upon your liberty, but you may not kill him because of that.
If you must analogize it to the burglar, than it would apply this way. Most pro-life people agree that abortions that are necessary to save the mother's life are acceptable. What most pro-lifers do not agree with is that abortion is acceptable in situations where only a person's liberty or property might be infringed, but where it would not be necessary to save her life.",358723,8,8094,1,"How is it that you can legally kill a burglar that invades your house, however for some reason when something invades your body you have no right to kill it?","http://www.4forums.com/political/abortion-debates/11563-watch-out-abortion-lovers-here-comes-governor-palin.html",324197,216
"1-8094_228_216_8",8094,1,"2008-09-18 21:42:00",176,931,324229,"2008-09-18 18:19:00",358739,47,216,"Not in all states. Most states have adopted castle doctrine by now.

Still, invading a home is one thing, a body is another. Having something inside the plaster walls of your house is different than having something invasive inside of you.",358727,8,8094,1,"You can only legally kill a burglar if you have good reason to believe that your life is in danger. Should you arrive one day at your house and discover a burglar who clearly poses no threat to your person, you may not legally kill him though he walk out with all your earthly possessions. Yes, the burglar may be infringing upon your liberty, but you may not kill him because of that.
If you must analogize it to the burglar, than it would apply this way. Most pro-life people agree that abortions that are necessary to save the mother's life are acceptable. What most pro-lifers do not agree with is that abortion is acceptable in situations where only a person's liberty or property might be infringed, but where it would not be necessary to save her life.","http://www.4forums.com/political/abortion-debates/11563-watch-out-abortion-lovers-here-comes-governor-palin.html",324207,228
"1-8094_229_228_8",8094,1,"2008-09-19 05:25:00",931,176,324246,"2008-09-18 21:42:00",358740,49,228,"The castle doctrine, though different in the various states that have it, still typically does not allow the use of deadly force merely to protect one's property.
Take this connecticut explanation as an example: http://www.cga.ct.gov/2007/rpt/2007-R-0052.htm. It's actually an interesting read, in my opinion.",358739,8,8094,1,"Not in all states. Most states have adopted castle doctrine by now.

Still, invading a home is one thing, a body is another. Having something inside the plaster walls of your house is different than having something invasive inside of you.","http://www.4forums.com/political/abortion-debates/11563-watch-out-abortion-lovers-here-comes-governor-palin.html",324229,229
"1-8094_240_229_8",8094,1,"2008-09-19 16:57:00",176,931,324325,"2008-09-19 05:25:00",358751,20,229,"If someone broke into your house in order to cause you pain are you legally allowed to kill them?",358740,8,8094,1,"The castle doctrine, though different in the various states that have it, still typically does not allow the use of deadly force merely to protect one's property.
Take this connecticut explanation as an example: http://www.cga.ct.gov/2007/rpt/2007-R-0052.htm. It's actually an interesting read, in my opinion.","http://www.4forums.com/political/abortion-debates/11563-watch-out-abortion-lovers-here-comes-governor-palin.html",324246,240
"1-8094_242_240_8",8094,1,"2008-09-19 20:33:00",931,176,324343,"2008-09-19 16:57:00",358753,111,240,"""Deadly physical force cannot be used unless the actor reasonably believes that the attacker is using or about to use deadly physical force or inflicting or about to inflict great bodily harm.""
I doubt that all pain amounts to ""great bodily harm."" In that respect, it is very circumstantial. If someone breaks into your house and wants to punch you in the fact, but the victim does not perceive that the attacker is or is about to inflict deadly force upon him, then the victim may only repel the attack with the force that is reasonable to repel the attack.",358751,8,8094,1,"If someone broke into your house in order to cause you pain are you legally allowed to kill them?","http://www.4forums.com/political/abortion-debates/11563-watch-out-abortion-lovers-here-comes-governor-palin.html",324325,242
"1-8094_247_242_8",8094,1,"2008-09-20 15:43:00",176,931,324408,"2008-09-19 20:33:00",358758,48,242,"That fits the description. You know that the fetus is going to cause you pain.

That's not necessarily true. If someone breaks into your house in order to harm you or cause you pain, you are legally allowed to respond with deadly force.",358753,8,8094,1,"""Deadly physical force cannot be used unless the actor reasonably believes that the attacker is using or about to use deadly physical force or inflicting or about to inflict great bodily harm.""
I doubt that all pain amounts to ""great bodily harm."" In that respect, it is very circumstantial. If someone breaks into your house and wants to punch you in the fact, but the victim does not perceive that the attacker is or is about to inflict deadly force upon him, then the victim may only repel the attack with the force that is reasonable to repel the attack.","http://www.4forums.com/political/abortion-debates/11563-watch-out-abortion-lovers-here-comes-governor-palin.html",324343,247
"1-8094_153_152_9",8094,1,"2008-09-15 10:26:00",435,421,323780,"2008-09-15 10:05:00",358664,60,152,"""Saving"" us by using the threat of god's being nasty to us as opposed to the good sheeple could be seen as calling on a supernatural being to inflict evil on atheists (if they don't kow-tow).
Atheists are moral for it's own sake, they don't need the threats of damnation to behave well.",358663,9,8094,1,"imprecation - the act of calling down a curse that invokes evil (and usually serves as an insult); .... - an appeal to some supernatural power to inflict evil on someone or some group
.....That's anti christian ya know. emoticonXDonno
..... The only problem that you're too spiritually dead to appreciate is ...We are actually attempting to save you immoral atheists from your own self destruction. emoticonXAngel","http://www.4forums.com/political/abortion-debates/11563-watch-out-abortion-lovers-here-comes-governor-palin.html",323773,153
"1-8094_154_153_9",8094,1,"2008-09-15 10:37:00",421,435,323783,"2008-09-15 10:26:00",358665,102,153,"Show from the above debate where God or salvation was raised by me at all! Show where I made any type of spiritual threat for you to believe as i do. This isn't even the religion forum. You are again twisting in the wind in order to cover for the irrational things you and chester say by using words when you have no idea what they mean. emoticonXRolleyes Ya know, it's nothing to be ashamed of to admit that you're ignorant and only try to rely on that thesaurus to cover for your intellectual insecurities. emoticonXRolleyes",358664,9,8094,1,"Saving us using the threat of god's being nasty to us as opposed to the good sheeple could be seen as calling on a supernatural being toinflict evil on atheists (if they don't kow-tow).
Atheists are moral for it's own sake, they don't need the threats of damnation to behave well.","http://www.4forums.com/political/abortion-debates/11563-watch-out-abortion-lovers-here-comes-governor-palin.html",323780,154
"1-8094_165_154_9",8094,1,"2008-09-15 18:06:00",435,421,323859,"2008-09-15 10:37:00",358676,63,154,"You may need a thesaurus, I don't. I merely confront your behaviour by reflecting your own frequent comments, essentially exulting in your deluded belief that unbelievers will get what's coming to them on judgement day.
Any ""irrational things"" generated by our intercourse are located within your cranial vault, proximate, but inferior to your prostate.",358665,9,8094,1,"Show from the above debate where God or salvation was raised by me at all! Show where I made any type of spiritual threat for you to believe as i do. This isn't even the religion forum. You are again twisting in the wind in order to cover for the irrational things you and chester say by using words when you have no idea what they mean. emoticonXRolleyes Ya know, it's nothing to be ashamed of to admit that you're ignorant and only try to rely on that thesaurus to cover for your intellectual insecurities. emoticonXRolleyes","http://www.4forums.com/political/abortion-debates/11563-watch-out-abortion-lovers-here-comes-governor-palin.html",323783,165
"1-8094_166_165_9",8094,1,"2008-09-15 18:35:00",421,435,323860,"2008-09-15 18:06:00",358677,18,165,"You are truly a self deluded XXXXX. How's that for plain and simple english? emoticonXGood emoticonXBouncer",358676,9,8094,1,"You may need a thesaurus, I don't. I merely confront your behaviour by reflecting your own frequent comments, essentially exulting in your deluded belief that unbelievers will get what's coming to them on judgement day.
Any ""irrational things"" generated by our intercourse are located within your cranial vault, proximate, but inferior to your prostate.","http://www.4forums.com/political/abortion-debates/11563-watch-out-abortion-lovers-here-comes-governor-palin.html",323859,166
"1-8094_168_166_9",8094,1,"2008-09-15 19:22:00",435,421,323863,"2008-09-15 18:35:00",358679,5,166,"Inaccurate insultive inane insolence.",358677,9,8094,1,"You are truly a self deluded XXXXX. How's that for plain and simple english? emoticonXGood emoticonXBouncer","http://www.4forums.com/political/abortion-debates/11563-watch-out-abortion-lovers-here-comes-governor-palin.html",323860,168
"1-8094_169_168_9",8094,1,"2008-09-15 20:42:00",421,435,323866,"2008-09-15 19:22:00",358680,6,168,"And yet so true. emoticonXDonno",358679,9,8094,1,"Inaccurate insultive inane insolence.","http://www.4forums.com/political/abortion-debates/11563-watch-out-abortion-lovers-here-comes-governor-palin.html",323863,169
"1-8094_545_542_10",8094,1,"2008-10-15 16:01:00",1566,746,328265,"2008-10-15 15:14:00",359056,25,542,"They are a known anti-choice web site. I'm not interested in reading rhetoric or dogma. I am only interested in medical fact.",359053,10,8094,1,"http://www.l4l.org/library/notparas.html
Might be worth a look","http://www.4forums.com/political/abortion-debates/11563-watch-out-abortion-lovers-here-comes-governor-palin.html",328237,545
"1-8094_546_545_10",8094,1,"2008-10-15 16:13:00",746,1566,328270,"2008-10-15 16:01:00",359057,20,545,"No , you are interested in anything that will support you views and will deny anything that does not.",359056,10,8094,1,"They are a known anti-choice web site. I'm not interested in readingrhetoric or dogma. I am only interested in medical fact. By the way, I just noticed you said something before that I must have missed. You said:
""She has a placenta to feed and protect the child.""
Could you please inform all of us exactly what the ZEF needs protection from while inside the woman? emoticonXIdea
No cheating now. No going back a few pages in the thread to find the answer ;)","http://www.4forums.com/political/abortion-debates/11563-watch-out-abortion-lovers-here-comes-governor-palin.html",328265,546
"1-8094_548_546_10",8094,1,"2008-10-15 18:09:00",1566,746,328288,"2008-10-15 16:13:00",359059,7,546,"Your prejudiced viewpoint cannot be proven ;)",359057,10,8094,1,"No , you are interested in anything that will support you views and will deny anything that does not.","http://www.4forums.com/political/abortion-debates/11563-watch-out-abortion-lovers-here-comes-governor-palin.html",328270,548
"1-8094_550_548_10",8094,1,"2008-10-15 19:30:00",746,1566,328301,"2008-10-15 18:09:00",359061,17,548,"You looked at the source , you run away.It is you that is prejudice.",359059,10,8094,1,"Your prejudiced viewpoint cannot be proven ;)","http://www.4forums.com/political/abortion-debates/11563-watch-out-abortion-lovers-here-comes-governor-palin.html",328288,550
"1-8094_552_550_10",8094,1,"2008-10-15 19:46:00",1566,746,328311,"2008-10-15 19:30:00",359063,14,550,"What are you talking about? Better question, what are you smoking?",359061,10,8094,1,"You looked at the source , you run away.It is you that is prejudice.","http://www.4forums.com/political/abortion-debates/11563-watch-out-abortion-lovers-here-comes-governor-palin.html",328301,552
"1-8094_556_552_10",8094,1,"2008-10-15 19:59:00",746,1566,328320,"2008-10-15 19:46:00",359067,55,552,"Ill try to explain very simply to you ... You looked at the title of page( on the web site, remember?) saw that the source of the information was not to your liking then didnt bother to read it.
http://www.l4l.org/library/notparas.html
All coming back now?
Maybe you fell asleep.",359063,10,8094,1,"What are you talking about? Better question, what are you smoking?","http://www.4forums.com/political/abortion-debates/11563-watch-out-abortion-lovers-here-comes-governor-palin.html",328311,556
"1-8094_557_556_10",8094,1,"2008-10-15 20:25:00",1566,746,328326,"2008-10-15 19:59:00",359068,74,556,"If by habit you mean just once emoticonXRolleyes 

So then you are Pro-Choice? 

Wow, I didn't see you here in my office as I was using my computer. You're so psychic. To bad you're not a good one, because in REALITY I DID read that page. You assumed that I didn't, but that's your problem. In this case, your prejudiced viewpoint can be proven emoticonXBye",359067,10,8094,1,"Ill try to explain very simply to you ... You looked at the title of page( on the web site, remember?) saw that the source of the information was not to your liking then didnt bother to read it.
http://www.l4l.org/library/notparas.html
All coming back now?
Maybe you fell asleep.","http://www.4forums.com/political/abortion-debates/11563-watch-out-abortion-lovers-here-comes-governor-palin.html",328320,557
"1-8094_558_557_10",8094,1,"2008-10-15 20:38:00",746,1566,328330,"2008-10-15 20:25:00",359069,78,557,"No not just once , you are wrong quite regularly

Correct!well done!

No, you would see me in your office( good observation, well done again)
But you obviously didnt read it because you dismissed it out of hand, thus you are prejudice but trying vainly to turn the truth on its head, as you do.
The psychic bit was a bit lame so I wont comment on itemoticonXRolleyes",359068,10,8094,1,"If by habit you mean just once emoticonXRolleyes :","http://www.4forums.com/political/abortion-debates/11563-watch-out-abortion-lovers-here-comes-governor-palin.html",328326,558
"1-8094_559_558_10",8094,1,"2008-10-15 21:15:00",1566,746,328341,"2008-10-15 20:38:00",359070,51,558,"Then you should be able to PROVE your nonsensical rhetoric. If you can't, then you're a lier. Let's wait and see what happens emoticonXGood

Now you're just acting childish. So what else is new? When you're ready to debate the FACTS, gimme a holler ;)",359069,10,8094,1,"No not just once , you are wrong quite regularly

Correct!well done!

No, you would see me in your office( good observation, well done again)
But you obviously didnt read it because you dismissed it out of hand, thus you are prejudice but trying vainly to turn the truth on its head, as you do.
The psychic bit was a bit lame so I wont comment on itemoticonXRolleyes","http://www.4forums.com/political/abortion-debates/11563-watch-out-abortion-lovers-here-comes-governor-palin.html",328330,559
"1-8094_560_559_10",8094,1,"2008-10-16 03:20:00",746,1566,328346,"2008-10-15 21:15:00",359071,7,559,"Pot calling kettle black ..as usual",359070,10,8094,1,"Then you should be able to PROVE your nonsensical rhetoric. If you can't, then you're a lier. Let's wait and see what happens emoticonXGood

Now you're just acting childish. So what else is new? When you're ready to debate the FACTS, gimme a holler ;)","http://www.4forums.com/political/abortion-debates/11563-watch-out-abortion-lovers-here-comes-governor-palin.html",328341,560
"1-8094_565_560_10",8094,1,"2008-10-16 10:43:00",1566,746,328455,"2008-10-16 03:20:00",359076,55,560,"More gibberish ...as usual.

By that responce even you apparently agree that Mr. Johnson is not qualified. Thank you for proving that Simone has a valid point emoticonXGood
Next time answer Simone's question directly by posting how you think Mr. Johnson is qualified, instead of weaseling out of answering it ;)",359071,10,8094,1,"Pot calling kettle black ..as usual","http://www.4forums.com/political/abortion-debates/11563-watch-out-abortion-lovers-here-comes-governor-palin.html",328346,565
"1-8094_566_565_10",8094,1,"2008-10-16 10:50:00",746,1566,328459,"2008-10-16 10:43:00",359077,24,565,"Once again you cant refute the facts so use evasive action.
This from someone who pasted a link to youtube as evidence.",359076,10,8094,1,"More gibberish ...as usual.

By that responce even you apparently agree that Mr. Johnson is not qualified. Thank you for proving that Simone has a valid point emoticonXGood
Next time answer Simone's question directly by posting how you think Mr. Johnson is qualified, instead of weaseling out of answering it ;)","http://www.4forums.com/political/abortion-debates/11563-watch-out-abortion-lovers-here-comes-governor-palin.html",328455,566
"1-8094_567_566_10",8094,1,"2008-10-16 18:07:00",1566,746,328543,"2008-10-16 10:50:00",359078,100,566,"No, this is someone who pasted a link to youtube to show a clip from a medical show. Nothing more, nothing less. How you interpret something in your twisted mind is your own fault. We never said it was evidence as we already proved our point via medial references. I feel sorry for you gansao. You will grow up one day and become a very bitter and limited adult. Try and educate yourself with independent sources if you are interested in leading a full and truthful life. Just a suggestion ;)",359077,10,8094,1,"Once again you cant refute the facts so use evasive action.
This from someone who pasted a link to youtube as evidence.","http://www.4forums.com/political/abortion-debates/11563-watch-out-abortion-lovers-here-comes-governor-palin.html",328459,567
"1-8094_575_567_10",8094,1,"2008-10-17 09:54:00",746,1566,328626,"2008-10-16 18:07:00",359086,100,567,"Please provide academic qualifications of everyone who contributed to the video, how far they proceeded in their education, if they've written any papers, what their peers think of them as professionals.
You posted a link to that video as EVIDENCE to your ridiculous belief of unborn babies = parasites.
It appears that YOU have grown up to be maybe a bitter and certainly a limited adult so thank you for that warning
Please dont feel sorry for me because I do not feel sorry for you , a little contempt maybe but sorry no:)",359078,10,8094,1,"No, this is someone who pasted a link to youtube to show a clip from a medical show. Nothing more, nothing less. How you interpret something in your twisted mind is your own fault. We never said it was evidence as we already proved our point via medial references. I feel sorry for you gansao. You will grow up one day and become a very bitter and limited adult. Try and educate yourself with independent sources if you are interested in leading a full and truthful life. Just a suggestion ;)","http://www.4forums.com/political/abortion-debates/11563-watch-out-abortion-lovers-here-comes-governor-palin.html",328543,575
"1-8094_589_588_11",8094,1,"2009-02-28 21:20:00",759,1566,345498,"2009-02-28 21:09:00",359100,73,588,"Thanks for being such a great foil for my Views Colonel D. Ingus!
I'm so glad that you have been on these forums a lot longer than I have,... else some would probably wonder if I had just created your profile to contrast my points against in the threads.
Why haven't you taken my poll yet (on when life begins?)
Sleep Happens!
Nite.
emoticonXBye",359099,11,8094,1,"I am not a lemming, so I don't follow lemmings like you appearently do. 
A red herring is a red herring, no matter how many colors you post it in emoticonXIdea

NO! That would be absolutely asinine emoticonXRolleyes
Cells do not have rights. Earth to chuz, the constitution was not written for cells emoticonXRolleyes","http://www.4forums.com/political/abortion-debates/11563-watch-out-abortion-lovers-here-comes-governor-palin.html",345497,589
"1-8094_590_589_11",8094,1,"2009-02-28 21:35:00",1566,759,345499,"2009-02-28 21:20:00",359101,38,589,"OH, OK, if you say so then I guess it must be true emoticonXRolleyes Let me know when you grow up and become an adult.
BTW - does your ego ever take a break?",359100,11,8094,1,"Thanks for being such a great foil for my Views Colonel D. Ingus!
I'm so glad that you have been on these forums a lot longer than I have,... else some would probably wonder if I had just created your profile to contrast my points against in the threads.
Why haven't you taken my poll yet (on when life begins?)
Sleep Happens!
Nite.
emoticonXBye","http://www.4forums.com/political/abortion-debates/11563-watch-out-abortion-lovers-here-comes-governor-palin.html",345498,590
"1-8094_591_590_11",8094,1,"2009-02-28 21:46:00",759,1566,345500,"2009-02-28 21:35:00",359102,61,590,"Newsflash for ya, Colonel,... I don't consider my own ego, nor my political enemies perception of it. Ever.
But with exchanges like this;


How can I help but feel good about myself just a little?
After all, in my view,... babies lives are at stake in this. Litterally!",359101,11,8094,1,"... BTW - does your ego ever take a break?","http://www.4forums.com/political/abortion-debates/11563-watch-out-abortion-lovers-here-comes-governor-palin.html",345499,591
"1-8094_592_591_11",8094,1,"2009-02-28 22:08:00",1566,759,345503,"2009-02-28 21:46:00",359103,63,591,"YOU don't have to consider it. It's obvious you're ego dictates your responses emoticonXBye

What you do with yourself on your own free time is your own business. Just make sure you wash your hands afterward.

LOL :p No one here is talking about infanticide! But then anti-choicers aren't educated enough about this topic to realize that fact emoticonXRolleyes",359102,11,8094,1,"Newsflash for ya, Colonel,... I don't consider my own ego, nor my political enemies perception of it. Ever.
But with exchanges like this;


How can I help but feel good about myself just a little?
After all, in my view,... babies lives are at stake in this. Litterally!","http://www.4forums.com/political/abortion-debates/11563-watch-out-abortion-lovers-here-comes-governor-palin.html",345500,592
"1-8094_593_592_11",8094,1,"2009-02-28 22:24:00",759,1566,345504,"2009-02-28 22:08:00",359104,61,592,"Baby;
4. an unborn child; a human fetus; ""I felt healthy and very feminine carrying the baby""; ""it was great to feel my baby moving about inside"" -- Princeton University.
I said that Babies lives were on the line. 
(and they clearly are)
I didn't say where.",359103,11,8094,1,":p No one here is talking aboutinfanticide! But then anti-choicers aren't educated enough about this topic to realize that fact emoticonXRolleyes","http://www.4forums.com/political/abortion-debates/11563-watch-out-abortion-lovers-here-comes-governor-palin.html",345503,593
"1-8094_465_462_12",8094,1,"2008-10-05 10:42:00",1566,1461,326415,"2008-10-02 10:27:00",358976,29,462,"What is even more hypocritical is that if the woman dies while giving birth to this unwanted ZEF, that it is not held accountable for her murder!",358973,12,8094,1,"I just find it hypocritical that if I punch a pregant woman in the stomach and she misscarries I murdered someone while if she got an abortion its a-ok. Like huh? Is it a human or not people! Everyone who hits pregant people should be charged with assualt not murder if the fetus dies its a fetus not a person after all! emoticonXBanghead Hypocritcal judges.","http://www.4forums.com/political/abortion-debates/11563-watch-out-abortion-lovers-here-comes-governor-palin.html",326010,465
"1-8094_467_465_12",8094,1,"2008-10-07 10:10:00",1461,1566,326638,"2008-10-05 10:42:00",358978,132,465,"*facepalms* I highly doubt the ZEF wanted its source of food and shelter dead. Heck using that arguement I can blame the mother for her body not being fit enough to carry a child to term if she miscarries. Therefore by not keeping herself healthy she killed the ZEF. 
Ugh...I'm pro-choice but some of choicers arguements make me disgusted. ZEF's don't count as being human (unless of course someone other than a licensed physican with the apporval of the mother kills it :roll eyes: That makes buckets of sense) and no person under the age of 7 can be tried for murder anyway. >_> 
What's next we start sending little kids who steal candy from the store to jail?",358976,12,8094,1,"What is even more hypocritical is that if the woman dies while giving birth to this unwanted ZEF, that it is not held accountable for her murder!","http://www.4forums.com/political/abortion-debates/11563-watch-out-abortion-lovers-here-comes-governor-palin.html",326415,467
"1-8094_469_467_12",8094,1,"2008-10-07 10:51:00",1566,1461,326660,"2008-10-07 10:10:00",358980,82,467,"So then you admit that the ZEF was manipulating ""its source of food and shelter"" for its own good, which is exactly what a parasite does. Weird. BTW-many parasites kill their host.

Sorry, try again. First of all it's HER body, and therefore her property and she can do with it as she pleases. Second of all that's not why women have miscarriages emoticonXRolleyes

Criminally negligent homicide works just as well emoticonXGood",358978,12,8094,1,"*facepalms* I highly doubt the ZEF wanted its source of food and shelter dead. Heck using that arguement I can blame the mother for her body not being fit enough to carry a child to term if she miscarries. Therefore by not keeping herself healthy she killed the ZEF. 
Ugh...I'm pro-choice but some of choicers arguements make me disgusted. ZEF's don't count as being human (unless of course someone other than a licensed physican with the apporval of the mother kills it :roll eyes: That makes buckets of sense) and no person under the age of 7 can be tried for murder anyway. >_> 
What's next we start sending little kids who steal candy from the store to jail?","http://www.4forums.com/political/abortion-debates/11563-watch-out-abortion-lovers-here-comes-governor-palin.html",326638,469
"1-8094_470_469_12",8094,1,"2008-10-07 11:01:00",1461,1566,326663,"2008-10-07 10:51:00",358981,121,469,"And last I checked the ZEF didn't kill the woman because it wanted too. >_> And most human beings can argueably be considered parasites anyway. 
Ugh nevermind you think the ZEF is some alien life form that should either have all or no human rights. 
I agree. Its an object. So if I kill it I assaulted the woman nothing more nothing less. There is no mother right to choose to get rid of her offspring its a mother's choice to get rid of something growing inside of her. And if I make that choice for her I simply attacked her body I didn't kill anyone. ^_^ There's no one to kill.",358980,12,8094,1,"So then you admit that the ZEF was manipulating ""its source of food and shelter"" for its own good, which is exactly what a parasite does. Weird. BTW-many parasites kill their host.

Sorry, try again. First of all it's HER body, and therefore her property and she can do with it as she pleases. Second of all that's not why women have miscarriages emoticonXRolleyes

Criminally negligent homicide works just as well emoticonXGood","http://www.4forums.com/political/abortion-debates/11563-watch-out-abortion-lovers-here-comes-governor-palin.html",326660,470
"1-8094_472_470_12",8094,1,"2008-10-07 22:48:00",1566,1461,326779,"2008-10-07 11:01:00",358983,96,470,"Tell that to the dead pregnant woman emoticonXRolleyes
BTW-a study in the Journal of the American Medical Association showed that a pregnant woman is more likely to be a victim of homicide than to die of any other cause. One of many reasons that I could understand why a pregnant woman - wouldn't want to be pregnant anymore emoticonXIdea

If by alien you mean illegal alien :p
I would rather give rights to an alien life form, then to a ZEF. At least it isn't leeching off the woman against her will ;)",358981,12,8094,1,"And last I checked the ZEF didn't kill the woman because it wanted too. >_> And most human beings can argueably be considered parasites anyway. 
Ugh nevermind you think the ZEF is some alien life form that should either have all or no human rights. 
I agree. Its an object. So if I kill it I assaulted the woman nothing more nothing less. There is no mother right to choose to get rid of her offspring its a mother's choice to get rid of something growing inside of her. And if I make that choice for her I simply attacked her body I didn't kill anyone. ^_^ There's no one to kill.","http://www.4forums.com/political/abortion-debates/11563-watch-out-abortion-lovers-here-comes-governor-palin.html",326663,472
