"key","quote_source_post_discussion_id","posts_dataset_id","posts_timestamp","posts_author_id","quote_source_author_id","posts_native_post_id","quote_source_timestamp","post_text_id","Word_Count","quote_source_post_id","post_text","quote_source_text_id","Dialog_Turn","posts_discussion_id","quote_source_post_dataset_id","Fullquote_text","discussion_url","quote_source_native_post_id","posts_post_id"
"1-8393_53_49_1",8393,1,"2008-11-25 10:53:00",492,176,334239,"2008-11-24 20:59:00",370592,23,49,"You think GAMETES are living human organisms? You get an ""F"" in biology, shutterbug; stick to Papparazzi.",370588,1,8393,1,"They themselves are human life. They are alive, and the contain human DNA. That's all you lifers need.

Again, a great retort from DR! Wow, you got me there.","http://www.4forums.com/political/abortion-debates/12001-abortion-right-right-now.html",334173,53
"1-8393_55_53_1",8393,1,"2008-11-25 15:26:00",176,492,334269,"2008-11-25 10:53:00",370594,33,53,"You think cells aren't alive? Looks like my photographic ability is not the only thing you're wrong about.

There's no point in debating two ninnies who lack basic biological knowledge.",370592,1,8393,1,"You think GAMETES are living human organisms? You get an ""F"" in biology, shutterbug; stick to Papparazzi.","http://www.4forums.com/political/abortion-debates/12001-abortion-right-right-now.html",334239,55
"1-8393_61_55_1",8393,1,"2008-11-25 19:45:00",492,176,334312,"2008-11-25 15:26:00",370600,94,55,"Oh really? According to the laws of biology, living things: 


1. Exist at the Cellular level
2. Are organized in their structure
3. Use energy
4. Grow and develop
5. Have specialized tissues
6. Regenerate
7. Are autonomous, not part of something else, and
8. Maintain homeostasis
While gametes are somewhat organized and use energy, they fail of the remaining 6 factors.
They are not even life, let alone living human beings.
Seems YOU'RE the ninny.",370594,1,8393,1,"You think cells aren't alive? Looks like my photographic ability is not the only thing you're wrong about.

There's no point in debating two ninnies who lack basic biological knowledge.","http://www.4forums.com/political/abortion-debates/12001-abortion-right-right-now.html",334269,61
"1-8393_64_61_1",8393,1,"2008-11-25 21:26:00",176,492,334325,"2008-11-25 19:45:00",370603,66,61,"And saying this, you are aware that sperm are one celled organisms?
And where did you get those criteria? A fetus surely isn't organized. As far as I know, the only criteria of life sperm does not meet is the ability to reproduce. Disqualifying it as life based on that is as ridiculous as disqualifying infertile humans as alive.",370600,1,8393,1,"Oh really? According to the laws of biology, living things:


1. Exist at the Cellular level
2. Are organized in their structure
3. Use energy
4. Grow and develop
5. Have specialized tissues
6. Regenerate
7. Are autonomous, not part of something else, and
8. Maintain homeostasis","http://www.4forums.com/political/abortion-debates/12001-abortion-right-right-now.html",334312,64
"1-8393_65_64_1",8393,1,"2008-11-26 00:26:00",492,176,334331,"2008-11-25 21:26:00",370604,89,64,"NO, they are NOT organisms. 
They are GAMETES-- and gametes are not organisms; rather, they combine to CREATE organisms.

College biology class-- unlike you.

An AMOEBA is organized. 

""As far as YOU know,"" is a pretty short trip.

Nice to know your two-cents' worth, which still leaves change one can rub together. I'm sure the entire field of biology will be thrilled at your breakthrough announcement, waiting with baited breath *GUFFAW*",370603,1,8393,1,"And saying this, you are aware that sperm are one celled organisms?
And where did you get those criteria? A fetus surely isn't organized. As far as I know, the only criteria of life sperm does not meet is the ability to reproduce. Disqualifying it as life based on that is as ridiculous as disqualifying infertile humans as alive.","http://www.4forums.com/political/abortion-debates/12001-abortion-right-right-now.html",334325,65
"1-8393_69_65_1",8393,1,"2008-11-26 06:48:00",176,492,334348,"2008-11-26 00:26:00",370608,153,65,"They are Gametes, but this does not disqualify them as organisms. They are made up of one cell, and they have one purpose.

Lemme guess. Prestigious Christian college where they teach you about how the world was created 6,000 years ago and everything revolves around the earth?

I'm not quite sure what you mean by organized. If you mean organized socially, then June bugs would be disqualified as organisms.

By now I can tell that your opinion of your own intelligence is great enough to build a statue.

Sperm - Wikipedia, the free encyclopedia
""The term sperm is derived from the Greek word (σπέρμα) sperma (meaning ""seed"") and refers to the male reproductive cells.""
Looks like someone beat me to it.",370604,1,8393,1,"NO, they are NOT organisms.
They are GAMETES-- and gametes are not organisms; rather, they combine to CREATE organisms.","http://www.4forums.com/political/abortion-debates/12001-abortion-right-right-now.html",334331,69
"1-8393_70_69_1",8393,1,"2008-11-26 07:56:00",492,176,334357,"2008-11-26 06:48:00",370609,94,69,"Er, nope. Gametes aren't organisms; whatever legend you are in your own mind, the field of biology says diffo.

No, actually they taught the state-of-the-art field of BIOLOGY-- which again, does NOT include gametes as organisms.

Yeah, sure. That's what I meant, organized socially. Gotcha. Not ""organized,"" as in the sense of having ORGANS.

At least I know that GAMETES ARE NOT ORGANISMS-- which puts me above you.

STILL doesn't make them organisms.",370608,1,8393,1,"They are Gametes, but this does not disqualify them as organisms. They are made up of one cell, and they have one purpose.

Lemme guess. Prestigious Christian college where they teach you about how the world was created 6,000 years ago and everything revolves around the earth?

I'm not quite sure what you mean by organized. If you mean organized socially, then June bugs would be disqualified as organisms.

By now I can tell that your opinion of your own intelligence is great enough to build a statue.

Sperm - Wikipedia, the free encyclopedia
""The term sperm is derived from the Greek word (σπέρμα) sperma (meaning ""seed"") and refers to the male reproductive cells.""
Looks like someone beat me to it.","http://www.4forums.com/political/abortion-debates/12001-abortion-right-right-now.html",334348,70
"1-8393_74_70_1",8393,1,"2008-11-26 15:38:00",176,492,334450,"2008-11-26 07:56:00",370613,65,70,"Not according to biologists in this solar system.

Right, and I'm sure you learned how wrong Copernicus and Galileo were as well.

Lemme put this in simple terms.
Sperm=Cells Cells have organelles. Done.

If that were true then I would have to have the biological knowledge of a fetus.

Cells aren't organisms? Since when?",370609,1,8393,1,"Er, nope. Gametes aren't organisms; whatever legend you are in your own mind, the field of biology says diffo.

No, actually they taught the state-of-the-art field of BIOLOGY-- which again, does NOT include gametes as organisms.

Yeah, sure. That's what I meant, organized socially. Gotcha. Not ""organized,"" as in the sense of having ORGANS.

At least I know that GAMETES ARE NOT ORGANISMS-- which puts me above you.

STILL doesn't make them organisms.","http://www.4forums.com/political/abortion-debates/12001-abortion-right-right-now.html",334357,74
"1-8393_33_25_2",8393,1,"2008-11-23 16:05:00",742,176,333968,"2008-11-23 10:26:00",370572,141,25,"It was a simplistic anedote... but since you cannit even get that, why bother.

Sperm in and among itself is not an issue, niether is the egg. I noted that and made it abundantly clear that it isnot until those to come together that we have the orgins of human life, which deserves to pretected from the behavior police.

No, that anolgy was highly accurate to the point... you have no cake without all the developing stages that bring the mixture to the point where it cane become cake, parsing it won't help you... for the love of pete, trying being honest.

Oh, well I guess you're not into parsing what constitues dessert... at any stage.

Well... you said it, not me.",370564,2,8393,1,"Maybe not, but again, wheat IS NOT TOAST, and should not be treated as such.

Then every sperm is sacred, huh?

You miss the point. Cake batter IS NOT CAKE. Period. What you're proposing is we take a big ball of cake batter, smother it in frosting, and serve it at a child's birthday party.
It is not cake, and most definitely should not be treated as such.

How many fairies can dance on the head of a pin?

Lemme go grab a copy of Harry Potter and start quoting it.

Once you provide solid proof of that bible quote and the truth of the bible I'd be happy to oblige.","http://www.4forums.com/political/abortion-debates/12001-abortion-right-right-now.html",333929,33
"1-8393_36_33_2",8393,1,"2008-11-23 19:43:00",176,742,334001,"2008-11-23 16:05:00",370575,99,33,"You are correct. Why bother making lame analogies?

Why do you believe that a mixture of sperm and egg is more deserving of rights than both separately?

You still miss the point. There are many things needed to produce a human, just like there are many things needed to produce cake. Without sex, there can be no human, yet you do not legislate a certain number of times a couple must have sex. Why is that?

emoticonXBanghead

Only a fool would claim that I posted a bible quote.",370572,2,8393,1,"It was a simplistic anedote... but since you cannit even get that, why bother.

Sperm in and among itself is not an issue, niether is the egg. I noted that and made it abundantly clear that it isnot until those to come together that we have the orgins of human life, which deserves to pretected from the behavior police.

No, that anolgy was highly accurate to the point... you have no cake without all the developing stages that bring the mixture to the point where it cane become cake, parsing it won't help you... for the love of pete, trying being honest.

Oh, well I guess you're not into parsing what constitues dessert... at any stage.

Well... you said it, not me.","http://www.4forums.com/political/abortion-debates/12001-abortion-right-right-now.html",333968,36
"1-8393_40_36_2",8393,1,"2008-11-24 12:57:00",742,176,334098,"2008-11-23 19:43:00",370579,96,36,"Because even simplicity escapes you.

Why do you ignore the fact that is the begining of life and is deserving of protection from bad judgement errors?

I am not missing any point... you keep dodging the point, and think splitting hairs is an actual argument. The last part of your comment simply made no sense at all... and don't know where you were trying to go with that?

emoticonXDonno

We can all have faith and hope for the best for you, but I never said you did.",370575,2,8393,1,"You are correct. Why bother making lame analogies?

Why do you believe that a mixture of sperm and egg is more deserving of rights than both separately?

You still miss the point. There are many things needed to produce a human, just like there are many things needed to produce cake. Without sex, there can be no human, yet you do not legislate a certain number of times a couple must have sex. Why is that?

emoticonXBanghead

Only a fool would claim that I posted a bible quote.","http://www.4forums.com/political/abortion-debates/12001-abortion-right-right-now.html",334001,40
"1-8393_46_40_2",8393,1,"2008-11-24 16:10:00",176,742,334150,"2008-11-24 12:57:00",370585,81,40,"[QUOTE=Darn Republican;334098]Because even simplicity escapes you.[/quotes]
If that's your idea of simplicity then I guess you're correct.

Why aren't sperm? They're alive.

DR's logic at its best here. When I can't understand something he said, ""simplicity escapes me"", but when he can't understand something I said, it ""makes no sense"".

Talk about not making any sense...",370579,2,8393,1,"Because even simplicity escapes you.

Why do you ignore the fact that is the begining of life and is deserving of protection from bad judgement errors?

I am not missing any point... you keep dodging the point, and think splitting hairs is an actual argument. The last part of your comment simply made no sense at all... and don't know where you were trying to go with that?

emoticonXDonno

We can all have faith and hope for the best for you, but I never said you did.","http://www.4forums.com/political/abortion-debates/12001-abortion-right-right-now.html",334098,46
"1-8393_48_46_2",8393,1,"2008-11-24 19:13:00",742,176,334169,"2008-11-24 16:10:00",370587,56,46,"True... Yeeeeah, you get a cookie today! But they in themselves cannot produce human life. Niether can the egg from the woman.

Because you can't expect a reasonble mind to keep a straight face with the ""logic"" you present... and I just tell it like it is.",370585,2,8393,1,"[QUOTE=Darn Republican;334098]Because even simplicity escapes you.[/quotes]
If that's your idea of simplicity then I guess you're correct.

Why aren't sperm? They're alive.

DR's logic at its best here. When I can't understand something he said, ""simplicity escapes me"", but when he can't understand something I said, it ""makes no sense"".

Talk about not making any sense...","http://www.4forums.com/political/abortion-debates/12001-abortion-right-right-now.html",334150,48
"1-8393_49_48_2",8393,1,"2008-11-24 20:59:00",176,742,334173,"2008-11-24 19:13:00",370588,37,48,"They themselves are human life. They are alive, and the contain human DNA. That's all you lifers need.

Again, a great retort from DR! Wow, you got me there.",370587,2,8393,1,"True... Yeeeeah, you get a cookie today! But they in themselves cannot produce human life. Niether can the egg from the woman.

Because you can't expect a reasonble mind to keep a straight face with the ""logic"" you present... and I just tell it like it is.","http://www.4forums.com/political/abortion-debates/12001-abortion-right-right-now.html",334169,49
"1-8393_50_49_2",8393,1,"2008-11-25 05:58:00",742,176,334185,"2008-11-24 20:59:00",370589,46,49,"Ok, and your point is? If you are insinuating [in your typical jocular, immature disposition] that sperm cells need to be protected themselves... you are being facetious.

Present something people can take serious... other than your feelings.",370588,2,8393,1,"They themselves are human life. They are alive, and the contain human DNA. That's all you lifers need.

Again, a great retort from DR! Wow, you got me there.","http://www.4forums.com/political/abortion-debates/12001-abortion-right-right-now.html",334173,50
"1-8393_56_50_2",8393,1,"2008-11-25 15:28:00",176,742,334270,"2008-11-25 05:58:00",370595,26,50,"What makes a zygote more deserving than a sperm cell?

You don't say!

Thank you for summing up my opinions on your comments.",370589,2,8393,1,"Ok, and your point is? If you are insinuating [in your typical jocular, immature disposition] that sperm cells need to be protected themselves... you are being facetious.

Present something people can take serious... other than your feelings.","http://www.4forums.com/political/abortion-debates/12001-abortion-right-right-now.html",334185,56
"1-8393_58_56_2",8393,1,"2008-11-25 19:25:00",742,176,334305,"2008-11-25 15:28:00",370597,33,56,"I'll tell you this, the zygote is looking smarter than you everytime you open your mouth - at least it doesn't question the obvious. A sperm hasn't itself fertilized anything...",370595,2,8393,1,"What makes a zygote more deserving than a sperm cell?

You don't say!

Thank you for summing up my opinions on your comments.","http://www.4forums.com/political/abortion-debates/12001-abortion-right-right-now.html",334270,58
"1-8393_62_58_2",8393,1,"2008-11-25 21:20:00",176,742,334323,"2008-11-25 19:25:00",370601,29,58,"If you had the intelligence of at least a zygote you'd realize that not once have I opened my mouth while typing.

And why is fertilization significant?",370597,2,8393,1,"I'll tell you this, the zygote is looking smarter than you everytime you open your mouth - at least it doesn't question the obvious. A sperm hasn't itself fertilized anything...","http://www.4forums.com/political/abortion-debates/12001-abortion-right-right-now.html",334305,62
"1-8393_67_62_2",8393,1,"2008-11-26 06:02:00",742,176,334342,"2008-11-25 21:20:00",370606,55,62,"You know what I meant... it was an expression. But I really don't need to know if your mouth was open or not, way too much information.

You're joking right? Fertilization is the catalyst for the beginning of human life, but you of course knew this.... rrrrrright?",370601,2,8393,1,"If you had the intelligence of at least a zygote you'd realize that not once have I opened my mouth while typing.

And why is fertilization significant?","http://www.4forums.com/political/abortion-debates/12001-abortion-right-right-now.html",334323,67
"1-8393_26_25_3",8393,1,"2008-11-23 12:34:00",931,176,333935,"2008-11-23 10:26:00",370565,69,25,"The problem with the analogy is that the embryo is a developing human being, just as an infant is a developing human being. This cannot be said of fingernails, hairs, tumors, or even sperm. There is a clear and unmistakable difference between a human embryo and human hair, and to fail to acknowledge that is a gigantic mistake in this debate.",370564,3,8393,1,"Maybe not, but again, wheat IS NOT TOAST, and should not be treated as such.

Then every sperm is sacred, huh?

You miss the point. Cake batter IS NOT CAKE. Period. What you're proposing is we take a big ball of cake batter, smother it in frosting, and serve it at a child's birthday party.
It is not cake, and most definitely should not be treated as such.

How many fairies can dance on the head of a pin?

Lemme go grab a copy of Harry Potter and start quoting it.

Once you provide solid proof of that bible quote and the truth of the bible I'd be happy to oblige.","http://www.4forums.com/political/abortion-debates/12001-abortion-right-right-now.html",333929,26
"1-8393_27_26_3",8393,1,"2008-11-23 13:45:00",176,931,333942,"2008-11-23 12:34:00",370566,77,26,"No, the infant is a human being. It may still be growing, but that has nothing to do with being human or not. A baby and an adult are simply different. The baby is not any less than the adult.

The fingernails etc. have one major similarity; they do not mentally exist. While there may be physical differences between hair and an embryo, mentally there is not.",370565,3,8393,1,"The problem with the analogy is that the embryo is a developing human being, just as an infant is a developing human being. This cannot be said of fingernails, hairs, tumors, or even sperm. There is a clear and unmistakable difference between a human embryo and human hair, and to fail to acknowledge that is a gigantic mistake in this debate.","http://www.4forums.com/political/abortion-debates/12001-abortion-right-right-now.html",333935,27
"1-8393_28_27_3",8393,1,"2008-11-23 13:56:00",931,176,333948,"2008-11-23 13:45:00",370567,77,27,"The infant is a human being at a particular stage of development, just as a human embryo is a human being at a particular stage of development. This is confirmed by science, as has been pointed out in this forum multiple times (e.g., here, and here), and has conveniently been glossed over by many of those who claim to base their view on science.

Whatever that means.",370566,3,8393,1,"No, the infant is a human being. It may still be growing, but that has nothing to do with being human or not. A baby and an adult are simply different. The baby is not any less than the adult.

The fingernails etc. have one major similarity; they do not mentally exist. While there may be physical differences between hair and an embryo, mentally there is not.","http://www.4forums.com/political/abortion-debates/12001-abortion-right-right-now.html",333942,28
"1-8393_31_28_3",8393,1,"2008-11-23 15:36:00",176,931,333961,"2008-11-23 13:56:00",370570,121,28,"It is a human body in development, not a human being. The term ""human being"" contains the word ""being"" which implies that someone ""is"" or exists mentally. Don't get them confused.

I don't know how much clearer I can be. A fetus, just like a fingernail, does not exist mentally. There is no person inside of a fetus, just as there is no person inside of a fingernail.

I would think it would be quite obvious. No person exists inside the fetus, and since no person exists, there can be no person. This isn't a deep and complicated philosophical question.",370567,3,8393,1,"The infant is a human beingat a particular stage of development, just as a human embryo is a human being at a particular stage of development. This is confirmed by science, as has been pointed out in this forum multiple times (e.g., here, and here), and has conveniently been glossed over by many of those who claim to base their view on science.","http://www.4forums.com/political/abortion-debates/12001-abortion-right-right-now.html",333948,31
"1-8393_32_31_3",8393,1,"2008-11-23 15:42:00",931,176,333963,"2008-11-23 15:36:00",370571,81,31,"I am not getting them confused; I am merely using the scientific definition. I might add that science does not denote a human embryo as ""a human body in development."" No, science says, ""A zygote is the beginning of a new human being (i.e., an embryo)."" Thus, if I am confused, it is only because I stubbornly refuse to ignore what science has to say.",370570,3,8393,1,"It is a human body in development, not a human being. The term ""human being"" contains the word ""being"" which implies that someone ""is"" or exists mentally. Don't get them confused.

I don't know how much clearer I can be. A fetus, just like a fingernail, does not exist mentally. There is no person inside of a fetus, just as there is no person inside of a fingernail.

I would think it would be quite obvious. No person exists inside the fetus, and since no person exists, there can be no person. This isn't a deep and complicated philosophical question.","http://www.4forums.com/political/abortion-debates/12001-abortion-right-right-now.html",333961,32
"1-8393_35_32_3",8393,1,"2008-11-23 19:40:00",176,931,334000,"2008-11-23 15:42:00",370574,30,32,"Science says it does not possess a mental existence. That's all I need to know. They call it a fetus and not a kid for a reason.",370571,3,8393,1,"I am not getting them confused; I am merely using the scientific definition. I might add that science does not denote a human embryo as ""a human body in development."" No, science says, ""A zygote is the beginning of a new human being (i.e., an embryo)."" Thus, if I am confused, it is only because I stubbornly refuse to ignore what science has to say.","http://www.4forums.com/political/abortion-debates/12001-abortion-right-right-now.html",333963,35
