"key","quote_source_post_discussion_id","posts_dataset_id","posts_timestamp","posts_author_id","quote_source_author_id","posts_native_post_id","quote_source_timestamp","post_text_id","Word_Count","quote_source_post_id","post_text","quote_source_text_id","Dialog_Turn","posts_discussion_id","quote_source_post_dataset_id","Fullquote_text","discussion_url","quote_source_native_post_id","posts_post_id"
"1-8582_53_50_1",8582,1,"2009-03-20 14:20:00",164,51,347664,"2009-03-20 12:32:00",382883,51,50,"Still dancing around the most crucial question of the whole debate, we see.:(
Why do you and others refuse to answer it?
I think we know, but your answer would cause your whole house of cards to come tumbling down, and you know it.",382880,1,8582,1,"And I never did. A word is just a word but words have meaning. When I look at my cat I can't go around say ""this is my dog don't push your morality on me because of word usage"". That is a stupid and so is saying I can't use the term ""human being"" to describe a human fetus. You clearly can and people do.","http://www.4forums.com/political/abortion-debates/12293-abortion-new-way-control.html",347654,53
"1-8582_55_53_1",8582,1,"2009-03-20 17:58:00",51,164,347674,"2009-03-20 14:20:00",382885,15,53,"No one asked a question and you are just wrong here..as normal.",382883,1,8582,1,"Still dancing around the most crucial question of the whole debate, we see.:(
Why do you and others refuse to answer it?
I think we know, but your answer would cause your whole house of cards to come tumbling down, and you know it.","http://www.4forums.com/political/abortion-debates/12293-abortion-new-way-control.html",347664,55
"1-8582_56_55_1",8582,1,"2009-03-21 14:54:00",164,51,347744,"2009-03-20 17:58:00",382886,54,55,"How about you manning up and answering the question that none of you profetallifers want to touch.:(
Just so you can recognize it, here's the question: Who do you feeel is better equipped to determine the future of a woman's pregnancy - the government or the pregnant woman herself?",382885,1,8582,1,"No one asked a question and you are just wrong here..as normal.","http://www.4forums.com/political/abortion-debates/12293-abortion-new-way-control.html",347674,56
"1-8582_57_56_1",8582,1,"2009-03-21 17:06:00",51,164,347752,"2009-03-21 14:54:00",382887,46,56,"This is the most crucial question of the debate? Only you think this because not even many pro choicers do.
In any event the answer is the woman. Since this proves nothing I don't even see why you bother to post it.",382886,1,8582,1,"How about you manning up and answering the question that none of you profetallifers want to touch.:(
Just so you can recognize it, here's the question: Who do you feeel is better equipped to determine the future of a woman's pregnancy - the government or the pregnant woman herself?","http://www.4forums.com/political/abortion-debates/12293-abortion-new-way-control.html",347744,57
"1-8582_58_57_1",8582,1,"2009-03-21 18:07:00",164,51,347753,"2009-03-21 17:06:00",382888,98,57,"In fact it is the MOST crucial question on the forum.
If you doubt that, be prepared for the flak you will receive from those on your side whose fondest dream is to criminalize abortion.
You are, of course, correct, but not all on your side agree. They would substitute the judgment of the government for that of the pregnant woman, and one can only wonder why.
At any rate, with your answer as it is and as it should be, the debate is over.emoticonXGood",382887,1,8582,1,"This is the most crucial question of the debate? Only you think this because not even many pro choicers do.
In any event the answer is the woman. Since this proves nothing I don't even see why you bother to post it.","http://www.4forums.com/political/abortion-debates/12293-abortion-new-way-control.html",347752,58
"1-8582_59_58_1",8582,1,"2009-03-21 19:17:00",51,164,347756,"2009-03-21 18:07:00",382889,50,58,"No because determining the future of your pregnancy is irrelevant to abortion because abortion should be illegal. 

I think it should be criminalized. 

Probably for the same reason we don't have the government...in theory...run your life but we do put rules on it.",382888,1,8582,1,"In fact it is the MOST crucial question on the forum.
If you doubt that, be prepared for the flak you will receive from those on your side whose fondest dream is to criminalize abortion.
You are, of course, correct, but not all on your side agree. They would substitute the judgment of the government for that of the pregnant woman, and one can only wonder why.
At any rate, with your answer as it is and as it should be, the debate is over.emoticonXGood","http://www.4forums.com/political/abortion-debates/12293-abortion-new-way-control.html",347753,59
"1-8582_65_60_2",8582,1,"2009-03-23 08:42:00",51,164,347882,"2009-03-22 03:24:00",382895,62,60,"How is it a contradiction?
Let me ask you this rhetorically. Who is better to run your own life, the government or you?
If you say ""you"" than is there a contradiction if you support murder laws? 
I don't think so and since abortion is murder I don't see that as a contradiction. emoticonXHoho",382890,2,8582,1,"Steeeve,
In Post #57, you say that the one best able to determine the future of a woman's pregnancy is the woman herself. Your words were, ""This is the most crucial question of the debate? Only you think this because not even many pro choicers do.
In any event the answer is the woman [ who makes the choice].""
In Post #59, you say that abortion should be criminalized. Again, your words were, ""I think it [abortion] should be criminalized.""
I don't suppose you would care to resolve the blatant contradiction, would you?
Or do you really believe that an integer can be + and - simultaneously?","http://www.4forums.com/political/abortion-debates/12293-abortion-new-way-control.html",347767,65
"1-8582_66_65_2",8582,1,"2009-03-23 11:44:00",164,51,347893,"2009-03-23 08:42:00",382896,106,65,"It's a contradiction since you say that the pregnant woman should have the right to choose whether or not to continue her pregnancy but you permit the government to hold the hammer of a murder charge over her head if she makes a choice that the government disapproves of.
How is that NOT a contradiction?emoticonXBanghead
BTW, since in your mind abortion=murder, what penalty would you exact under the law and to whom should it be applied? 
The woman? 
The doctor? 
The person who drove the woman to the clinic (accessory before the fact)?",382895,2,8582,1,"How is it a contradiction?
Let me ask you this rhetorically. Who is better to run your own life, the government or you?
If you say ""you"" than is there a contradiction if you support murder laws? 
I don't think so and since abortion is murder I don't see that as a contradiction. emoticonXHoho","http://www.4forums.com/political/abortion-debates/12293-abortion-new-way-control.html",347882,66
"1-8582_67_66_2",8582,1,"2009-03-23 13:55:00",51,164,347902,"2009-03-23 11:44:00",382897,84,66,"No, I never said that. I said she is better ""to determine the future of a woman's pregnancy"". If by that you mean ""right to choose to continue the pregnancy"" than I would say if she chooses abortion than the government is better at determining the future of her pregnancy, otherwise the woman is. Perhaps you should be more clear in what you mean.

Do you purposely ignore everytime I answer this question?",382896,2,8582,1,"It's a contradiction since you say that the pregnant woman should have the right to choose whether or not to continue her pregnancy but you permit the government to hold the hammer of a murder charge over her head if she makes a choice that the government disapproves of.
How is that NOT a contradiction?emoticonXBanghead
BTW, since in your mind abortion=murder, what penalty would you exact under the law and to whom should it be applied? 
The woman? 
The doctor? 
The person who drove the woman to the clinic (accessory before the fact)?","http://www.4forums.com/political/abortion-debates/12293-abortion-new-way-control.html",347893,67
"1-8582_68_67_2",8582,1,"2009-03-23 14:16:00",164,51,347903,"2009-03-23 13:55:00",382898,116,67,"This is gibberish. 
It seems that you support the right of a woman to make only the governmentally-approved choice.emoticonXBanghead
This is, of course, no choice whatsoever.
Now, why not tell the forum just exactly WHY you think the government is ""the government is better at determining the future of her pregnancy.""
Why not tell the forum why you do not trust a woman's choice.
Why not tell us why you are so sure that the government to which today you would give the power to criminalize abortion may not at some time in the future be the same government which will require it.emoticonXMad",382897,2,8582,1,"No, I never said that. I said she is better ""to determine the future of a woman's pregnancy"". If by that you mean ""right to choose to continue the pregnancy"" than I would say if she chooses abortion than the government is better at determining the future of her pregnancy, otherwise the woman is. Perhaps you should be more clear in what you mean.

Do you purposely ignore everytime I answer this question?","http://www.4forums.com/political/abortion-debates/12293-abortion-new-way-control.html",347902,68
"1-8582_69_68_2",8582,1,"2009-03-23 18:16:00",51,164,347908,"2009-03-23 14:16:00",382899,65,68,"in the choice between killing the baby and not? Yes.

exactly.

I never said that. I said the government is better at determining you shouldn't kill your baby if you want to do that.

I make it a habit not to trust people who want to kill others. 

I suppose they could but I would vote against them.",382898,2,8582,1,"This is gibberish.
It seems that you support the right of a woman to make only the governmentally-approved choice.","http://www.4forums.com/political/abortion-debates/12293-abortion-new-way-control.html",347903,69
"1-8582_111_110_3",8582,1,"2009-03-26 11:27:00",51,164,348115,"2009-03-26 09:00:00",382941,21,110,"The 18th amendment did. 
Yet another thing you have gotten wrong. Good grief you are terrible at this.",382940,3,8582,1,"Translation: My responses were off the top of my head. I have not given sufficient thought to the issue to formulate a meaningful response.
Madam Empress, your new clothes are just stunning!

Yes, it took a long time to free the slaves. It took a long time to give women the vote. It took a long time to remove the poll tax. It took a long time to give 18-year olds the franchise.
What do these have in common?
They all increased individual freedom. Never has there been an Amendment passed which sought to limit freedom. 
The results last year from Colorado's proposed Amendment defining personhood ought to give you pause.emoticonXIdea

Sorry, but as the right wingnuts constantly remind us, this is a Constitutional Republic. there are ways that our elected representatives, should they choose, may remove certain topics from the Courts' jurisdiction.
In the interim, you simply have to accept that the SCOTUS is the final authority on what the Constitution means.
Once again, you blather on about a Constitutional Amendment - no matter how amorphous your thinking may be on what it actually might say.
Dream on. It's not going to happen.
I can recommend a good chiropractor. She might actually be able to get you out of the knots you have tied yourself into.:)","http://www.4forums.com/political/abortion-debates/12293-abortion-new-way-control.html",348105,111
"1-8582_112_111_3",8582,1,"2009-03-26 11:45:00",164,51,348117,"2009-03-26 11:27:00",382942,30,111,"And, just in case you haven't noticed, it was repealed by the 21st when the people realized that their freedom was being infringed upon.emoticonXBanghead
Next!!!",382941,3,8582,1,"The 18th amendment did. 
Yet another thing you have gotten wrong. Good grief you are terrible at this.","http://www.4forums.com/political/abortion-debates/12293-abortion-new-way-control.html",348115,112
"1-8582_115_112_3",8582,1,"2009-03-26 12:48:00",51,164,348120,"2009-03-26 11:45:00",382945,31,112,"It is still an adopted amendment...it doesn't go away and it was a ""passed amendment limiting individual freedom"". Proving beyond doubt that you are wrong.",382942,3,8582,1,"And, just in case you haven't noticed, it was repealed by the 21st when the people realized that their freedom was being infringed upon.emoticonXBanghead
Next!!!","http://www.4forums.com/political/abortion-debates/12293-abortion-new-way-control.html",348117,115
"1-8582_118_115_3",8582,1,"2009-03-26 13:17:00",164,51,348123,"2009-03-26 12:48:00",382948,20,115,"Wrong.
What it proves is that an Amendment purporting to limit freedom cannot stand against the people's will.",382945,3,8582,1,"It is still an adopted amendment...it doesn't go away and it was a ""passed amendment limiting individual freedom"". Proving beyond doubt that you are wrong.","http://www.4forums.com/political/abortion-debates/12293-abortion-new-way-control.html",348120,118
"1-8582_124_118_3",8582,1,"2009-03-26 15:21:00",51,164,348132,"2009-03-26 13:17:00",382954,68,118,"You are a LIAR. This is simple.
You said:
""Never has there been an Amendment passed which sought to limit freedom.""
The truth is there HAS been an amendment passed which DID limit freedom. You have been wrong close to a dozen times in this thread to the point where I doubt you are credible to even the pro-choice people.",382948,3,8582,1,"Wrong.
What it proves is that an Amendment purporting to limit freedom cannot stand against the people's will.","http://www.4forums.com/political/abortion-debates/12293-abortion-new-way-control.html",348123,124
"1-8582_19_18_4",8582,1,"2009-03-14 14:31:00",164,759,347050,"2009-03-14 13:14:00",382849,175,18,"You can believe that nonsense if you wish, but unless and until you become amember of the SCOTUS, you will jusat have to accept the law as written and as intrpreted by the Court.
BTW, in actuality, the Court made the correct decision.
Roe v. Wade is a model of judicial restraint.
Mr. Justice Blackmun states quite clearly that, in light of the multiple theories about when life begins, that the Court is not going to enshrine one above all the others. Instead, as he said, the choice was to be left to each individual woman.
BTW, you just tipped your hand.
You truly DO believe that the government is better able to determine the future of a woman's pregnancy than she herself is.
It is a absurd concept, but at least you were forthright enough to tell the forum that you support absurdity. 
Few before you have had the stones to do so.:(",382848,4,8582,1,"What about those of us who could give a emoticonXCensored less about the religious aspects,... but who see that elective abortion and the legality of it violates the spirit (if not the founders original intent) of the 5th and 14th Amendments to the Constitution?
What about us?","http://www.4forums.com/political/abortion-debates/12293-abortion-new-way-control.html",347048,19
"1-8582_20_19_4",8582,1,"2009-03-14 19:30:00",759,164,347062,"2009-03-14 14:31:00",382850,179,19,"1. Appeal to ridicule and probably a forum rules violation.
2. I have a 1st. Amendment right to speak, assemble and to petition the Government for redress... in any case where I disagree with a law. The laws regarding abortion included.
3. Opinion noted.
4. See #3
5. Blackmuns comments? 1973. Human genome project began 1990.QUOTE; ""The ethical, legal and social issues raised by the project are numerous and diverse in nature..."" In 1965, Dr. Leonard Hayflick discovered the biological mechanics for how a person's aging biologically begins at conception,... but the implications for that finding are only now being applied to the abortion issue. His findings (that life biologically begins at conception) were not presented in Roe v. Wade. Someday, a new SCOTUS will get the right case to consider new findings again.
6. Gross Mischaracterization and should be reported as such
7. See #6",382849,4,8582,1,"(1)You can believe that nonsense if you wish, but unless and until you become amember of the SCOTUS,(2) you will jusat have to accept the law as written and as intrpreted by the Court.
(3) BTW, in actuality, the Court made the correct decision.
(4) Roe v. Wade is a model of judicial restraint.
(5) Mr. Justice Blackmun states quite clearly that, in light of the multiple theories about when life begins, that the Court is not going to enshrine one above all the others. Instead, as he said, the choice was to be left to each individual woman.
BTW, you just tipped your hand.
(6) You truly DO believe that the government is better able to determine the future of a woman's pregnancy than she herself is. (7) It is a absurd concept, but at least you were forthright enough to tell the forum that you support absurdity. (8) Few before you have had the stones to do so.:(","http://www.4forums.com/political/abortion-debates/12293-abortion-new-way-control.html",347050,20
"1-8582_21_20_4",8582,1,"2009-03-15 03:48:00",164,759,347079,"2009-03-14 19:30:00",382851,102,20,"OK, if these are such gross mischaracterizations, then the only possible logical conclusion is that you support the right of a woman to choose the future of her pregnancy.
That makes you handle here only one of many choices, even if it is the one you prefer.
Sorry, but you can't have it both ways.
There are two and only two alternatives; either the woman has the autonomy to choose the future of her pregnancy, or the nanny state takes that choice from her.
Which more accurately sums up your POV?",382850,4,8582,1,"1. Appeal to ridicule and probably a forum rules violation.
2. I have a 1st. Amendment right to speak, assemble and to petition the Government for redress... in any case where I disagree with a law. The laws regarding abortion included.
3. Opinion noted.
4. See #3
5. Blackmuns comments? 1973. Human genome project began 1990.QUOTE; ""The ethical, legal and social issues raised by the project are numerous and diverse in nature..."" In 1965, Dr. Leonard Hayflick discovered the biological mechanics for how a person's aging biologically begins at conception,... but the implications for that finding are only now being applied to the abortion issue. His findings (that life biologically begins at conception) were not presented in Roe v. Wade. Someday, a new SCOTUS will get the right case to consider new findings again.
6. Gross Mischaracterization and should be reported as such
7. See #6","http://www.4forums.com/political/abortion-debates/12293-abortion-new-way-control.html",347062,21
"1-8582_22_21_4",8582,1,"2009-03-15 05:56:00",759,164,347088,"2009-03-15 03:48:00",382852,70,21,"This line of questioning is not only known as a ""Red Herring"" argument. It is also antithetical to the issue of ""when does a child's right to their life begin?""
A woman's rights do not take place in a vaccuum. Neither do a child's rights, by the way. Nobody's rights rights are as exclusive as you demand in your question.",382851,4,8582,1,"OK, if these are such gross mischaracterizations, then the only possible logical conclusion is that you support the right of a woman to choose the future of her pregnancy.
That makes you handle here only one of many choices, even if it is the one you prefer.
Sorry, but you can't have it both ways.
There are two and only two alternatives; either the woman has the autonomy to choose the future of her pregnancy, or the nanny state takes that choice from her.
Which more accurately sums up your POV?","http://www.4forums.com/political/abortion-debates/12293-abortion-new-way-control.html",347079,22
"1-8582_29_22_4",8582,1,"2009-03-15 14:57:00",164,759,347143,"2009-03-15 05:56:00",382859,94,22,"So then, how a bout a final, definitive statement on your part as a aresponse to the question.
For me, the answer is legally, morally, and ethically clear.
The rights of an actual person in being, i.e., the pregnant woman, trump the rights of a potential person, i.e., the fetus, every single time. 
If only any of you profetallifers would be so forthright.
Please do not hide behind the smokescreen of attacking my POV; tell us yours.",382852,4,8582,1,"This line of questioning is not only known as a ""Red Herring"" argument. It is also antithetical to the issue of ""when does a child's right to their life begin?""
A woman's rights do not take place in a vaccuum. Neither do a child's rights, by the way. Nobody's rights rights are as exclusive as you demand in your question.","http://www.4forums.com/political/abortion-debates/12293-abortion-new-way-control.html",347088,29
"1-8582_30_29_4",8582,1,"2009-03-15 15:47:00",759,164,347147,"2009-03-15 14:57:00",382860,32,29,"And when you recognize the fact that a human fetus is an actual ""person"" in the fetal stage of their life,... Your position will likely change accordingly.",382859,4,8582,1,"So then, how a bout a final, definitive statement on your part as a aresponse to the question.
For me, the answer is legally, morally, and ethically clear.
The rights of an actual person in being, i.e., the pregnant woman, trump the rights of a potential person, i.e., the fetus, every single time. 
If only any of you profetallifers would be so forthright.
Please do not hide behind the smokescreen of attacking my POV; tell us yours.","http://www.4forums.com/political/abortion-debates/12293-abortion-new-way-control.html",347143,30
"1-8582_31_30_4",8582,1,"2009-03-15 18:14:00",164,759,347161,"2009-03-15 15:47:00",382861,58,30,"Non-responsive, though I knew you would attack my POV instead of providing your answer.
Where is your opinion as to who is better able to determine the future of a woman's pregnancy, the woman herself or the nanny state?
Why do all you profetallifers run away and hide from that simple question?emoticonXBanghead",382860,4,8582,1,"And when you recognize the fact that a human fetus is an actual ""person"" in the fetal stage of their life,... Your position will likely change accordingly.","http://www.4forums.com/political/abortion-debates/12293-abortion-new-way-control.html",347147,31
"1-8582_82_81_5",8582,1,"2009-03-25 04:03:00",164,759,348013,"2009-03-24 21:04:00",382912,16,81,"Nice try at framing the question, but it's not a CHILD until it's born.",382911,5,8582,1,"But,... when a woman aborts her child,... who's blood does it bleed if not it's own? Who's life does it lose, if not his or her own?","http://www.4forums.com/political/abortion-debates/12293-abortion-new-way-control.html",348011,82
"1-8582_85_82_5",8582,1,"2009-03-25 05:18:00",759,164,348019,"2009-03-25 04:03:00",382915,23,82,"Did you not bother read the definition that was linked to?
Child; (noun)
4. a human fetus. ",382912,5,8582,1,"Nice try at framing the question, but it's not a CHILD until it's born.","http://www.4forums.com/political/abortion-debates/12293-abortion-new-way-control.html",348013,85
"1-8582_86_85_5",8582,1,"2009-03-25 05:39:00",164,759,348020,"2009-03-25 05:18:00",382916,88,85,"What part of fetus do you not understand?
Why did you need to go to definition #4 until you found one that met your rather strange preconceptions?
Do you and your ilk really believe that criminalizing abortions will end them?
Pass the mushrooms, please.
Now, at least Phyllis was courageous enogh to put her crackpot ""plan"" for ending abortion here for all to see.
What's your plan?
Spell it out in detail as she did, please.",382915,5,8582,1,"Did you not bother read the definition that was linked to?
Child; (noun)
4. a human fetus. ","http://www.4forums.com/political/abortion-debates/12293-abortion-new-way-control.html",348019,86
"1-8582_89_86_5",8582,1,"2009-03-25 06:21:00",759,164,348025,"2009-03-25 05:39:00",382919,128,86,"Chester, a human fetus is a child. Not because I say so,... but because it is so. Human beings don't morph out of one organism that is not a human being and into one that can't be denied. That the definition is number four is of no consequence to the fact that it is a valid use of the word to describe what a human fetus is. 
A child.
I don't have the time to detail a master plan for dealing with abortions, Chester. But I think we all can agree that children should have a right to their lives and that their rights to their lives should begin when their lives do.
Don't you agree?",382916,5,8582,1,"What part of fetus do you not understand?
Why did you need to go to definition #4 until you found one that met your rather strange preconceptions?
Do you and your ilk really believe that criminalizing abortions will end them?
Pass the mushrooms, please.
Now, at least Phyllis was courageous enogh to put her crackpot ""plan"" for ending abortion here for all to see.
What's your plan?
Spell it out in detail as she did, please.","http://www.4forums.com/political/abortion-debates/12293-abortion-new-way-control.html",348020,89
"1-8582_91_89_5",8582,1,"2009-03-25 09:23:00",164,759,348037,"2009-03-25 06:21:00",382921,66,89,"Translation: I don't have a plan. Therefore, all I can do is appeal to emotion.

I agree absolutely. So much so that I fully support the writers of the 14th Amendment which makes is clear that rights are conferred at birth, so much so that I fully support the rules of the census which counts only born persons.emoticonXAgree",382919,5,8582,1,"Chester, a human fetus is a child. Not because I say so,... but because it is so. Human beings don't morph out of one organism that is not a human being and into one that can't be denied. That the definition is number four is of no consequence to the fact that it is a valid use of the word to describe what a human fetus is. 
A child.
I don't have the time to detail a master plan for dealing with abortions, Chester. But I think we all can agree that children should have a right to their lives and that their rights to their lives should begin when their lives do.
Don't you agree?","http://www.4forums.com/political/abortion-debates/12293-abortion-new-way-control.html",348025,91
"1-8582_76_74_6",8582,1,"2009-03-24 17:08:00",931,164,347986,"2009-03-24 16:09:00",382906,44,74,"The system that I propose is a Constitutional amendment, which would clearly address this scenario.

And?

Though jurisdictions differ as to how they define the crime, this would generally not apply because involuntary manslaughter usually requires proof of recklessness.",382904,6,8582,1,"OK, let's assume for the sake of argument only, that the prosecutions for abortion are on a state-by-state basis. 
You may choose to ignore settled Constitutional law if you wish in this little fantasy game of yours.
Let us further assume that state ""A"" criminalizes abortion, complete with the Draconian punishment you propose.
Let us further assume that neighboring state ""B"" has no law prohibiting abortion.
Will the system you propose prevent women from state ""A"" from traveling to state ""B"" to have her abortion? 
If so, how?
The questions will just keep on coming until you are forced to admit the irrationality of your proposal.;)
BTW, have YOU ever drawn a jury from a pool of those summoned? 
I have.","http://www.4forums.com/political/abortion-debates/12293-abortion-new-way-control.html",347977,76
"1-8582_77_76_6",8582,1,"2009-03-24 18:21:00",164,931,347992,"2009-03-24 17:08:00",382907,169,76,"Really? What is its text, and how will you get around the Interstate Commerce Clause?

And there are limits on peremptory challenges, or have you not heard of Batson v. Kentucky. 
Plus which, why would any attorney want to set her/himself up for a successful appeal by trying to seat a hanging jury?
What will you do when you have used up your peremptories?
Do you seriously think any judge will accede to your demand that potential juror ""X"" be excluded on the basis that he is pro-choice? If you do, please pass the mushrooms.:)
Remember, we celebrate in this country the jury nullification that freed John Peter Zenger.

Wow, you are getting yourself in deeper and deeper.
Not only would you abolish abortion, but now you would restrict women's freedom to travel.
Isn't this fun?
I'm enjoying playing picador to your Jake LaMotta.",382906,6,8582,1,"The system that I propose is a Constitutional amendment, which would clearly address this scenario.

And?

Though jurisdictions differ as to how they define the crime, this would generally not apply because involuntary manslaughter usually requires proof of recklessness.","http://www.4forums.com/political/abortion-debates/12293-abortion-new-way-control.html",347986,77
"1-8582_79_77_6",8582,1,"2009-03-24 19:00:00",931,164,348000,"2009-03-24 18:21:00",382909,152,77,"I fail to see how the commerce clause is implicated by an amendment extending the legal protection of life to human beings from the moment of conception.

I fail to see how striking a juror because of his views on abortion amounts to striking him because of his race.
If you really were a former practicing attorney, I am beginning to see why you no longer are one.

I will not do anything. I clearly said that a juror who is pro-choice could exercise his duty to apply the law notwithstanding his personal view. I merely pointed out the use of peremptory challenges to demonstrate that your question was too simplistic. For however many peremptory challenges the jurisdiction allows, neither the state nor the defense need give a reason for striking a juror.

You really are a clever one, aren't you?",382907,6,8582,1,"Really? What is its text, and how will you get around the Interstate Commerce Clause?

And there are limits on peremptory challenges, or have you not heard of Batson v. Kentucky. 
Plus which, why would any attorney want to set her/himself up for a successful appeal by trying to seat a hanging jury?
What will you do when you have used up your peremptories?
Do you seriously think any judge will accede to your demand that potential juror ""X"" be excluded on the basis that he is pro-choice? If you do, please pass the mushrooms.:)
Remember, we celebrate in this country the jury nullification that freed John Peter Zenger.

Wow, you are getting yourself in deeper and deeper.
Not only would you abolish abortion, but now you would restrict women's freedom to travel.
Isn't this fun?
I'm enjoying playing picador to your Jake LaMotta.","http://www.4forums.com/political/abortion-debates/12293-abortion-new-way-control.html",347992,79
"1-8582_83_79_6",8582,1,"2009-03-25 04:07:00",164,931,348014,"2009-03-24 19:00:00",382913,47,79,"People have a Constitutional right to travel across state borders.emoticonXSmilie 
Do you need a passport and a customs' inspection to go from New York to Vermont or from Nebraska to Colorado or from Iowa to Minnesota?
I rather think not.
NEXT!",382909,6,8582,1,"I fail to see how the commerce clause is implicated by an amendment extending the legal protection of life to human beings from the moment of conception.

I fail to see how striking a juror because of his views on abortion amounts to striking him because of his race.
If you really were a former practicing attorney, I am beginning to see why you no longer are one.

I will not do anything. I clearly said that a juror who is pro-choice could exercise his duty to apply the law notwithstanding his personal view. I merely pointed out the use of peremptory challenges to demonstrate that your question was too simplistic. For however many peremptory challenges the jurisdiction allows, neither the state nor the defense need give a reason for striking a juror.

You really are a clever one, aren't you?","http://www.4forums.com/political/abortion-debates/12293-abortion-new-way-control.html",348000,83
"1-8582_84_83_6",8582,1,"2009-03-25 04:52:00",931,164,348017,"2009-03-25 04:07:00",382914,34,83,"Actually, this isn't true. But that is neither here nor there because we are not talking about stopping people from crossing borders.

And this has nothing to do with anything.",382913,6,8582,1,"People have a Constitutional right to travel across state borders.emoticonXSmilie 
Do you need a passport and a customs' inspection to go from New York to Vermont or from Nebraska to Colorado or from Iowa to Minnesota?
I rather think not.
NEXT!","http://www.4forums.com/political/abortion-debates/12293-abortion-new-way-control.html",348014,84
"1-8582_88_84_6",8582,1,"2009-03-25 05:48:00",164,931,348022,"2009-03-25 04:52:00",382918,101,84,"Really? 
I grew up on the border between New York and Pennsylvania. 
Are you seriously going to tell this forum that residents of one state may not freely travel to the other (except, of course, for prisoners and Mann Act violators)?
Please cite your sources.
At any rate, you are just going to have to deal with the reality that we have a pro-choice President and Congress.
Your time has passed, to be replaced by a new paradigm, and you and your ilk will just have to adjust.",382914,6,8582,1,"Actually, this isn't true [ that people have a Constitutional right to travel across state borders]. But that is neither here nor there because we are not talking about stopping people from crossing borders.","http://www.4forums.com/political/abortion-debates/12293-abortion-new-way-control.html",348017,88
"1-8582_93_88_6",8582,1,"2009-03-25 12:56:00",931,164,348048,"2009-03-25 05:48:00",382923,31,88,"No, I am not going to say that. But I will say that their freedom to do so is not protected by the Constitution.

The United States Constitution",382918,6,8582,1,"Are you seriously going to tell this forum that residents of one state may notfreely travel to the other (except, of course, for prisoners and Mann Act violators)?","http://www.4forums.com/political/abortion-debates/12293-abortion-new-way-control.html",348022,93
"1-8582_94_93_6",8582,1,"2009-03-25 13:36:00",164,931,348052,"2009-03-25 12:56:00",382924,82,93,"Don't play games.emoticonXAngry
You were asked to cite specifics and you failed.
Now tell the forum just exactly how your proposed ""Amendment"" is going to be congruent with Atr. I, Sec. VIII of the Constitution.
Wait, I've got it.
You will put every pregnant woman in the country into detention for the period of their pregnancies.
NICE!!!
In so deep you can't get out, aren't you?:(",382923,6,8582,1,"No, I am not going to say that. But I will say that their freedom to do so is not protected by the Constitution.

The United States Constitution","http://www.4forums.com/political/abortion-debates/12293-abortion-new-way-control.html",348048,94
"1-8582_96_94_6",8582,1,"2009-03-25 13:44:00",931,164,348056,"2009-03-25 13:36:00",382926,77,94,"I did cite specifics. I cited the Constitution. And if you were to ever read it, you would find that what I have said is true.
Now, if the Constitution really does protect interstate travel by individuals, perhaps you could cite precisely where it does so.

This makes no sense. You seem to think it possible that a Constitutional Amendment could be unconstitutional. That is an absurdity.",382924,6,8582,1,"Don't play games.emoticonXAngry
You were asked to cite specifics and you failed.
Now tell the forum just exactly how your proposed ""Amendment"" is going to be congruent with Atr. I, Sec. VIII of the Constitution.
Wait, I've got it.
You will put every pregnant woman in the country into detention for the period of their pregnancies.
NICE!!!
In so deep you can't get out, aren't you?:(","http://www.4forums.com/political/abortion-debates/12293-abortion-new-way-control.html",348052,96
"1-8582_97_96_6",8582,1,"2009-03-25 15:42:00",164,931,348066,"2009-03-25 13:44:00",382927,156,96,"NO!! I'm not falling into that trap. 
YOU made the assertion, now YOU prove it.

Really, I suspect you will feel differently when the CA Supreme Court finds precisely that vis a vis Prop 8.
Perhaps you could post the text and we can see for ourselves, or is this a state secret?
Be that as it may, you're getting deeper and deeper into the muck and mire.
Why not simply admit that your crusade has failed?
You represent the past, and like creatures of the dim, dark past, you and your ilk are becoming extinct.
Women will make up their own minds as to their reproductive choices, and that includes the choice of whether or not to continue their pregnancies.
We in the pro-choice camp will continue to support them, regardless of the choice they make.",382926,6,8582,1,"I did cite specifics. I cited the Constitution. And if you were to ever read it, you would find that what I have said is true.
Now, if the Constitution really does protect interstate travel by individuals, perhaps you could cite precisely where it does so.

This makes no sense. You seem to think it possible that a Constitutional Amendment could be unconstitutional. That is an absurdity.","http://www.4forums.com/political/abortion-debates/12293-abortion-new-way-control.html",348056,97
"1-8582_98_97_6",8582,1,"2009-03-25 16:20:00",931,164,348068,"2009-03-25 15:42:00",382928,216,97,"I didn't make an assertion, you did. And I soundly rebutted it by posting a link to the Constitution, which you are free to read. You will not find any individual right to interstate travel protected therein.
It is standard in any debate that the person who is defending the negative (that would be me) does not bear the burden of proof, but rather the person trying to establish the positive (that would be you). You asserted that an individual had a constitutional right to interstate travel, citing no authority but your own self for that conclusion; and you will have to forgive me for not simply taking your word for it given the numerous legal errors you have made in the span of just the last 20 or so posts.

This is not analogous because there are different provisions in the CA constitution than exist in the federal Constittuion, and only a fool would attempt to allege that those provisions apply to the Federal Constitution, which is the topic of discussion.

The text of what?

I've met you tit for tat, which, I should point out, is not that difficult of a task.",382927,6,8582,1,"NO!! I'm not falling into that trap.
YOU made the assertion, now YOU prove it.","http://www.4forums.com/political/abortion-debates/12293-abortion-new-way-control.html",348066,98
"1-8582_99_98_6",8582,1,"2009-03-25 17:13:00",164,931,348069,"2009-03-25 16:20:00",382929,95,98,"The text of your proposed Amendment that will prohibit pregnant women from traveling from restrictive state ""A"" to permissive state ""B"" to obtain an abortion. You know, the one which will eliminate the pesky little detail of the freedom of interstate travel.
Are you really so tied up in knots that you cannot remember what you posted?

Yes, I'm tittering at the tattering your ""arguments"" have received.
Another cry of the dying dinosaur rings through the swamp.
BOHICA, Jake.emoticonXLove",382928,6,8582,1,"I didn't make an assertion, you did. And I soundly rebutted it by posting a link to the Constitution, which you are free to read. You will not find any individual right to interstate travel protected therein.
It is standard in any debate that the person who is defending the negative (that would be me) does not bear the burden of proof, but rather the person trying to establish the positive (that would be you). You asserted that an individual had a constitutional right to interstate travel, citing no authority but your own self for that conclusion; and you will have to forgive me for not simply taking your word for it given the numerous legal errors you have made in the span of just the last 20 or so posts.

This is not analogous because there are different provisions in the CA constitution than exist in the federal Constittuion, and only a fool would attempt to allege that those provisions apply to the Federal Constitution, which is the topic of discussion.

The text of what?

I've met you tit for tat, which, I should point out, is not that difficult of a task.","http://www.4forums.com/political/abortion-debates/12293-abortion-new-way-control.html",348068,99
"1-8582_100_99_6",8582,1,"2009-03-25 20:04:00",931,164,348075,"2009-03-25 17:13:00",382930,25,99,"No, that is not what it would do. It would, in effect, require all of the states to prohibit abortion.",382929,6,8582,1,"The text of your proposed Amendment that will prohibit pregnant women from traveling from restrictive state ""A"" to permissive state ""B"" to obtain an abortion. You know, the one which will eliminate the pesky little detail of the freedom of interstate travel.
Are you really so tied up in knots that you cannot remember what you posted?

Yes, I'm tittering at the tattering your ""arguments"" have received.
Another cry of the dying dinosaur rings through the swamp.
BOHICA, Jake.emoticonXLove","http://www.4forums.com/political/abortion-debates/12293-abortion-new-way-control.html",348069,100
"1-8582_104_100_6",8582,1,"2009-03-26 04:25:00",164,931,348086,"2009-03-25 20:04:00",382934,74,100,"Where's the text?
If you have one, post it or slink away with your tail between your legs.
For the record, do you seriously think that you will achieve the votes necessary under the Constitution to get this nonsense adopted?
Face facts, you're outnumbered, outvoted, and out to lunch on this one.:)
American women will never again be the slaves of their fetuses.",382930,6,8582,1,"No, that is not what it would do. It would, in effect, require all of the states to prohibit abortion.","http://www.4forums.com/political/abortion-debates/12293-abortion-new-way-control.html",348075,104
"1-8582_2_1_7",8582,1,"2009-03-10 13:29:00",759,626,346720,"2009-01-29 09:40:00",382832,17,1,"I'm curious DRD,... do you support the ""Separation of Church and State?""",382831,7,8582,1,"Why don't people quote thescriptures correctly instead of making it up as they go? What the Bible says about Abortion
<list snipped to save bandwidth>
If you find conflicting ideas in the bible, which do you believe and why?
Tough to have it both ways AND the bible doesn't pretend to have it both ways. The bible holds the termination of pregnancy as stated above.","http://www.4forums.com/political/abortion-debates/12293-abortion-new-way-control.html",342285,2
"1-8582_3_2_7",8582,1,"2009-03-10 16:02:00",626,759,346728,"2009-03-10 13:29:00",382833,6,2,"Awe, take a guess.",382832,7,8582,1,"I'm curious DRD,... do you support the ""Separation of Church and State?""","http://www.4forums.com/political/abortion-debates/12293-abortion-new-way-control.html",346720,3
"1-8582_4_3_7",8582,1,"2009-03-10 16:26:00",759,626,346730,"2009-03-10 16:02:00",382834,35,3,"I'm guessing no. You are not for the ""separation of church and state"" else, you wouldn't be bringing religion into an otherwise secularly achievable political argument.
Am I correct?",382833,7,8582,1,"Awe, take a guess.","http://www.4forums.com/political/abortion-debates/12293-abortion-new-way-control.html",346728,4
"1-8582_8_4_7",8582,1,"2009-03-11 08:31:00",626,759,346776,"2009-03-10 16:26:00",382838,31,4,"Not exactly. The faaaarrrr right Christians have brought abortion into the separation of church and state. Besides, to this thread this is not the subject under consideration.",382834,7,8582,1,"I'm guessing no. You arenot for the ""separation of church and state"" else, you wuldn't be bringing religion into an otherwise secularly achievable political argument.
Am I correct?","http://www.4forums.com/political/abortion-debates/12293-abortion-new-way-control.html",346730,8
"1-8582_9_8_7",8582,1,"2009-03-13 19:32:00",759,626,346992,"2009-03-11 08:31:00",382839,45,8,"Next question,... so, if you are actually for the Separation of Church and State and seemingly offended by the far rights bringing of abortion into the debate,... why are you envoking religion in your defense of abortion again?emoticonXBanghead",382838,7,8582,1,"Not exactly. The faaaarrrr right Christians have brought abortion into the separation of church and state. Besides, to this thread this is not the subject under consideration.","http://www.4forums.com/political/abortion-debates/12293-abortion-new-way-control.html",346776,9
