"key","quote_source_post_discussion_id","posts_dataset_id","posts_timestamp","posts_author_id","quote_source_author_id","posts_native_post_id","quote_source_timestamp","post_text_id","Word_Count","quote_source_post_id","post_text","quote_source_text_id","Dialog_Turn","posts_discussion_id","quote_source_post_dataset_id","Fullquote_text","discussion_url","quote_source_native_post_id","posts_post_id"
"1-8656_91_89_1",8656,1,"2009-03-02 10:23:00",759,44,345686,"2009-03-02 10:06:00",385925,21,89,"I thought that being ""brain dead"" means they are already dead.
Nothing (no-one) to terminate.",385923,1,8656,1,"Why is the right to terminate a brain dead coma patient given to the next of kin?","http://www.4forums.com/political/abortion-debates/12391-when-does-human-individuals-life-begin.html",345680,91
"1-8656_93_91_1",8656,1,"2009-03-02 10:43:00",44,759,345696,"2009-03-02 10:23:00",385927,32,91,"And yet the ""individual organism"" lives. I believe prior to some point in fetal development there's likewise ""no one"" to terminate. That was my point.",385925,1,8656,1,"I thought that being ""brain dead"" means they are already dead.
Nothing (no-one) to terminate.","http://www.4forums.com/political/abortion-debates/12391-when-does-human-individuals-life-begin.html",345686,93
"1-8656_95_93_1",8656,1,"2009-03-02 10:50:00",759,44,345701,"2009-03-02 10:43:00",385929,19,93,"I don't know where you got your definition of ""brain death"" from.
Dead is dead.",385927,1,8656,1,"And yet the ""individual organism"" lives. I believe prior to some point in fetal development there's likewise ""no one"" to terminate. That was my point.","http://www.4forums.com/political/abortion-debates/12391-when-does-human-individuals-life-begin.html",345696,95
"1-8656_96_95_1",8656,1,"2009-03-02 11:10:00",44,759,345705,"2009-03-02 10:50:00",385930,13,95,"A respirator can keep your body alive indefinitely without any brain activity.",385929,1,8656,1,"I don't know where you got your definition of ""brain death"" from.
Dead is dead.","http://www.4forums.com/political/abortion-debates/12391-when-does-human-individuals-life-begin.html",345701,96
"1-8656_97_96_1",8656,1,"2009-03-02 11:13:00",759,44,345708,"2009-03-02 11:10:00",385931,52,96,"True. But you said ""the organism is still alive."" 
Perhaps if you had been through some of the first hand experiences that I have been through recently, you would more appreciate the significant differences between being ""alive"" and just being ""kept alive.""",385930,1,8656,1,"A respirator can keep your body alive indefinitely without any brain activity.","http://www.4forums.com/political/abortion-debates/12391-when-does-human-individuals-life-begin.html",345705,97
"1-8656_99_97_1",8656,1,"2009-03-02 11:20:00",44,759,345715,"2009-03-02 11:13:00",385933,25,97,"Kept alive is still alive. Are you suggesting you're not really alive since you'd die if a thing keeping you alive were removed?",385931,1,8656,1,"True. But you said ""the organism is still alive."" 
Perhaps if you had been through some of the first hand experiences that I have been through recently, you would more appreciate the significant differences between being ""alive"" and just being ""kept alive.""","http://www.4forums.com/political/abortion-debates/12391-when-does-human-individuals-life-begin.html",345708,99
"1-8656_101_99_1",8656,1,"2009-03-02 11:29:00",759,44,345718,"2009-03-02 11:20:00",385935,65,99,"I'm suggesting, using the data that you provided that is,.. if a person (or any mammal) is ""brain dead"" they are dead. Even if they are on something like a respirator which is keeping their blood circulating and oxygenized. 
Wait a minute,... 
If they are brain dead,... how is their heart punmping?",385933,1,8656,1,"Kept alive is still alive. Are you suggesting you're not really alive since you'd die if a thing keeping you alive were removed?","http://www.4forums.com/political/abortion-debates/12391-when-does-human-individuals-life-begin.html",345715,101
"1-8656_108_101_1",8656,1,"2009-03-02 13:05:00",44,759,345734,"2009-03-02 11:29:00",385942,10,101,"Because a beating heart does not require brain activity.",385935,1,8656,1,"I'm suggesting, using the data that you provided that is,.. if a person (or any mammal) is ""brain dead"" they are dead. Even if they are on something like a respirator which is keeping their blood circulating and oxygenized. 
Wait a minute,... 
If they are brain dead,... how is their heart punmping?","http://www.4forums.com/political/abortion-debates/12391-when-does-human-individuals-life-begin.html",345718,108
"1-8656_109_108_1",8656,1,"2009-03-02 13:15:00",759,44,345738,"2009-03-02 13:05:00",385943,51,108,"Really?
Looking it up; 
Posting the result; ""But after the brain stops functioning, all other bodily systems will begin to break down, and the heart will soon follow. Once this process starts, it cannot be reversed.""-- California Transplant Donor Network",385942,1,8656,1,"Because a beating heart does not require brain activity.","http://www.4forums.com/political/abortion-debates/12391-when-does-human-individuals-life-begin.html",345734,109
"1-8656_110_109_1",8656,1,"2009-03-02 13:47:00",44,759,345744,"2009-03-02 13:15:00",385944,75,109,"Assuming your definition of soon includes 14+ years.
""The longest surviving brain dead patient has lived for fourteen years in that state, and remains alive on a ventilator at home...""
Beyond Brain Death: The Case Against ... - Google Book Search
I did like this bit from your link:
""A brain dead person is dead."" 
sinjin - no brain activity, no person.",385943,1,8656,1,"Really?
Looking it up; 
Posting the result; ""But after the brain stops functioning, all other bodily systems will begin to break down, and the heart will soon follow. Once this process starts, it cannot be reversed.""-- California Transplant Donor Network","http://www.4forums.com/political/abortion-debates/12391-when-does-human-individuals-life-begin.html",345738,110
"1-8656_111_110_1",8656,1,"2009-03-02 14:02:00",759,44,345747,"2009-03-02 13:47:00",385945,34,110,"This thread is about the biological ""beginning"" of a human individual's life. If you can't stay on that topic, perhaps I can get a moderator to help you along.",385944,1,8656,1,"Assuming your definition of soon includes 14+ years.
""The longest surviving brain dead patient has lived for fourteen years in that state, and remains alive on a ventilator at home...""
Beyond Brain Death: The Case Against ... - Google Book Search
I did like this bit from your link:
""A brain dead person is dead."" 
sinjin - no brain activity, no person.","http://www.4forums.com/political/abortion-debates/12391-when-does-human-individuals-life-begin.html",345744,111
"1-8656_113_111_1",8656,1,"2009-03-02 14:14:00",44,759,345753,"2009-03-02 14:02:00",385947,100,111,"No brain, no sentience, no person. I think I'm right on topic. It matters not whether the brain has yet to develop sufficiently or has ceased to function forever. There is no ""person"" there.
I understand where your original baiting was going. At some point you intended to substitute ""person"" for ""human"" and/or ""individual"" as you have already done in another thread. Intellectually dishonest IMO but I'll leave that for others to decide for themselves. You aren't worth my time.",385945,1,8656,1,"This thread is about the biological ""beginning"" of a human individual's life. If you can't stay on that topic, perhaps I can get a moderator to help you along.","http://www.4forums.com/political/abortion-debates/12391-when-does-human-individuals-life-begin.html",345747,113
"1-8656_114_113_1",8656,1,"2009-03-02 14:20:00",759,44,345757,"2009-03-02 14:14:00",385948,50,113,"READ IT CAREFULLY!

""This thread is NOT about when ""personhood"" begins"" it is about when a human individual's life begins BIOLOGICALLY.
Take your ""when a person becomes a person"" comments to another thread.
They are NOT germane to this debate.",385947,1,8656,1,"No brain, no sentience, no person. I think I'm right on topic. It matters not whether the brain has yet to develop sufficiently or has ceased to function forever. There is no ""person"" there.
I understand where your original baiting was going. At some point you intended to substitute ""person"" for ""human"" and/or ""individual"" as you have already done in another thread. Intellectually dishonest IMO but I'll leave that for others to decide for themselves. You aren't worth my time.","http://www.4forums.com/political/abortion-debates/12391-when-does-human-individuals-life-begin.html",345753,114
"1-8656_115_114_1",8656,1,"2009-03-02 14:25:00",44,759,345758,"2009-03-02 14:20:00",385949,30,114,"Really? And what of this?

http://www.4forums.com/political/sci...tml#post345652
That thread isn't about when personhood begins either.
What a piece of work you are.
Now I'm really done.",385948,1,8656,1,"READ IT CAREFULLY!

""This thread is NOT about when ""personhood"" begins"" it is about when a human individual's life begins BIOLOGICALLY.
Take your ""when a person becomes a person"" comments to another thread.
They are NOT germane to this debate.","http://www.4forums.com/political/abortion-debates/12391-when-does-human-individuals-life-begin.html",345757,115
"1-8656_116_115_1",8656,1,"2009-03-02 14:29:00",759,44,345759,"2009-03-02 14:25:00",385950,46,115,"In the context of this thread, as it IS germane to this deiscussion, that quote is about CONCEPTION being the moment that a persons ""aging process"" begins,... NOT about when their ""person-hood"" begins.
READ IT CLOSELY.",385949,1,8656,1,"Really? And what of this?

http://www.4forums.com/political/sci...tml#post345652
That thread isn't about when personhood begins either.
What a piece of work you are.
Now I'm really done.","http://www.4forums.com/political/abortion-debates/12391-when-does-human-individuals-life-begin.html",345758,116
"1-8656_183_181_2",8656,1,"2009-03-09 15:00:00",164,759,346602,"2009-03-09 14:37:00",386017,142,181,"OK. OK. You got us.
You have convinced us that what a pregnant female person is carrying is not an aardvark or a three-toed sloth.
So what?
That is about as irrelevant to the topic as anything you might bring up.
It's time to move past this angels-on-the-head-of-a-pin irrelevancy and move on.
The real question, the one that none of you seems to want to confront, is who gets to choose whether or not a particular woman in a particular situation continues her pregnancy - the nanny state or the woman herself?
Archie proposed that a doctor make the determination.
Do you agree?
If so, who or what pays the doctor in question?
It's long past the time that this discussion should move out of the gate.",386015,2,8656,1,"Biologically speaking, a human individual (being's) life begins at and by their conception. It's a scientific fact. Whether you or I like it or not.
It is what it is.","http://www.4forums.com/political/abortion-debates/12391-when-does-human-individuals-life-begin.html",346598,183
"1-8656_184_183_2",8656,1,"2009-03-09 15:05:00",759,164,346604,"2009-03-09 15:00:00",386018,61,183,"No time for a lengthy response. But I will say that when we begin to move on to my next point and lines of question, you will see the answer to your question above begin to reveal itself.
Ohhhhh a clift-hanger!
I gotta run!
You know you can always start a thread yourself, right?",386017,2,8656,1,"OK. OK. You got us.
You have convinced us that what a pregnant female person is carrying is not an aardvark or a three-toed sloth.
So what?
That is about as irrelevant to the topic as anything you might bring up.
It's time to move past this angels-on-the-head-of-a-pin irrelevancy and move on.
The real question, the one that none of you seems to want to confront, is who gets to choose whether or not a particular woman in a particular situation continues her pregnancy - the nanny state or the woman herself?
Archie proposed that a doctor make the determination.
Do you agree?
If so, who or what pays the doctor in question?
It's long past the time that this discussion should move out of the gate.","http://www.4forums.com/political/abortion-debates/12391-when-does-human-individuals-life-begin.html",346602,184
"1-8656_185_184_2",8656,1,"2009-03-09 15:11:00",164,759,346606,"2009-03-09 15:05:00",386019,17,184,"Nope!!!
It's more fun to play the role of picador to your raging bull.emoticonXSmilie",386018,2,8656,1,"No time for a lengthy response. But I will say that when we begin to move on to my next point and lines of question, you will see the answer to your question above begin to reveal itself.
Ohhhhh a clift-hanger!
I gotta run!
You know you can always start a thread yourself, right?","http://www.4forums.com/political/abortion-debates/12391-when-does-human-individuals-life-begin.html",346604,185
"1-8656_191_185_2",8656,1,"2009-03-09 18:31:00",759,164,346641,"2009-03-09 15:11:00",386025,5,185,"Nope?
Nope what?",386019,2,8656,1,"Nope!!!
It's more fun to play the role of picador to your raging bull.emoticonXSmilie","http://www.4forums.com/political/abortion-debates/12391-when-does-human-individuals-life-begin.html",346606,191
"1-8656_192_191_2",8656,1,"2009-03-09 18:47:00",164,759,346643,"2009-03-09 18:31:00",386026,89,191,"Nope, I'm not going to start a new thread.
One more time, your handle here indicates clear support for those who favor the right to choose, or CHUZ:) if you prefer that spelling.
Next time, I wouldn't throw around phrases or words such as ignorant, immoral, or deluded were I in your position. They reflect more on you than on me.
Name calling is the last refuge of those who know the intellectual bankruptcy of their arguments.",386025,2,8656,1,"Nope?
Nope what?","http://www.4forums.com/political/abortion-debates/12391-when-does-human-individuals-life-begin.html",346641,192
"1-8656_195_192_2",8656,1,"2009-03-09 19:21:00",759,164,346651,"2009-03-09 18:47:00",386029,6,192,"Is that your pet peeve?",386026,2,8656,1,"Next time, I wouldn't throw around phrases or words such as ignorant, immoral, or deluded were I in your position. They reflect more on you than on me.Name calling is the last refuge of those who know the intellectual bankruptcy of their arguments.","http://www.4forums.com/political/abortion-debates/12391-when-does-human-individuals-life-begin.html",346643,195
"1-8656_196_195_2",8656,1,"2009-03-10 03:43:00",164,759,346670,"2009-03-09 19:21:00",386030,113,195,"Not at all. Smug certainty on the part of some posters here is.emoticonXClown
Their one size fits all reaction that passes for thinking is not contributing to the debate.
People who are just as moral as you come down on the opposite side of the question.
In the long run, the decision of whether or not to continue a pregnancy rests, as it morally and ethically should, in the heart and mind of each woman, unhindered by your, my, or the law's constraints.
That's the essence of the pro-choice position, and no name calling will make it any different.",386029,2,8656,1,"Is that your pet peeve?","http://www.4forums.com/political/abortion-debates/12391-when-does-human-individuals-life-begin.html",346651,196
"1-8656_201_196_2",8656,1,"2009-03-10 05:50:00",759,164,346688,"2009-03-10 03:43:00",386035,241,196,"Is ""name calling your pet peeve?"" --Chuz

Really? Does that not include your own displays of ""smug certainty?"" I can provide quotes and links to some of your comments if you like. emoticonXClown

Our science (specifically biological facts) are supposed to be ""one size fits all."" Our biology is the one thing we all have in common; regardless of our race, religions, creeds, colors or traditions. Why a strict adherence to those biological facts is an affront to you and your ilk reveals more about the (lack of) depth to your thinking than our own. 
That you fought so hard (along with AnotherOpinion, Smiley and others) to deny the bioloical facts which prove a human individual's life begins at their conception has hardly been ""contributive"" to the debate, either.
I digress.

I'm not concerned with morals. I pass no judgments as to right and wrong,... only on ""what is."" I leave the morality to individuals to struggle with on their own,... with the truth that is presented to them.

Interesting,... so tell me...
""Chester, do you agree that a child's right to their life should begin when their life does?""
I'm just asking,...",386030,2,8656,1,"Not at all. Smug certainty on the part of some posters here is.emoticonXClown
Their one size fits all reaction that passes for thinking is not contributing to the debate.
People who are just as moral as you come down on the opposite side of the question.
In the long run, the decision of whether or not to continue a pregnancy rests, as it morally and ethically should, in the heart and mind of each woman, unhindered by your, my, or the law's constraints.
That's the essence of the pro-choice position, and no name calling will make it any different.","http://www.4forums.com/political/abortion-debates/12391-when-does-human-individuals-life-begin.html",346670,201
"1-8656_232_231_3",8656,1,"2009-03-28 14:07:00",164,759,348209,"2009-03-28 08:21:00",386066,87,231,"YOU may not ""..know how anyone could possibly disagree with this point of view in any way."", but, since it is simply a metaphysical question, there are any number of ""correct"" answers. 
Why don't we make a deal. None of us will try to force our ""correct"" answer on you, just as long as you do not try to force your ""correct"" answer on any of us.
Deal?emoticonXSmilie",386065,3,8656,1,"Thanks, Jims... This is the type summary/ short essay I have been hoping for. I have been away from things (attending to some family matters) and I had almost completely missed this one. I don't know how anyone could possibly disagree with this point of view in any way. 
It will be interesting to read the responses to it,... which I am doing now.
Thanks! And welcome!","http://www.4forums.com/political/abortion-debates/12391-when-does-human-individuals-life-begin.html",348204,232
"1-8656_233_232_3",8656,1,"2009-03-28 16:07:00",759,164,348215,"2009-03-28 14:07:00",386067,164,232,"The only force (power) I have is in my ability to observe and to communicate those observations to others. The Constitution says what it says (1st. amendment right to speak, assemble and petition the government included) The biological facts surrounding human reproduction are what they are and the values that we as a society are willing to place upon all of it is ever shifting.
In the end, someone's values will be reflected in our laws. Be it yours, mine or someone elses. Rather than seeing it as one persons views being forced upon another,... I see it as a reflection of the values of the people as a whole. Values that we are all free to challenge, discuss and petition for and against equally under the 1st. Amendment.
I'll not make any ""deals"" which run contrary to my 1st. Amendment rights.",386066,3,8656,1,"YOU may not ""..know how anyone could possibly disagree with this point of view in any way."", but, since it is simply a metaphysical question, there are any number of ""correct"" answers. 
Why don't we make a deal. None of us will try to force our ""correct"" answer on you, just as long as you do not try to force your ""correct"" answer on any of us.
Deal?emoticonXSmilie","http://www.4forums.com/political/abortion-debates/12391-when-does-human-individuals-life-begin.html",348209,233
"1-8656_234_233_3",8656,1,"2009-03-28 19:32:00",164,759,348221,"2009-03-28 16:07:00",386068,30,233,"Interesting response.
I like the thinking here.
If you are saying that each person must find her/his own truth, I could not agree more.",386067,3,8656,1,"The only force (power) I have is in my ability to observe and to communicate those observations to others. The Constitution says what it says (1st. amendment right to speak, assemble and petition the government included) The biological facts surrounding human reproduction are what they are and the values that we as a society are willing to place upon all of it is ever shifting.
In the end, someone's values will be reflected in our laws. Be it yours, mine or someone elses. Rather than seeing it as one persons views being forced upon another,... I see it as a reflection of the values of the people as a whole. Values that we are all free to challenge, discuss and petition for and against equally under the 1st. Amendment.
I'll not make any ""deals"" which run contrary to my 1st. Amendment rights.","http://www.4forums.com/political/abortion-debates/12391-when-does-human-individuals-life-begin.html",348215,234
"1-8656_235_234_3",8656,1,"2009-03-28 20:03:00",759,164,348222,"2009-03-28 19:32:00",386069,67,234,"I'm saying a little bit more than that. Yes, I agree that all people must be free to seek their own truths in life. But, no-one has the right to infringe upon the rights of others in their quests for their truth, convienience or anything else. So, it's not quite as simple as you would like it to be.",386068,3,8656,1,"Interesting response.
I like the thinking here.
If you are saying that each person must find her/his own truth, I could not agree more.","http://www.4forums.com/political/abortion-debates/12391-when-does-human-individuals-life-begin.html",348221,235
"1-8656_236_235_3",8656,1,"2009-03-29 06:54:00",164,759,348234,"2009-03-28 20:03:00",386070,103,235,"Exactly so!!:)
Therefore, there should be no law whatsoever regarding a woman's right to choose whether or not to take her pregnancy to term.
If the profetallifers are correct, moral persuasion should suffice; if not, they have lost the battle in the marketplace of metaphysical concepts.
Establishing law in the are is symbolic of their loss in the clash of ideas.
As Richard Cardinal Cushing, John F. Kennedy's confessor once said, ""Any faith which needs the force of law to enforce its tenets is not worthy of the name.""",386069,3,8656,1,"I'm saying a little bit more than that. Yes, I agree that all people must be free to seek their own truths in life. But, no-one has the right to infringe upon the rights of others in their quests for their truth, convienience or anything else. So, it's not quite as simple as you would like it to be.","http://www.4forums.com/political/abortion-debates/12391-when-does-human-individuals-life-begin.html",348222,236
"1-8656_237_236_3",8656,1,"2009-03-29 08:51:00",759,164,348239,"2009-03-29 06:54:00",386071,64,236,"I see,.. so you must agree that Roe v. Wade is un-Constitutional law,.... You just think it's un-constitutional because it doesn't give a woman full control over whether or not she wants to carry to term.
Thanks for holding true to your positions, Chester. The contrast and clarity you are lending to this issue is priceless!",386070,3,8656,1,"Exactly so!!:)
Therefore, there should be no law whatsoever regarding a woman's right to choose whether or not to take her pregnancy to term.
If the profetallifers are correct, moral persuasion should suffice; if not, they have lost the battle in the marketplace of metaphysical concepts.
Establishing law in the are is symbolic of their loss in the clash of ideas.
As Richard Cardinal Cushing, John F. Kennedy's confessor once said, ""Any faith which needs the force of law to enforce its tenets is not worthy of the name.""","http://www.4forums.com/political/abortion-debates/12391-when-does-human-individuals-life-begin.html",348234,237
"1-8656_238_237_3",8656,1,"2009-03-29 09:42:00",164,759,348244,"2009-03-29 08:51:00",386072,173,237,"Not at all.
RvW was a masterpiece of judicial restarint.
If you have read it, you know this.
Mr. Justice Blackmun went out of his way to say that the Government will not be put in the position of picking and choosing among the varying metaphysical answers to the question of the beginning of life and therefore leaves the question in the hands of each pregnant woman to choose the answer that is most congruent with her own answer to the question.
Did the decision go far enough? No, but it's a good starting point.emoticonXSmilie
It was about as far as the Court felt it needed to go in 1973.
I would as strongly oppose a law or decision which requires abortion as I do one which would outlaw it.
The government which today may prohibit abortion may well be the same government which tomorrow will require it.
The government which claims to power to do either violates human rights.",386071,3,8656,1,"I see,.. so you must agree that Roe v. Wade is un-Constitutional law,.... You just think it's un-constitutional because it doesn't give a woman full control over whether or not she wants to carry to term.
Thanks for holding true to your positions, Chester. The contrast and clarity you are lending to this issue is priceless!","http://www.4forums.com/political/abortion-debates/12391-when-does-human-individuals-life-begin.html",348239,238
"1-8656_239_238_3",8656,1,"2009-03-29 10:00:00",759,164,348245,"2009-03-29 09:42:00",386073,101,238,"Yet, when we live under a Constitution which states that a ""person's"" rights can not be denied except by due process,... it is inevitable that someone's definition of when a ""persons"" life begins will have to prevail,... incidently, I disagree with your take on the ""metaphysical"" aspects. The one thing we all have in common as ""human beings"" is our biology,... The logic would follow that a biological ""persons"" rights should begin when their biological life does. 
emoticonXCensored the metaphysics.",386072,3,8656,1,"Not at all.
RvW was a masterpiece of judicial restarint.
If you have read it, you know this.
Mr. Justice Blackmun went out of his way to say that the Government will not be put in the position of picking and choosing among the varying metaphysical answers to the question of the beginning of life and therefore leaves the question in the hands of each pregnant woman to choose the answer that is most congruent with her own answer to the question.
Did the decision go far enough? No, but it's a good starting point.emoticonXSmilie
It was about as far as the Court felt it needed to go in 1973.
I would as strongly oppose a law or decision which requires abortion as I do one which would outlaw it.
The government which today may prohibit abortion may well be the same government which tomorrow will require it.
The government which claims to power to do either violates human rights.","http://www.4forums.com/political/abortion-debates/12391-when-does-human-individuals-life-begin.html",348244,239
"1-8656_166_164_4",8656,1,"2009-03-08 08:30:00",759,236,346451,"2009-03-08 08:14:00",386000,36,164,"I haven't misrepresented your views one bit. And you have re-stated them numerous times so I know exactly what they are. To the point where you feigned outrage is starting to grow tiresome.",385998,4,8656,1,"The I suggest you start with trying to be honest then.

Let's see.

So I claim that the zygote is not an individual, and you claim that I am saying that it is not ""a life"" (with ""an individual"" stuck in the middle). You really ought to try that honesty thing.

An you quoted him, why?

Are you now saying he supports you, having just insulted him?
However, I agree that it is a deep philosophical question.

Explain.

Well, let's take a look at the bit you quoted.

You highlighted the bit that said ""human being"", thinking that this alone would back up your argument, but you failed to notice the words ""the process that begins to make a"" in front of it. So, if Clinton is saying that the ""cells join in the process that begins to make a human being"", then they cannot yet be a human being. So, he certainly does not support your argument. I am still amazed that you would use this quote to support your argument, when it clearly does not.","http://www.4forums.com/political/abortion-debates/12391-when-does-human-individuals-life-begin.html",346449,166
"1-8656_170_166_4",8656,1,"2009-03-08 13:01:00",236,759,346479,"2009-03-08 08:30:00",386004,55,166,"You are correct, I have restated my views on numerous occasions. Yet you still choose to lie about my position. That is not honesty by any stretch of the imagination.
Whether my continuously pointing out that you are continuously lying is tiresome to you doesn't bother me in the least.",386000,4,8656,1,"I haven't misrepresented your views one bit. And you have re-stated them numerous times so I know exactly what they are. To the point where you feigned outrage is starting to grow tiresome.","http://www.4forums.com/political/abortion-debates/12391-when-does-human-individuals-life-begin.html",346451,170
"1-8656_172_170_4",8656,1,"2009-03-08 14:57:00",759,236,346493,"2009-03-08 13:01:00",386006,103,170,"Everyone is clear on your position Smiley. Including myself. And if anyone is not clear on your position, all they would have to do is ask you about it. I'm not sure if there is anything in the rules about calling someone a liar,... without proof of a lie. There should be, if there isn't already.
I have never lied about your views or anyone elses. And the next time you claim I have will be reported to admin (as abuse) for them to decide what to do about it.",386004,4,8656,1,"You are correct, I have restated my views on numerous occasions. Yet you still choose to lie about my position. That is not honesty by any stretch of the imagination.
Whether my continuously pointing out that you are continuously lying is tiresome to you doesn't bother me in the least.","http://www.4forums.com/political/abortion-debates/12391-when-does-human-individuals-life-begin.html",346479,172
"1-8656_173_172_4",8656,1,"2009-03-08 15:01:00",236,759,346494,"2009-03-08 14:57:00",386007,18,172,"I have detailed your lies on more than one occasion, so, good luck with that.",386006,4,8656,1,"Everyone is clear on your position Smiley. Including myself. And if anyone is not clear on your position, all they would have to do is ask you about it. I'm not sure if there is anything in the rules about calling someone a liar,... without proof of a lie. There should be, if there isn't already.
I have never lied about your views or anyone elses. And the next time you claim I have will be reported to admin (as abuse) for them to decide what to do about it.","http://www.4forums.com/political/abortion-debates/12391-when-does-human-individuals-life-begin.html",346493,173
"1-8656_175_173_4",8656,1,"2009-03-08 15:04:00",759,236,346496,"2009-03-08 15:01:00",386009,16,173,"When I have the truth and facts on my side,.. I don't need luck.",386007,4,8656,1,"I have detailed your lies on more than one occasion, so, good luck with that.","http://www.4forums.com/political/abortion-debates/12391-when-does-human-individuals-life-begin.html",346494,175
"1-8656_176_175_4",8656,1,"2009-03-08 15:07:00",236,759,346499,"2009-03-08 15:04:00",386010,6,175,"Good luck with that too.",386009,4,8656,1,"When I have the truth and facts on my side,.. I don't need luck.","http://www.4forums.com/political/abortion-debates/12391-when-does-human-individuals-life-begin.html",346496,176
"1-8656_6_5_5",8656,1,"2009-02-26 08:43:00",759,1142,345116,"2009-02-26 08:07:00",385840,120,5,"As predicted, AO... (as far as your side avoiding the poll)
The second paragraph of your post is more in line with what I was looking for. It's clear that you agree that (at least) a person's living body (a living human individual's body) begins at and by their ""conception.""
Assuming that you are confident in your views and opinions, AO.... why are you being so defensive and evasive? (splitting hairs between human individual's and persons-- do you know any human individuals who are not persons?) 
Aren't you the least bit concerned about how that reflects upon your intellectual honesty?",385839,5,8656,1,"I found myself unable to answer this poll since your wording carries contradictory conotations. Specifically, the word ""individual"" is often used synonymously with ""person"". You may say that you did not intend this poll to be about the beginning of personhood but, by using the term ""individual"", you seem to suggest just that. ""Individual"" is a term which is too laden with meaning to pretend that it is a neutral term. So, the contradictory directions in the poll leave me unable to answer it honestly.
To specify my own views, I think that the bodies of unique individuals / people start at conception but that body does not become a person / individual until the beginning of mental existence, which cannot start before roughly the third trimester.","http://www.4forums.com/political/abortion-debates/12391-when-does-human-individuals-life-begin.html",345113,6
"1-8656_9_6_5",8656,1,"2009-02-26 08:53:00",1142,759,345119,"2009-02-26 08:43:00",385843,241,6,"Do you deny that you gave contradictary directions in the poll in saying that it is the start of biological life of ""individuals"" that you are interested in while claiming that you are not interested in the thoughts about beginning of personhood? When individual = person (by YOUR very own definition link), then the contradiction is made clear. Do not blame us for your lack of clarity.

It is not the body of an individual until an individual comes into existence. Again, individual = person by the very definition which you linked. Before that body becomes an individual / person by gaining some mental existence, it is just a body with ""nobody home"" belonging to no one except the mother since she is the only individual in existence at that point in time who has any relevance.

Again, how can you claim that I am evasive if it is YOU who purposely made the post unclear. If you do not have specific challenges to the points I made, then the evasiveness is clearly on your side. Again, do you or don't you agree that individual = person and, therefore, your challenge to define the begining of life of an individual without considering that definition is a contradictary nonsensical challenge. Do not blame us for your mistaken logic.",385840,5,8656,1,"As predicted, AO... (as far as your side avoiding the poll)
The second paragraph of your post is more in line with what I was looking for. It's clear that you agree that (at least) a person's living body (a living human individual's body) begins at and by their ""conception.""
Assuming that you are confident in your views and opinions, AO.... why are you being so defensive and evasive? (splitting hairs between human individual's and persons-- do you know any human individuals who are not persons?) 
Aren't you the least bit concerned about how that reflects upon your intellectual honesty?","http://www.4forums.com/political/abortion-debates/12391-when-does-human-individuals-life-begin.html",345116,9
"1-8656_10_9_5",8656,1,"2009-02-26 08:59:00",759,1142,345121,"2009-02-26 08:53:00",385844,105,9,"I have been dispatched to a job that will likely go well into the night. But you have already addressed the aspect of my poll that i was seeking from you, AO... You stated that a human being's living body begins at and by their conception.
I'll leave you with one questions (actually intended for a seperate thread and poll) ""do you support the seperation between church and state?"" (I do)
I will respond to some of the rest of this as soon as I can.
""work happens"" ---- arrrrrgh!",385843,5,8656,1,"Do you deny that you gave contradictary directions in the poll in saying that it is the start of biological life of ""individuals"" that you are interested in while claiming that you are not interested in the thoughts about beginning of personhood? When individual = person (by YOUR very own definition link), then the contradiction is made clear. Do not blame us for your lack of clarity.

It is not the body of an individual until an individual comes into existence. Again, individual = person by the very definition which you linked. Before that body becomes an individual / person by gaining some mental existence, it is just a body with ""nobody home"" belonging to no one except the mother since she is the only individual in existence at that point in time who has any relevance.

Again, how can you claim that I am evasive if it is YOU who purposely made the post unclear. If you do not have specific challenges to the points I made, then the evasiveness is clearly on your side. Again, do you or don't you agree that individual = person and, therefore, your challenge to define the begining of life of an individual without considering that definition is a contradictary nonsensical challenge. Do not blame us for your mistaken logic.","http://www.4forums.com/political/abortion-debates/12391-when-does-human-individuals-life-begin.html",345119,10
"1-8656_12_10_5",8656,1,"2009-02-26 10:19:00",1142,759,345129,"2009-02-26 08:59:00",385846,180,10,"The wording is very important since it carries many meanings and possible misinterpretations. Therefore, I would reword your bolded statement as ""A future but not yet existing human being's living body begins at and by their conception, but the human being themselves does not come into existence until later on in pregnancy, once mental existence is gained."" or, simply, ""A future but not yet existing human being's living body begins at and by their conception"". It is very important, in my view, to differentiate between the body before it becomes a human being (= person = individual) and the body once it gains mental existence, at which point it is a human being. I will not agree to any statements of my opinion that do not make that point clear.

Yes, I support the separation of church and state. I am also glad to hear that you do as well since that eliminates one potential point of contention.",385844,5,8656,1,"I have been dispatched to a job that will likely go well into the night. But you have already addressed the aspect of my poll that i was seeking from you, AO...You stated that a human being's living body begins at and by their conception.","http://www.4forums.com/political/abortion-debates/12391-when-does-human-individuals-life-begin.html",345121,12
"1-8656_32_12_5",8656,1,"2009-02-27 08:51:00",759,1142,345227,"2009-02-26 10:19:00",385866,23,12,"-- Post 31
Wait a minute, there! 
In post #12 you posted;

You can't have it both ways AO.",385846,5,8656,1,"Post #12The wording is very important since it carries many meanings and possible misinterpretations. Therefore, I (Another opinion) would reword your bolded statement as ""A future but not yet existing human being's living body begins at and by their conception, ....","http://www.4forums.com/political/abortion-debates/12391-when-does-human-individuals-life-begin.html",345129,32
"1-8656_37_32_5",8656,1,"2009-02-27 10:22:00",1142,759,345244,"2009-02-27 08:51:00",385871,150,32,"There is no inconsistency. As you quoted from me, I said: """"A future but not yet existing human being's living body begins at and by their conception, ....""
That means that their body - i.e. the body that will eventually become them - starts at conception but the human being only comes into existence later. How else did you interpret ""future but not yet existing""? 
Therefore, your rephrasing of my views:

was misleading since, in my view, it is not the life of a human (i.e. person) that starts at conception but the life of the body that will become them but is not them yet - big difference.
Don't blame me if you are misinterpreting my stance. Please do read my wording and understand it - do not ignore it.",385866,5,8656,1,"-- Post 31
Wait a minute, there! 
In post #12 you posted;

You can't have it both ways AO.","http://www.4forums.com/political/abortion-debates/12391-when-does-human-individuals-life-begin.html",345227,37
"1-8656_39_37_5",8656,1,"2009-02-27 10:37:00",759,1142,345246,"2009-02-27 10:22:00",385873,225,37,"Ok, AO, we seem to be chasing each other around in circles... let me try another approach. 
I know and have known all along that you do not agree that a ""person's"" life begins at and by their conception. As, it's clear from your posts that you see a ""person"" as something more than just an organism that just happens to be of the ""human"" species. 
I get it.
But my questions are not about trying to convince you (yet) that a human zygote, embryo, fetus is a ""person."" My goal here is really simple. I am trying to get everyone (as many people as possible) to agree on three things.
1: That mammals (including human beings) are biological ""organisms.""
2: That the point of which said organisms become uniquely identifiable (the point of which their biological life begins) (as you indicated it is with horses) is in fact the moment of ""conception."" 
3: That religion, ""souls"" and all that other hocus pocus has nothing to do with it. 
Can we or can we not agree on those three things?",385871,5,8656,1,"There is no inconsistency. As you quoted from me, I said: """"A future but not yet existing human being's living body begins at and by their conception, ....""
That means that their body - i.e. the body that will eventually become them - starts at conception but the human being only comes into existence later. How else did you interpret ""future but not yet existing""? 
Therefore, your rephrasing of my views:

was misleading since, in my view, it is not the life of a human (i.e. person) that starts at conception but the life of the body that will become them but is not them yet - big difference.
Don't blame me if you are misinterpreting my stance. Please do read my wording and understand it - do not ignore it.","http://www.4forums.com/political/abortion-debates/12391-when-does-human-individuals-life-begin.html",345244,39
"1-8656_41_39_5",8656,1,"2009-02-27 10:52:00",1142,759,345250,"2009-02-27 10:37:00",385875,183,39,"I'm glad you do. I was starting to wonder...

I can agree with 2 and 3, but 1 needs to have a very important condition. Namely, as it stands, the statement would be interpreted in the way that all it takes to be a human being is for the thing to be a biological organism. I would strongly disagree with that. That may be true for mammals, where I would probably even still use the term ""horse"" for a living horse body with no brain (perhaps others interpret more meaning into the word ""horse"" but I did not get that general impression). 
So, I would split 1 into two parts (and please pay attention to the wording this time):
1a: That mammals (excluding human beings) are biological ""organisms"" and can be defined purely on those terms.
1b: That human beings are biological ""organisms"" but also contain the critical aspect of a mental existence.",385873,5,8656,1,"Ok, AO, we seem to be chasing each other around in circles... let me try another approach.
I know and have known all along that you do not agree that a ""person's"" life begins at and by their conception. As, it's clear from your posts that you see a ""person"" as something more than just an organism that just happens to be of the ""human"" species. 
I get it.","http://www.4forums.com/political/abortion-debates/12391-when-does-human-individuals-life-begin.html",345246,41
"1-8656_42_41_5",8656,1,"2009-02-27 11:12:00",759,1142,345253,"2009-02-27 10:52:00",385876,39,41,"Before I attempt a lengthy post addressing this issue once again,... let me ask.
""Does it matter to you that the scientific community defines ""human beings"" differently than you do AO?""",385875,5,8656,1,"I'm glad you do. I was starting to wonder...

I can agree with 2 and 3, but 1 needs to have a very important condition. Namely, as it stands, the statement would be interpreted in the way that all it takes to be a human being is for the thing to be a biological organism. I would strongly disagree with that. That may be true for mammals, where I would probably even still use the term ""horse"" for a living horse body with no brain (perhaps others interpret more meaning into the word ""horse"" but I did not get that general impression). 
So, I would split 1 into two parts (and please pay attention to the wording this time):
1a: That mammals (excluding human beings) are biological ""organisms"" and can be defined purely on those terms.
1b: That human beings are biological ""organisms"" but also contain the critical aspect of a mental existence.","http://www.4forums.com/political/abortion-debates/12391-when-does-human-individuals-life-begin.html",345250,42
"1-8656_44_42_5",8656,1,"2009-02-27 11:20:00",1142,759,345257,"2009-02-27 11:12:00",385878,90,42,"The very website that you used to define your terms in your opening post defines human being as the following (from http://dictionary.reference.com/browse/human%20being ):

The first purely biological definition pertains only in the context of purely biological discussions of humans (ex. the biological differences between humans and animals), not in the social context we are discussing.
The second definition is far more relevant to the abortion debate and that definition defines human being as person - just as I have been using it.",385876,5,8656,1,"Before I attempt a lengthy post addressing this issue once again,... let me ask.
""Does it matter to you that the scientific community defines ""human beings"" differently than you do AO?""","http://www.4forums.com/political/abortion-debates/12391-when-does-human-individuals-life-begin.html",345253,44
"1-8656_45_44_5",8656,1,"2009-02-27 11:31:00",759,1142,345258,"2009-02-27 11:20:00",385879,41,44,"WE?
How many posts do you want me to cite where I specifically said I am ONLY asking about the BIOLOGICAL aspects, AO?
You even participated in helping me prove that aspect using horses instead of humans.",385878,5,8656,1,"The very website that you used to define your terms in your opening post defines human being as the following (fromhuman being definition | Dictionary.com ):
The first purely biological definition pertains only in the context of purely biological discussions of humans (ex. the biological differences between humans and animals), not in the social context we are discussing.
The second definition is far more relevant to the abortion debate and that definition defines human being as person - just as I have been using it.","http://www.4forums.com/political/abortion-debates/12391-when-does-human-individuals-life-begin.html",345257,45
"1-8656_47_45_5",8656,1,"2009-02-27 12:43:00",1142,759,345267,"2009-02-27 11:31:00",385881,192,45,"But the topic under discussion is clearly abortion. We are not about to discuss whether humans have gills. It is obvious that one uses the definition that is most relevant to the topic. Even if you start speaking biologically and then change to social, then you cannot logically use any conclusions drawn from the purely biological discussion since any terminology used in biological discussions only would have to be reworded once you change to a social context. I have no doubt that you would then distort our views by quoting us from the biological discussion without taking that change of definitions into account. I will play no part in such a dishonest debate. 
So, stick to the relevant definition (i.e. person) or you lose me as a debater on this thread. Yes, I do mean that as a threat. You can go ahead and keep going with the other debaters and I will just watch with amusement as you try to force a dishonest debate on the others while they, hopefully, continue to foil your efforts.",385879,5,8656,1,"WE?
How many posts do you want me to cite where I specifically said I am ONLY asking about the BIOLOGICAL aspects, AO?
You even participated in helping me prove that aspect using horses instead of humans.","http://www.4forums.com/political/abortion-debates/12391-when-does-human-individuals-life-begin.html",345258,47
