"key","quote_source_post_discussion_id","posts_dataset_id","posts_timestamp","posts_author_id","quote_source_author_id","posts_native_post_id","quote_source_timestamp","post_text_id","Word_Count","quote_source_post_id","post_text","quote_source_text_id","Dialog_Turn","posts_discussion_id","quote_source_post_dataset_id","Fullquote_text","discussion_url","quote_source_native_post_id","posts_post_id"
"1-8662_35_34_1",8662,1,"2009-03-06 16:41:00",759,164,346273,"2009-03-06 15:26:00",386471,67,34,"When you agrre and accept the fact that a human individual's life biologicaklly begins at and by their conception, Chester? Then I will move on to some of the other aspects of the debate.
It makes no logical sense to debate the ""what if's"" and the ""what whens"" if we can't agree on the ""what is.""
emoticonXIdea",386470,1,8662,1,"Some folks will go to any length to keep from discussing the real topic.
Who gets to determine the future of a woman's pregnancy - the nanny state or the woman herself?
Chuz, you are quite verbose on other topics. Why do you not hazard an answer to a rather simple question?","http://www.4forums.com/political/abortion-debates/12397-truly-caring-about-human-individuals.html",346265,35
"1-8662_36_35_1",8662,1,"2009-03-06 17:34:00",164,759,346279,"2009-03-06 16:41:00",386472,33,35,"Why not just shuffle off to Buffalo?
Face facts. 
You don't want to deal with the question, because you haven't thought through the ramifications of your absurd POV.emoticonXAngry",386471,1,8662,1,"When you agrre and accept the fact that a human individual's life biologicaklly begins at and by their conception, Chester? Then I will move on to some of the other aspects of the debate.
It makes no logical sense to debate the ""what if's"" and the ""what whens"" if we can't agree on the ""what is.""
emoticonXIdea","http://www.4forums.com/political/abortion-debates/12397-truly-caring-about-human-individuals.html",346273,36
"1-8662_37_36_1",8662,1,"2009-03-06 17:37:00",759,164,346281,"2009-03-06 17:34:00",386473,25,36,"You are so confident in your views, Chester... Why don't you challenge me to a moderated one on one debate?
emoticonXChicken ?",386472,1,8662,1,"Why not just shuffle off to Buffalo?
Face facts. 
You don't want to deal with the question, because you haven't thought through the ramifications of your absurd POV.emoticonXAngry","http://www.4forums.com/political/abortion-debates/12397-truly-caring-about-human-individuals.html",346279,37
"1-8662_38_37_1",8662,1,"2009-03-06 18:12:00",164,759,346285,"2009-03-06 17:37:00",386474,86,37,"Why don't you put your views out here for all to see?emoticonXConfused
Mine are clear. No one, NO ONE - not you, not I, not the government - NO ONE but the pregnant woman has the right to an opinion on the question of whether or not she chooses to carry her pregnancy to term. She and she alone has the right to make the choice.
Can that be any clearer?
Now what is YOUR POV.",386473,1,8662,1,"You are so confident in your views, Chester... Why don't you challenge me to a moderated one on one debate?
emoticonXChicken ?","http://www.4forums.com/political/abortion-debates/12397-truly-caring-about-human-individuals.html",346281,38
"1-8662_39_38_1",8662,1,"2009-03-06 19:45:00",759,164,346286,"2009-03-06 18:12:00",386475,227,38,"My point of view is quite simple;
""I believe a person's rights begin when their life does and not just when society can't justify their denial any longer.""
""My point of view is that all else (where abortion is concerned) is secondary to that fact.""
Now, Chester,... so far no-one wants to be honest and admit that all your side has is ""denial"" going for them. So here I will remain fixated until we can all agree that (at least) biologically a human individual's life begins at and by their conception.
And so far, it has been working out great for me by the way. I'm discovering all sorts of new links and references and ways of supporting my views while being here. And all that will be reflected in my website some day (soon I hope.)
So, (so far as I am concerned) the sooner you and some others want to acknowledge that a human being's life biologically begins at conception, the sooner we can move on to other aspects of the issue. You can start whatever threads you want to without me. But I won't be there until this one is resolved, here.",386474,1,8662,1,"Why don't you put your views out here for all to see?emoticonXConfused
Mine are clear. No one, NO ONE - not you, not I, not the government - NO ONE but the pregnant woman has the right to an opinion on the question of whether or not she chooses to carry her pregnancy to term. She and she alone has the right to make the choice.
Can that be any clearer?
Now what is YOUR POV.","http://www.4forums.com/political/abortion-debates/12397-truly-caring-about-human-individuals.html",346285,39
"1-8662_43_39_1",8662,1,"2009-03-07 07:08:00",164,759,346322,"2009-03-06 19:45:00",386479,106,39,"See, I don't have to prove a single thing.
Your handle here says it all when you entitle yourself what you do.
That's a ringing endorsement of the pro-choice position.emoticonXAgree
If a pregnant woman chooses to carry her pregnancy to term, your handle supports that; if she makes a different choice, your handle supports that as well. That's the essence of our POV.
I would say, ""Welcome to the pro-choice side of the issue."", but I don't need to. Your handle here indicates that you are already among us.",386475,1,8662,1,"My point of view is quite simple;
""I believe a person's rights begin when their life does and not just when society can't justify their denial any longer.""
""My point of view is that all else (where abortion is concerned) is secondary to that fact.""
Now, Chester,... so far no-one wants to be honest and admit that all your side has is ""denial"" going for them. So here I will remain fixated until we can all agree that (at least) biologically a human individual's life begins at and by their conception.
And so far, it has been working out great for me by the way. I'm discovering all sorts of new links and references and ways of supporting my views while being here. And all that will be reflected in my website some day (soon I hope.)
So, (so far as I am concerned) the sooner you and some others want to acknowledge that a human being's life biologically begins at conception, the sooner we can move on to other aspects of the issue. You can start whatever threads you want to without me. But I won't be there until this one is resolved, here.","http://www.4forums.com/political/abortion-debates/12397-truly-caring-about-human-individuals.html",346286,43
"1-8662_46_43_1",8662,1,"2009-03-07 07:49:00",759,164,346332,"2009-03-07 07:08:00",386482,224,43,"I have always been ""pro-choice,"" Chester. (You never bothered to ask the questions that would have revealed that) I'm ""pro-choice"" for all people... Even criminals! We all make ""choices"" in life and I wouldn't want anyone messing with my right to choose anything. Nor do I seek to control anyone elses right to ""choose."" Choice is an inherent part of our human nature.
However, (unlike you,where elective abortion is concerned)... I believe that there are justifications for having consequences for some of the ""choices"" people make. Your right to swing your fists (for example) ends at the tip of someone else's nose. You may have the ""right to choose"" to rape or molest someone,... But you don't have the right to violate another's rights without fear of consequences. (or without the expectation that there could be consequences, either.) Your rights end where another's rights begin. (keyword: begin)
You say that you believe a person's right to their life should begin when their life does,... yet you run from the debate of when that moment occurs.
It's very telling.",386479,1,8662,1,"See, I don't have to prove a single thing.
Your handle here says it all when you entitle yourself what you do.
That's a ringing endorsement of the pro-choice position.emoticonXAgree
If a pregnant woman chooses to carry her pregnancy to term, your handle supports that; if she makes a different choice, your handle supports that as well. That's the essence of our POV.
I would say, ""Welcome to the pro-choice side of the issue."", but I don't need to. Your handle here indicates that you are already among us.","http://www.4forums.com/political/abortion-debates/12397-truly-caring-about-human-individuals.html",346322,46
"1-8662_47_46_1",8662,1,"2009-03-07 10:58:00",164,759,346354,"2009-03-07 07:49:00",386483,59,46,"Sorry to disappoint you, but I have been consistent throughout the time that I have been posting here.
A person's life begins with their first breath, not before.
Now, who do you think is better able to determine the future of a woman's pregnancy - the nanny state or the woman herself?:)",386482,1,8662,1,"I have always been ""pro-choice,"" Chester. (You never bothered to ask the questions that would have revealed that) I'm ""pro-choice"" for all people... Even criminals! We all make ""choices"" in life and I wouldn't want anyone messing with my right to choose anything. Nor do I seek to control anyone elses right to ""choose."" Choice is an inherent part of our human nature.
However, (unlike you,where elective abortion is concerned)... I believe that there are justifications for having consequences for some of the ""choices"" people make. Your right to swing your fists (for example) ends at the tip of someone else's nose. You may have the ""right to choose"" to rape or molest someone,... But you don't have the right to violate another's rights without fear of consequences. (or without the expectation that there could be consequences, either.) Your rights end where another's rights begin. (keyword: begin)
You say that you believe a person's right to their life should begin when their life does,... yet you run from the debate of when that moment occurs.
It's very telling.","http://www.4forums.com/political/abortion-debates/12397-truly-caring-about-human-individuals.html",346332,47
