"key","quote_source_post_discussion_id","posts_dataset_id","posts_timestamp","posts_author_id","quote_source_author_id","posts_native_post_id","quote_source_timestamp","post_text_id","Word_Count","quote_source_post_id","post_text","quote_source_text_id","Dialog_Turn","posts_discussion_id","quote_source_post_dataset_id","Fullquote_text","discussion_url","quote_source_native_post_id","posts_post_id"
"1-8839_97_96_1",8839,1,"2009-05-20 13:44:00",749,44,354432,"2009-05-20 13:03:00",393889,33,96,"Pregnancy is not a punishment. Even if it were, I would rather be brought into the world as a punishment than to never be brought into the world at all.",393888,1,8839,1,"There are any number of reasons why a sexually active woman might not use contraception. Some valid and some borne of ignorance. As far as being abstinent as a sure-fire method for not getting pregnant, I doubt this is acceptable to most modern women. Pregnancy as punishment is a poor way to bring a life into this world IMO. Pregnancy is not indicative of promiscuity either.
I don't know what truth is, I only know when what someone is saying isn't.","http://www.4forums.com/political/abortion-debates/12644-what-does-take-change-your-mind-about-abortion.html",354425,97
"1-8839_99_97_1",8839,1,"2009-05-20 13:58:00",44,749,354437,"2009-05-20 13:44:00",393891,13,97,"It would be difficult to make this observation given the latter scenario.",393889,1,8839,1,"Pregnancy is not a punishment. Even if it were, I would rather be brought into the world as a punishment than to never be brought into the world at all.","http://www.4forums.com/political/abortion-debates/12644-what-does-take-change-your-mind-about-abortion.html",354432,99
"1-8839_100_99_1",8839,1,"2009-05-20 14:04:00",749,44,354439,"2009-05-20 13:58:00",393892,22,99,"It would be difficult to make this observation given the latter scenario.[/quote]
What scenario is that?",393891,1,8839,1,"It would be difficult to make this observation given the latter scenario.","http://www.4forums.com/political/abortion-debates/12644-what-does-take-change-your-mind-about-abortion.html",354437,100
"1-8839_102_100_1",8839,1,"2009-05-20 14:08:00",44,749,354441,"2009-05-20 14:04:00",393894,35,100,"Firstly, the punishment I meant was to the mother not the baby. Secondly, if you were never brought into the world, you'd have no opinion on that fact either way.",393892,1,8839,1,"It would be difficult to make this observation given the latter scenario.[/quote]
What scenario is that?","http://www.4forums.com/political/abortion-debates/12644-what-does-take-change-your-mind-about-abortion.html",354439,102
"1-8839_103_102_1",8839,1,"2009-05-20 14:12:00",749,44,354443,"2009-05-20 14:08:00",393895,51,102,"I am perfectly aware of that. Pregnancy is not a punishment.

You would have no opinion regarding whether or not pregnancy is a punishment? Is that what you mean? If so, somebody not having an opinion on something does not make anyone else's opinions false.",393894,1,8839,1,"Firstly, the punishment I meant was to the mother not the baby. Secondly, if you were never brought into the world, you'd have no opinion on that fact either way.","http://www.4forums.com/political/abortion-debates/12644-what-does-take-change-your-mind-about-abortion.html",354441,103
"1-8839_104_103_1",8839,1,"2009-05-20 14:44:00",44,749,354452,"2009-05-20 14:12:00",393896,57,103,"Being denied access to abortion when dealing with an unwanted pregnancy and forced against your will to carry to term amounts to punishment. Punishment for what? For having sex of course. The real issue for moralizers.

The opinions of folks who never existed trouble me little. Methinks you're being pointlessly argumentative.",393895,1,8839,1,"I am perfectly aware of that. Pregnancy is not a punishment.

You would have no opinion regarding whether or not pregnancy is a punishment? Is that what you mean? If so, somebody not having an opinion on something does not make anyone else's opinions false.","http://www.4forums.com/political/abortion-debates/12644-what-does-take-change-your-mind-about-abortion.html",354443,104
