"key","quote_source_post_discussion_id","posts_dataset_id","posts_timestamp","posts_author_id","quote_source_author_id","posts_native_post_id","quote_source_timestamp","post_text_id","Word_Count","quote_source_post_id","post_text","quote_source_text_id","Dialog_Turn","posts_discussion_id","quote_source_post_dataset_id","Fullquote_text","discussion_url","quote_source_native_post_id","posts_post_id"
"1-9030_44_43_1",9030,1,"2009-07-28 05:58:00",51,759,362623,"2009-07-28 05:52:00",403776,58,43,"I respect everyone's opinion no matter how wrong they may be :) With abortion you have a unique situation in that no person's opinion is above anyone elses because there is no human authority on the matter. Human's don't get to decide the value of other human's. You get value from an authority above you.",403775,1,9030,1,"Do you respect anyone's opinions or authority onany subject, Steeeve?","http://www.4forums.com/political/abortion-debates/12994-does-human-zygote-have-rights.html",362620,44
"1-9030_46_44_1",9030,1,"2009-07-28 06:12:00",759,51,362628,"2009-07-28 05:58:00",403778,124,44,"Steeeve where are you getting this value angle from?
People have a right to their lives regardless of the value of that life as determined by others. Don't they?
So, if a child is alive,.... no matter what stage of life, growth or development they are in,... they have a right to the life they are living.
Don't they?
I don't get this ""value"" angle.
We have established that human beings have a right to their lives.
A prebirth child is a human being
So, a prebirth child should have a right to their life. 
The life that they are already living.
Simple as that.",403776,1,9030,1,"I respect everyone's opinion no matter how wrong they may be :) With abortion you have a unique situation in that no person's opinion is above anyone elses because there is no human authority on the matter. Human's don't get to decide the value of other human's. You get value from an authority above you.","http://www.4forums.com/political/abortion-debates/12994-does-human-zygote-have-rights.html",362623,46
"1-9030_50_46_1",9030,1,"2009-07-29 06:51:00",51,759,362859,"2009-07-28 06:12:00",403782,130,46,"I argue that value comes from something higher than what is being valued. So for example, I can't decide your value is less than mine, have that be universally true, and therefore make you my slave. We have a history in this country of thinking we can place values on ourselves and we try to arbitrarily create a definition based upon your own criteria you are giving to yourself. It actually creates a circular argument because you assume you have authority to give yourself value but you'd have to have value to do so and it makes a big circle. 

They have the same rights your or I do. The DOI said it best..right are endowed by our creator.",403778,1,9030,1,"Steeeve where are you getting this value angle from?
People have a right to their lives regardless of the value of that life as determined by others. Don't they?
So, if a child is alive,.... no matter what stage of life, growth or development they are in,... they have a right to the life they are living.
Don't they?
I don't get this ""value"" angle.
We have established that human beings have a right to their lives.
A prebirth child is a human being
So, a prebirth child should have a right to their life. 
The life that they are already living.
Simple as that.","http://www.4forums.com/political/abortion-debates/12994-does-human-zygote-have-rights.html",362628,50
"1-9030_51_50_1",9030,1,"2009-07-29 07:45:00",759,51,362864,"2009-07-29 06:51:00",403783,57,50,"Right,... so tell me at what point (I conclude that it's conception) is it that those rights are endowed in a new person's life? Then tell me how to prove that point to others in a forum that stresses a separation (that i agree with) between church and state.",403782,1,9030,1,"I argue that value comes from something higher than what is being valued. So for example, I can't decide your value is less than mine, have that be universally true, and therefore make you my slave. We have a history in this country of thinking we can place values on ourselves and we try to arbitrarily create a definition based upon your own criteria you are giving to yourself. It actually creates a circular argument because you assume you have authority to give yourself value but you'd have to have value to do so and it makes a big circle. 

They have the same rights your or I do. The DOI said it best..right are endowed by our creator.","http://www.4forums.com/political/abortion-debates/12994-does-human-zygote-have-rights.html",362859,51
"1-9030_52_51_1",9030,1,"2009-07-29 08:21:00",51,759,362867,"2009-07-29 07:45:00",403784,167,51,"It is largely irrelevant because if you take my argument that we aren't able to determine value of humans to begin with than abortion is already out of the question. And a right to life can be taken away from the person that granted it. 
Separation of church and state is a bogus argument in my opinion. It has gotten to the point where if a certain issue has a majority (not 100%) support by a religion than you can't make it a law. This is a perversion of what Jefferson said and frankly if you read the rest of his work he didn't mean it to be more than the state to stay out of the churches business. He never meant, and no one meant, that you can't have a moral code from a religion and based upon that vote for or against moral laws. Abortion laws and separation of church and state are unrelated.",403783,1,9030,1,"Right,... so tell me at what point (I conclude that it's conception) is it that those rights are endowed in a new person's life? Then tell me how to prove that point to others in a forum that stresses a separation (that i agree with) between church and state.","http://www.4forums.com/political/abortion-debates/12994-does-human-zygote-have-rights.html",362864,52
"1-9030_54_52_1",9030,1,"2009-07-29 09:10:00",759,51,362875,"2009-07-29 08:21:00",403786,95,52,"Ok,... I've read that twice really slow. 
I got nuthin from it. 

I don't disagree with your conclusion.
I do think that the arguments against elective abortion can and should be made without a religious basis when it is being presented to people who are not interested in a religious perspective,... or who are actually offended by it.
I for one oppose elective abortion. But I can not stand anyone getting in my face about religion, god or souls. 
But that's just me.",403784,1,9030,1,"if you take my argument that we aren't able to determine value of humans to begin with then abortion is already out of the question. And a right to life can be taken away from the person that granted it.","http://www.4forums.com/political/abortion-debates/12994-does-human-zygote-have-rights.html",362867,54
"1-9030_10_9_2",9030,1,"2009-07-23 07:57:00",759,1033,361862,"2009-07-23 07:53:00",403742,109,9,"You can always ask, Accipter. 
Of course, you should be mindfull of the fact that extablishing the rights of gametes cells would also result in laws against elective abortion. So, While I get your sarcasm and see where you are going with your comments,.... You would not be doing the ""pro-choice on elective abortion"" movement any favors by taking it further than 'conception.'
Brief pause,....
""You know what, Accipiter,.... I think you should lead the way and demand human rights for human Gametes cells!""
You can do it!",403741,2,9030,1,"Does a human zygote have rights?
Why stop there, why not ask if sperm and eggs have rights?
What about human DNA does it has rights?","http://www.4forums.com/political/abortion-debates/12994-does-human-zygote-have-rights.html",361861,10
"1-9030_19_10_2",9030,1,"2009-07-23 16:08:00",1033,759,361939,"2009-07-23 07:57:00",403751,19,10,"I wouldn’t defend it because it's ridiculous.

And now you are defending it.",403742,2,9030,1,"You can always ask, Accipter. 
Of course, you should be mindfull of the fact that extablishing the rights of gametes cells would also result in laws against elective abortion. So, While I get your sarcasm and see where you are going with your comments,.... You would not be doing the ""pro-choice on elective abortion"" movement any favors by taking it further than 'conception.'
Brief pause,....
""You know what, Accipiter,.... I think you should lead the way and demand human rights for human Gametes cells!""
You can do it!","http://www.4forums.com/political/abortion-debates/12994-does-human-zygote-have-rights.html",361862,19
"1-9030_20_19_2",9030,1,"2009-07-23 16:11:00",759,1033,361940,"2009-07-23 16:08:00",403752,15,19,"Do you mean to say those scientists don't know what they are talking about?",403751,2,9030,1,"I wouldn’t defend it because it's ridiculous.

And now you are defending it.","http://www.4forums.com/political/abortion-debates/12994-does-human-zygote-have-rights.html",361939,20
"1-9030_22_20_2",9030,1,"2009-07-23 16:13:00",1033,759,361942,"2009-07-23 16:11:00",403754,8,20,"they have a right to an opinion.",403752,2,9030,1,"Do you mean to say those scientists don't know what they are talking about?","http://www.4forums.com/political/abortion-debates/12994-does-human-zygote-have-rights.html",361940,22
"1-9030_24_22_2",9030,1,"2009-07-23 19:42:00",759,1033,361971,"2009-07-23 16:13:00",403756,22,22,"Don't we all?
Tell me Accipiter,... ""when do you think a human individual's life biologically begins?""",403754,2,9030,1,"they have a right to an opinion.","http://www.4forums.com/political/abortion-debates/12994-does-human-zygote-have-rights.html",361942,24
