"key","quote_source_post_discussion_id","posts_dataset_id","posts_timestamp","posts_author_id","quote_source_author_id","posts_native_post_id","quote_source_timestamp","post_text_id","Word_Count","quote_source_post_id","post_text","quote_source_text_id","Dialog_Turn","posts_discussion_id","quote_source_post_dataset_id","Fullquote_text","discussion_url","quote_source_native_post_id","posts_post_id"
"1-9062_11_10_1",9062,1,"2009-07-31 07:51:00",366,51,363215,"2009-07-31 07:24:00",405905,48,10,"Wrong. I do have a personal moral objection to abortion. I just don't attempt to foist my personal morals on others. What they do is their business. 

Next time an ""unborn person"" makes a choice...you give me a call.",405904,1,9062,1,"So you have no personal moral objection to it you just choose not to do it. I guess it would be something like having no real problem with eating cake you just never real want to. Ha, that's the best I could come up with :)

Some people judge but that has nothing to do with abortion being right or wrong. Seems there is always a disconnect in the arguments of abortion. No one objects to a person choosing what is right for themselves. No one objects to the idea that murdering a person is wrong. The disconnect is that pro-life people feel the unborn is a person and therefore should choose for themselves and thus abortion would be the same thing as if you killed me. So pro-life folks never see it as a one-party problem but as a two-party problem.","http://www.4forums.com/political/abortion-debates/13045-pro-choice-but-anti-abortion.html",363212,11
"1-9062_13_11_1",9062,1,"2009-07-31 10:50:00",51,366,363236,"2009-07-31 07:51:00",405907,24,11,"Sorry, I thought that is what you meant. What is the moral objection? Do you feel it is killing someone?",405905,1,9062,1,"Wrong. I do have a personal moral objection to abortion. I just don't attempt to foist my personal morals on others. What they do is their business. 

Next time an ""unborn person"" makes a choice...you give me a call.","http://www.4forums.com/political/abortion-debates/13045-pro-choice-but-anti-abortion.html",363215,13
"1-9062_15_13_1",9062,1,"2009-07-31 14:11:00",366,51,363261,"2009-07-31 10:50:00",405909,124,13,"Well, killing an embryo or a fetus, I wouldn't call it killing a ""someone"". We feel that if we produce a life, it is our responsibility to take care of it. Balance that with the fact that we would have no problem with having an abortion in the event of pregnancy resulting from rape or grave danger to her health. So am I personally opposed to killing an embryo or fetus simply as a matter of birth control...yes. Am I opposed to others making the choice for themselves...not at all. 
I have a choice, and I choose no. But I am very glad I have the choice.",405907,1,9062,1,"Sorry, I thought that is what you meant. What is the moral objection? Do you feel it is killing someone?","http://www.4forums.com/political/abortion-debates/13045-pro-choice-but-anti-abortion.html",363236,15
"1-9062_52_15_1",9062,1,"2009-08-03 06:21:00",51,366,363689,"2009-07-31 14:11:00",405946,32,15,"I guess I just don't understand why you place value on an embryo or fetus but this is clearly less value than a born person. Do I understand that correctly?",405909,1,9062,1,"Well, killing an embryo or a fetus, I wouldn't call it killing a ""someone"". We feel that if we produce a life, it is our responsibility to take care of it. Balance that with the fact that we would have no problem with having an abortion in the event of pregnancy resulting from rape or grave danger to her health. So am I personally opposed to killing an embryo or fetus simply as a matter of birth control...yes. Am I opposed to others making the choice for themselves...not at all. 
I have a choice, and I choose no. But I am very glad I have the choice.","http://www.4forums.com/political/abortion-debates/13045-pro-choice-but-anti-abortion.html",363261,52
"1-9062_56_52_1",9062,1,"2009-08-03 11:01:00",366,51,363726,"2009-08-03 06:21:00",405950,136,52,"I'm not sure if you do or not. I'm not sure why you think I value a fetus more or less than a ""born person"". Can you explain what you mean by that?
Basically, my wife and I will not participate in an elective abortion, we simply could not bring ourselves to kill the fetus that will eventually become our child. Aside from that, I could give two hoots about what anyone else wants to do. I view it as a personal decision, and everyone should have the right to decide what is best for themselves, not have their actions dictated to them by others with different beliefs. Remember, pro-choice only means having that option...it does not mean pro-abortion.",405946,1,9062,1,"I guess I just don't understand why you place value on an embryo or fetus but this is clearly less value than a born person. Do I understand that correctly?","http://www.4forums.com/political/abortion-debates/13045-pro-choice-but-anti-abortion.html",363689,56
"1-9062_57_56_1",9062,1,"2009-08-03 11:35:00",51,366,363730,"2009-08-03 11:01:00",405951,144,56,"Sorry, I'm honestly just trying to understand your position I have no heard it before and perhaps I'm assuming a few things. I'm saying do you value a born person more than an unborn in terms of what rights they are afforded. I'd assume you think I have the same right to life as some homeless guy on the corner...correct? If this is the case than I'd assume the unborn has less rights because you don't support any law to protect the unborn from being killed but you would for me and the homeless guy equally. To me that comes across as different value levels. 

But you do give two hoots about other people you don't know getting murdered, yes? This too is a personal decision of another (in many cases).",405950,1,9062,1,"I'm not sure if you do or not. I'm not sure why you think I value a fetus more or less than a ""born person"". Can you explain what you mean by that?
Basically, my wife and I will not participate in an elective abortion, we simply could not bring ourselves to kill the fetus that will eventually become our child. Aside from that, I could give two hoots about what anyone else wants to do. I view it as a personal decision, and everyone should have the right to decide what is best for themselves, not have their actions dictated to them by others with different beliefs. Remember, pro-choice only means having that option...it does not mean pro-abortion.","http://www.4forums.com/political/abortion-debates/13045-pro-choice-but-anti-abortion.html",363726,57
"1-9062_70_57_1",9062,1,"2009-08-03 19:01:00",366,51,363800,"2009-08-03 11:35:00",405964,91,57,"I guess it comes down to the fact that while I see both the fetus and the person synonymous with life, I do not see the fetus synonymous with the person. I don't really look at it as ""unborn person"" and ""born person"". There are people, and there are fetuses. I myself would always choose to allow that fetus to become a person, but some would choose not to. I support other peoples rights to make their own decisions.",405951,1,9062,1,"Sorry, I'm honestly just trying to understand your position I have no heard it before and perhaps I'm assuming a few things. I'm saying do you value a born person more than an unborn in terms of what rights they are afforded. I'd assume you think I have the same right to life as some homeless guy on the corner...correct? If this is the case than I'd assume the unborn has less rights because you don't support any law to protect the unborn from being killed but you would for me and the homeless guy equally. To me that comes across as different value levels. 

But you do give two hoots about other people you don't know getting murdered, yes? This too is a personal decision of another (in many cases).","http://www.4forums.com/political/abortion-debates/13045-pro-choice-but-anti-abortion.html",363730,70
"1-9062_77_70_1",9062,1,"2009-08-04 06:20:00",51,366,363836,"2009-08-03 19:01:00",405971,75,70,"Ok, so it is a different value. This is similar to what pets are to people (not the exact same I understand)...you don't want to see them killed and would protect that but if it came between the person and the pet the person's rights win. This is slightly different because you actually don't have a choice to slaughter your pets...as Michael Vick found out emoticonXHoho",405964,1,9062,1,"I guess it comes down to the fact that while I see both the fetus and the person synonymous with life, I do not see the fetus synonymous with the person. I don't really look at it as ""unborn person"" and ""born person"". There are people, and there are fetuses. I myself would always choose to allow that fetus to become a person, but some would choose not to. I support other peoples rights to make their own decisions.","http://www.4forums.com/political/abortion-debates/13045-pro-choice-but-anti-abortion.html",363800,77
"1-9062_79_77_1",9062,1,"2009-08-04 10:48:00",366,51,363869,"2009-08-04 06:20:00",405973,45,77,"No, Vick found out that people don't seem to like it when you take dogs and make them fight to the death for sport. 
You can however have your pet euthanized in a humane and painless way at almost any vets office.",405971,1,9062,1,"Ok, so it is a different value. This is similar to what pets are to people (not the exact same I understand)...you don't want to see them killed and would protect that but if it came between the person and the pet the person's rights win. This is slightly different because you actually don't have a choice to slaughter your pets...as Michael Vick found out emoticonXHoho","http://www.4forums.com/political/abortion-debates/13045-pro-choice-but-anti-abortion.html",363836,79
"1-9062_81_79_1",9062,1,"2009-08-04 13:11:00",51,366,363896,"2009-08-04 10:48:00",405975,6,79,"I was making a joke :)",405973,1,9062,1,"No, Vick found out that people don't seem to like it when you take dogs and make them fight to the death for sport. 
You can however have your pet euthanized in a humane and painless way at almost any vets office.","http://www.4forums.com/political/abortion-debates/13045-pro-choice-but-anti-abortion.html",363869,81
"1-9062_21_19_2",9062,1,"2009-08-01 19:49:00",759,865,363386,"2009-08-01 19:39:00",405915,95,19,"Can someone (anyone?) explain the logic in using a mischaracterized ancient act of a 'God' that not everyone believes in,.... to justify the killing of prebirth children in a present day situation?
And do so without adding any 'confusion?'
emoticonXDonno
I'm sorry CUNxTime,... but I can't stand it when anyone from either side of the abortion issue dumps religion back into the debate as though religion has anything more to do with it than the actual science and the Constitution does.",405913,2,9062,1,"Well I think that god must be a bit confused since he also says....
“Now therefore kill every male among the little ones, and kill every woman that hath known man by lying with him. But all the women children, that have not known a man by lying with him, keep alive for yourselves.” – Numbers 31:17-18
He doesn't seem to mind at least some retroactive abortions....","http://www.4forums.com/political/abortion-debates/13045-pro-choice-but-anti-abortion.html",363383,21
"1-9062_22_21_2",9062,1,"2009-08-01 20:44:00",865,759,363401,"2009-08-01 19:49:00",405916,7,21,"That was my whole POINT!!!! ;)",405915,2,9062,1,"Can someone (anyone?) explain the logic in using a mischaracterized ancient act of a 'God' that not everyone believes in,.... to justify the killing of prebirth children in a present day situation?
And do so without adding any 'confusion?'
emoticonXDonno
I'm sorry CUNxTime,... but I can't stand it when anyone from either side of the abortion issue dumps religion back into the debate as though religion has anything more to do with it than the actual science and the Constitution does.","http://www.4forums.com/political/abortion-debates/13045-pro-choice-but-anti-abortion.html",363386,22
"1-9062_24_22_2",9062,1,"2009-08-02 06:20:00",759,865,363472,"2009-08-01 20:44:00",405918,15,22,"That's great then, CunX !
I knew we had some common ground somewhere.",405916,2,9062,1,"That was my whole POINT!!!! ;)","http://www.4forums.com/political/abortion-debates/13045-pro-choice-but-anti-abortion.html",363401,24
"1-9062_30_24_2",9062,1,"2009-08-02 10:49:00",865,759,363517,"2009-08-02 06:20:00",405924,32,24,"I think we have lots of common ground in as much as govt. is concerned. It's when we get into religion and some social issues that our paths diverge...",405918,2,9062,1,"That's great then, CunX !
I knew we had some common ground somewhere.","http://www.4forums.com/political/abortion-debates/13045-pro-choice-but-anti-abortion.html",363472,30
"1-9062_35_30_2",9062,1,"2009-08-02 15:27:00",759,865,363580,"2009-08-02 10:49:00",405929,14,30,"When have we ever discussed religion, CUNx? 
I don't do religion.",405924,2,9062,1,"I think we have lots of common ground in as much as govt. is concerned. It's when we get into religion and some social issues that our paths diverge...","http://www.4forums.com/political/abortion-debates/13045-pro-choice-but-anti-abortion.html",363517,35
"1-9062_39_38_3",9062,1,"2009-08-02 17:05:00",759,865,363614,"2009-08-02 16:37:00",405933,186,38,"[QUOTE=CUNxTime;363604]

I'm curious. CUNx,... does the use of ridicule such as this help you to avoid confronting the reality of what those pictures showed? If it does, I can relate but only on a very childish sort of level.
Centuries ago when I was in driver education, we had to watch old films (yes, prior to VCR's and DVD players),... old grainy films of police documented crash scenes. Dead bodies hanging out of cars, children spralled out in a median, etc. I was so freaked out at one point that in order to regain control, I started softly chanting,... ""Peanuts, popcorn, chewing gum.""
I got in a lot of trouble, and it actually took me awhile to realize why I acted like such an #####.
I wasn't ready to deal that directly with that reality.
Since then, I wonder if I don't see the same behavior in others from time to time.",405932,3,9062,1,"[QUOTE]
That looks like a fun game...can I try?
""For he (whomever I'm supporting/following/worshipping at the moment) is god's servant to do you good (because I said so). But if you do wrong (i.e. something I don't agree with ATM) be afraid, for he does not bear the sword for nothing. He is God's servant (repeated enough maybe they'll believe it), an agent of wrath to bring punishment on the wrongdoer."" (i.e. people I say are bad).
Wow, with that kind of ####, you could justify anything.

I wish 'god' had made a perfect world.... too bad.

Instead of just putting the pics up the orginazation had to inject (no pun) themselves into the mix. Here's what they had to say (whilst surrounded by what they claim are fetus parts.

.","http://www.4forums.com/political/abortion-debates/13045-pro-choice-but-anti-abortion.html",363604,39
"1-9062_40_39_3",9062,1,"2009-08-02 18:02:00",865,759,363632,"2009-08-02 17:05:00",405934,128,39,"So you don't find the CBR's exploitation and callousness disgusting? If those are real and the CBR 'cares' that much, why the hell would they be playing around with them using pencils and such. Furthermore, if they're real, the CBR then was participating in abortions to help fight abortions. Furthermore, if they're so compassionate and 'geared up' how do they reconcile the whole.....These abortion pictures are available for download so long as you cite CBR as the image source, I mean ###!?!?! If they are real then they could speak for themselves but J/C ""Win a free book!"" and source citing instructions right next to the pics?",405933,3,9062,1,"[QUOTE=CUNxTime;363604]

I'm curious. CUNx,... does the use of ridicule such as this help you to avoid confronting the reality of what those pictures showed? If it does, I can relate but only on a very childish sort of level.
Centuries ago when I was in driver education, we had to watch old films (yes, prior to VCR's and DVD players),... old grainy films of police documented crash scenes. Dead bodies hanging out of cars, children spralled out in a median, etc. I was so freaked out at one point that in order to regain control, I started softly chanting,... ""Peanuts, popcorn, chewing gum.""
I got in a lot of trouble, and it actually took me awhile to realize why I acted like such an #####.
I wasn't ready to deal that directly with that reality.
Since then, I wonder if I don't see the same behavior in others from time to time.","http://www.4forums.com/political/abortion-debates/13045-pro-choice-but-anti-abortion.html",363614,40
"1-9062_41_40_3",9062,1,"2009-08-02 21:30:00",759,865,363664,"2009-08-02 18:02:00",405935,194,40,"If those are real?
I believe they are real, Cunx. But let's assume for a moment that those are somehow fake pictures. Is there any doubt as to what an aborted fetus would actually look like? Do you honestly think it would look any different?
Come on, think for a minute. The coins and pencils and such are to give a sense of scale as to how tiny the remains are and to show that however small, they have HUMAN characteristics. That they are not without a human form.
It's combining human attributes with objects that everyone of us are familiar with, as a means to show how small, yet human the aborted babies were. As for winning stuff, etc. You don't get how desperate we who oppose abortion are, CunX.
The fact is, many of us will try just about anything. As with the killing of Dr. Tiller,... even things which are wrong, illegal and counterproductive to the cause.
But that doesn't negate the validity of the cause itself.",405934,3,9062,1,"So you don't find the CBR's exploitation and callousness disgusting? If those are real and the CBR 'cares' that much, why the hell would they be playing around with them using pencils and such. Furthermore, if they're real, the CBR then was participating in abortions to help fight abortions. Furthermore, if they're so compassionate and 'geared up' how do they reconcile the whole.....These abortion pictures are available for download so long as you cite CBR as the image source, I mean ###!?!?! If they are real then they could speak for themselves but J/C ""Win a free book!"" and source citing instructions right next to the pics?","http://www.4forums.com/political/abortion-debates/13045-pro-choice-but-anti-abortion.html",363632,41
"1-9062_42_41_3",9062,1,"2009-08-02 21:46:00",865,759,363665,"2009-08-02 21:30:00",405936,114,41,"[QUOTE]
The only thing that gives me pause as to the validity of the pics is the disrespectful treatment they're receiving (By people who claim to have the utmost respect for them, at that!)

And I believe I gave them proper credit for having brought PROPS along to the abortions they'd scheduled to obtain their material.

I can understand your point. However, you've basically hired Glenn Beck to run your ad campaign.

Its hard for me to imagine that someone would was a fervent believer would be callous enough to provide citing instructions right with ground up fetus on display. Bad Business!",405935,3,9062,1,"If those are real?
I believe they are real, Cunx. But let's assume for a moment that those are somehow fake pictures. Is there any doubt as to what an aborted fetus would actually look like? Do you honestly think it would look any different?
Come on, think for a minute. The coins and pencils and such are to give a sense of scale as to how tiny the remains are and to show that however small, they have HUMAN characteristics. That they are not without a human form.
It's combining human attributes with objects that everyone of us are familiar with, as a means to show how small, yet human the aborted babies were. As for winning stuff, etc. You don't get how desperate we who oppose abortion are, CunX.
The fact is, many of us will try just about anything. As with the killing of Dr. Tiller,... even things which are wrong, illegal and counterproductive to the cause.
But that doesn't negate the validity of the cause itself.","http://www.4forums.com/political/abortion-debates/13045-pro-choice-but-anti-abortion.html",363664,42
"1-9062_43_42_3",9062,1,"2009-08-02 21:50:00",759,865,363666,"2009-08-02 21:46:00",405937,56,42,"Bad enough to cause you to turn a blind eye to the killings?
I'm not being sarcastic here,... I really want to know if you would use the questionable tactics of a site like the one linked to,... to justify turning a blind eye to the reality of elective abortions.",405936,3,9062,1,"[QUOTE]
The only thing that gives me pause as to the validity of the pics is the disrespectful treatment they're receiving (By people who claim to have the utmost respect for them, at that!)

And I believe I gave them proper credit for having brought PROPS along to the abortions they'd scheduled to obtain their material.

I can understand your point. However, you've basically hired Glenn Beck to run your ad campaign.

Its hard for me to imagine that someone would was a fervent believer would be callous enough to provide citing instructions right with ground up fetus on display. Bad Business!","http://www.4forums.com/political/abortion-debates/13045-pro-choice-but-anti-abortion.html",363665,43
"1-9062_44_43_3",9062,1,"2009-08-02 22:25:00",865,759,363667,"2009-08-02 21:50:00",405938,84,43,"No. My beliefs aren't informed by hyperbolic, cynical, hypocritical propaganda. The CBR seems to be a sick group but they'll not effect my beliefs. I wish we lived in a perfect world where no abortions were ever needed. Since that is not the case, we've got to let the person who'd have to carry the baby to term decide how her body. Otherwise, women will not be truly free to set their own destiny.",405937,3,9062,1,"Bad enough to cause you to turn a blind eye to the killings?
I'm not being sarcastic here,... I really want to know if you would use the questionable tactics of a site like the one linked to,... to justify turning a blind eye to the reality of elective abortions.","http://www.4forums.com/political/abortion-debates/13045-pro-choice-but-anti-abortion.html",363666,44
"1-9062_46_44_3",9062,1,"2009-08-03 05:18:00",759,865,363679,"2009-08-02 22:25:00",405940,51,44,"Interesting take, Cunx. So,how do you reconcile that with the belief (if you have it) that one person's rights end where another person's rights begin? Or do you disagree with the idea that no-one has the right to violate the rights of another?",405938,3,9062,1,"No. My beliefs aren't informed by hyperbolic, cynical, hypocritical propaganda. The CBR seems to be a sick group but they'll not effect my beliefs. I wish we lived in a perfect world where no abortions were ever needed. Since that is not the case, we've got to let the person who'd have to carry the baby to term decide how her body. Otherwise, women will not be truly free to set their own destiny.","http://www.4forums.com/political/abortion-debates/13045-pro-choice-but-anti-abortion.html",363667,46
"1-9062_48_46_3",9062,1,"2009-08-03 05:51:00",865,759,363684,"2009-08-03 05:18:00",405942,36,46,"I think we're retilling old ground here. I believe that the woman's rights superseedes that of the fetus. If she doesn't want to carry it, she can't be required to do so.",405940,3,9062,1,"Interesting take, Cunx. So,how do you reconcile that with the belief (if you have it) that one person's rights end where another person's rights begin? Or do you disagree with the idea that no-one has the right to violate the rights of another?","http://www.4forums.com/political/abortion-debates/13045-pro-choice-but-anti-abortion.html",363679,48
"1-9062_50_48_3",9062,1,"2009-08-03 06:04:00",759,865,363686,"2009-08-03 05:51:00",405944,159,48,"I actually envy you Cunx. You seem to have it all worked out to where you don't see any injustice in an elective abortion. For the life of me, I can not see how you can defend your position using the Constitution but I guess that's something you don't want to explore any further than we already have.
So, why? iI it's all so settled with you and you don't want to have to explain or defend your position (or provide a basis for your claims),.... why do you bother engage in these discussion at all?
Honestly, If I had your position and was as convinced as you seem to be,... I would get the hell out of here and other threads like it and move on to something else. In fact, that's the most tempting and appealing aspect of your comments!",405942,3,9062,1,"I think we're retilling old ground here. I believe that the woman's rights superseedes that of the fetus. If she doesn't want to carry it, she can't be required to do so.","http://www.4forums.com/political/abortion-debates/13045-pro-choice-but-anti-abortion.html",363684,50
"1-9062_53_50_3",9062,1,"2009-08-03 07:00:00",865,759,363691,"2009-08-03 06:04:00",405947,173,50,"[QUOTE]
I'm glad to be your hero. I don't know how much impetus I'm feeling to defend my position since the Supreme Court and the law of the land seem to agree with me.

Again, you keep asking me to explain and 'defend' my position and I have. My position is that a woman's right to walk into a Doctor and make decisions about her body does not require nor ALLOW us to interpose ourselves into the exam room. She should have the right embryo removed and control her own body. That's my explanation. My defense is US Law. 

I'm still hear waiting for your answer to my questions, namely...
Should we then appoint lawyers to represent the fetuses in cases of rape or incest? If they're constitutionally protected they have the right to due process. What about when the mother's life is at stake? How would that mitigate the constitutional rights of the fetus?",405944,3,9062,1,"I actually envy you Cunx. You seem to have it all worked out to where you don't see any injustice in an elective abortion. For the life of me, I can not see how you can defend your position using the Constitution but I guess that's something you don't want to explore any further than we already have.
So, why? iI it's all so settled with you and you don't want to have to explain or defend your position (or provide a basis for your claims),.... why do you bother engage in these discussion at all?
Honestly, If I had your position and was as convinced as you seem to be,... I would get the hell out of here and other threads like it and move on to something else. In fact, that's the most tempting and appealing aspect of your comments!","http://www.4forums.com/political/abortion-debates/13045-pro-choice-but-anti-abortion.html",363686,53
"1-9062_61_53_3",9062,1,"2009-08-03 17:43:00",759,865,363779,"2009-08-03 07:00:00",405955,24,53,"And when the laws run contrary to the sentiments expressed by (if not the letter of) the Constitution?
What then?",405947,3,9062,1,"[QUOTE]
I'm glad to be your hero. I don't know how much impetus I'm feeling to defend my position since the Supreme Court and the law of the land seem to agree with me.

Again, you keep asking me to explain and 'defend' my position and I have. My position is that a woman's right to walk into a Doctor and make decisions about her body does not require nor ALLOW us to interpose ourselves into the exam room. She should have the right embryo removed and control her own body. That's my explanation. My defense is US Law. 

I'm still hear waiting for your answer to my questions, namely...
Should we then appoint lawyers to represent the fetuses in cases of rape or incest? If they're constitutionally protected they have the right to due process. What about when the mother's life is at stake? How would that mitigate the constitutional rights of the fetus?","http://www.4forums.com/political/abortion-debates/13045-pro-choice-but-anti-abortion.html",363691,61
"1-9062_66_61_3",9062,1,"2009-08-03 18:16:00",865,759,363790,"2009-08-03 17:43:00",405960,10,61,"Well according to the Supreme Court abortion is constitutional.",405955,3,9062,1,"And when the laws run contrary to the sentiments expressed by (if not the letter of) the Constitution?
What then?","http://www.4forums.com/political/abortion-debates/13045-pro-choice-but-anti-abortion.html",363779,66
"1-9062_68_66_3",9062,1,"2009-08-03 18:30:00",759,865,363794,"2009-08-03 18:16:00",405962,40,66,"That's the rub, isn't it. 
The court was far from unanimous and the people have been split on the issue ever since. Not to mention the fact that the court is neither perfect, nor infallible.",405960,3,9062,1,"Well according to the Supreme Court abortion is constitutional.","http://www.4forums.com/political/abortion-debates/13045-pro-choice-but-anti-abortion.html",363790,68
