"key","quote_source_post_discussion_id","posts_dataset_id","posts_timestamp","posts_author_id","quote_source_author_id","posts_native_post_id","quote_source_timestamp","post_text_id","Word_Count","quote_source_post_id","post_text","quote_source_text_id","Dialog_Turn","posts_discussion_id","quote_source_post_dataset_id","Fullquote_text","discussion_url","quote_source_native_post_id","posts_post_id"
"1-9122_84_79_1",9122,1,"2009-08-24 16:38:00",1209,551,366618,"2009-08-24 15:28:00",409040,143,79,"True. That's why Jesus gave up on the prostitutes and tax collectors. Er, waitaminnit....

I'll leave it to ""these people"" to decide what they are or aren't interested in finding. But speaking as a Christian, I think their questions are entirely legitimate, and one can learn a lot by taking their questions seriously instead of dismissing them as uninterested in the truth.

How do you know that?
Indeed, how do you know that some haven't truly found him?
Have you considered the possibility that maybe you are the one who isn't looking very hard? or that maybe, whatever you may think you've found, you are mistaken?

I confess that I'm not sure ""they"" are the ones who fear that hell may awaith them....",409035,1,9122,1,"Why don't you atheists quit pussyfooting around. Just ask the ""dumb"" christians this one and be done with it.
If God can do anything, can he create a rock so big that He can not lift it?
There..., YOU WIN!! Debate concluded.., no need to go on. emoticonXHoho
As for my Christian brothers and sisters...., ""Pearls before SWINE...""
These people have absolutely no interest in knowing God or finding truthful answers to the preposterous questions they pose.
Not one of them has ever truly sought God, though they know enough to fear the hell that may await them. From what little knowledge they possess comes the wellspring of hatred for the God they refuse to acknowledge and continue to deny through vein attempts by winning word games in the battlefields of thier own minds.
There comes a time to shake the dust from your feet and move to a field whose harvest awaits you.","http://www.4forums.com/political/abortion-debates/13147-god-wrong-when-he-commanded-israelites-perform-abortions.html",366605,84
"1-9122_88_84_1",9122,1,"2009-08-24 17:40:00",551,1209,366630,"2009-08-24 16:38:00",409044,170,84,"Matthew 10:13-15 (New International Version)
13If the home is deserving, let your peace rest on it; if it is not, let your peace return to you. 14If anyone will not welcome you or listen to your words, shake the dust off your feet when you leave that home or town. 15I tell you the truth, it will be more bearable for Sodom and Gomorrah on the day of judgment than for that town.

You are very eloquent in your use of words and arguementation so it is not in my best interest to get into a jousting match with you. However, if you can not see the spirit behind these ""questions"" then perhaps you should look into your own vanity that motivates you to show everyone how smart you are??

Again I refer you to the spirit behind the ""questions""

Perhaps you should look into that...,",409040,1,9122,1,"True. That's why Jesus gave up on the prostitutes and tax collectors. Er, waitaminnit....

I'll leave it to ""these people"" to decide what they are or aren't interested in finding. But speaking as a Christian, I think their questions are entirely legitimate, and one can learn a lot by taking their questions seriously instead of dismissing them as uninterested in the truth.

How do you know that?
Indeed, how do you know that some haven't truly found him?
Have you considered the possibility that maybe you are the one who isn't looking very hard? or that maybe, whatever you may think you've found, you are mistaken?

I confess that I'm not sure ""they"" are the ones who fear that hell may awaith them....","http://www.4forums.com/political/abortion-debates/13147-god-wrong-when-he-commanded-israelites-perform-abortions.html",366618,88
"1-9122_97_88_1",9122,1,"2009-08-25 08:11:00",1209,551,366699,"2009-08-24 17:40:00",409053,229,88,"Fair enough. If you feel debate is pointless, don't bother.

Why not? You'll either come up with more rigorous ways of thinking about what you already believe, or you'll change your mind. Either way, you will be improved by the debate.

-sigh-
I have no doubt that some posters here have an antipathy toward religion. But of course, I think that is largely because so many religious people in this country refuse to take their questions seriously. Such religious believers attack the motives of the questioners (and of anyone who takes their questions seriously, of course -- as here). It is my contention that this thoroughly ad hominem tactic provokes the antipathy.
If you choose to dismiss rather than to engage, and if you (erroneously) suggest that you're really not cut out for engagement, yet you nonetheless request that others acquiesce to your beliefs in the public arena -- well, I'm sorry but that is bound to get a strong reaction. And it's the sort of thing that has been happening in this country for decades.
Instead of saying that you can't hack it with ""words and argumentation,"" why not give it a go? What are you afraid of?",409044,1,9122,1,"Matthew 10:13-15 (New International Version)
13If the home is deserving, let your peace rest on it; if it is not, let your peace return to you. 14If anyone will not welcome you or listen to your words, shake the dust off your feet when you leave that home or town. 15I tell you the truth, it will be more bearable for Sodom and Gomorrah on the day of judgment than for that town.

You are very eloquent in your use of words and arguementation so it is not in my best interest to get into a jousting match with you. However, if you can not see the spirit behind these ""questions"" then perhaps you should look into your own vanity that motivates you to show everyone how smart you are??

Again I refer you to the spirit behind the ""questions""

Perhaps you should look into that...,","http://www.4forums.com/political/abortion-debates/13147-god-wrong-when-he-commanded-israelites-perform-abortions.html",366630,97
"1-9122_109_97_1",9122,1,"2009-08-27 03:59:00",551,1209,366991,"2009-08-25 08:11:00",409065,211,97,"This was your response to my comment about casting pearls before swine...

This is my comment about prostitutes and tax collectors...
And then your response...

Debate is not pointless when there is an audience to convince, regardless of the topic. The audience may be a judge, an onlooker, or one of the participants. If you have a ""red letter"" Bible, you will find the scripture above writte in red. In other words Jesus Himself instructed His disciples, (who would later become apostles), not to waste their time in pointless debate. Then He punctuated His statment with a curse. 
As I stated earlier about your use of words and your ability to argue, I don't have the time nor the patience the play word games or play with symatics. I never said Jesus ""gave up"" on anybody, nor was my comment concerning pearls, advising anyone to give up on a ""seeker"". 
The comment WAS, however, directed at those who continually bash Christians whether the topic is abortion, homosexuality, or Sarah Palin. There comes a time to just walk away.",409053,1,9122,1,"Fair enough. If you feel debate is pointless, don't bother.

Why not? You'll either come up with more rigorous ways of thinking about what you already believe, or you'll change your mind. Either way, you will be improved by the debate.

-sigh-
I have no doubt that some posters here have an antipathy toward religion. But of course, I think that is largely because so many religious people in this country refuse to take their questions seriously. Such religious believers attack the motives of the questioners (and of anyone who takes their questions seriously, of course -- as here). It is my contention that this thoroughly ad hominem tactic provokes the antipathy.
If you choose to dismiss rather than to engage, and if you (erroneously) suggest that you're really not cut out for engagement, yet you nonetheless request that others acquiesce to your beliefs in the public arena -- well, I'm sorry but that is bound to get a strong reaction. And it's the sort of thing that has been happening in this country for decades.
Instead of saying that you can't hack it with ""words and argumentation,"" why not give it a go? What are you afraid of?","http://www.4forums.com/political/abortion-debates/13147-god-wrong-when-he-commanded-israelites-perform-abortions.html",366699,109
"1-9122_111_109_1",9122,1,"2009-08-27 09:15:00",1209,551,367028,"2009-08-27 03:59:00",409067,142,109,"Right. According to the author of Matthew, who was not an eyewitness to the life of Jesus, who wrote these words approximately fift years after Jesus' death, and who seems to have had liturgical purposes in mind as the Christian movement began to break away from Judaism and sought non-Jewish ways of understanding and expressing traditional Jewish ideas.

Who's playing word games or semantics? Not me. To the contrary, I'd say that so-called ""conservative Christianity"" has been playing games with the Bible for over a hundred years now.

Criticizing conservative Christianity is not equivalent to ""bashing Christians."" As a practicing Christian myself, I assure you that this is last thing I want.
Meanwhile, since when is Sarah Palin a ""Christian"" issue?",409065,1,9122,1,"...In other words Jesus Himself instructed His disciples, (who would later become apostles), not to waste their time in pointless debate. Then He punctuated His statment with a curse.","http://www.4forums.com/political/abortion-debates/13147-god-wrong-when-he-commanded-israelites-perform-abortions.html",366991,111
