"key","quote_source_post_discussion_id","posts_dataset_id","posts_timestamp","posts_author_id","quote_source_author_id","posts_native_post_id","quote_source_timestamp","post_text_id","Word_Count","quote_source_post_id","post_text","quote_source_text_id","Dialog_Turn","posts_discussion_id","quote_source_post_dataset_id","Fullquote_text","discussion_url","quote_source_native_post_id","posts_post_id"
"1-9634_17_16_1",9634,1,"2010-02-02 01:19:00",809,320,388543,"2010-02-01 12:13:00",432726,111,16,"You don't really care which side, you just like the argument, huh? 
Where is this type of abortion commonly done? Once they have finished ""ripping"" the unborn (abortion isn't very relevant once born) fetus from the womb what do they do with it? What do you suppose the primary reason for waiting until until the baby is crowning to abort? Seems odd to go thru 9 months and labor to change one's mind.
Why do suppose exaggeration and embellishment or an aversion to facts is necessary for some people who consider themselves pro life or at least anti choice?",432725,1,9634,1,"Yeah, reasonable people are OK with ripping unborn fetuses from their mother's wombs minutes before the baby would be born naturally! How dare those kooks try to defend the rights of the unborn fetus! emoticonXRolleyes","http://www.4forums.com/political/abortion-debates/13846-cold-blooded-murder.html",388503,17
"1-9634_21_17_1",9634,1,"2010-02-04 15:25:00",320,809,388944,"2010-02-02 01:19:00",432730,61,17,"If you weren't a newbie, you'd know that I was anti-abortion.

How many late-term abortions in which fully viable fetuses are killed are acceptable using your warped sense of morality? Mine says ZERO.

You can try and deny the facts all you like. Here they are from the CDC for 2003, go spin them. 

",432726,1,9634,1,"You don't really care which side, you just like the argument, huh? 
Where is this type of abortion commonly done? Once they have finished ""ripping"" the unborn (abortion isn't very relevant once born) fetus from the womb what do they do with it? What do you suppose the primary reason for waiting until until the baby is crowning to abort? Seems odd to go thru 9 months and labor to change one's mind.
Why do suppose exaggeration and embellishment or an aversion to facts is necessary for some people who consider themselves pro life or at least anti choice?","http://www.4forums.com/political/abortion-debates/13846-cold-blooded-murder.html",388543,21
"1-9634_23_21_1",9634,1,"2010-02-05 00:17:00",809,320,388971,"2010-02-04 15:25:00",432732,171,21,"Newbie, emoticonXSmilie I apologize for failing to recognize your elevated status and regret not properly researching you. Feel better now?

Ahhh but that wasn't my response was it. You said 

To which I responded pointing out this to be an exaggeration or asked a few questions to clarify if you actually knew this to be happening. I made no mention of my position on the morality or whether I find it acceptable, but you avoided by making an assumption, throwing out an insult followed by a question. Should I consider that as yes it was an exaggeration and move on?

I try not to put a spin on things. I also try to use the most relevant data as well as read those interesting little footnotes. Try it you'll see your report is off by 3 years, the numbers are similar, lower but not by much. By the way they are up to 2006 I would think",432730,1,9634,1,"If you weren't a newbie, you'd know that I was anti-abortion.

How many late-term abortions in which fully viable fetuses are killed are acceptable using your warped sense of morality? Mine says ZERO.

You can try and deny the facts all you like. Here they are from the CDC for 2003, go spin them. 

","http://www.4forums.com/political/abortion-debates/13846-cold-blooded-murder.html",388944,23
"1-9634_24_23_1",9634,1,"2010-02-05 08:15:00",320,809,389009,"2010-02-05 00:17:00",432733,91,23,"You made an assumption about me that was clearly wrong. I pointed it out.

So you consider 14,000 late-term abortions to be an exaggeration on my part?emoticonXConfused

When dealing with government statistics, 6 years after the fact is pretty current. But I'm glad that you found more recent numbers to demonstrate my point. As for the shot you took on my use of references, do your research and you'll find I back up my factual assertions with references, unlike many others.",432732,1,9634,1,"Newbie, emoticonXSmilie I apologize for failing to recognize your elevated status and regret not properly researching you. Feel better now?

Ahhh but that wasn't my response was it. You said 

To which I responded pointing out this to be an exaggeration or asked a few questions to clarify if you actually knew this to be happening. I made no mention of my position on the morality or whether I find it acceptable, but you avoided by making an assumption, throwing out an insult followed by a question. Should I consider that as yes it was an exaggeration and move on?

I try not to put a spin on things. I also try to use the most relevant data as well as read those interesting little footnotes. Try it you'll see your report is off by 3 years, the numbers are similar, lower but not by much. By the way they are up to 2006 I would think","http://www.4forums.com/political/abortion-debates/13846-cold-blooded-murder.html",388971,24
"1-9634_25_24_1",9634,1,"2010-02-07 04:18:00",809,320,389189,"2010-02-05 08:15:00",432734,247,24,"If it had been that clear I would not have asked, but regardless you are correct it was still an assumption.

What was an exaggeration by you is the quote below. Now if you want to say that what you describe below happened 14,000 times in 2003 then yes I will have problem with that as well.
This was the reason I asked the questions you ignored.

Make sense now?

The more recent info was not to back up your point, which based on what you have posted is unclear except your pro life and don't know when late term abortions occur, but not relevant to you since you find the idea repulsive regardless of when it's done. 
I really don't see how A) the more recent findings support you as while they are increasing they are lower than 2003. B) how that relates to whether someone who decides to play God, pass judgment and impose sentence on someone who is a law abiding citizen is guilty of a crime. 
God left us to govern ourselves on Earth. God governs in Heaven. Abortion may be a crime in heaven, but God deals with those. Here on Earth it isn't a crime and even if it was we have a process to deal with these things. Next you'll be collecting wood and kindling for the women who have abortions.",432733,1,9634,1,"You made an assumption about me that was clearly wrong. I pointed it out.

So you consider 14,000 late-term abortions to be an exaggeration on my part?emoticonXConfused

When dealing with government statistics, 6 years after the fact is pretty current. But I'm glad that you found more recent numbers to demonstrate my point. As for the shot you took on my use of references, do your research and you'll find I back up my factual assertions with references, unlike many others.","http://www.4forums.com/political/abortion-debates/13846-cold-blooded-murder.html",389009,25
"1-9634_28_25_1",9634,1,"2010-02-07 12:55:00",320,809,389318,"2010-02-07 04:18:00",432737,208,25,"[QUOTE=pappillion001;389189]If it had been that clear I would not have asked, but regardless you are correct it was still an assumption.
What was an exaggeration by you is the quote below. Now if you want to say that what you describe below happened 14,000 times in 2003 then yes I will have problem with that as well.
According to the CDC, there were ~14k late-term abortions that were performed after a fetus is considered viable, so my comment about thousands was accurate and NOT an exaggeration.

I see. It could be thought that my ""minutes before birth"" comment followed the thousands of late-term abortions. It didn't. The comments were independent of each other.

Late-term is considered >20-21 weeks. 

My point was that he didn't murder Mother Theresa, not that he wasn't guilty of murder.

Talk about the pot calling the kettle black. It appears that you are a drama queen. 
And abortion isn't legal across-the-board. Even the liberal SCOTUS that decided Roe V Wade admitted that states have the authority to regulate third trimester abortions.",432734,1,9634,1,"This was the reason I asked the questions you ignored.
Make sense now? ","http://www.4forums.com/political/abortion-debates/13846-cold-blooded-murder.html",389189,28
"1-9634_32_28_1",9634,1,"2010-02-11 06:00:00",809,320,390050,"2010-02-07 12:55:00",432741,207,28,"[QUOTE=JPSartre12;389318]
No you said ripping them from the womb minutes before they were born. That isn't late term that is birth. You know perfectly well nobody is intentionally and legally having an abortion during contractions. The exact quote is below. 
Why are you defending this to this extent. You said it and it was. You could have played it off and moved on. Instead you want to get sarcastic about telling me blue is really orange. You have made it a bigger deal than it was.

My point was that he didn't murder Mother Theresa, not that he wasn't guilty of murder.

You make no sense and this is a pretty weak attempt on your part. OK your right I'll be a drama queen, do you feel ok now? Were you able to man up with that one? Wanna maybe move on?
Where are you taking this? Read what I posted in the context of the post, not some desperate attempt to save your wounded pride.
How can you make a decent presentation sometimes and then come back with this?",432737,1,9634,1,"Talk about the pot calling the kettle black. It appears that you are a drama queen.
And abortion isn't legal across-the-board. Even the liberal SCOTUS that decided Roe V Wade admitted that states have the authority to regulate third trimester abortions.","http://www.4forums.com/political/abortion-debates/13846-cold-blooded-murder.html",389318,32
"1-9634_33_32_1",9634,1,"2010-02-11 07:31:00",320,809,390056,"2010-02-11 06:00:00",432742,228,32,"Since you, apparently, aren’t familiar with late term abortion procedures, here it is:

Note: the woman’s cervix is dilated. That is accomplished by inducing labor. When you induce labor, contractions result. Also note that the “fetus is partially-removed from the womb”. The fetus is typically turned around so that it would exit feet first because once the head is exposed, it is considered murder to kill the infant. But, as long as the head isn’t delivered before you kill the infant, it’s legal. Nice huh?

See above. That’s why. Now, I understand that this barbaric practice isn’t representative of the mainstream of abortions, but it does demonstrate the lengths that pro-abortionist will go to retain “choice”. It’s a totally morally-bankrupt position, IMO.

Because of the poor use of quotes, I’m clueless as to what you’re trying to say here. Care to try again? (This forum has been quirky with quotes latey.)",432741,1,9634,1,"[QUOTE=JPSartre12;389318]
No you said ripping them from the womb minutes before they were born. That isn't late term that is birth. You know perfectly well nobody is intentionally and legally having an abortion during contractions. The exact quote is below. 
Why are you defending this to this extent. You said it and it was. You could have played it off and moved on. Instead you want to get sarcastic about telling me blue is really orange. You have made it a bigger deal than it was.

My point was that he didn't murder Mother Theresa, not that he wasn't guilty of murder.

You make no sense and this is a pretty weak attempt on your part. OK your right I'll be a drama queen, do you feel ok now? Were you able to man up with that one? Wanna maybe move on?
Where are you taking this? Read what I posted in the context of the post, not some desperate attempt to save your wounded pride.
How can you make a decent presentation sometimes and then come back with this?","http://www.4forums.com/political/abortion-debates/13846-cold-blooded-murder.html",390050,33
