"key","quote_source_post_discussion_id","posts_dataset_id","posts_timestamp","posts_author_id","quote_source_author_id","posts_native_post_id","quote_source_timestamp","post_text_id","Word_Count","quote_source_post_id","post_text","quote_source_text_id","Dialog_Turn","posts_discussion_id","quote_source_post_dataset_id","Fullquote_text","discussion_url","quote_source_native_post_id","posts_post_id"
"1-9653_35_34_1",9653,1,"2010-02-26 15:23:00",1470,176,392643,"2010-02-23 15:34:00",435211,124,34,"Yes, I agree. It just makes a lousy comparison to the topic. Calling levonorgestrel a contraceptive is incorrect, its not a less exagerated replacement for abortion.

Your right, I stand corrected. It is a good example of an exaggeration.

Unfortunatly, those terms don't tell you what levonorgestrel is, were back to vague again. For instance, Keflex can be rightfully called an antibiotic. Calling it an antibiotic tells you what Keflex is/does. Calling levonorgestrel ""plan B"" isn't very helpful.

Look back a few posts, I already said I also think ""pro-life"" is too vague. ""Anti-abortion"" makes much more sense.",435210,1,9653,1,"But you're completely missing the point. Although spanking meets the definition of assault, calling it ""assault"" would be a gross exaggeration, don't you agree?

The same way calling spanking ""assault"" is an exaggeration.

Parasite: An organism that lives in or on and takes its nourishment from another organism. A parasite cannot live independently. 
Sounds pretty accurate to me.

Plan B/Morning after pill.

Oh, but it did.

We're obviously talking about abortion when we say ""choice"". This is the abortion forum after all.

""Pro-life"" is just as vague. Why aren't you complaining about that?","http://www.4forums.com/political/abortion-debates/13867-military-abortion-pill.html",392151,35
"1-9653_36_35_1",9653,1,"2010-02-26 16:09:00",176,1470,392653,"2010-02-26 15:23:00",435212,56,35,"That was my mistake, I should've called it something like Plan B, which is a less exaggerated replacement for abortion.

Calling orange juice ""Sunny D"" isn't very helpful either. It's just a name, not every product must be called by its scientific definition.

Then I stand corrected.",435211,1,9653,1,"Yes, I agree. It just makes a lousy comparison to the topic. Calling levonorgestrel a contraceptive is incorrect, its not a less exagerated replacement for abortion.

Your right, I stand corrected. It is a good example of an exaggeration.

Unfortunatly, those terms don't tell you what levonorgestrel is, were back to vague again. For instance, Keflex can be rightfully called an antibiotic. Calling it an antibiotic tells you what Keflex is/does. Calling levonorgestrel ""plan B"" isn't very helpful.

Look back a few posts, I already said I also think ""pro-life"" is too vague. ""Anti-abortion"" makes much more sense.","http://www.4forums.com/political/abortion-debates/13867-military-abortion-pill.html",392643,36
"1-9653_37_36_1",9653,1,"2010-02-26 17:25:00",1470,176,392676,"2010-02-26 16:09:00",435213,72,36,"Your helping my point here. ""Sunny D"" is the product name, but, calling it orange juice isn't an exageration because thats what it is (taking your word, I've never had Sunny D). Calling ""Kleenex"" facial tissue isn't an exaggeration because thats what it is. Calling ""Levonorgestrel"" an abortion pill isn't an exaggeration because thats what it is.",435212,1,9653,1,"That was my mistake, I should've called it something like Plan B, which is a less exaggerated replacement for abortion.

Calling orange juice ""Sunny D"" isn't very helpful either. It's just a name, not every product must be called by its scientific definition.

Then I stand corrected.","http://www.4forums.com/political/abortion-debates/13867-military-abortion-pill.html",392653,37
"1-9653_38_37_1",9653,1,"2010-02-26 22:24:00",176,1470,392696,"2010-02-26 17:25:00",435214,38,37,"But ""Sunny D"" is not exaggerating orange juice. ""Sunny D"" does not describe something else more accurately, as abortion describes the procedure performed by an abortion doctor, not a pill.",435213,1,9653,1,"Your helping my point here. ""Sunny D"" is the product name, but, calling it orange juice isn't an exageration because thats what it is (taking your word, I've never had Sunny D). Calling ""Kleenex"" facial tissue isn't an exaggeration because thats what it is. Calling ""Levonorgestrel"" an abortion pill isn't an exaggeration because thats what it is.","http://www.4forums.com/political/abortion-debates/13867-military-abortion-pill.html",392676,38
"1-9653_39_38_1",9653,1,"2010-02-27 07:48:00",1470,176,392734,"2010-02-26 22:24:00",435215,124,38,"""Sunny D"" is a trade name, so is ""Kleenex"" and ""Levonorgestrel"". Calling ""Sunny D"" orange juice is an accurate way to describe the product ie. ""Sunny D is orange juice"". Calling ""Kleenex"" facial tissue is an accurate way to describe the product ie. ""Kleenex is a facial tissue"". Calling ""Levonorgestrel"" an abortion pill is an accurate way to describe the product ie. ""Levonorgestrel is an abortion pill"".
The description is accurate, succinct, and precisely describes the product. It is not an exaggeration and any attempt to claim otherwise at this point is willful ignorance.",435214,1,9653,1,"But ""Sunny D"" is not exaggerating orange juice. ""Sunny D"" does not describe something else more accurately, as abortion describes the procedure performed by an abortion doctor, not a pill.","http://www.4forums.com/political/abortion-debates/13867-military-abortion-pill.html",392696,39
"1-9653_40_39_1",9653,1,"2010-02-27 09:57:00",176,1470,392743,"2010-02-27 07:48:00",435216,192,39,"When I say abortion, what do you think of? Do you think of taking a pill? When someone says ""I had an abortion"", nearly everyone assumes you went to a doctor and got the fetus removed, not taking a pill. When someone says ""I drank some some Sunny D"" or ""I used a Kleenex"", we know exactly what they are talking about, the words don't have any alternate connotation like ""abortion"" does. I'm not disputing that ""abortion pill"" is an accurate description, it is. It's just an exaggeration, and exaggerations are always accurate to some degree. When we start calling Levonorgestrel the ""abortion pill"", it gives the anti-abortion crowd leverage to ban it, when in fact it prevents much nastier abortions from occuring and keeps women safe from back-alley abortions. So lets just call it what it is, Levonorgestrel, and forget about it. There are much more important things to debate than fussing over the name of a freakin pill.",435215,1,9653,1,"""Sunny D"" is a trade name, so is ""Kleenex"" and ""Levonorgestrel"". Calling ""Sunny D"" orange juice is an accurate way to describe the product ie. ""Sunny D is orange juice"". Calling ""Kleenex"" facial tissue is an accurate way to describe the product ie. ""Kleenex is a facial tissue"". Calling ""Levonorgestrel"" an abortion pill is an accurate way to describe the product ie. ""Levonorgestrel is an abortion pill"".
The description is accurate, succinct, and precisely describes the product. It is not an exaggeration and any attempt to claim otherwise at this point is willful ignorance.","http://www.4forums.com/political/abortion-debates/13867-military-abortion-pill.html",392734,40
"1-9653_41_40_1",9653,1,"2010-03-03 09:16:00",1470,176,393153,"2010-02-27 09:57:00",435217,59,40,"Perhaps if the abortion supporters arguement is damaged by their opponent using the truth, its time to re-think their position. 
""Prevents much nastier abortions""?? If I was an abortion supporter I don't think I'd use this line of reasoning. The ""lesser degree of wrong"" argument seems flawed from the start.",435216,1,9653,1,"When I say abortion, what do you think of? Do you think of taking a pill? When someone says ""I had an abortion"", nearly everyone assumes you went to a doctor and got the fetus removed, not taking a pill. When someone says ""I drank some some Sunny D"" or ""I used a Kleenex"", we know exactly what they are talking about, the words don't have any alternate connotation like ""abortion"" does. I'm not disputing that ""abortion pill"" is an accurate description, it is. It's just an exaggeration, and exaggerations are always accurate to some degree. When we start calling Levonorgestrel the ""abortion pill"", it gives the anti-abortion crowd leverage to ban it, when in fact it prevents much nastier abortions from occuring and keeps women safe from back-alley abortions. So lets just call it what it is, Levonorgestrel, and forget about it. There are much more important things to debate than fussing over the name of a freakin pill.","http://www.4forums.com/political/abortion-debates/13867-military-abortion-pill.html",392743,41
"1-9653_43_41_1",9653,1,"2010-03-08 15:53:00",176,1470,393750,"2010-03-03 09:16:00",435219,118,41,"If by ""using the truth"" you mean ""bending the truth without breaking it"" to vindicate your position, then yes, that is what you do. Exaggerations like that distract us from argument, and are an attempt to sway the reader without making any valid points.

Here is an example of more pro-life falsities. They think we love abortions, when in fact we don't. We hate them. We just have the sense to know that forcing women to carry an unwanted fetus inside of her body is far more disgusting than any abortion could be.

Everyone choose to have unprotected sex. Your mothers did.",435217,1,9653,1,"Perhaps if the abortion supporters arguement is damaged by their opponent using the truth, its time to re-think their position. 
""Prevents much nastier abortions""?? If I was an abortion supporter I don't think I'd use this line of reasoning. The ""lesser degree of wrong"" argument seems flawed from the start.","http://www.4forums.com/political/abortion-debates/13867-military-abortion-pill.html",393153,43
