"key","quote_source_post_discussion_id","posts_dataset_id","posts_timestamp","posts_author_id","quote_source_author_id","posts_native_post_id","quote_source_timestamp","post_text_id","Word_Count","quote_source_post_id","post_text","quote_source_text_id","Dialog_Turn","posts_discussion_id","quote_source_post_dataset_id","Fullquote_text","discussion_url","quote_source_native_post_id","posts_post_id"
"1-10140_8_6_1",10140,1,"2010-10-03 09:59:00",1209,550,414289,"2010-10-03 09:28:00",460195,26,6,"Great argument. Totally convinces me that creationism is more than a myth. And that yours is a religion of love.
-retch-",460193,1,10140,1,"When you prove that creationism is a myth then you might start to gain some credibility around here.
But then again, a large-foreheaded, knuckle-dragging Neanderthal makes a lot of sense as one of your forefathers.","http://www.4forums.com/political/creation-intelligent-design-vs-evolution/14655-way-creationist-thinks.html",414286,8
"1-10140_9_8_1",10140,1,"2010-10-03 10:18:00",550,1209,414292,"2010-10-03 09:59:00",460196,17,8,"Love speaks the truth. It doesn't wallow in politically correct fantasies or 
San Francisco values.",460195,1,10140,1,"Great argument. Totally convinces me that creationism is more than a myth. And that yours is a religion of love.
-retch-","http://www.4forums.com/political/creation-intelligent-design-vs-evolution/14655-way-creationist-thinks.html",414289,9
"1-10140_12_9_1",10140,1,"2010-10-03 10:34:00",1209,550,414300,"2010-10-03 10:18:00",460199,25,9,"And yet I see neither love nor truth from you. Just insults and ignorance.
By our deeds are we known, eh?",460196,1,10140,1,"Love speaks the truth. It doesn't wallow in politically correct fantasies or 
San Francisco values.","http://www.4forums.com/political/creation-intelligent-design-vs-evolution/14655-way-creationist-thinks.html",414292,12
"1-10140_14_12_1",10140,1,"2010-10-03 12:20:00",550,1209,414306,"2010-10-03 10:34:00",460201,38,12,"Even Jesus rebuked the devil, and that was a good deed. So I'm in good company.
If you're going to run with the big dogs you're going to have to know the entire Bible.",460199,1,10140,1,"And yet I see neither love nor truth from you. Just insults and ignorance.
By our deeds are we known, eh?","http://www.4forums.com/political/creation-intelligent-design-vs-evolution/14655-way-creationist-thinks.html",414300,14
"1-10140_17_14_1",10140,1,"2010-10-03 12:50:00",1209,550,414310,"2010-10-03 12:20:00",460204,43,14,"So you think evolutionists are the devil?

What makes you think I don't? The fact that I don't treat other human beings the way Jesus treated the devil?
Again, your approach to Christian love is not exactly overwhelming.",460201,1,10140,1,"Even Jesus rebuked the devil, and that was a good deed. So I'm in good company.
If you're going to run with the big dogs you're going to have to know the entire Bible.","http://www.4forums.com/political/creation-intelligent-design-vs-evolution/14655-way-creationist-thinks.html",414306,17
"1-10140_192_191_2",10140,1,"2010-11-13 11:08:00",1648,550,417032,"2010-11-13 10:58:00",460379,22,191,"Human evolution - A look at human origins through species profiles and hominid imagery
pretty decent lineage if you ask me.",460378,2,10140,1,"To date, there has not been conclusively identified even one direct-line ancestor for modern man. Not the Neanderthal or any other hominid.","http://www.4forums.com/political/creation-intelligent-design-vs-evolution/14655-way-creationist-thinks.html",417031,192
"1-10140_200_192_2",10140,1,"2010-11-13 18:12:00",550,1648,417057,"2010-11-13 11:08:00",460387,130,192,"It's B.S. There's zero conclusive DNA evidence for any of those hominids being a direct line ancestor for modern man. You even had the Neanderthal in there and science has already determined he isn't man's direct line ancestor. 
And you SWALLOWED THAT WHOLE. Your whole house of cards there is based on morphological simularities and unfounded inference, and we know, for instance, in the case of the Neanderthals that that doesn't cut the mustard.
Have you not learned anything here about these issues?
Where's the conclusive DNA evidence for just one of your hominids? Show me the conclusive DNA studies?
OH YE OF GREAT FAITH AND GREAT DISTORTIONS. YOU SWALLOWED IT WHOLE.
Where's the beef, Bennedict?",460379,2,10140,1,"Human evolution - A look at human origins through species profiles and hominid imagery
pretty decent lineage if you ask me.","http://www.4forums.com/political/creation-intelligent-design-vs-evolution/14655-way-creationist-thinks.html",417032,200
"1-10140_203_200_2",10140,1,"2010-11-14 09:17:00",1648,550,417074,"2010-11-13 18:12:00",460390,184,200,"go back to the post where you said ""abiogenesis is an integral part of evolutionary theory"". then view my reply of links disproving that statement, including the link YOU POSTED in order to try and prove that very statement.
tell me, how have ants served you today at all? made you a sandwich?
you were the one claiming God put every animal on the earth to serve us, so back that statement up by telling me how ants, cockroaches, fruitflies, earwigs, centipedes, termites and grasshoppers have served you. all of them, because remember, God put all of them on the earth to serve us. did grasshoppers make your shoes? i am the one claiming they are NOT here to serve us, they all make up the intricate biosphere, and we are a part of that family - there are no slaves.

you realize that when we sequence the DNA of any animal, they ALL fall into a hierarchy, right?",460387,2,10140,1,"It's B.S. There's zero conclusive DNA evidence for any of those hominids being a direct line ancestor for modern man. You even had the Neanderthal in there and science has already determined he isn't man's direct line ancestor. 
And you SWALLOWED THAT WHOLE. Your whole house of cards there is based on morphological simularities and unfounded inference, and we know, for instance, in the case of the Neanderthals that that doesn't cut the mustard.
Have you not learned anything here about these issues?
Where's the conclusive DNA evidence for just one of your hominids? Show me the conclusive DNA studies?
OH YE OF GREAT FAITH AND GREAT DISTORTIONS. YOU SWALLOWED IT WHOLE.
Where's the beef, Bennedict?","http://www.4forums.com/political/creation-intelligent-design-vs-evolution/14655-way-creationist-thinks.html",417057,203
"1-10140_204_203_2",10140,1,"2010-11-14 10:02:00",550,1648,417077,"2010-11-14 09:17:00",460391,34,203,"Prove it by showing me the conclusive DNA evidence that identifies even one hominid as one of man's direct line ancestors.
Because if you can't, your whole house of cards collapses.",460390,2,10140,1,"go back to the post where you said ""abiogenesis is an integral part of evolutionary theory"". then view my reply of links disproving that statement, including the link YOU POSTED in order to try and prove that very statement.
tell me, how have ants served you today at all? made you a sandwich?
you were the one claiming God put every animal on the earth to serve us, so back that statement up by telling me how ants, cockroaches, fruitflies, earwigs, centipedes, termites and grasshoppers have served you. all of them, because remember, God put all of them on the earth to serve us. did grasshoppers make your shoes? i am the one claiming they are NOT here to serve us, they all make up the intricate biosphere, and we are a part of that family - there are no slaves.

you realize that when we sequence the DNA of any animal, they ALL fall into a hierarchy, right?","http://www.4forums.com/political/creation-intelligent-design-vs-evolution/14655-way-creationist-thinks.html",417074,204
"1-10140_206_204_2",10140,1,"2010-11-14 11:32:00",1648,550,417087,"2010-11-14 10:02:00",460393,45,204,"i cant believe i put up with you guys. squashing each and every one of your arguments like bugs. *pompus moment*
this is the Human Genome Project - they provide DNA sequences of different organisms.
DNA, Ancestry and Human Migration

",460391,2,10140,1,"Prove it by showing me the conclusive DNA evidence that identifies even one hominid as one of man's direct line ancestors.
Because if you can't, your whole house of cards collapses.","http://www.4forums.com/political/creation-intelligent-design-vs-evolution/14655-way-creationist-thinks.html",417077,206
"1-10140_208_206_2",10140,1,"2010-11-14 11:39:00",550,1648,417091,"2010-11-14 11:32:00",460395,45,206,"Which specific hominid has been shown via conclusive DNA evidence to be man's immediate, direct line ancestor?
Get specific, Bennedict. Write down the species' name for us and show the conclusive DNA evidence. 
Who is that bad boy?",460393,2,10140,1,"i cant believe i put up with you guys. squashing each and every one of your arguments like bugs. *pompus moment*
this is the Human Genome Project - they provide DNA sequences of different organisms.
DNA, Ancestry and Human Migration

","http://www.4forums.com/political/creation-intelligent-design-vs-evolution/14655-way-creationist-thinks.html",417087,208
"1-10140_209_208_2",10140,1,"2010-11-14 11:53:00",1648,550,417094,"2010-11-14 11:39:00",460396,97,208,"you want me to post the entire genetic sequence? 3 000 000 000 base pairs + (14)3 000 000 000 base pairs so you can make a comparison? you want me to post 450 000 000 000 base pairs?
its exceedingly difficult to find an entire sequenced genome on the internet for a human, let alone the genome for the entire evolutionary line of ancestors. the information is available at the genetic labs, up until 50 000 to 100 000 years, just not on the internet.",460395,2,10140,1,"Which specific hominid has been shown via conclusive DNA evidence to be man's immediate, direct line ancestor?
Get specific, Bennedict. Write down the species' name for us and show the conclusive DNA evidence. 
Who is that bad boy?","http://www.4forums.com/political/creation-intelligent-design-vs-evolution/14655-way-creationist-thinks.html",417091,209
"1-10140_224_209_2",10140,1,"2010-11-15 15:08:00",550,1648,417161,"2010-11-14 11:53:00",460411,83,209,"No, ONE MORE TIME I want you to identify which specific hominid has been shown via conclusive DNA evidence to be man's immediate, direct line ancestor?
Get specific, Bennedict. Write down the species' name for us and show the conclusive DNA evidence. 
Who is that bad boy?
Can't do it, can you? But you are a man of GREAT FAITH that there is such a homonid.
OH YE OF GREAT FAITH!!",460396,2,10140,1,"you want me to post the entire genetic sequence? 3 000 000 000 base pairs + (14)3 000 000 000 base pairs so you can make a comparison? you want me to post 450 000 000 000 base pairs?
its exceedingly difficult to find an entire sequenced genome on the internet for a human, let alone the genome for the entire evolutionary line of ancestors. the information is available at the genetic labs, up until 50 000 to 100 000 years, just not on the internet.","http://www.4forums.com/political/creation-intelligent-design-vs-evolution/14655-way-creationist-thinks.html",417094,224
"1-10140_226_224_2",10140,1,"2010-11-15 15:13:00",1648,550,417164,"2010-11-15 15:08:00",460413,64,224,"you are asking me to give specific names of human ancestors (which i have already) and conclusive DNA evidence (in the form of a genome sequence which is impossible to get on the internet). the email form is in my other post - ask the professionals. i dont have the information and cant get it from you.",460411,2,10140,1,"No, ONE MORE TIME I want you to identify which specific hominid has been shown via conclusive DNA evidence to be man's immediate, direct line ancestor?
Get specific, Bennedict. Write down the species' name for us and show the conclusive DNA evidence. 
Who is that bad boy?
Can't do it, can you? But you are a man of GREAT FAITH that there is such a homonid.
OH YE OF GREAT FAITH!!","http://www.4forums.com/political/creation-intelligent-design-vs-evolution/14655-way-creationist-thinks.html",417161,226
"1-10140_145_144_3",10140,1,"2010-11-08 17:44:00",1648,1936,416622,"2010-11-08 17:33:00",460332,15,144,"evolution is not the only area of science that has made mistakes you know.",460331,3,10140,1,"You mean he lied, misrepresented and committed a fraud? Is that what you're saying? Especially since his drawings are in middle and high school text books which young people accept as accurate and true since its in their science book. 
So even though the posts before yours are rife with excuses and attempts to justify why inaccurate information is repeatedly published in science books, it goes to show that this alleged pseudo science of evolution must republish lies and misinformation because it has no real and factual info to offer. Here again is just one of the book links, if Haeckel's drawings were effectively dismissed as inaccurate attempts to make a fallacious point, then why would a legitimate science ever want to use them?
CSC - What do Modern Textbooks Really Say about Haeckel's Embryos?","http://www.4forums.com/political/creation-intelligent-design-vs-evolution/14655-way-creationist-thinks.html",416619,145
"1-10140_147_145_3",10140,1,"2010-11-08 18:05:00",1936,1648,416624,"2010-11-08 17:44:00",460334,101,145,"So what! We're discussing evolution here and now, but because you can't defend it once again you want to claim other sciences make errors? And errors are different than frauds which are allowed to persist for 150 years. Remember, Haeckel drew his drawings in 1860 yet we are still getting them spoon fed to our children as if they represent facts. You should be ashamed for defending this dung as if it is legitimate and valid science, and I mean all of you who dare to call yourselves open minded seekers of truth.",460332,3,10140,1,"evolution is not the only area of science that has made mistakes you know.","http://www.4forums.com/political/creation-intelligent-design-vs-evolution/14655-way-creationist-thinks.html",416622,147
"1-10140_149_147_3",10140,1,"2010-11-08 18:17:00",1648,1936,416628,"2010-11-08 18:05:00",460336,130,147,"you mentioned that evolution has to produce frauds in order to support the theory because they have no real evidence (false) but i was only bringing up the fact that Haeckel was incorrect in his drawings, but evolution is not the only science that has made mistakes. to lop evolution into bad science because of this, you would have to lop just about every other scientific theory into the category of bad science. mistakes are very common in any area of science and evolution is no different.
you have a grudge against evolution because of your religious belief, right? if not then why pick on evolution when chemistry has made mistakes and frauds too? whats your beef with chemistry?",460334,3,10140,1,"So what! We're discussing evolution here and now, but because you can't defend it once again you want to claim other sciences make errors? And errors are different than frauds which are allowed to persist for 150 years. Remember, Haeckel drew his drawings in 1860 yet we are still getting them spoon fed to our children as if they represent facts. You should be ashamed for defending this dung as if it is legitimate and valid science, and I mean all of you who dare to call yourselves open minded seekers of truth.","http://www.4forums.com/political/creation-intelligent-design-vs-evolution/14655-way-creationist-thinks.html",416624,149
"1-10140_150_149_3",10140,1,"2010-11-09 01:17:00",1936,1648,416637,"2010-11-08 18:17:00",460337,150,149,"I would love to see examples of mistakes in chemistry, or biology for example, apart from applications to, let's say, evolution. And i'm talking about errors that were either covered up or allowed to stand for decades without being erased from public discourse. Would you please post actual examples of these mistakes for us?
In every other science except evolution, until a theory has been tested and universally confirmed by other scientists via peer review it never sees the light of day regarding press releases or practical application. Only evolution seems to release press packets while the find is still in the field and before it has even been validated through a truly critical and objective peer review process. The whole process is fixed and can only be summarized as a massive scam if one wants to be honest.",460336,3,10140,1,"you mentioned that evolution has to produce frauds in order to support the theory because they have no real evidence (false) but i was only bringing up the fact that Haeckel was incorrect in his drawings, but evolution is not the only science that has made mistakes. to lop evolution into bad science because of this, you would have to lop just about every other scientific theory into the category of bad science. mistakes are very common in any area of science and evolution is no different.
you have a grudge against evolution because of your religious belief, right? if not then why pick on evolution when chemistry has made mistakes and frauds too? whats your beef with chemistry?","http://www.4forums.com/political/creation-intelligent-design-vs-evolution/14655-way-creationist-thinks.html",416628,150
"1-10140_156_150_3",10140,1,"2010-11-09 14:57:00",1648,1936,416718,"2010-11-09 01:17:00",460343,133,150,"Larni beat me to it.

evolution is not alone when it comes to slip-ups.
hold on a minute...


i see no contradiction... but just to make sure, lets have a second look:


nope, no contradiction. you posted a video which stated exactly what i had said. the fact is (and this is observable with a microscope), fetuses of humans and fish and various other vertibrates look very similar at certain stages of development. thus, Haeckel was correct. his drawings were incorrect. if his drawings are still in textbook publication (most likely not in mainstream textbooks), they, or a more accurate interpretation, belong there, because Haeckel is acknowledged to be correct.",460337,3,10140,1,"I would love to see examples of mistakes in chemistry, or biology for example, apart from applications to, let's say, evolution. And i'm talking about errors that were either covered up or allowed to stand for decades without being erased from public discourse. Would you please post actual examples of these mistakes for us?
In every other science except evolution, until a theory has been tested and universally confirmed by other scientists via peer review it never sees the light of day regarding press releases or practical application. Only evolution seems to release press packets while the find is still in the field and before it has even been validated through a truly critical and objective peer review process. The whole process is fixed and can only be summarized as a massive scam if one wants to be honest.","http://www.4forums.com/political/creation-intelligent-design-vs-evolution/14655-way-creationist-thinks.html",416637,156
"1-10140_205_203_4",10140,1,"2010-11-14 10:23:00",1936,1648,417081,"2010-11-14 09:17:00",460392,180,203,"WOW, your ignorance and narcissism is astounding. But I shouldn't be surprised that your secular humanistic mind can only think in terms of what affects you directly as an individual mattering to you specifically. It doesn't work that way with me at all. I learned long ago that we either rise together as a species or we fall together.
That means that each and every creature on Earth has a purpose in balancing the chain of life with whatever contributions their lifecycle contributes to the environment they live in. Ants aerate the earth and scavenge living and dead insects which serves a valuable service to the world. And every insect you mentioned above contributes to a balanced ecosystem in their own way so they most definitely benefit me personally with their existence. 
And I will hate to see the impact mass animal extinctions have on us and our planet/chain of life when the Tribulation period starts and massive segments of animal species are wiped out through war and pestilence.",460390,4,10140,1,"go back to the post where you said ""abiogenesis is an integral part of evolutionary theory"". then view my reply of links disproving that statement, including the link YOU POSTED in order to try and prove that very statement.
tell me, how have ants served you today at all? made you a sandwich?
you were the one claiming God put every animal on the earth to serve us, so back that statement up by telling me how ants, cockroaches, fruitflies, earwigs, centipedes, termites and grasshoppers have served you. all of them, because remember, God put all of them on the earth to serve us. did grasshoppers make your shoes? i am the one claiming they are NOT here to serve us, they all make up the intricate biosphere, and we are a part of that family - there are no slaves.

you realize that when we sequence the DNA of any animal, they ALL fall into a hierarchy, right?","http://www.4forums.com/political/creation-intelligent-design-vs-evolution/14655-way-creationist-thinks.html",417074,205
"1-10140_207_205_4",10140,1,"2010-11-14 11:35:00",1648,1936,417088,"2010-11-14 10:23:00",460394,47,205,"way to change your argument from 'all animals are here ""to serve our needs""' to 'all animals serve the purpose of ""balancing the chain of life""'.
FENCE POST MOVER!!
you and freedom could be best friends.",460392,4,10140,1,"WOW, your ignorance and narcissism is astounding. But I shouldn't be surprised that your secular humanistic mind can only think in terms of what affects you directly as an individual mattering to you specifically. It doesn't work that way with me at all. I learned long ago that we either rise together as a species or we fall together.
That means that each and every creature on Earth has a purpose in balancing the chain of life with whatever contributions their lifecycle contributes to the environment they live in. Ants aerate the earth and scavenge living and dead insects which serves a valuable service to the world. And every insect you mentioned above contributes to a balanced ecosystem in their own way so they most definitely benefit me personally with their existence. 
And I will hate to see the impact mass animal extinctions have on us and our planet/chain of life when the Tribulation period starts and massive segments of animal species are wiped out through war and pestilence.","http://www.4forums.com/political/creation-intelligent-design-vs-evolution/14655-way-creationist-thinks.html",417081,207
"1-10140_210_207_4",10140,1,"2010-11-14 13:08:00",1936,1648,417101,"2010-11-14 11:35:00",460397,153,207,"IT'S THE SAME THING, MONGO!!! Unless someone is as self centered as you apparently are. Is it beyond you to grasp that because all animals contribute to a balanced chain of life, they also serve our needs as human beings even if we don't consume some of them for food?
But I'm hard pressed to name any animal, insect or bird that isn't consumed by some culture somewhere on earth. I myself have been offered chocolate covered ants in my lifetime, and it is common knowledge that insects are high in protein and recommended eating if one is in the wild and hungry. It is also common knowledge that other cultures find insects to be a delicacy. So I haven't moved any fence post at all, you just refuse to, or are incapable of grasping my point, as usual.",460394,4,10140,1,"way to change your argument from 'all animals are here ""to serve our needs""' to 'all animals serve the purpose of ""balancing the chain of life""'.
FENCE POST MOVER!!
you and freedom could be best friends.","http://www.4forums.com/political/creation-intelligent-design-vs-evolution/14655-way-creationist-thinks.html",417088,210
"1-10140_211_210_4",10140,1,"2010-11-14 13:21:00",1648,1936,417102,"2010-11-14 13:08:00",460398,31,210,"i never said anything about eating or food (other than ants making you a sandwich).
how about parasitic organisms? tapeworms - how do they serve us?",460397,4,10140,1,"IT'S THE SAME THING, MONGO!!! Unless someone is as self centered as you apparently are. Is it beyond you to grasp that because all animals contribute to a balanced chain of life, they also serve our needs as human beings even if we don't consume some of them for food?
But I'm hard pressed to name any animal, insect or bird that isn't consumed by some culture somewhere on earth. I myself have been offered chocolate covered ants in my lifetime, and it is common knowledge that insects are high in protein and recommended eating if one is in the wild and hungry. It is also common knowledge that other cultures find insects to be a delicacy. So I haven't moved any fence post at all, you just refuse to, or are incapable of grasping my point, as usual.","http://www.4forums.com/political/creation-intelligent-design-vs-evolution/14655-way-creationist-thinks.html",417101,211
"1-10140_212_211_4",10140,1,"2010-11-14 13:54:00",1936,1648,417105,"2010-11-14 13:21:00",460399,223,211,"Truthfully, I don't know, but since I'm not the end all and be all of human knowledge I don't feel obligated to have to come up with an answer for that. Besides, I'm not even sure those examples fall into the category of animals beneficial to the chain of life since they are parasites rather than animals found in the wild. They live off of animals rather than as creatures who live independent of other living creatures. 
For example, take cancer; do you believe God created cancer? I don't believe that at all. Cancer and all diseases are the result of our fallen nature. Death came into the world because of sin, sin is the great enemy of Man and is why we get sick, age and die. 
Don't misunderstand me though, when a baby is born deformed or handicapped it isn't necessarily because of any specific sin he or his parents committed. It is a result of the general human condition called the sinful nature. That is, if it wasn't caused by some unknown environmental contributor which is also caused by our fallen nature given it exists because of some general social ignorance. Love Canal comes to mind as one such example.",460398,4,10140,1,"i never said anything about eating or food (other than ants making you a sandwich).
how about parasitic organisms? tapeworms - how do they serve us?","http://www.4forums.com/political/creation-intelligent-design-vs-evolution/14655-way-creationist-thinks.html",417102,212
"1-10140_214_212_4",10140,1,"2010-11-14 17:00:00",1648,1936,417111,"2010-11-14 13:54:00",460401,250,212,"hahahaha! parasites are animals. many, many animals are parasitic, all of which you claim God created in order to serve us. all species that belong to the animalia kingdom of life are animals, and tapeworms do fall into that kingdom. and to say that God created all animals to serve us, thats saying God created ALL animals to serve us, including parasitic tapeworms. now, it should be a perfectly answerable question - how have tapeworms served you personally? or how could tapeworms serve anyone? the answer is they do not. that is not their purpose, as with every other animal or plant. they are not here to be our servants or for our entertainment.
so let me get this straight. if a child is born with no defects or diseases, thats God's miracles, but if a child is born deformed, thats nature and God has nothing to do with it. what, in that instance, God just turns his back and pretends that he didnt notice? no again! a child born normally is nature just as a deformed child is nature. picking and choosing positive things God does and calling the negative things in life ""nature's doings"" has a name - it's called cherry-picking.
also, thank you for cutting the ad hominem attacks and insults. its much appreciated.",460399,4,10140,1,"Truthfully, I don't know, but since I'm not the end all and be all of human knowledge I don't feel obligated to have to come up with an answer for that. Besides, I'm not even sure those examples fall into the category of animals beneficial to the chain of life since they are parasites rather than animals found in the wild. They live off of animals rather than as creatures who live independent of other living creatures. 
For example, take cancer; do you believe God created cancer? I don't believe that at all. Cancer and all diseases are the result of our fallen nature. Death came into the world because of sin, sin is the great enemy of Man and is why we get sick, age and die. 
Don't misunderstand me though, when a baby is born deformed or handicapped it isn't necessarily because of any specific sin he or his parents committed. It is a result of the general human condition called the sinful nature. That is, if it wasn't caused by some unknown environmental contributor which is also caused by our fallen nature given it exists because of some general social ignorance. Love Canal comes to mind as one such example.","http://www.4forums.com/political/creation-intelligent-design-vs-evolution/14655-way-creationist-thinks.html",417105,214
"1-10140_215_214_4",10140,1,"2010-11-14 18:40:00",1936,1648,417115,"2010-11-14 17:00:00",460402,17,214,"Based on this condescending and argumentative reply, your thanks might be a bit premature. emoticonXRolleyes",460401,4,10140,1,"hahahaha! parasites are animals. many, many animals are parasitic, all of which you claim God created in order to serve us. all species that belong to the animalia kingdom of life are animals, and tapeworms do fall into that kingdom. and to say that God created all animals to serve us, thats saying God created ALL animals to serve us, including parasitic tapeworms. now, it should be a perfectly answerable question - how have tapeworms served you personally? or how could tapeworms serve anyone? the answer is they do not. that is not their purpose, as with every other animal or plant. they are not here to be our servants or for our entertainment.
so let me get this straight. if a child is born with no defects or diseases, thats God's miracles, but if a child is born deformed, thats nature and God has nothing to do with it. what, in that instance, God just turns his back and pretends that he didnt notice? no again! a child born normally is nature just as a deformed child is nature. picking and choosing positive things God does and calling the negative things in life ""nature's doings"" has a name - it's called cherry-picking.
also, thank you for cutting the ad hominem attacks and insults. its much appreciated.","http://www.4forums.com/political/creation-intelligent-design-vs-evolution/14655-way-creationist-thinks.html",417111,215
"1-10140_222_215_4",10140,1,"2010-11-15 14:28:00",1648,1936,417155,"2010-11-14 18:40:00",460409,26,215,"are you going to respond?

you responded to the post, but not the argument. it seems like a re-occurring theme with you.",460402,4,10140,1,"Based on this condescending and argumentative reply, your thanks might be a bit premature. emoticonXRolleyes","http://www.4forums.com/political/creation-intelligent-design-vs-evolution/14655-way-creationist-thinks.html",417115,222
