"key","quote_source_post_discussion_id","posts_dataset_id","posts_timestamp","posts_author_id","quote_source_author_id","posts_native_post_id","quote_source_timestamp","post_text_id","Word_Count","quote_source_post_id","post_text","quote_source_text_id","Dialog_Turn","posts_discussion_id","quote_source_post_dataset_id","Fullquote_text","discussion_url","quote_source_native_post_id","posts_post_id"
"1-10660_56_55_1",10660,1,"2011-10-18 19:32:00",237,1648,441079,"2011-10-18 11:18:00",487302,108,55,"Invalidate or falsify is the point of debate, but I have not invalidated anything; I have merely pointed out the lack of argument.

I didn't read them, I know the statement cannot be countered rationally and would just as well see ripskar attempt to do so for it was he who's claim sparked my indignance.

Pointing out false arguments is something I do all the time. I have done it to local creationist, to pretty much everyone. I am not an advocate of everything. That's like saying arguing against murder makes you a christian because christians condemn murder.",487301,1,10660,1,"Attempting to invalidate your opponents argument time and time again is not a very good debate tactic. Ripskar did indeed offer up a counter argument for the argument ""you can't create something from nothing"", issuing the links he posted. The explanation for how QM relates to and counters the argument is within the links themselves. One link even addressed the initial argument directly.
On you and ID; it's clear from that link that you were arguing in defense of ID. Whether that's indicative of you being a supporter of ID is negligable. If I may chime in; everyone on this forum knows that you argue for some altered view of IC, and every source available will tell you that IC is an ID argument - the argument was conceived by a proponent of ID; IC is clearly used as an argument to support ID... Again, your view doesn't necessarily plop you into ID territory. You've rather convolutedly explained it to me once before, and I accept that if you say you aren't a supporter of ID, then fine, you aren't.","http://www.4forums.com/political/creation-intelligent-design-vs-evolution/15750-creationists-argument-all-plants-animals-existed-same-time.html",441046,56
"1-10660_58_56_1",10660,1,"2011-10-19 09:24:00",1648,237,441111,"2011-10-18 19:32:00",487304,201,56,"Falsification and invalidation are two methods that can be used in debate if you can, amongst many others. Thus far, I have not seen you apply any method other than attempted invalidation. This is a perfect example, in that one argument was pitched (you can't get something from nothing) and Ripskar countered that argument with the links he used that you neglected to read, referencing QM as a source of acquiring something from ""nothing"". This is a perfectly valid argument, one in which you attempt to invalidate by claiming that he doesn't have an argument in the first place - something I've seen you do many times. See, using invalidation against a valid argument is not only ineffective, but it makes you look really silly.
Ripskar referenced a number of links; if anything, you are the one who has not developed a counter argument to QM in response to ""the fallacy of something out of nothing""; you've just not bothered to read his argument and then claimed he doesn't have one. Do you see how silly this looks??",487302,1,10660,1,"Invalidate or falsify is the point of debate, but I have not invalidated anything; I have merely pointed out the lack of argument.

I didn't read them, I know the statement cannot be countered rationally and would just as well see ripskar attempt to do so for it was he who's claim sparked my indignance.

Pointing out false arguments is something I do all the time. I have done it to local creationist, to pretty much everyone. I am not an advocate of everything. That's like saying arguing against murder makes you a christian because christians condemn murder.","http://www.4forums.com/political/creation-intelligent-design-vs-evolution/15750-creationists-argument-all-plants-animals-existed-same-time.html",441079,58
"1-10660_59_58_1",10660,1,"2011-10-19 19:55:00",237,1648,441128,"2011-10-19 09:24:00",487305,208,58,"Lol, Nothing | Define Nothing at Dictionary.com.
In other words I know it cannot be countered because such would be a contradiction. The statement 'a universe from nothing' is a contradiction, the best that can be said is 'a universe'.
If you think QM can dissolve logic why don't you make the argument, surely if your links made the case you could summarize it here.

No, attempting one of those are the only two ways to attack an opponents argument, the rest are informal fallacies.

I've said my opponent has no argument many times because many times they do not. Most of the time they blather for a bit with informal fallacies and emotional appeals and then quit.

Lol, interesting way you phrased that. Try to invalidate a valid argument, yes that won't work.

There are only two possible natures of his links, a description of QM which is in no way applicable to the logic of the original statements; or some mystical rhetorical maze such as the one displayed recently with databed and the 1 - 1 = 0 equivocation to NULL = ~NULL",487304,1,10660,1,"Falsification and invalidation are two methods that can be used in debate if you can, amongst many others. Thus far, I have not seen you apply any method other than attempted invalidation. This is a perfect example, in that one argument was pitched (you can't get something from nothing) and Ripskar countered that argument with the links he used that you neglected to read, referencing QM as a source of acquiring something from ""nothing"". This is a perfectly valid argument, one in which you attempt to invalidate by claiming that he doesn't have an argument in the first place - something I've seen you do many times. See, using invalidation against a valid argument is not only ineffective, but it makes you look really silly.
Ripskar referenced a number of links; if anything, you are the one who has not developed a counter argument to QM in response to ""the fallacy of something out of nothing""; you've just not bothered to read his argument and then claimed he doesn't have one. Do you see how silly this looks??","http://www.4forums.com/political/creation-intelligent-design-vs-evolution/15750-creationists-argument-all-plants-animals-existed-same-time.html",441111,59
"1-10660_60_59_1",10660,1,"2011-10-20 11:27:00",1648,237,441145,"2011-10-19 19:55:00",487306,158,59,"Oh yea, cause opinion based arguments don't exist, to name one. This is the problem with your arguments. You think invalidating someone's argument is the only way to provide one of your own. However, you can only invalidate someone's argument if that argument is... invalid, in the same way you can only falsify someone's argument if it is false and you can show that it is false.
I actually read the links Ripskar posted, and not only did they address the issue (falsifying your first assertive claim), but it made complete sense to me, knowing nothing about QM to start with; all was logical and almost based off of fundamental principles of QM (and falsifying your second assertive claim). You're still trying to invalidate Ripskar's argument by saying he doesn't have one when you haven't even read his argument.",487305,1,10660,1,"No, attempting one of those are the only two ways to attack an opponents argument, the rest are informal fallacies.
I've said my opponent has no argument many times because many times they do not. Most of the time they blather for a bit with informal fallacies and emotional appeals and then quit.
Lol, interesting way you phrased that. Try to invalidate a valid argument, yes that won't work.
There are only two possible natures of his links, a description of QM which is in no way applicable to the logic of the original statements; or some mystical rhetorical maze such as the one displayed recently with databed and the 1 - 1 = 0 equivocation to NULL = ~NULL","http://www.4forums.com/political/creation-intelligent-design-vs-evolution/15750-creationists-argument-all-plants-animals-existed-same-time.html",441128,60
"1-10660_67_60_1",10660,1,"2011-10-20 16:46:00",237,1648,441176,"2011-10-20 11:27:00",487313,141,60,"It's the only way to provide a counter argument yes.

Quite right.

No, I didn't read his link; I'll read any argument he cares to make. If you think QM 'counters' something like ""what came before time?"", and ""something can't come from nothing"" I will readily agree you know nothing about it.

Still waiting for your argument, yours.

Nothing is defined as the lack of existence, so yes there is no such thing as nothing. There is a concept nothing but that's all.
Nothing = no thing.

I must be a psychic 1 - 1 = NULL :p

A definition of quantum vacuum lacking any particles or waves or anything else.... except virtual particles and minute bursts of energy :p",487306,1,10660,1,"Oh yea, cause opinion based arguments don't exist, to name one. This is the problem with your arguments. You think invalidating someone's argument is the only way to provide one of your own. However, you can only invalidate someone's argument if that argument is... invalid, in the same way you can only falsify someone's argument if it is false and you can show that it is false.
I actually read the links Ripskar posted, and not only did they address the issue (falsifying your first assertive claim), but it made complete sense to me, knowing nothing about QM to start with; all was logical and almost based off of fundamental principles of QM (and falsifying your second assertive claim). You're still trying to invalidate Ripskar's argument by saying he doesn't have one when you haven't even read his argument.","http://www.4forums.com/political/creation-intelligent-design-vs-evolution/15750-creationists-argument-all-plants-animals-existed-same-time.html",441145,67
