"key","quote_source_post_discussion_id","posts_dataset_id","posts_timestamp","posts_author_id","quote_source_author_id","posts_native_post_id","quote_source_timestamp","post_text_id","Word_Count","quote_source_post_id","post_text","quote_source_text_id","Dialog_Turn","posts_discussion_id","quote_source_post_dataset_id","Fullquote_text","discussion_url","quote_source_native_post_id","posts_post_id"
"1-11013_38_37_1",11013,1,"2012-08-12 11:01:00",236,550,460921,"2012-08-12 09:13:00",501278,38,37,"How can you falsify something in the eyes of someone who will believe it come what may, regardless of any evidence against it (or absolutely no evidence in favour of it), however overwhelming?",501277,1,11013,1,"Like I said, you're unable to identify with any conclusive DNA evidence, any specific hominid as being man's immediate, direct-line ancestor. 

How would you know what's necessary to explain the creation of the universe if you don't know how it was created in the first place?
It all goes back to the resurrection of Christ. Falsify that and I'm on board with you and non-theistic creationism.","http://www.4forums.com/political/creation-intelligent-design-vs-evolution/18932-there-absolutely-no-convincing-evidence-theory-christianity.html",460915,38
"1-11013_39_38_1",11013,1,"2012-08-13 06:56:00",550,236,460964,"2012-08-12 11:01:00",501279,18,38,"People have been trying for centuries. It's hard to diss the truth. 
Jesus is Lord!",501278,1,11013,1,"How can you falsify something in the eyes of someone who will believe it come what may, regardless of any evidence against it (or absolutely no evidence in favour of it), however overwhelming?","http://www.4forums.com/political/creation-intelligent-design-vs-evolution/18932-there-absolutely-no-convincing-evidence-theory-christianity.html",460921,39
"1-11013_40_39_1",11013,1,"2012-08-13 09:33:00",236,550,460973,"2012-08-13 06:56:00",501280,31,39,"It's also hard to convince a rational person that something is so if there is zero evidence of its truth, but then you wouldn't have any clue about that.",501279,1,11013,1,"People have been trying for centuries. It's hard to diss the truth. 
Jesus is Lord!","http://www.4forums.com/political/creation-intelligent-design-vs-evolution/18932-there-absolutely-no-convincing-evidence-theory-christianity.html",460964,40
"1-11013_41_40_1",11013,1,"2012-08-13 14:32:00",550,236,460990,"2012-08-13 09:33:00",501281,14,40,"First show me a ""rational"" person. It's surely not you.",501280,1,11013,1,"It's also hard to convince a rational person that something is so if there is zero evidence of its truth, but then you wouldn't have any clue about that.","http://www.4forums.com/political/creation-intelligent-design-vs-evolution/18932-there-absolutely-no-convincing-evidence-theory-christianity.html",460973,41
"1-11013_42_41_1",11013,1,"2012-08-13 14:46:00",236,550,460991,"2012-08-13 14:32:00",501282,27,41,"I doubt you can find one less rational than the one you see in the mirror, so comparatively I am a ""rational"" person.",501281,1,11013,1,"First show me a ""rational"" person. It's surely not you.","http://www.4forums.com/political/creation-intelligent-design-vs-evolution/18932-there-absolutely-no-convincing-evidence-theory-christianity.html",460990,42
"1-11013_43_42_1",11013,1,"2012-08-13 21:28:00",550,236,461001,"2012-08-13 14:46:00",501283,21,42,"In your dreams. Christ is real and you're unable to comprehend the truth. That's how clueless you are.",501282,1,11013,1,"I doubt you can find one less rational than the one you see in the mirror, so comparatively I am a ""rational"" person.","http://www.4forums.com/political/creation-intelligent-design-vs-evolution/18932-there-absolutely-no-convincing-evidence-theory-christianity.html",460991,43
"1-11013_45_43_1",11013,1,"2012-08-14 05:42:00",236,550,461012,"2012-08-13 21:28:00",501285,23,43,"Then you should have some positive, hard evidence for all you say. Otherwise, you got nothing, as usual.",501283,1,11013,1,"In your dreams. Christ is real and you're unable to comprehend the truth. That's how clueless you are.","http://www.4forums.com/political/creation-intelligent-design-vs-evolution/18932-there-absolutely-no-convincing-evidence-theory-christianity.html",461001,45
"1-11013_46_45_1",11013,1,"2012-08-14 07:06:00",550,236,461016,"2012-08-14 05:42:00",501286,36,45,"And with one fell swoop smiley throws the historical New Testament and related writings into the trash. That's why you're deluded, because you don't recognize the truth when you see and hear it.",501285,1,11013,1,"Then you should have some positive, hard evidence for all you say. Otherwise, you got nothing, as usual.","http://www.4forums.com/political/creation-intelligent-design-vs-evolution/18932-there-absolutely-no-convincing-evidence-theory-christianity.html",461012,46
"1-11013_47_46_1",11013,1,"2012-08-14 07:28:00",236,550,461017,"2012-08-14 07:06:00",501287,42,46,"Yet again you claim that the new testament is 'historical'. Why is there no corroborating documentation?
Until you can provide some outside evidence that you are presenting the truth, you got nothing. No change there!",501286,1,11013,1,"And with one fell swoop smiley throws the historical New Testament and related writings into the trash. That's why you're deluded, because you don't recognize the truth when you see and hear it.","http://www.4forums.com/political/creation-intelligent-design-vs-evolution/18932-there-absolutely-no-convincing-evidence-theory-christianity.html",461016,47
"1-11013_48_47_1",11013,1,"2012-08-14 08:38:00",550,236,461021,"2012-08-14 07:28:00",501288,28,47,"You can start with the multiple, independent, historical Gospels - all of which corroborate/ confirm the resurrection. Then add in the Epistles, etc.",501287,1,11013,1,"Yet again you claim that the new testament is 'historical'. Why is there no corroborating documentation?
Until you can provide some outside evidence that you are presenting the truth, you got nothing. No change there!","http://www.4forums.com/political/creation-intelligent-design-vs-evolution/18932-there-absolutely-no-convincing-evidence-theory-christianity.html",461017,48
"1-11013_49_48_1",11013,1,"2012-08-14 09:36:00",236,550,461024,"2012-08-14 08:38:00",501289,76,48,"But you don't have multiple, independent, historical gospels. If that is all you have then you may as well give up. The gospels are, at best, suspect. And there is nothing outside the bible to corroborate your claims.
If you have extraordinary claims (which you do), then half-arsed evidence just won't do.
Come back when you can actually show evidence of your claims.",501288,1,11013,1,"You can start with the multiple, independent, historical Gospels - all of which corroborate/ confirm the resurrection. Then add in the Epistles, etc.","http://www.4forums.com/political/creation-intelligent-design-vs-evolution/18932-there-absolutely-no-convincing-evidence-theory-christianity.html",461021,49
"1-11013_50_49_1",11013,1,"2012-08-14 19:35:00",550,236,461056,"2012-08-14 09:36:00",501290,37,49,"<flush>
Like I said, you're unable to recognize the truth when it's presented to you. So have fun while you can because you're in deep sneakers when you hit the other side.",501289,1,11013,1,"But you don't have multiple, independent, historical gospels. If that is all you have then you may as well give up. The gospels are, at best, suspect. And there is nothing outside the bible to corroborate your claims.
If you have extraordinary claims (which you do), then half-arsed evidence just won't do.
Come back when you can actually show evidence of your claims.","http://www.4forums.com/political/creation-intelligent-design-vs-evolution/18932-there-absolutely-no-convincing-evidence-theory-christianity.html",461024,50
"1-11013_51_50_1",11013,1,"2012-08-14 19:57:00",236,550,461062,"2012-08-14 19:35:00",501291,45,50,"I do recognise the truth, but you know nothing of it.
When I hit the other side I'll be in the ground, rotting just like you will be, though I suspect the earth round you will be somewhat more bitter.",501290,1,11013,1,"<flush>
Like I said, you're unable to recognize the truth when it's presented to you. So have fun while you can because you're in deep sneakers when you hit the other side.","http://www.4forums.com/political/creation-intelligent-design-vs-evolution/18932-there-absolutely-no-convincing-evidence-theory-christianity.html",461056,51
"1-11013_52_51_1",11013,1,"2012-08-15 05:58:00",550,236,461087,"2012-08-14 19:57:00",501292,33,51,"Jesus is the Way and the Truth and the Life, and you're ignorant of that very important truth. Recommend you get down on your bony knees and pray about it.",501291,1,11013,1,"I do recognise the truth, but you know nothing of it.
When I hit the other side I'll be in the ground, rotting just like you will be, though I suspect the earth round you will be somewhat more bitter.","http://www.4forums.com/political/creation-intelligent-design-vs-evolution/18932-there-absolutely-no-convincing-evidence-theory-christianity.html",461062,52
"1-11013_53_52_1",11013,1,"2012-08-15 12:46:00",236,550,461108,"2012-08-15 05:58:00",501293,33,52,"Until you have some actual hard evidence for that, you still got nothing. If it were the truth, you would be able to prodive hard evidence. You can't!",501292,1,11013,1,"Jesus is the Way and the Truth and the Life, and you're ignorant of that very important truth. Recommend you get down on your bony knees and pray about it.","http://www.4forums.com/political/creation-intelligent-design-vs-evolution/18932-there-absolutely-no-convincing-evidence-theory-christianity.html",461087,53
"1-11013_54_53_1",11013,1,"2012-08-15 19:38:00",550,236,461122,"2012-08-15 12:46:00",501294,22,53,"Rotate. I'm not going to throw the historical New Testament into the trash to mollify a spiritual midget like you.",501293,1,11013,1,"Until you have some actual hard evidence for that, you still got nothing. If it were the truth, you would be able to prodive hard evidence. You can't!","http://www.4forums.com/political/creation-intelligent-design-vs-evolution/18932-there-absolutely-no-convincing-evidence-theory-christianity.html",461108,54
"1-11013_56_54_1",11013,1,"2012-08-16 05:06:00",236,550,461131,"2012-08-15 19:38:00",501296,43,54,"Your insults and crudity just go to show that you have no argument. And if you have a 'historical' new testament you should give it to the world, because all they have is what is in the bible.",501294,1,11013,1,"Rotate. I'm not going to throw the historical New Testament into the trash to mollify a spiritual midget like you.","http://www.4forums.com/political/creation-intelligent-design-vs-evolution/18932-there-absolutely-no-convincing-evidence-theory-christianity.html",461122,56
"1-11013_57_56_1",11013,1,"2012-08-16 08:53:00",550,236,461138,"2012-08-16 05:06:00",501297,46,56,"Wrong again. The fact you're spiritually stunted is undeniable. Now you could get down on your knees and ask God to reveal Jesus Christ to you, which he will in time, but you're too proud to do that, aren't you?",501296,1,11013,1,"Your insults and crudity just go to show that you have no argument. And if you have a 'historical' new testament you should give it to the world, because all they have is what is in the bible.","http://www.4forums.com/political/creation-intelligent-design-vs-evolution/18932-there-absolutely-no-convincing-evidence-theory-christianity.html",461131,57
"1-11013_58_57_1",11013,1,"2012-08-16 10:33:00",236,550,461140,"2012-08-16 08:53:00",501298,111,57,"I'm afraid I'm not wrong. It is your modus operandi. As soon as you can't come up with any kind of evidence to back up your delusional claims, the insults and crudity start.
Even if your god did exist (though there is zero evidence in favoir of this), why would I consider lowering myself to worship such a monstrous entity? He supports slavery, rape, genocide, abortion . . . to name just a few.
If you choose to worship such a beast, I have serious doubts about your ethical standards. And you claim I'm spiritually stunted.",501297,1,11013,1,"Wrong again. The fact you're spiritually stunted is undeniable. Now you could get down on your knees and ask God to reveal Jesus Christ to you, which he will in time, but you're too proud to do that, aren't you?","http://www.4forums.com/political/creation-intelligent-design-vs-evolution/18932-there-absolutely-no-convincing-evidence-theory-christianity.html",461138,58
"1-11013_59_58_1",11013,1,"2012-08-17 06:44:00",550,236,461158,"2012-08-16 10:33:00",501299,43,58,"If / when you wind up in Hell it will be for being a stiff-necked unbeliever who was too full of pride in himself to get down on his knees to pray. Remember that when you drop down into the Pit.",501298,1,11013,1,"I'm afraid I'm not wrong. It is your modus operandi. As soon as you can't come up with any kind of evidence to back up your delusional claims, the insults and crudity start.
Even if your god did exist (though there is zero evidence in favoir of this), why would I consider lowering myself to worship such a monstrous entity? He supports slavery, rape, genocide, abortion . . . to name just a few.
If you choose to worship such a beast, I have serious doubts about your ethical standards. And you claim I'm spiritually stunted.","http://www.4forums.com/political/creation-intelligent-design-vs-evolution/18932-there-absolutely-no-convincing-evidence-theory-christianity.html",461140,59
"1-11013_60_59_1",11013,1,"2012-08-17 07:28:00",236,550,461164,"2012-08-17 06:44:00",501300,52,59,"Let's take that as an 'if' then.
And 'when' you end up in the ground (or possibly cremated) with the rest of us, you will have no knowledge of it, but you will have wasted your life on bitter, pitiful delusions.",501299,1,11013,1,"If / when you wind up in Hell it will be for being a stiff-necked unbeliever who was too full of pride in himself to get down on his knees to pray. Remember that when you drop down into the Pit.","http://www.4forums.com/political/creation-intelligent-design-vs-evolution/18932-there-absolutely-no-convincing-evidence-theory-christianity.html",461158,60
"1-11013_65_64_2",11013,1,"2012-08-18 07:50:00",236,550,461200,"2012-08-18 07:39:00",501305,56,64,"What have I told you about repeating those lies? You gonna be the devil's butt-buddy.

If the god of the OT and the NT are the same person (Jesus) then he was schizophrenic. Needs to spend some time in the funny farm, with a nice new long sleeved jacket.",501304,2,11013,1,"I have independent, historical confirmations of the life, death, and resurrection of Jesus. You don't even have anything like that for what you buy into.

He created the earth and all things (Colossians 1:15-18). In the beginning, he was God (John 1).","http://www.4forums.com/political/creation-intelligent-design-vs-evolution/18932-there-absolutely-no-convincing-evidence-theory-christianity.html",461198,65
"1-11013_66_65_2",11013,1,"2012-08-18 07:57:00",550,236,461201,"2012-08-18 07:50:00",501306,51,65,"<Flush>
You're the numb-skull liar who supports gay sex debauchery. 

No foundation. 
Who is the liar? It's the man who denies that Jesus is the Christ. Such a person is an antichrist. - 1 John 2:22
That's you, O spawn of Satan.",501305,2,11013,1,"What have I told you about repeating those lies? You gonna be the devil's butt-buddy.

If the god of the OT and the NT are the same person (Jesus) then he was schizophrenic. Needs to spend some time in the funny farm, with a nice new long sleeved jacket.","http://www.4forums.com/political/creation-intelligent-design-vs-evolution/18932-there-absolutely-no-convincing-evidence-theory-christianity.html",461200,66
"1-11013_67_66_2",11013,1,"2012-08-18 08:34:00",236,550,461205,"2012-08-18 07:57:00",501307,147,66,"Okay, how are supporting 'gay sex debauchery' (whatever that is) and lying in any way synonymous. One is standing up for the rights of two consenting individuals, the other is making statements that one knows to be false.
Are you getting confused with long words again?

There is a whole mountain of foundation. The difference in character between one who orders genocide, rape and slavery, and the other who reportedly preaches forgiveness and peace is there for all rational people to see.
And there you go again getting your words confused. How is not believing in something synonymous with making statements that one knows to be false?
It appears that you are the one making false statements, unless of course you really are so dense that cannot tell the difference.",501306,2,11013,1,"<Flush>
You're the numb-skull liar who supports gay sex debauchery. 

No foundation. 
Who is the liar? It's the man who denies that Jesus is the Christ. Such a person is an antichrist. - 1 John 2:22
That's you, O spawn of Satan.","http://www.4forums.com/political/creation-intelligent-design-vs-evolution/18932-there-absolutely-no-convincing-evidence-theory-christianity.html",461201,67
"1-11013_68_67_2",11013,1,"2012-08-18 10:53:00",550,236,461210,"2012-08-18 08:34:00",501308,32,67,"B.S. 
You heathens have a short memory for what happened at Sodom and Gomorrah. You run around and think God doesn't get involved in these things. Dumb and Dumber.",501307,2,11013,1,"Okay, how are supporting 'gay sex debauchery' (whatever that is) and lying in any way synonymous. One is standing up for the rights of two consenting individuals, the other is making statements that one knows to be false.
Are you getting confused with long words again?

There is a whole mountain of foundation. The difference in character between one who orders genocide, rape and slavery, and the other who reportedly preaches forgiveness and peace is there for all rational people to see.
And there you go again getting your words confused. How is not believing in something synonymous with making statements that one knows to be false?
It appears that you are the one making false statements, unless of course you really are so dense that cannot tell the difference.","http://www.4forums.com/political/creation-intelligent-design-vs-evolution/18932-there-absolutely-no-convincing-evidence-theory-christianity.html",461205,68
"1-11013_69_68_2",11013,1,"2012-08-18 11:21:00",236,550,461212,"2012-08-18 10:53:00",501309,77,68,"Losing again I see. Don't change the subject. How are supporting 'gay sex debauchery' and lying in any way synonymous?
You have made the accusation. Back it up.
If different words are too much for your miniscule brain to cope with, I suggest you try yelling your hogwash on a street corner, where less people will be able to see how much of a fool you are.",501308,2,11013,1,"B.S. 
You heathens have a short memory for what happened at Sodom and Gomorrah. You run around and think God doesn't get involved in these things. Dumb and Dumber.","http://www.4forums.com/political/creation-intelligent-design-vs-evolution/18932-there-absolutely-no-convincing-evidence-theory-christianity.html",461210,69
"1-11013_70_69_2",11013,1,"2012-08-19 04:23:00",550,236,461225,"2012-08-18 11:21:00",501310,22,69,"You ought to know. The idea that gay sex is ok is the lie that you've bought into. Turkey.",501309,2,11013,1,"Losing again I see. Don't change the subject. How are supporting 'gay sex debauchery' and lying in any way synonymous?
You have made the accusation. Back it up.
If different words are too much for your miniscule brain to cope with, I suggest you try yelling your hogwash on a street corner, where less people will be able to see how much of a fool you are.","http://www.4forums.com/political/creation-intelligent-design-vs-evolution/18932-there-absolutely-no-convincing-evidence-theory-christianity.html",461212,70
"1-11013_71_70_2",11013,1,"2012-08-19 05:13:00",236,550,461226,"2012-08-19 04:23:00",501311,84,70,"Aah! Very nicely twisted words there EZ. Now you are claiming that 'gay sex debauchery being ok' is the lie. This is not what you were claiming before.
Whether this new claim is true (which it isn't) still does not make me a liar if I believe it is ok, and for you to claim that I am a liar just because I support it would make you a liar, would it not?",501310,2,11013,1,"You ought to know. The idea that gay sex is ok is the lie that you've bought into. Turkey.","http://www.4forums.com/political/creation-intelligent-design-vs-evolution/18932-there-absolutely-no-convincing-evidence-theory-christianity.html",461225,71
"1-11013_72_71_2",11013,1,"2012-08-19 08:23:00",550,236,461230,"2012-08-19 05:13:00",501312,42,71,"The Word of God identifies you as a liar (1 John 2:22), so quit trying to weasel out of it. You're also of your father, the devil, the father of lies (John 8:44).",501311,2,11013,1,"Aah! Very nicely twisted words there EZ. Now you are claiming that 'gay sex debauchery being ok' is the lie. This is not what you were claiming before.
Whether this new claim is true (which it isn't) still does not make me a liar if I believe it is ok, and for you to claim that I am a liar just because I support it would make you a liar, would it not?","http://www.4forums.com/political/creation-intelligent-design-vs-evolution/18932-there-absolutely-no-convincing-evidence-theory-christianity.html",461226,72
"1-11013_73_72_2",11013,1,"2012-08-19 09:11:00",236,550,461233,"2012-08-19 08:23:00",501313,95,72,"1 - There is no evidence of there even being a god, so your claim lacks any weight whatsoever.
2 - Your chosen quote clearly does not define the word 'liar' correctly. As I do not believe that your Jesus is the 'Christ', I would only be lying if I claimed that he were. Have I just blown your mind?
3 - My father died of cancer back in 1997. I would appreciate it if you would stop making derogatory remarks about him.",501312,2,11013,1,"The Word of God identifies you as a liar (1 John 2:22), so quit trying to weasel out of it. You're also of your father, the devil, the father of lies (John 8:44).","http://www.4forums.com/political/creation-intelligent-design-vs-evolution/18932-there-absolutely-no-convincing-evidence-theory-christianity.html",461230,73
"1-11013_98_96_3",11013,1,"2012-08-28 06:06:00",236,550,461752,"2012-08-28 03:22:00",501338,84,96,"Don't change the subject. The topic was, ""dead people don't get up after 3 days of being dead and walk around"". If you think otherwise, you should offer some evidence.
By the way, the universe just appearing out of nowhere is your theory, not that of the science community. There is evidence to support the Big Bang Theory. And who cares what the gospels say, they are at best just hearsay.",501336,3,11013,1,"But an entire universe suddenly appears out of nowhere and you wolf that down like the lap dog that you are.
The Gospels make you out as either misinformed or a liar.","http://www.4forums.com/political/creation-intelligent-design-vs-evolution/18932-there-absolutely-no-convincing-evidence-theory-christianity.html",461743,98
"1-11013_100_98_3",11013,1,"2012-08-28 07:54:00",550,236,461755,"2012-08-28 06:06:00",501340,32,98,"Read the Gospels.

Most of history is hearsay. So go throw your history books in the garbage.
What existed before the Big Bang? Let's hear your THEORY.",501338,3,11013,1,"Don't change the subject. The topic was, ""dead people don't get up after 3 days of being dead and walk around"". If you think otherwise, you should offer some evidence.
By the way, the universe just appearing out of nowhere is your theory, not that of the science community. There is evidence to support the Big Bang Theory. And who cares what the gospels say, they are at best just hearsay.","http://www.4forums.com/political/creation-intelligent-design-vs-evolution/18932-there-absolutely-no-convincing-evidence-theory-christianity.html",461752,100
"1-11013_101_100_3",11013,1,"2012-08-28 08:07:00",236,550,461757,"2012-08-28 07:54:00",501341,68,100,"Already have. They are not even well written.

But most of history has corroborating evidence. Your gospels have nothing. They're not even consistent.
As for what was there before the big bang, I don't know. We have no data to examine. But that does not mean we should make stuff up. ""God"" is just a non-answer.",501340,3,11013,1,"Read the Gospels.

Most of history is hearsay. So go throw your history books in the garbage.
What existed before the Big Bang? Let's hear your THEORY.","http://www.4forums.com/political/creation-intelligent-design-vs-evolution/18932-there-absolutely-no-convincing-evidence-theory-christianity.html",461755,101
"1-11013_105_101_3",11013,1,"2012-08-28 13:42:00",550,236,461774,"2012-08-28 08:07:00",501345,51,101,"It's the #1 Best Seller in history, preppie, so what would you know?

Nuts.

<Flush>
You're full of folly. I have four (4) Independent, historical Gospels plus assorted Epistles for corroboratiion. You're the one who has nothing but denials.",501341,3,11013,1,"Already have. They are not even well written.

But most of history has corroborating evidence. Your gospels have nothing. They're not even consistent.
As for what was there before the big bang, I don't know. We have no data to examine. But that does not mean we should make stuff up. ""God"" is just a non-answer.","http://www.4forums.com/political/creation-intelligent-design-vs-evolution/18932-there-absolutely-no-convincing-evidence-theory-christianity.html",461757,105
"1-11013_107_105_3",11013,1,"2012-08-28 14:34:00",236,550,461778,"2012-08-28 13:42:00",501347,25,105,"Yet again, your gospels are not independent. It doesn't matter how many time you say it, you're still being willfully ignorant.",501345,3,11013,1,"It's the #1 Best Seller in history, preppie, so what would you know?

Nuts.

<Flush>
You're full of folly. I have four (4) Independent, historical Gospels plus assorted Epistles for corroboratiion. You're the one who has nothing but denials.","http://www.4forums.com/political/creation-intelligent-design-vs-evolution/18932-there-absolutely-no-convincing-evidence-theory-christianity.html",461774,107
"1-11013_108_107_3",11013,1,"2012-08-29 01:50:00",550,236,461787,"2012-08-28 14:34:00",501348,40,107,"Back that folly up with some facts then. I have four Gospels written at different times by different people in different places and you sit there like a know-it-all and say they're not independent? Back it up.",501347,3,11013,1,"Yet again, your gospels are not independent. It doesn't matter how many time you say it, you're still being willfully ignorant.","http://www.4forums.com/political/creation-intelligent-design-vs-evolution/18932-there-absolutely-no-convincing-evidence-theory-christianity.html",461778,108
"1-11013_109_108_3",11013,1,"2012-08-29 06:53:00",236,550,461794,"2012-08-29 01:50:00",501349,39,108,"Here is a little snippet from the Catholic Planet web page. Even they admit that there was copying going on. But you can ignore the evidence if you wish. It's what we expect from you.

",501348,3,11013,1,"Back that folly up with some facts then. I have four Gospels written at different times by different people in different places and you sit there like a know-it-all and say they're not independent? Back it up.","http://www.4forums.com/political/creation-intelligent-design-vs-evolution/18932-there-absolutely-no-convincing-evidence-theory-christianity.html",461787,109
"1-11013_110_109_3",11013,1,"2012-08-29 07:33:00",550,236,461795,"2012-08-29 06:53:00",501350,189,109,"Nice try. First, even if your ""copying"" theory is correct, did they copy the TRUTH or a lie? You are interested in the truth, aren't you? Where's your evidence they copied a lie, or that they copied at all? 
There's another explanation that even many evangelicals overlook that nullifies your theory of copying:
""But the Counselor, the Holy Spirit, whom the Father will send in my name, will teach you all things and will remind you of everything I have said to you."" - Jesus, John 14:26
So they had no need to copy - all they needed was divine assistance.
Finally, you said the Gospels don't agree with each other (although all four confirm the death and resurrection of Christ). Here's a blurb where not even Seal team / government officials agree on how Bin Laden was killed.
SEAL book raises questions about bin Laden's death - Washington Times
So once again, you've got nothing but your usual conjecture and unsubstantiated theories.",501349,3,11013,1,"Here is a little snippet from the Catholic Planet web page. Even they admit that there was copying going on. But you can ignore the evidence if you wish. It's what we expect from you.

","http://www.4forums.com/political/creation-intelligent-design-vs-evolution/18932-there-absolutely-no-convincing-evidence-theory-christianity.html",461794,110
"1-11013_111_110_3",11013,1,"2012-08-29 09:48:00",236,550,461799,"2012-08-29 07:33:00",501351,205,110,"Well we seem to have at least an admittance of the possibilty that there may have been some copying going on. Quite a big step from the insistance that you have ""4 INDEPENDENT GOSPELS"". You now feel the need to defend the claim that they didn't really need to copy because the holy ghosty was guiding them. Note that this is a claim in the bible, which is the very thing that is in question, so cannot justifyably be used as evidence in the debate of whether the bible is ""THE TRUTH"".
You're slipping into your usual circular argument.
The bible must be true because those who wrote it were inspired by the holy ghost as is detailed in the bible which must be true because those who wrote it were inspired by the . . . . . . . rinse, repeat.
And surely, if your argument that the gospel writers didn't need to copy because they were guided by the holy ghost is true, then why are you comparing them to differing accounts of Bin Laden's death? Surely they must be perfectly accurate if divinely inspired.",501350,3,11013,1,"Nice try. First, even if your ""copying"" theory is correct, did they copy the TRUTH or a lie? You are interested in the truth, aren't you? Where's your evidence they copied a lie, or that they copied at all? 
There's another explanation that even many evangelicals overlook that nullifies your theory of copying:
""But the Counselor, the Holy Spirit, whom the Father will send in my name, will teach you all things and will remind you of everything I have said to you."" - Jesus, John 14:26
So they had no need to copy - all they needed was divine assistance.
Finally, you said the Gospels don't agree with each other (although all four confirm the death and resurrection of Christ). Here's a blurb where not even Seal team / government officials agree on how Bin Laden was killed.
SEAL book raises questions about bin Laden's death - Washington Times
So once again, you've got nothing but your usual conjecture and unsubstantiated theories.","http://www.4forums.com/political/creation-intelligent-design-vs-evolution/18932-there-absolutely-no-convincing-evidence-theory-christianity.html",461795,111
"1-11013_112_111_3",11013,1,"2012-08-29 10:51:00",550,236,461802,"2012-08-29 09:48:00",501352,80,111,"I never said that, you did.

They all agree on the resurrection, his miracles, his crucifixion, etc. You still can't see the forest for the trees.
And I also noticed you had zero evidence for your copying claim (Who copied who, when, where, why..). Don't try your hand at being a reporter because you're a full quart low on facts and evidence to support your THEORIES.",501351,3,11013,1,"Well we seem to have at least an admittance of the possibilty that there may have been some copying going on. Quite a big step from the insistance that you have ""4 INDEPENDENT GOSPELS"". You now feel the need to defend the claim that they didn't really need to copy because the holy ghosty was guiding them. Note that this is a claim in the bible, which is the very thing that is in question, so cannot justifyably be used as evidence in the debate of whether the bible is ""THE TRUTH"".
You're slipping into your usual circular argument.
The bible must be true because those who wrote it were inspired by the holy ghost as is detailed in the bible which must be true because those who wrote it were inspired by the . . . . . . . rinse, repeat.
And surely, if your argument that the gospel writers didn't need to copy because they were guided by the holy ghost is true, then why are you comparing them to differing accounts of Bin Laden's death? Surely they must be perfectly accurate if divinely inspired.","http://www.4forums.com/political/creation-intelligent-design-vs-evolution/18932-there-absolutely-no-convincing-evidence-theory-christianity.html",461799,112
"1-11013_113_112_3",11013,1,"2012-08-29 11:37:00",236,550,461803,"2012-08-29 10:51:00",501353,228,112,"But you did change your tune from, ""I have 4 independent gospels blah, blah, blah"", to, ""well even if your claim is true, they didn't need to because they were all inspired by the holy ghost"". That in itself is a very big step for you.

I just gave you a quote from the Catholic Planet web page. Did you not read it? It explains how Matthew's gospel would have been 'widely circulated' by the time Mark wrote his gospel, and that Mark probably had a copy of it (plenty of opportunity for plagiarism there). And later Luke had both Matthew and Mark as sources (even more stuff to copy). And later still John would have had access to all three other gospels (widely circulated). And not only that, he would have been writing for the 'whole church', which would have given him all the incentive he needed to support the divitiy of this Jesus character, whom it is very likely none of them ever met.
If you think that is 'zero evidence' then there is no hope of you ever accepting any evidence against your willfully ignorant belief in your omnievil sky-daddy.",501352,3,11013,1,"I never said that, you did.
They all agree on the resurrection, his miracles, his crucifixion, etc. You still can't see the forest for the trees.","http://www.4forums.com/political/creation-intelligent-design-vs-evolution/18932-there-absolutely-no-convincing-evidence-theory-christianity.html",461802,113
"1-11013_114_113_3",11013,1,"2012-08-29 12:06:00",550,236,461804,"2012-08-29 11:37:00",501354,83,113,"I didn't change anything. I remain steadfast that the Gospel writers didn't need to copy anyone because of John 14:6.

I'm not a Catholic. What's more, opportunity doesn't prove anything. You bring that argument up in a court of law and the defense and the Judge will blast you out of the courtroom.

It is zero evidence and you're a stiff-necked fool for thinking you have anything other than more hot air and conjecture.",501353,3,11013,1,"But you did change your tune from, ""I have 4 independent gospels blah, blah, blah"", to, ""well even if your claim is true, they didn't need to because they were all inspired by the holy ghost"". That in itself is a very big step for you.

I just gave you a quote from the Catholic Planet web page. Did you not read it? It explains how Matthew's gospel would have been 'widely circulated' by the time Mark wrote his gospel, and that Mark probably had a copy of it (plenty of opportunity for plagiarism there). And later Luke had both Matthew and Mark as sources (even more stuff to copy). And later still John would have had access to all three other gospels (widely circulated). And not only that, he would have been writing for the 'whole church', which would have given him all the incentive he needed to support the divitiy of this Jesus character, whom it is very likely none of them ever met.
If you think that is 'zero evidence' then there is no hope of you ever accepting any evidence against your willfully ignorant belief in your omnievil sky-daddy.","http://www.4forums.com/political/creation-intelligent-design-vs-evolution/18932-there-absolutely-no-convincing-evidence-theory-christianity.html",461803,114
"1-11013_115_114_3",11013,1,"2012-08-29 15:09:00",236,550,461810,"2012-08-29 12:06:00",501355,50,114,"You think that my evidence would be blasted out of court? Maybe, but your evidence wouldn't even be admitted as a case. You have absolutely nothing. Hearsay at best, just a poorly written story with unbelievable characters and dodgy plot-lines is nearer the mark.",501354,3,11013,1,"I didn't change anything. I remain steadfast that the Gospel writers didn't need to copy anyone because of John 14:6.

I'm not a Catholic. What's more, opportunity doesn't prove anything. You bring that argument up in a court of law and the defense and the Judge will blast you out of the courtroom.

It is zero evidence and you're a stiff-necked fool for thinking you have anything other than more hot air and conjecture.","http://www.4forums.com/political/creation-intelligent-design-vs-evolution/18932-there-absolutely-no-convincing-evidence-theory-christianity.html",461804,115
"1-11013_116_115_3",11013,1,"2012-08-30 03:44:00",550,236,461816,"2012-08-29 15:09:00",501356,237,115,"You're full of horse manure, as usual.
Dr. Simon Greenleaf, the Royal Professor of Law at Harvard University, wrote the much circulated and highly regarded legal volume entitled, A Treatise on the Law of Evidence, considered to be the greatest legal volume ever written. Initially, Dr. Greenleaf believed the Resurrection of Jesus Christ was a hoax. So much so that he resolved to expose it as such conclusively. After a thorough examination of the evidence for the resurrection, Dr. Greenleaf concluded that the biblical account was absolutely true. Here are some excerpts from his book ""An Examination of the Testimony of the Four Evangelists by the Rules of Evidence Administered in the Courts of Justice"" :
""it was impossible that the apostles could have persisted in affirming the truths they had narrated, had not Jesus Christ actually risen from the dead, . . ."" - Simon Greenleaf, An Examination of the Testimony of the Four Evangelists by the Rules of Evidence Administered in the Courts of Justice, p.29).
Moreover, Greenleaf concluded that the resurrection of Jesus Christ was the best supported event in all of history!
Having become fully convinced by the evidence, Greenleaf committed his life to Jesus Christ!
Welcome to Evidence for the resurrection of Jesus Christ",501355,3,11013,1,"You think that my evidence would be blasted out of court? Maybe, but your evidence wouldn't even be admitted as a case. You have absolutely nothing. Hearsay at best, just a poorly written story with unbelievable characters and dodgy plot-lines is nearer the mark.","http://www.4forums.com/political/creation-intelligent-design-vs-evolution/18932-there-absolutely-no-convincing-evidence-theory-christianity.html",461810,116
"1-11013_149_148_4",11013,1,"2012-09-10 10:48:00",236,1033,462132,"2012-09-10 08:23:00",501389,23,148,"Not sure you're right there, but I am sure that he doesn't have anyone who would admit to being his mother.",501388,4,11013,1,"Ez doesn’t have a mother, he's an orphan.","http://www.4forums.com/political/creation-intelligent-design-vs-evolution/18932-there-absolutely-no-convincing-evidence-theory-christianity.html",462126,149
"1-11013_150_149_4",11013,1,"2012-09-10 11:02:00",1033,236,462133,"2012-09-10 10:48:00",501390,22,149,"Actuality he is a test tube baby, created by science. His mother was some guy in a lab coat.",501389,4,11013,1,"Not sure you're right there, but I am sure that he doesn't have anyone who would admit to being his mother.","http://www.4forums.com/political/creation-intelligent-design-vs-evolution/18932-there-absolutely-no-convincing-evidence-theory-christianity.html",462132,150
"1-11013_151_150_4",11013,1,"2012-09-10 11:12:00",236,1033,462134,"2012-09-10 11:02:00",501391,11,150,"That's it, I'm changing sides - SCIENCE IS EVIL!!!!!",501390,4,11013,1,"Actuality he is a test tube baby, created by science. His mother was some guy in a lab coat.","http://www.4forums.com/political/creation-intelligent-design-vs-evolution/18932-there-absolutely-no-convincing-evidence-theory-christianity.html",462133,151
"1-11013_152_151_4",11013,1,"2012-09-10 14:18:00",1033,236,462138,"2012-09-10 11:12:00",501392,57,151,"Science made him, science must destroy him, god is nothing but a robot.
Haven’t you ever wondered why they catalog all those passages in the bible using a system of numbers?
Has kind of a chilling machine like feel to it, doesn’t it.",501391,4,11013,1,"That's it, I'm changing sides - SCIENCE IS EVIL!!!!!","http://www.4forums.com/political/creation-intelligent-design-vs-evolution/18932-there-absolutely-no-convincing-evidence-theory-christianity.html",462134,152
"1-11013_153_152_4",11013,1,"2012-09-10 14:46:00",236,1033,462142,"2012-09-10 14:18:00",501393,20,152,"Don't use words like 'chilling'. Winter's coming, and it lasts a full 6 months here.",501392,4,11013,1,"Science made him, science must destroy him, god is nothing but a robot.
Haven’t you ever wondered why they catalog all those passages in the bible using a system of numbers?
Has kind of a chilling machine like feel to it, doesn’t it.","http://www.4forums.com/political/creation-intelligent-design-vs-evolution/18932-there-absolutely-no-convincing-evidence-theory-christianity.html",462138,153
"1-11013_175_174_5",11013,1,"2012-09-15 17:19:00",237,1033,462355,"2012-09-15 04:00:00",501415,10,174,"All the studies concluding AGGC were written by climatologist.",501414,5,11013,1,"Yes but it was all written by religious people.","http://www.4forums.com/political/creation-intelligent-design-vs-evolution/18932-there-absolutely-no-convincing-evidence-theory-christianity.html",462330,175
"1-11013_176_175_5",11013,1,"2012-09-15 19:24:00",1033,237,462362,"2012-09-15 17:19:00",501416,20,175,"Are you sure you are not still religious because you sure do think like one.
What is AGGC?",501415,5,11013,1,"All the studies concluding AGGC were written by climatologist.","http://www.4forums.com/political/creation-intelligent-design-vs-evolution/18932-there-absolutely-no-convincing-evidence-theory-christianity.html",462355,176
"1-11013_180_176_5",11013,1,"2012-09-16 09:16:00",237,1033,462380,"2012-09-15 19:24:00",501420,9,176,"Typo, AGCC. Anthropogenic Global Climate Change.",501416,5,11013,1,"Are you sure you are not still religious because you sure do think like one.
What is AGGC?","http://www.4forums.com/political/creation-intelligent-design-vs-evolution/18932-there-absolutely-no-convincing-evidence-theory-christianity.html",462362,180
"1-11013_181_180_5",11013,1,"2012-09-16 13:00:00",1033,237,462384,"2012-09-16 09:16:00",501421,13,180,"And you know it's wrong because the weather seems fine to you?",501420,5,11013,1,"Typo, AGCC. Anthropogenic Global Climate Change.","http://www.4forums.com/political/creation-intelligent-design-vs-evolution/18932-there-absolutely-no-convincing-evidence-theory-christianity.html",462380,181
"1-11013_182_181_5",11013,1,"2012-09-16 13:23:00",237,1033,462386,"2012-09-16 13:00:00",501422,17,181,"I know nothing is wrong because I haven't heard any good reason why it wouldn't be.",501421,5,11013,1,"And you know it's wrong because the weather seems fine to you?","http://www.4forums.com/political/creation-intelligent-design-vs-evolution/18932-there-absolutely-no-convincing-evidence-theory-christianity.html",462384,182
"1-11013_183_182_5",11013,1,"2012-09-16 16:23:00",1033,237,462387,"2012-09-16 13:23:00",501423,11,182,"And what exactly qualifies you as a global warming expert?",501422,5,11013,1,"I know nothing is wrong because I haven't heard any good reason why it wouldn't be.","http://www.4forums.com/political/creation-intelligent-design-vs-evolution/18932-there-absolutely-no-convincing-evidence-theory-christianity.html",462386,183
"1-11013_184_183_5",11013,1,"2012-09-16 16:31:00",237,1033,462388,"2012-09-16 16:23:00",501424,7,183,"What qualifies you as a theologian?",501423,5,11013,1,"And what exactly qualifies you as a global warming expert?","http://www.4forums.com/political/creation-intelligent-design-vs-evolution/18932-there-absolutely-no-convincing-evidence-theory-christianity.html",462387,184
"1-11013_185_184_5",11013,1,"2012-09-16 17:12:00",1033,237,462389,"2012-09-16 16:31:00",501425,34,184,"I don't need to be a botanist to see that grass is green.
If we let climate change deniers determine our course of action and they are wrong who will take responsibility?",501424,5,11013,1,"What qualifies you as a theologian?","http://www.4forums.com/political/creation-intelligent-design-vs-evolution/18932-there-absolutely-no-convincing-evidence-theory-christianity.html",462388,185
"1-11013_186_185_5",11013,1,"2012-09-16 17:22:00",237,1033,462390,"2012-09-16 17:12:00",501426,143,185,"I think you've made my point for me. If I let climate change believers determine my course of action and they are wrong who will take responsibility?
I am taking responsibility now by demanding both evidence and logic (collectively known as support).
I don't need to be a theologian to see that religion has no support, I don't need to be a climatologist to see that AGCC has no support, and I don't need to be a botanist see that grass is green.
If people like you and easyrider feel you can correct me, you are going to need to do it with support. Asserting that if I pursued the same titles as those whose authority you invest your full faith in, I would then no longer need convincing is insufficient.",501425,5,11013,1,"I don't need to be a botanist to see that grass is green.
If we let climate change deniers determine our course of action and they are wrong who will take responsibility?","http://www.4forums.com/political/creation-intelligent-design-vs-evolution/18932-there-absolutely-no-convincing-evidence-theory-christianity.html",462389,186
"1-11013_117_116_6",11013,1,"2012-08-30 05:49:00",1033,550,461819,"2012-08-30 03:44:00",501357,21,116,"Watch the video on this page, god did a faith healing and that proved god is real!
Jesus Evidence",501356,6,11013,1,"You're full of horse manure, as usual.
Dr. Simon Greenleaf, the Royal Professor of Law at Harvard University, wrote the much circulated and highly regarded legal volume entitled, A Treatise on the Law of Evidence, considered to be the greatest legal volume ever written. Initially, Dr. Greenleaf believed the Resurrection of Jesus Christ was a hoax. So much so that he resolved to expose it as such conclusively. After a thorough examination of the evidence for the resurrection, Dr. Greenleaf concluded that the biblical account was absolutely true. Here are some excerpts from his book ""An Examination of the Testimony of the Four Evangelists by the Rules of Evidence Administered in the Courts of Justice"" :
""it was impossible that the apostles could have persisted in affirming the truths they had narrated, had not Jesus Christ actually risen from the dead, . . ."" - Simon Greenleaf, An Examination of the Testimony of the Four Evangelists by the Rules of Evidence Administered in the Courts of Justice, p.29).
Moreover, Greenleaf concluded that the resurrection of Jesus Christ was the best supported event in all of history!
Having become fully convinced by the evidence, Greenleaf committed his life to Jesus Christ!
Welcome to Evidence for the resurrection of Jesus Christ","http://www.4forums.com/political/creation-intelligent-design-vs-evolution/18932-there-absolutely-no-convincing-evidence-theory-christianity.html",461816,117
"1-11013_118_117_6",11013,1,"2012-08-31 06:37:00",550,1033,461857,"2012-08-30 05:49:00",501358,13,117,"Looky there - Accipiter is preaching Jesus Christ! Gotta love it!",501357,6,11013,1,"Watch the video on this page, god did a faith healing and that proved god is real!
Jesus Evidence","http://www.4forums.com/political/creation-intelligent-design-vs-evolution/18932-there-absolutely-no-convincing-evidence-theory-christianity.html",461819,118
"1-11013_119_118_6",11013,1,"2012-08-31 07:23:00",1033,550,461859,"2012-08-31 06:37:00",501359,23,118,"Hey ez, I bet you know where to find some convincing faith healing videos, why not give us some links?",501358,6,11013,1,"Looky there - Accipiter is preaching Jesus Christ! Gotta love it!","http://www.4forums.com/political/creation-intelligent-design-vs-evolution/18932-there-absolutely-no-convincing-evidence-theory-christianity.html",461857,119
"1-11013_120_119_6",11013,1,"2012-08-31 11:36:00",550,1033,461869,"2012-08-31 07:23:00",501360,5,119,"Do your own homework.",501359,6,11013,1,"Hey ez, I bet you know where to find some convincing faith healing videos, why not give us some links?","http://www.4forums.com/political/creation-intelligent-design-vs-evolution/18932-there-absolutely-no-convincing-evidence-theory-christianity.html",461859,120
"1-11013_121_120_6",11013,1,"2012-08-31 12:01:00",1033,550,461870,"2012-08-31 11:36:00",501361,16,120,"Why should I? I am not the one defending your position, you are.",501360,6,11013,1,"Do your own homework.","http://www.4forums.com/political/creation-intelligent-design-vs-evolution/18932-there-absolutely-no-convincing-evidence-theory-christianity.html",461869,121
"1-11013_122_121_6",11013,1,"2012-08-31 17:39:00",550,1033,461880,"2012-08-31 12:01:00",501362,34,121,"I don't have to defend anything. In fact all I need to do is remind you that you've rejected salvation in Jesus Christ, and without him you're Hell-bound when you expire.",501361,6,11013,1,"Why should I? I am not the one defending your position, you are.","http://www.4forums.com/political/creation-intelligent-design-vs-evolution/18932-there-absolutely-no-convincing-evidence-theory-christianity.html",461870,122
"1-11013_124_122_6",11013,1,"2012-08-31 23:25:00",1033,550,461883,"2012-08-31 17:39:00",501364,5,122,"Loser!
I win!",501362,6,11013,1,"I don't have to defend anything. In fact all I need to do is remind you that you've rejected salvation in Jesus Christ, and without him you're Hell-bound when you expire.","http://www.4forums.com/political/creation-intelligent-design-vs-evolution/18932-there-absolutely-no-convincing-evidence-theory-christianity.html",461880,124
"1-11013_133_132_7",11013,1,"2012-09-05 14:26:00",1033,550,462012,"2012-09-05 13:13:00",501373,30,132,"You remind me of this homeless guy down town that stands on the corner in tattered clothes waving a bible and loudly babbling about how it saved his life.",501372,7,11013,1,"He's full of cr*p - trying to inject pagan myths, etc., into the Christ equation. You need to study some better material:
Christ vs. Pagan Myths
Is Jesus a myth? Is Jesus just a copy of the pagan gods of other ancient religions?
Evidence for Jesus' Resurrection Video
Truthbomb Apologetics: Video: Evidence for Jesus' Resurrection by Dr. William Lane Craig
Historical Evidence for Jesus
Grant R. Jeffrey Ministries","http://www.4forums.com/political/creation-intelligent-design-vs-evolution/18932-there-absolutely-no-convincing-evidence-theory-christianity.html",462009,133
"1-11013_135_133_7",11013,1,"2012-09-06 05:16:00",550,1033,462026,"2012-09-05 14:26:00",501375,22,133,"Still wallowing in the mud like a pig aren't you? Unable to discern the truth and spiritually constipated. Sad...",501373,7,11013,1,"You remind me of this homeless guy down town that stands on the corner in tattered clothes waving a bible and loudly babbling about how it saved his life.","http://www.4forums.com/political/creation-intelligent-design-vs-evolution/18932-there-absolutely-no-convincing-evidence-theory-christianity.html",462012,135
"1-11013_136_135_7",11013,1,"2012-09-07 01:45:00",1033,550,462053,"2012-09-06 05:16:00",501376,26,135,"ez the hillbilly theologian has once again proved that the bible makes people stupid.
You were an orphan weren’t you.",501375,7,11013,1,"Still wallowing in the mud like a pig aren't you? Unable to discern the truth and spiritually constipated. Sad...","http://www.4forums.com/political/creation-intelligent-design-vs-evolution/18932-there-absolutely-no-convincing-evidence-theory-christianity.html",462026,136
"1-11013_137_136_7",11013,1,"2012-09-07 06:15:00",550,1033,462057,"2012-09-07 01:45:00",501377,69,136,"<Flush>
""For the scientist who has lived by faith in the power of reason, the story ends like a bad dream. He has scaled the mountains of ignorance; he is about to conquer the highest peak; as he pulls himself over the final rock, he is greeted by a band of theologians who have been sitting there for centuries.""",501376,7,11013,1,"ez the hillbilly theologian has once again proved that the bible makes people stupid.
You were an orphan weren’t you.","http://www.4forums.com/political/creation-intelligent-design-vs-evolution/18932-there-absolutely-no-convincing-evidence-theory-christianity.html",462053,137
"1-11013_138_137_7",11013,1,"2012-09-07 06:55:00",1033,550,462062,"2012-09-07 06:15:00",501378,22,137,"So atop a mountain of ignorance is where we will find religious people?
Yeah, sounds about right to me.",501377,7,11013,1,"<Flush>
""For the scientist who has lived by faith in the power of reason, the story ends like a bad dream. He has scaled the mountains of ignorance; he is about to conquer the highest peak; as he pulls himself over the final rock, he is greeted by a band of theologians who have been sitting there for centuries.""","http://www.4forums.com/political/creation-intelligent-design-vs-evolution/18932-there-absolutely-no-convincing-evidence-theory-christianity.html",462057,138
"1-11013_139_138_7",11013,1,"2012-09-07 07:14:00",550,1033,462064,"2012-09-07 06:55:00",501379,8,138,"You need a course in reading comprehension.",501378,7,11013,1,"So atop a mountain of ignorance is where we will find religious people?
Yeah, sounds about right to me.","http://www.4forums.com/political/creation-intelligent-design-vs-evolution/18932-there-absolutely-no-convincing-evidence-theory-christianity.html",462062,139
"1-11013_140_139_7",11013,1,"2012-09-07 07:52:00",1033,550,462066,"2012-09-07 07:14:00",501380,17,139,"I have seen you post that quote before but you got it wrong this time dumbass.",501379,7,11013,1,"You need a course in reading comprehension.","http://www.4forums.com/political/creation-intelligent-design-vs-evolution/18932-there-absolutely-no-convincing-evidence-theory-christianity.html",462064,140
"1-11013_142_140_7",11013,1,"2012-09-09 10:29:00",550,1033,462101,"2012-09-07 07:52:00",501382,7,140,"In your dreams, carp breath.",501380,7,11013,1,"I have seen you post that quote before but you got it wrong this time dumbass.","http://www.4forums.com/political/creation-intelligent-design-vs-evolution/18932-there-absolutely-no-convincing-evidence-theory-christianity.html",462066,142
