"key","quote_source_post_discussion_id","posts_dataset_id","posts_timestamp","posts_author_id","quote_source_author_id","posts_native_post_id","quote_source_timestamp","post_text_id","Word_Count","quote_source_post_id","post_text","quote_source_text_id","Dialog_Turn","posts_discussion_id","quote_source_post_dataset_id","Fullquote_text","discussion_url","quote_source_native_post_id","posts_post_id"
"1-1476_151_150_1",1476,1,"2005-07-13 01:12:00",661,101,146890,"2005-07-12 23:53:00",62195,44,150,"That is a very simplistic view of genetics and natural selection. If the nieces and nephews of a gay person had a slightly raised fecundity for example, then there would be positive selection pressure for such a ""gay gene"".",62194,1,1476,1,"I wonder if being gay is a genetic, or environmental behaviour. Some say it is genetic, but im not so sure, because if it were genetic, then it would be exceedingly rare, as children cannot come from a same sex union. So someone who was gay from birth would be less likley to mate with someone from the opposite sex, and therefore the gene would be found less and less as time went on. I think being gay is an environmental condition. I read a long time ago that in the animal kingdom, homosexuallity was found in populations where one sex outnumbered the other.","http://www.4forums.com/political/creation-intelligent-design-vs-evolution/2421-noahs-flood-fact-fiction.html",146881,151
"1-1476_152_151_1",1476,1,"2005-07-13 02:16:00",101,661,146904,"2005-07-13 01:12:00",62196,10,151,"can you dumb that up a bit for me?",62195,1,1476,1,"That is a very simplistic view of genetics and natural selection. If the nieces and nephews of a gay person had a slightly raised fecundity for example, then there would be positive selection pressure for such a ""gay gene"".","http://www.4forums.com/political/creation-intelligent-design-vs-evolution/2421-noahs-flood-fact-fiction.html",146890,152
"1-1476_153_152_1",1476,1,"2005-07-13 04:02:00",661,101,146916,"2005-07-13 02:16:00",62197,89,152,"Put crudely, your siblings share some of your genes and so if their kids survive and have kids of their own (this is how fecundity is measured), then some of your genes get passed on. If your assistance (as a homosexual non-reproductive person) increases the number of reproductively successful offspring your siblings produce then this offsets the fact that you haven't produced any kids yourself.
It's a contraversial idea, but it isn't one that can be completely ruled out.",62196,1,1476,1,"can you dumb that up a bit for me?","http://www.4forums.com/political/creation-intelligent-design-vs-evolution/2421-noahs-flood-fact-fiction.html",146904,153
"1-1476_155_153_1",1476,1,"2005-07-13 13:11:00",101,661,147041,"2005-07-13 04:02:00",62199,39,153,"Would the gene not become less prevelant the longer it is inactive? like of a cousin of someone gay is not gay and they have kids and so on for many generations without the occurence of homosexuallity.",62197,1,1476,1,"Put crudely, your siblings share some of your genes and so if their kids survive and have kids of their own (this is how fecundity is measured), then some of your genes get passed on. If your assistance (as a homosexual non-reproductive person) increases the number of reproductively successful offspring your siblings produce then this offsets the fact that you haven't produced any kids yourself.
It's a contraversial idea, but it isn't one that can be completely ruled out.","http://www.4forums.com/political/creation-intelligent-design-vs-evolution/2421-noahs-flood-fact-fiction.html",146916,155
"1-1476_158_155_1",1476,1,"2005-07-13 13:51:00",661,101,147050,"2005-07-13 13:11:00",62202,130,155,"We are talking a hypothetical gene here. If homosexuality has a genetic component, it will be the result of a combination of many genes. Also it is not a simple case of genes fading away becaus they are inactive: it is invariably way more complex than that. The best example I can think of is with the European crested newt. Every one of them is a heterozygous individual (can't remember for which gene(s)). They mate and half the offspring are homozygous. Both homozygous forms are fatal in early development and only the heterozygous ones become adults. A whole 50% of the eggs produced die because of a fatal gene combination that the newt cannot escape from...",62199,1,1476,1,"Would the gene not become less prevelant the longer it is inactive? like of a cousin of someone gay is not gay and they have kids and so on for many generations without the occurence of homosexuallity.","http://www.4forums.com/political/creation-intelligent-design-vs-evolution/2421-noahs-flood-fact-fiction.html",147041,158
