"key","quote_source_post_discussion_id","posts_dataset_id","posts_timestamp","posts_author_id","quote_source_author_id","posts_native_post_id","quote_source_timestamp","post_text_id","Word_Count","quote_source_post_id","post_text","quote_source_text_id","Dialog_Turn","posts_discussion_id","quote_source_post_dataset_id","Fullquote_text","discussion_url","quote_source_native_post_id","posts_post_id"
"1-156_30_29_1",156,1,"2003-02-23 18:56:00",6,19,3044,"2003-02-23 18:40:00",7405,171,29,"Name one. BTW, nobody mentions atheism...they just don't give God credit for anything.

Aaaahhhhh!!!!!!! None of you seem to understand my meaning (or you don't read my posts). Let's skip this example before I go crazy.

Where in my posts have I said that my sins are ""more forgivable"" then other peoples? If I don't ask for forgiveness I go to hell. If anyone else doesn't ask for forgiveness they go to hell. Comprendes?

When the female you reproduce with has children without tonsils, let me know. How was I supposed to know that you were male? ""Crim"" doesn't sound like a gender specific screen name to me. Calligirl, on the other hand, is kinda obvious. 

Source please?

Sorry but the link won't work. (I'm not kidding, it won't work.)

Not if it's a mutation or an acquired trait.",7404,1,156,1,"Ummm, about 100x the amount of shows which mention atheism.

You said organisms weren't born that were slightly different yet the same. That was incorrect.

So? In your religion's view, everyone sins. Their sin is no greater or more unforgiveable than yours.

Kinda hard, since I'm male.

Ok, I'm letting you know.

http://www.talkorigins.org/faqs/faq-speciation.html 

The 3rd gen organisms wouldn't necessarily have the new trait (it could be recessive), but the gene would propogate.","http://www.4forums.com/political/creation-intelligent-design-vs-evolution/228-ape-adam-my-view.html",3041,30
"1-156_31_30_1",156,1,"2003-02-23 19:05:00",19,6,3047,"2003-02-23 18:56:00",7406,72,30,"Any of the CBN shows like the 700 Club.
Plenty of channels on Sunday mornings.
And why should shows be giving god credit for anything? 

You said all homosexuals were going to hell. Your reason was because homosexual acts were sins. I pointed out that all people sin.

Do a google search on the CCR-5 gene mutation.

Try this:http://www.talkorigins.org/faqs/speciation.html 

Why wouldn't it?",7405,1,156,1,"Name one. BTW, nobody mentions atheism...they just don't give God credit for anything.

Aaaahhhhh!!!!!!! None of you seem to understand my meaning (or you don't read my posts). Let's skip this example before I go crazy.

Where in my posts have I said that my sins are ""more forgivable"" then other peoples? If I don't ask for forgiveness I go to hell. If anyone else doesn't ask for forgiveness they go to hell. Comprendes?

When the female you reproduce with has children without tonsils, let me know. How was I supposed to know that you were male? ""Crim"" doesn't sound like a gender specific screen name to me. Calligirl, on the other hand, is kinda obvious. 

Source please?

Sorry but the link won't work. (I'm not kidding, it won't work.)

Not if it's a mutation or an acquired trait.","http://www.4forums.com/political/creation-intelligent-design-vs-evolution/228-ape-adam-my-view.html",3044,31
"1-156_32_31_1",156,1,"2003-02-23 19:17:00",6,19,3054,"2003-02-23 19:05:00",7407,196,31,"Oh yeah, like the televangelist shows. :) Come on, get real. Maybe they should give God credit for things because He is omnipotent and omnipresent. Maybe because He created us to love Him and serve Him. Maybe because He has blessed America in so many ways!

They go to hell because they do not ask for forgiveness from their sins. Anyone who asks for forgiveness and changes will not go to hell. They do not want to change their sinful ways. (How many times to I have to repeat myself?)

I'm lazy and debating 3 other people. Why don't you do it for me?

I tried the link and it took me to http://www.weeeeeeee.com/ 
(I think my computer is having problems. :) )

Ever heard of the ""mouse experiment""? This freak scientist cut off the tails of mice and then bred them together. The offspring had normal size tails. He tried this millions (exagerating) of times with the same results. Acquired traits cannot be passed down from generation to generation.",7406,1,156,1,"Any of the CBN shows like the 700 Club.
Plenty of channels on Sunday mornings. And why should shows be giving god credit for anything? ","http://www.4forums.com/political/creation-intelligent-design-vs-evolution/228-ape-adam-my-view.html",3047,32
"1-156_33_32_1",156,1,"2003-02-23 19:34:00",19,6,3062,"2003-02-23 19:17:00",7408,157,32,"You asked for one. I supplied it. If you'd like to present an example of a show being explicitely atheist, please do so.

I see no reason why secular shows should be required to mention your mythology.

And HOW do you know that homosexuals don't repent?

Because I don't feel like copying and pasting articles into a forum when they can be easily accessed online. But for a quick summary: The CCR-5 gene mutation is present in about 15% of caucasians, with 1% having the homogeneous version. These 1% are completely immune. The heterogeneous people possess some immunity.

Do a google search for 'observed speciation events'. Those links should be the first two results.

That's basically the dumbest experiment I've ever heard. Cutting off a mouse's tail wouldn't affect its DNA, so the offspring would still have tails.",7407,1,156,1,"Oh yeah, like the televangelist shows. :) Come on, get real. Maybe they should give God credit for things because He is omnipotent and omnipresent. Maybe because He created us to love Him and serve Him. Maybe because He has blessed America in so many ways!

They go to hell because they do not ask for forgiveness from their sins. Anyone who asks for forgiveness and changes will not go to hell. They do not want to change their sinful ways. (How many times to I have to repeat myself?)

I'm lazy and debating 3 other people. Why don't you do it for me?

I tried the link and it took me to http://www.weeeeeeee.com/ 
(I think my computer is having problems. :) )

Ever heard of the ""mouse experiment""? This freak scientist cut off the tails of mice and then bred them together. The offspring had normal size tails. He tried this millions (exagerating) of times with the same results. Acquired traits cannot be passed down from generation to generation.","http://www.4forums.com/political/creation-intelligent-design-vs-evolution/228-ape-adam-my-view.html",3054,33
"1-156_34_33_1",156,1,"2003-02-23 19:42:00",6,19,3068,"2003-02-23 19:34:00",7409,44,33,"Animal Planet, Discovery Chanel, NOVA, etc.

I just gave you three.

If they had repented, they wouldn't be homosexuals any longer.
Crim:
I'm going to have to reply to your other statements later. Gotta go!",7408,1,156,1,"You asked for one. I supplied it. If you'd like to present an example of a show being explicitely atheist, please do so.

I see no reason why secular shows should be required to mention your mythology.

And HOW do you know that homosexuals don't repent?

Because I don't feel like copying and pasting articles into a forum when they can be easily accessed online. But for a quick summary: The CCR-5 gene mutation is present in about 15% of caucasians, with 1% having the homogeneous version. These 1% are completely immune. The heterogeneous people possess some immunity.

Do a google search for 'observed speciation events'. Those links should be the first two results.

That's basically the dumbest experiment I've ever heard. Cutting off a mouse's tail wouldn't affect its DNA, so the offspring would still have tails.","http://www.4forums.com/political/creation-intelligent-design-vs-evolution/228-ape-adam-my-view.html",3062,34
"1-156_35_34_1",156,1,"2003-02-23 19:44:00",19,6,3070,"2003-02-23 19:42:00",7410,34,34,"They're explicitely atheist?
Wow, I didn't realize those channels had a lot of shows about ""hey, there's no god"".

Read what I said again.

Why not?",7409,1,156,1,"Animal Planet, Discovery Chanel, NOVA, etc.

I just gave you three.

If they had repented, they wouldn't be homosexuals any longer.
Crim:
I'm going to have to reply to your other statements later. Gotta go!","http://www.4forums.com/political/creation-intelligent-design-vs-evolution/228-ape-adam-my-view.html",3068,35
"1-156_36_35_1",156,1,"2003-02-24 17:40:00",6,19,3158,"2003-02-23 19:44:00",7411,134,35,"Oops, sorry! I was thinking about it and realized that they aren't atheist, they are humanist. (Or at least they try to be.)

I didn't see the word ""secular"". But if they are humanist (which they try to be), shouldn't they mention every ""god""? I never heard them mentioning God using evolution as a possibility for the existence of man.

Because they would not be performing homosexual acts any longer. 
homosexual:of, relating to, or characterized by a tendency to direct sexual desire toward another of the same sex
God takes away wrongful desires. Therefore, someone who was previously ""homosexual"" would not be considered ""homosexual"" anymore.",7410,1,156,1,"They're explicitely atheist? Wow, I didn't realize those channels had a lot of shows about ""hey, there's no god"".","http://www.4forums.com/political/creation-intelligent-design-vs-evolution/228-ape-adam-my-view.html",3070,36
"1-156_38_36_1",156,1,"2003-02-24 21:46:00",19,6,3201,"2003-02-24 17:40:00",7413,14,36,"They're not humanist, they're scientific.

So you've never repeated a sin?",7411,1,156,1,"Oops, sorry! I was thinking about it and realized that they aren't atheist, they are humanist. (Or at least they try to be.)

I didn't see the word ""secular"". But if they are humanist (which they try to be), shouldn't they mention every ""god""? I never heard them mentioning God using evolution as a possibility for the existence of man.

Because they would not be performing homosexual acts any longer. 
homosexual:of, relating to, or characterized by a tendency to direct sexual desire toward another of the same sex
God takes away wrongful desires. Therefore, someone who was previously ""homosexual"" would not be considered ""homosexual"" anymore.","http://www.4forums.com/political/creation-intelligent-design-vs-evolution/228-ape-adam-my-view.html",3158,38
"1-156_39_38_1",156,1,"2003-02-25 15:38:00",6,19,3253,"2003-02-24 21:46:00",7414,218,38,"Yes, God does take away sinful desires. (If you ask Him.) I'm not saying that it doesn't take any work on your part, though. When you have a sinful desire, you allow a thought to become more than just a stray idea. You foster and encourage the thought and it becomes a desire. God takes away the desires, helps you deal with your ""stray thoughts"", and shows you how to keep them from becoming desires. 

That all depends on what your definition of science is. (Different debate.)

Let's put it this way, if they ""repeat their sin"" but honestly ask Christ to forgive them and to help them not to repeat it, then they are not ""homosexual"". If you are constantly having sex with the same sex and then asking for forgiveness, you are not a true Christian. You are trying to tell me that the desire for the opposite sex is some kind of ""accident"". ""Well, what if they didn't mean to have sex..."" That doesn't work, you have to be truly sorry and then MAKE AN EFFORT to stop.",7413,1,156,1,"They're not humanist, they're scientific.

So you've never repeated a sin?","http://www.4forums.com/political/creation-intelligent-design-vs-evolution/228-ape-adam-my-view.html",3201,39
"1-156_40_39_1",156,1,"2003-02-25 16:09:00",19,6,3255,"2003-02-25 15:38:00",7415,16,39,"I disagree.
Additionally, there is a difference between being homosexual and committing sodomy.",7414,1,156,1,"Yes, God does take away sinful desires. (If you ask Him.) I'm not saying that it doesn't take any work on your part, though. When you have a sinful desire, you allow a thought to become more than just a stray idea. You foster and encourage the thought and it becomes a desire. God takes away the desires, helps you deal with your ""stray thoughts"", and shows you how to keep them from becoming desires. 

That all depends on what your definition of science is. (Different debate.)

Let's put it this way, if they ""repeat their sin"" but honestly ask Christ to forgive them and to help them not to repeat it, then they are not ""homosexual"". If you are constantly having sex with the same sex and then asking for forgiveness, you are not a true Christian. You are trying to tell me that the desire for the opposite sex is some kind of ""accident"". ""Well, what if they didn't mean to have sex..."" That doesn't work, you have to be truly sorry and then MAKE AN EFFORT to stop.","http://www.4forums.com/political/creation-intelligent-design-vs-evolution/228-ape-adam-my-view.html",3253,40
"1-156_41_40_1",156,1,"2003-02-25 17:38:00",6,19,3277,"2003-02-25 16:09:00",7416,22,40,"Would you like to continue this debate in a Religion forum? (We're sorta getting off topic here. :) )",7415,1,156,1,"I disagree.
Additionally, there is a difference between being homosexual and committing sodomy.","http://www.4forums.com/political/creation-intelligent-design-vs-evolution/228-ape-adam-my-view.html",3255,41
