"key","quote_source_post_discussion_id","posts_dataset_id","posts_timestamp","posts_author_id","quote_source_author_id","posts_native_post_id","quote_source_timestamp","post_text_id","Word_Count","quote_source_post_id","post_text","quote_source_text_id","Dialog_Turn","posts_discussion_id","quote_source_post_dataset_id","Fullquote_text","discussion_url","quote_source_native_post_id","posts_post_id"
"1-2337_7_5_1",2337,1,"2004-11-09 23:27:00",31,100,76690,"2004-11-09 12:14:00",90796,191,5,"Is this the reason you have four times called me a liar, and offered no proof? I didn't realise your lack of willingness to make it anything more than ad hominem was my fault. However, if you want to actually discuss the non-scientific nature of Scientism, feel free. If you want to discuss the irrational nature of Objectivism feel free.
But as to people using their definitions alone, this is what happens when I debate an Objectivist on this forum. Is that a rational way of constructing an argument?
a) to make a statement
b) to re-state it as a rebuttal
c) to re-state it as 'proof'
d) to declare no matter what 'evidences' are presented, the original statement 'just-is' correct.
e) to add that my own views are illogical, but this is 'not an insult' based on a)
If you feel that is a proper and logical way to debate, then I can give you some links to Ayn Rand sites.",90794,1,2337,1,"People make definitions. They then make statements that make sense according to those definitions. You interpret their statements terms of your own definitions. Maybe your definition are in a sense better but many people adopt the position that when someone defines things you intercept them using their definitions AND THEIR DEFINITIONS ALONE. You do not seem to think this should be done. This is the main reason why people treat you the way they do. It actually has little to do with them practicing objectivism or scientism.","http://www.4forums.com/political/creation-intelligent-design-vs-evolution/3685-philosophy-science-endangers-evolution.html",76587,7
"1-2337_15_7_1",2337,1,"2004-11-10 02:42:00",100,31,76728,"2004-11-09 23:27:00",90804,47,7,"If I make a statement and mention what definitions I am using then going through steps is b) to e) is not an invalid response to someone ignoring how I Define things and says my statement is wrong according to how they define things.",90796,1,2337,1,"But as to people using their definitions alone, this is what happens when I debate an Objectivist on this forum. Is that a rational way of constructing an argument?
a) to make a statement
b) to re-state it as a rebuttal
c) to re-state it as 'proof'
d) to declare no matter what 'evidences' are presented, the original statement 'just-is' correct.
e) to add that my own views are illogical, but this is 'not an insult' based on a)
.","http://www.4forums.com/political/creation-intelligent-design-vs-evolution/3685-philosophy-science-endangers-evolution.html",76690,15
"1-2337_17_15_1",2337,1,"2004-11-10 22:13:00",31,100,76885,"2004-11-10 02:42:00",90806,99,15,"In the explanation I gave to him, and now pass on to you, it's akin to saying
An elephant is a fish that lives on cheese. No amount of evidence will convince me otherwise. All 'proofs' that you can show me are illogical.
And when you'd have every right to ask for me to prove that statement, I'd just say ""No amount of evidences can convince me otherwise"" and then re-state my position about the truth of my position.
And you find that a valid debating technique?",90804,1,2337,1,"If I make a statement and mention what definitions I am using then going through steps is b) to e) is not an invalid response to someone ignoring how I Define things and says my statement is wrong according to how they define things.","http://www.4forums.com/political/creation-intelligent-design-vs-evolution/3685-philosophy-science-endangers-evolution.html",76728,17
"1-2337_23_17_1",2337,1,"2004-11-11 03:15:00",100,31,76916,"2004-11-10 22:13:00",90812,96,17,"So you put words in Machs mouth. This would be acceptable if you were not doing it in a malicious fashion to get some sort of sadistic pleasure but you were instead actually trying to get him to explain himself. At any rate it totally disproves your nonsense about how you above me because you do not put words into peoples mouths because you do the same. You were not being dishonest to start with I admit it would be wrong to deliberately misrepesent you but neither of the circumstances apply here.",90806,1,2337,1,"In the explanation I gave to him, and now pass on to you, it's akin to saying
An elephant is a fish that lives on cheese. No amount of evidence will convince me otherwise. All 'proofs' that you can show me are illogical.
?","http://www.4forums.com/political/creation-intelligent-design-vs-evolution/3685-philosophy-science-endangers-evolution.html",76885,23
"1-2337_25_23_1",2337,1,"2004-11-11 03:21:00",31,100,76919,"2004-11-11 03:15:00",90814,19,23,"I have also quoted from him in the past. Your 'conversation' is a complete fabrication.",90812,1,2337,1,"So you put words in Machs mouth. This would be acceptable if you were not doing it in a malicious fashion to get some sort of sadistic pleasure but you were instead actually trying to get him to explain himself. At any rate it totally disproves your nonsense about how you above me because you do not put words into peoples mouths because you do the same. You were not being dishonest to start with I admit it would be wrong to deliberately misrepesent you but neither of the circumstances apply here.","http://www.4forums.com/political/creation-intelligent-design-vs-evolution/3685-philosophy-science-endangers-evolution.html",76916,25
"1-2337_28_25_1",2337,1,"2004-11-11 03:31:00",100,31,76923,"2004-11-11 03:21:00",90817,43,25,"LOL 
you know I do not claim you had the exact conservation with someone but you imply that is what I am suggesting to defend your honesty. I am actually enjoying your games now. I suppose you will stop playing.",90814,1,2337,1,"I have also quoted from him in the past. Your 'conversation' is a complete fabrication.","http://www.4forums.com/political/creation-intelligent-design-vs-evolution/3685-philosophy-science-endangers-evolution.html",76919,28
"1-2337_30_28_1",2337,1,"2004-11-11 03:34:00",31,100,76926,"2004-11-11 03:31:00",90819,91,28,"Note also when I posted I said his argument is 'akin' to ...
And also I have made use of quotes, when I felt them necessary... however your 'conversation' is a compelte fabrication, and it is also akin to using 'x' to prove 'y'
You don't hence you continually say Look out, I'm going to prove once and for all he's a liar, forget about the last four times I've said this...
Only everyone's still waiting.",90817,1,2337,1,"LOL 
you know I do not claim you had the exact conservation with someone but you imply that is what I am suggesting to defend your honesty. I am actually enjoying your games now. I suppose you will stop playing.","http://www.4forums.com/political/creation-intelligent-design-vs-evolution/3685-philosophy-science-endangers-evolution.html",76923,30
"1-2337_33_30_1",2337,1,"2004-11-11 03:48:00",100,31,76931,"2004-11-11 03:34:00",90822,47,30,"I have another question for you to pretend to answer. 
Is there any difference between saying ""his argument is akin to"" and ""using his logic""? 
Montalban will of course avoid this question like the others. Total victory is sweet.",90819,1,2337,1,"Note also when I posted I said his argument is 'akin' to ...
.","http://www.4forums.com/political/creation-intelligent-design-vs-evolution/3685-philosophy-science-endangers-evolution.html",76926,33
