"key","quote_source_post_discussion_id","posts_dataset_id","posts_timestamp","posts_author_id","quote_source_author_id","posts_native_post_id","quote_source_timestamp","post_text_id","Word_Count","quote_source_post_id","post_text","quote_source_text_id","Dialog_Turn","posts_discussion_id","quote_source_post_dataset_id","Fullquote_text","discussion_url","quote_source_native_post_id","posts_post_id"
"1-3136_86_85_1",3136,1,"2005-04-28 09:08:00",81,1326,113498,"2005-04-28 08:59:00",125706,73,85,"Well, the now late Dr Crick can have all the odd ideas he wants, but unless it is backed up by evidence, it isn't science.
Yes, naturalism is a presupposition. On the other hand, it works. It makes predictions and it lets us do such things as make the very computer you are using. What kind of verifiable and repeatable predictions supernaturalism makes??",125705,1,3136,1,"All science starts with a presupposition. Evolution presupposes naturalism.
One has to start somewhere even if you are sure you are wrong. 
Science means to know. We owe the vast majority of modern scientific knowledge to people likw Pasteur and Boyles that started with the presupposition on a supernatural creator.
A great deal of our knowledge of DNA came from Dr. Crick who believes we evolved from organisms from outer space.
Science is science. To say that all scientist do not start with a presupposition is naive.","http://www.4forums.com/political/creation-intelligent-design-vs-evolution/4831-i-still-dont-care-what-stupid-people-think.html",113487,86
"1-3136_87_86_1",3136,1,"2005-04-28 10:44:00",1326,81,113568,"2005-04-28 09:08:00",125707,80,86,"I guess if you can say Cricks beliefs had anything to do with his science then the Wright Brothers invented powered flight because they believed in supernaturalism. 
Please explain what naturalistic process created computers? I was under the impression they were designed by humans. My mistake.
The laws of nature are observed . It would make as much sense to say in the absense of light you predict it would be more difficult to see .",125706,1,3136,1,"Well, the now late Dr Crick can have all the odd ideas he wants, but unless it is backed up by evidence, it isn't science.
Yes, naturalism is a presupposition. On the other hand, it works. It makes predictions and it lets us do such things as make the very computer you are using. What kind of verifiable and repeatable predictions supernaturalism makes??","http://www.4forums.com/political/creation-intelligent-design-vs-evolution/4831-i-still-dont-care-what-stupid-people-think.html",113498,87
"1-3136_89_87_1",3136,1,"2005-04-28 11:33:00",81,1326,113586,"2005-04-28 10:44:00",125709,98,87,"DO you know what 'naturalism' is? Naturalism is the concept that there are natural (i.e. non-supernatural) explainations for the way the universe works.
The 'naturalistic' way that computers were designed was through electronic theory, from the use of quantum mechanics, and from the assumtion that there are natural explainations for electricity and how material compenents are made. 
I suppose this will go right over your head though. When you type, I get this impression of a wheel spinning, but the hamster being dead.",125707,1,3136,1,"I guess if you can say Cricks beliefs had anything to do with his science then the Wright Brothers invented powered flight because they believed in supernaturalism. 
Please explain what naturalistic process created computers? I was under the impression they were designed by humans. My mistake.
The laws of nature are observed . It would make as much sense to say in the absense of light you predict it would be more difficult to see .","http://www.4forums.com/political/creation-intelligent-design-vs-evolution/4831-i-still-dont-care-what-stupid-people-think.html",113568,89
"1-3136_90_89_1",3136,1,"2005-04-28 14:45:00",1326,81,113715,"2005-04-28 11:33:00",125710,20,89,"You seem to have lots of visions. 
Computers were designed . That means they did not occur naturally.",125709,1,3136,1,"DO you know what 'naturalism' is? Naturalism is the concept that there are natural (i.e. non-supernatural) explainations for the way the universe works.
The 'naturalistic' way that computers were designed was through electronic theory, from the use of quantum mechanics, and from the assumtion that there are natural explainations for electricity and how material compenents are made. 
I suppose this will go right over your head though. When you type, I get this impression of a wheel spinning, but the hamster being dead.","http://www.4forums.com/political/creation-intelligent-design-vs-evolution/4831-i-still-dont-care-what-stupid-people-think.html",113586,90
"1-3136_91_90_1",3136,1,"2005-04-28 14:49:00",81,1326,113721,"2005-04-28 14:45:00",125711,26,90,"However, they were designed using naturalism as the methodology for the principles behind them. 
You seem to have a strong lack of vision.",125710,1,3136,1,"You seem to have lots of visions. 
Computers were designed . That means they did not occur naturally.","http://www.4forums.com/political/creation-intelligent-design-vs-evolution/4831-i-still-dont-care-what-stupid-people-think.html",113715,91
"1-3136_95_91_1",3136,1,"2005-04-28 14:59:00",1326,81,113733,"2005-04-28 14:49:00",125715,11,91,"That makes no sense. What is naturalistic about computers?",125711,1,3136,1,"However, they were designed using naturalism as the methodology for the principles behind them. 
You seem to have a strong lack of vision.","http://www.4forums.com/political/creation-intelligent-design-vs-evolution/4831-i-still-dont-care-what-stupid-people-think.html",113721,95
