"key","quote_source_post_discussion_id","posts_dataset_id","posts_timestamp","posts_author_id","quote_source_author_id","posts_native_post_id","quote_source_timestamp","post_text_id","Word_Count","quote_source_post_id","post_text","quote_source_text_id","Dialog_Turn","posts_discussion_id","quote_source_post_dataset_id","Fullquote_text","discussion_url","quote_source_native_post_id","posts_post_id"
"1-3154_31_30_1",3154,1,"2005-04-21 09:56:00",89,55,110324,"2005-04-21 09:14:00",126953,157,30,"That's not faith you're describing, it's pigheadedness. It's sticking your fingers in your ears and going ""la-la-la, I can't hear you!"" Faith isn't belief despite evidence, it's belief despite lack of evidence. It's not the absence of doubt, it's perserverance in the face of doubt. Failure to admit that you could be wrong doesn't show your faith in God, in shows your faith in your own infalibility. It's procaiming that not only can you not be wrong, but that you understand God perfectly; both ludicrous claims. If your faith is really strong, then it will stand up to self-examination. Everyone doubts, everyone questions. Sometimes the questions lead to new answers, sometimes they reinforce the old answers. But you have to ask the questions. An unexamined faith isn't faith, it's just pride and stuborness.",126952,1,3154,1,"and right here is where faith is thrown out the window. faith means that you are right, regardless of evidence. faith means the absence of doubt. being open about the possibility that you might be wrong is exactly the same as nullifying your faith.

the ""wisdom"" that these ancient men wrote in the bible were based on the poor knowledge of science and truth about the universe they had at the time. since they were wrong about so much, then we can safely assume that the bible is not God's word. therefore, any religious or theological advice it contains is nothing beyond uneducated guesses and obsolete information. the bible contains no truth that cannot be found in any other text books. and as a religious guide, it lacks any influence of God, so therefore is useless in that regard as well. it is of no value","http://www.4forums.com/political/creation-intelligent-design-vs-evolution/4856-does-christianity-preclude-evolution.html",110283,31
"1-3154_33_31_1",3154,1,"2005-04-21 11:23:00",55,89,110354,"2005-04-21 09:56:00",126955,204,31,"if God tells you something, then it must be true, regardless of evidence. wouldnt the fact that God says something be enough to make it true? lets say, for example, God says that if you paint your door red someone will deposit $10000 in your bank account. now assuming that the actual one and only true and living all-mighty God said so, would that alone make it true? you may not even have a bank account, but once you paint your door red, you expect to be the owner of a bank account with a $10,000 balance in it, not so?
if there is anything at all in the bible that was actually said by God, then it MUST be true, regardless of evidence for or against. doubting that it is true would not change the truth about it, but acting on anything actually said by God would make absolute sense, because that would be the absolute truth. if someone has no doubt in their mind that a statement made by God is totally and irrefutably true, is that person pigheaded and stubborn?",126953,1,3154,1,"That's not faith you're describing, it's pigheadedness. It's sticking your fingers in your ears and going ""la-la-la, I can't hear you!"" Faith isn't belief despite evidence, it's belief despite lack of evidence. It's not the absence of doubt, it's perserverance in the face of doubt. Failure to admit that you could be wrong doesn't show your faith in God, in shows your faith in your own infalibility. It's procaiming that not only can you not be wrong, but that you understand God perfectly; both ludicrous claims. If your faith is really strong, then it will stand up to self-examination. Everyone doubts, everyone questions. Sometimes the questions lead to new answers, sometimes they reinforce the old answers. But you have to ask the questions. An unexamined faith isn't faith, it's just pride and stuborness.","http://www.4forums.com/political/creation-intelligent-design-vs-evolution/4856-does-christianity-preclude-evolution.html",110324,33
"1-3154_34_33_1",3154,1,"2005-04-21 11:52:00",89,55,110358,"2005-04-21 11:23:00",126956,157,33,"No. But that's not what we have here, is it? We don't have a statement made by God, we have a statement that you believe was made by God. In fact, you believe that every single statement in the Bible was made by God. And you refuse to examine that assuption, for fear of losing your faith. And so, in the name of your infallible faith, you've closed your mind to everything else. You've closed yourself off from all of creation because you refuse to even consider the possibility that every single word in the Bible didn't come straight from God. Remember, no one is questioning God's truth, they're questioning whether or not something is God's truth. Faith in God is great. Refusal to consider whether or not something did in fact come from God is pigheaded and stubborn.",126955,1,3154,1,"if God tells you something, then it must be true, regardless of evidence. wouldnt the fact that God says something be enough to make it true? lets say, for example, God says that if you paint your door red someone will deposit $10000 in your bank account. now assuming that the actual one and only true and living all-mighty God said so, would that alone make it true? you may not even have a bank account, but once you paint your door red, you expect to be the owner of a bank account with a $10,000 balance in it, not so?
if there is anything at all in the bible that was actually said by God, then it MUST be true, regardless of evidence for or against. doubting that it is true would not change the truth about it, but acting on anything actually said by God would make absolute sense, because that would be the absolute truth. if someone has no doubt in their mind that a statement made by God is totally and irrefutably true, is that person pigheaded and stubborn?","http://www.4forums.com/political/creation-intelligent-design-vs-evolution/4856-does-christianity-preclude-evolution.html",110354,34
"1-3154_35_34_1",3154,1,"2005-04-21 13:21:00",55,89,110383,"2005-04-21 11:52:00",126957,100,34,"ok, so once again, how do we determine what in the bible was said by God, if any? in fact, it may be totally possible that NOTHING in the bible is actually the word of God. we already can safely say, according to you, that not everything in the bible purported as the word of God was actually said by God. so what in the bible is? and how do you determine that?
if the bible is not the source for the word of God, what is?",126956,1,3154,1,"No. But that's not what we have here, is it? We don't have a statement made by God, we have a statement that you believe was made by God. In fact, you believe that every single statement in the Bible was made by God. And you refuse to examine that assuption, for fear of losing your faith. And so, in the name of your infallible faith, you've closed your mind to everything else. You've closed yourself off from all of creation because you refuse to even consider the possibility that every single word in the Bible didn't come straight from God. Remember, no one is questioning God's truth, they're questioning whether or not something is God's truth. Faith in God is great. Refusal to consider whether or not something did in fact come from God is pigheaded and stubborn.","http://www.4forums.com/political/creation-intelligent-design-vs-evolution/4856-does-christianity-preclude-evolution.html",110358,35
"1-3154_37_35_1",3154,1,"2005-04-21 13:39:00",89,55,110401,"2005-04-21 13:21:00",126959,211,35,"How do you find the word of God? Read the Bible critically, with an open mind. Read the works of wise and good people. Talk with people and discuss things; again, with an open mind. Accept that you don't already have all the answers. Be willing to learn and grow. It won't be easy. It takes alot of work, and may cause you to change some long held opinions, which can be scary. But, if you'll forgive me for reading between the lines of some of your posts, I think you already know that some of your beliefs contradict the evidence of the real world. I think a part of you already is questioning whether a literal Bible really makes sense. So take the next step. Re-read the Bible, but this time without the assumption that it's all God's literal word. Ask yourself who wrote what you're reading, and why? What were they trying to say? What does it mean? How does it fit in with the rest of what you've read? Try that, and you may find things that you've never seen before.",126957,1,3154,1,"ok, so once again, how do we determine what in the bible was said by God, if any? in fact, it may be totally possible that NOTHING in the bible is actually the word of God. we already can safely say, according to you, that not everything in the bible purported as the word of God was actually said by God. so what in the bible is? and how do you determine that?
if the bible is not the source for the word of God, what is?","http://www.4forums.com/political/creation-intelligent-design-vs-evolution/4856-does-christianity-preclude-evolution.html",110383,37
"1-3154_41_37_1",3154,1,"2005-04-22 06:00:00",55,89,110780,"2005-04-21 13:39:00",126963,156,37,"you are saying that by reading the bible only, i will not find all the answers. since the bible is but the work of man, and a collection of personal judgements and best guesses, what makes it more valueable than anything i can come up with?
there is no reason to believe these men were hearing from or being inspired by God, since they got so many errors. there is no way to determine which of the authors either genuinely heard from God, or recorded correctly what they heard. there is no way to determine if the people that compiled the modern canon were inspired by God and not politics (which is likely the case)
since God hadnt actually spoken to any of the authors of the bible back then, why would we assume that he is a God that communicates to humans?",126959,1,3154,1,"How do you find the word of God? Read the Bible critically, with an open mind. Read the works of wise and good people. Talk with people and discuss things; again, with an open mind. Accept that you don't already have all the answers. Be willing to learn and grow. It won't be easy. It takes alot of work, and may cause you to change some long held opinions, which can be scary. But, if you'll forgive me for reading between the lines of some of your posts, I think you already know that some of your beliefs contradict the evidence of the real world. I think a part of you already is questioning whether a literal Bible really makes sense. So take the next step. Re-read the Bible, but this time without the assumption that it's all God's literal word. Ask yourself who wrote what you're reading, and why? What were they trying to say? What does it mean? How does it fit in with the rest of what you've read? Try that, and you may find things that you've never seen before.","http://www.4forums.com/political/creation-intelligent-design-vs-evolution/4856-does-christianity-preclude-evolution.html",110401,41
"1-3154_44_41_1",3154,1,"2005-04-22 07:40:00",89,55,110823,"2005-04-22 06:00:00",126966,221,41,"Not all people are the same. Some are evil, some are good. Some are wise, some are foolish. The best guess of a good, wise man is worth more than that of an evil idiot any day, right? Is Pol Pot's take on morality worth as much as Ghandi's? Obviously, no. Likewise, the writers of the Bible display uncommon wisdom, which makes their words worth more than the average Joe you might pull off the street. That's why its valuable. There's wisdom in there that has survived the test of time for millenium. Don't discard it just because it didn't come directly from God.

I won't lie to you. It is possible that after reading the Bible with an open mind you could reach that conclusion. On the other hand, after allowing for human fallibility, the word of God may come through more clearly than ever before. You seem to want to know where the journey will end before you start it. I can't tell you that, no one can. You just have to have faith that if you start with an open mind and good intentions, you'll end up in the right place.",126963,1,3154,1,"you are saying that by reading the bible only, i will not find all the answers. since the bible is but the work of man, and a collection of personal judgements and best guesses, what makes it more valueable than anything i can come up with?
there is no reason to believe these men were hearing from or being inspired by God, since they got so many errors. there is no way to determine which of the authors either genuinely heard from God, or recorded correctly what they heard. there is no way to determine if the people that compiled the modern canon were inspired by God and not politics (which is likely the case)
since God hadnt actually spoken to any of the authors of the bible back then, why would we assume that he is a God that communicates to humans?","http://www.4forums.com/political/creation-intelligent-design-vs-evolution/4856-does-christianity-preclude-evolution.html",110780,44
"1-3154_210_203_2",3154,1,"2005-05-04 12:32:00",55,1326,116806,"2005-05-04 05:54:00",127132,44,203,"since when is information and advice interchangable?

the term ""create information"" is an oxymoron. information is discovered, processed or translated. ""creating information"" is the work of fiction writers
give me one example of information you created",127125,2,3154,1,"im·part ( P ) Pronunciation Key (m-pärt)
tr.v. im·part·ed, im·part·ing, im·parts 
To grant a share of; bestow: impart a subtle flavor; impart some advice. 
To make known; disclose: persuaded to impart the secret. 
To pass on; transmit: imparts forward motion. 
Can a rock give advice?
It is not circular reasoning to say inatimate objects cannot create , recieve or transmit information it is a law of science.
It is universally true that matter cannot create or transmit information.
There are no exceptions.
It has been observed and is always the case.
Give me an example .
Circular reasoning is deciding a theory and then trying to make it fit the evidence, When the evidence conflicts the theory instead of discarding the theory you modify it to fit the evidence.
If we find soft tissue that is in 60 ma old rock instead of deciding the rock really is not 60ma we are amazed at the miraculous disconvery that tissue can last 60ma.","http://www.4forums.com/political/creation-intelligent-design-vs-evolution/4856-does-christianity-preclude-evolution.html",116430,210
"1-3154_211_210_2",3154,1,"2005-05-05 05:55:00",1326,55,117123,"2005-05-04 12:32:00",127133,166,210,"You should invest in a dictionary or save this link.
http://dictionary.reference.com/
ad·vice ( P ) Pronunciation Key (d-vs)
n. 
Opinion about what could or should be done about a situation or problem; counsel. 
Information communicated; news. Often used in the plural: advices from an ambassador. 
Advice is information. 
This is an example of information I created.
This is another example of information I created.
This is another example of information I created.
I agree that creating information is the work of science fiction writers. It is the work of all writers. Information must have a purpose it does not have to be true.
The purpose of science fiction is entertainment.
Are you really not intellectually capable of grasping this or are you just jerking my chain?
If you don't grasp this fact I cannot help you. My ten year old niece does.",127132,2,3154,1,"since when is information and advice interchangable?

the term ""create information"" is an oxymoron. information is discovered, processed or translated. ""creating information"" is the work of fiction writers
give me one example of information you created","http://www.4forums.com/political/creation-intelligent-design-vs-evolution/4856-does-christianity-preclude-evolution.html",116806,211
"1-3154_212_211_2",3154,1,"2005-05-05 06:04:00",55,1326,117129,"2005-05-05 05:55:00",127134,90,211,"this is probably why we disagree. you define information as anything that can be communicated, recieved or processed by a mind (or computer, or any processing device). i define information as facts
neither of us are wrong, because both are valid definitions of information
communicable information can be created. facts cannot
back to the original assertion: considering information in dna that you insist must be inputted by an intelligent mind, would you consider that information being there as fact?",127133,2,3154,1,"You should invest in a dictionary or save this link.
http://dictionary.reference.com/
ad·vice ( P ) Pronunciation Key (d-vs)
n. 
Opinion about what could or should be done about a situation or problem; counsel. 
Information communicated; news. Often used in the plural: advices from an ambassador. 
Advice is information. 
This is an example of information I created.
This is another example of information I created.
This is another example of information I created.
I agree that creating information is the work of science fiction writers. It is the work of all writers. Information must have a purpose it does not have to be true.
The purpose of science fiction is entertainment.
Are you really not intellectually capable of grasping this or are you just jerking my chain?
If you don't grasp this fact I cannot help you. My ten year old niece does.","http://www.4forums.com/political/creation-intelligent-design-vs-evolution/4856-does-christianity-preclude-evolution.html",117123,212
"1-3154_215_212_2",3154,1,"2005-05-05 06:21:00",1326,55,117138,"2005-05-05 06:04:00",127137,85,212,"I disagree. You can create your own definition out of thin air but it is not valid. Language -codes-are the basis of information exchange if you are the only one who speaks a certain language who are you going to exchange information with?
I never said facts can be created . That is a non sequitur.
The dictionary agrees with me . If you want to discuss the subject with anyone other than yourself you must accept the definition.",127134,2,3154,1,"this is probably why we disagree. you define information as anything that can be communicated, recieved or processed by a mind (or computer, or any processing device). i define information as facts
neither of us are wrong, because both are valid definitions of information
communicable information can be created. facts cannot
back to the original assertion: considering information in dna that you insist must be inputted by an intelligent mind, would you consider that information being there as fact?","http://www.4forums.com/political/creation-intelligent-design-vs-evolution/4856-does-christianity-preclude-evolution.html",117129,215
"1-3154_217_215_2",3154,1,"2005-05-05 08:16:00",55,1326,117262,"2005-05-05 06:21:00",127139,62,215,"in·for·ma·tion (from dictionary.com)
Knowledge derived from study, experience, or instruction. 
A collection of facts or data. 
both are valid definitions. the dictioary agrees with both of us
here's a simple exercise for you. give me 1 bit of information about america that you have created",127137,2,3154,1,"I disagree. You can create your own definition out of thin air but it is not valid. Language -codes-are the basis of information exchange if you are the only one who speaks a certain language who are you going to exchange information with?
I never said facts can be created . That is a non sequitur.
The dictionary agrees with me . If you want to discuss the subject with anyone other than yourself you must accept the definition.","http://www.4forums.com/political/creation-intelligent-design-vs-evolution/4856-does-christianity-preclude-evolution.html",117138,217
"1-3154_218_217_2",3154,1,"2005-05-05 11:24:00",1326,55,117379,"2005-05-05 08:16:00",127140,237,217,"America is a place where you will find a lot of Americans.
Was that simple enough for you to get it?
A definition almost always consist of several different ideas that are part of what defines a word. Taking one point out of context is just playing with semantics.
For example:
Insanity:
Something that is extremely foolish.
To say that is a complete accurate definition of insanity is a dishonest use of semantics.
That definition could lead to this:
""We put our children in an institution because they made a pile of leaves and then scattered them back out. This proved they were insane.""
If you look at the whole definition one could not reach that conclusion.
Persistent mental disorder or derangement. No longer in scientific use. 
Law. 
Unsoundness of mind sufficient in the judgment of a civil court to render a person unfit to maintain a contractual or other legal relationship or to warrant commitment to a mental health facility. 
In most criminal jurisdictions, a degree of mental malfunctioning sufficient to relieve the accused of legal responsibility for the act committed. 
Extreme foolishness; folly. 
Something that is extremely foolish. 
Synonyms: insanity, lunacy, madness, mania, dementia
Playing with semantics is not honest or beneficial to an intelligent discussion.",127139,2,3154,1,"in·for·ma·tion (from dictionary.com)
Knowledge derived from study, experience, or instruction. 
A collection of facts or data. 
both are valid definitions. the dictioary agrees with both of us
here's a simple exercise for you. give me 1 bit of information about america that you have created","http://www.4forums.com/political/creation-intelligent-design-vs-evolution/4856-does-christianity-preclude-evolution.html",117262,218
"1-3154_222_218_2",3154,1,"2005-05-05 11:51:00",55,1326,117394,"2005-05-05 11:24:00",127144,88,218,"simple enough, except that you didnt create that information. can you give me an example of 1 bit of factual information about america that you created?

i used a dictionary definition, as did you. both ""facts"" and ""something that can be communicated"" are derivitives of the dictionary definition. ""something that is extremely foolish"" is not a derivative of the dictionary definition for ""insane""
anyway, please create one bit of factual information about america",127140,2,3154,1,"America is a place where you will find a lot of Americans.
Was that simple enough for you to get it?
A definition almost always consist of several different ideas that are part of what defines a word. Taking one point out of context is just playing with semantics.
For example:
Insanity:
Something that is extremely foolish.
To say that is a complete accurate definition of insanity is a dishonest use of semantics.
That definition could lead to this:
""We put our children in an institution because they made a pile of leaves and then scattered them back out. This proved they were insane.""
If you look at the whole definition one could not reach that conclusion.
Persistent mental disorder or derangement. No longer in scientific use. 
Law. 
Unsoundness of mind sufficient in the judgment of a civil court to render a person unfit to maintain a contractual or other legal relationship or to warrant commitment to a mental health facility. 
In most criminal jurisdictions, a degree of mental malfunctioning sufficient to relieve the accused of legal responsibility for the act committed. 
Extreme foolishness; folly. 
Something that is extremely foolish. 
Synonyms: insanity, lunacy, madness, mania, dementia
Playing with semantics is not honest or beneficial to an intelligent discussion.","http://www.4forums.com/political/creation-intelligent-design-vs-evolution/4856-does-christianity-preclude-evolution.html",117379,222
"1-3154_274_222_2",3154,1,"2005-05-06 12:08:00",1326,55,117955,"2005-05-05 11:51:00",127196,185,222,"I did not create the facts I created the information. Do you think the information itself typed the message?
This is not rocket science.

Again. I said insanity ! Here is the link. Are you just jerking my chain or what?
Please be serious I refuse to argue over self evident truths like what the dictionary says.
http://dictionary.reference.com/search?q=insanity
Persistent mental disorder or derangement. No longer in scientific use. 
Law. 
Unsoundness of mind sufficient in the judgment of a civil court to render a person unfit to maintain a contractual or other legal relationship or to warrant commitment to a mental health facility. 
In most criminal jurisdictions, a degree of mental malfunctioning sufficient to relieve the accused of legal responsibility for the act committed. 
Extreme foolishness; folly. 
Something that is extremely foolish. 
There are people in America who seem to think information can type itself and hit post message. I find this hard to believe but it seems to be the case.
Is that simple enough yet?",127144,2,3154,1,"simple enough, except that you didnt create that information. can you give me an example of 1 bit of factual information about america that you created?

i used a dictionary definition, as did you. both ""facts"" and ""something that can be communicated"" are derivitives of the dictionary definition. ""something that is extremely foolish"" is not a derivative of the dictionary definition for ""insane""
anyway, please create one bit of factual information about america","http://www.4forums.com/political/creation-intelligent-design-vs-evolution/4856-does-christianity-preclude-evolution.html",117394,274
"1-3154_277_274_2",3154,1,"2005-05-06 12:16:00",55,1326,117959,"2005-05-06 12:08:00",127199,79,274,"you did not create the information. the information was there all along, you simply typed it, ie, put it in a communicable format.
cre·ate
To cause to exist; bring into being. 
To give rise to; produce. 
To invest with an office or title. 
To produce through artistic or imaginative effort
you did not do any creating in typing the information. factual information cannot be created",127196,2,3154,1,"I did not create the facts I created the information. Do you think the information itself typed the message?
This is not rocket science.
There are people in America who seem to think information can type itself and hit post message. I find this hard to believe but it seems to be the case.
Is that simple enough yet?","http://www.4forums.com/political/creation-intelligent-design-vs-evolution/4856-does-christianity-preclude-evolution.html",117955,277
"1-3154_281_277_2",3154,1,"2005-05-06 12:39:00",1326,55,117969,"2005-05-06 12:16:00",127203,28,277,"I did cause it to exist I typed it. If I had not typed it it would not exist.
You must be jerking my chain .",127199,2,3154,1,"you did not create the information. the information was there all along, you simply typed it, ie, put it in a communicable format.
cre·ate
To cause to exist; bring into being. 
To give rise to; produce. 
To invest with an office or title. 
To produce through artistic or imaginative effort
you did not do any creating in typing the information. factual information cannot be created","http://www.4forums.com/political/creation-intelligent-design-vs-evolution/4856-does-christianity-preclude-evolution.html",117959,281
"1-3154_297_281_2",3154,1,"2005-05-09 08:42:00",55,1326,119226,"2005-05-06 12:39:00",127219,39,281,"it existed before you typed it, otherwise you wouldnt know what to type. and it existed before you knew it, otherwise you wouldnt be able to detect it when you saw it
you didnt create anything",127203,2,3154,1,"I did cause it to exist I typed it. If I had not typed it it would not exist.
You must be jerking my chain .","http://www.4forums.com/political/creation-intelligent-design-vs-evolution/4856-does-christianity-preclude-evolution.html",117969,297
"1-3154_111_109_3",3154,1,"2005-04-29 01:02:00",661,1326,113938,"2005-04-28 17:30:00",127033,74,109,"This is true. The creationist strawman of ""Nothing coming together and exploding"" can be ruled out. The ""big bang"" on the other hand very neatly explains it. In fact it predicted it. We knew that there had to be uniform background radiation if the big bang was true and we found that background radiation. This offers considerable evidence in support of big bang theory.",127031,3,3154,1,"There are several possibilities of where the radiation originated. 
Nothing coming together and exploding is not one of them.","http://www.4forums.com/political/creation-intelligent-design-vs-evolution/4856-does-christianity-preclude-evolution.html",113814,111
"1-3154_112_111_3",3154,1,"2005-04-29 04:28:00",1326,661,113949,"2005-04-29 01:02:00",127034,226,111,"Is strawman your replacement for the phrase ""Your Mama"" .
Have you ever read about the big bang theory? Have you ever read Hawkins?
Nothing gathered into a dot and exploded. I did not make up this science fiction yelling strawman does not make it science.
It is dogma. Any challenge to it will cost you your carreer and you will be silenced by any mainstream publications , peer reviewed or otherwise.
Science is self correcting by the competition of opposing ideas. In this case opposition is silenced. Case in point Halton Arp , the staff astronomer at both the Mt.Palomar and Mt. Wilson observatories was fired , denied access to the telescopes and finally had to move to Germany because he challenged the Big Bang Dogma on scientific grounds. 
America lost it's top astronomer for doing what scientists are paid to do , challenge theories.
Challenging science fiction is not allowed.
Evidence that challenges the idea that we have found background radiation is suppressed. Most scientist who disagree are afraid to speak out. It it happened to Arp it will happen to them.
Whether you agree or disagree with any paticular theory if you support censure you are interested in your dogma not in science .",127033,3,3154,1,"This is true. The creationist strawman of ""Nothing coming together and exploding"" can be ruled out. The ""big bang"" on the other hand very neatly explains it. In fact it predicted it. We knew that there had to be uniform background radiation if the big bang was true and we found that background radiation. This offers considerable evidence in support of big bang theory.","http://www.4forums.com/political/creation-intelligent-design-vs-evolution/4856-does-christianity-preclude-evolution.html",113938,112
"1-3154_119_112_3",3154,1,"2005-04-29 05:38:00",661,1326,113976,"2005-04-29 04:28:00",127041,49,112,"No. Have you got confused between your mouth and anus when attempting to speak?

Yes to both.

Whereas you clearly haven't the ""big bang"" was not an explosion.
Maybe you should go and read up on it then come back to us?",127034,3,3154,1,"Is strawman your replacement for the phrase ""Your Mama"" .
Have you ever read about the big bang theory? Have you ever read Hawkins?
Nothing gathered into a dot and exploded. I did not make up this science fiction yelling strawman does not make it science.
It is dogma. Any challenge to it will cost you your carreer and you will be silenced by any mainstream publications , peer reviewed or otherwise.
Science is self correcting by the competition of opposing ideas. In this case opposition is silenced. Case in point Halton Arp , the staff astronomer at both the Mt.Palomar and Mt. Wilson observatories was fired , denied access to the telescopes and finally had to move to Germany because he challenged the Big Bang Dogma on scientific grounds. 
America lost it's top astronomer for doing what scientists are paid to do , challenge theories.
Challenging science fiction is not allowed.
Evidence that challenges the idea that we have found background radiation is suppressed. Most scientist who disagree are afraid to speak out. It it happened to Arp it will happen to them.
Whether you agree or disagree with any paticular theory if you support censure you are interested in your dogma not in science .","http://www.4forums.com/political/creation-intelligent-design-vs-evolution/4856-does-christianity-preclude-evolution.html",113949,119
"1-3154_122_119_3",3154,1,"2005-04-29 06:05:00",1326,661,113994,"2005-04-29 05:38:00",127044,28,119,"Heat expansion -explosion -same difference.
It is pure imagination. Science fiction.
Only immature and uninformed people find it necessary to name call.",127041,3,3154,1,"No. Have you got confused between your mouth and anus when attempting to speak?

Yes to both.

Whereas you clearly haven't the ""big bang"" was not an explosion.
Maybe you should go and read up on it then come back to us?","http://www.4forums.com/political/creation-intelligent-design-vs-evolution/4856-does-christianity-preclude-evolution.html",113976,122
"1-3154_124_122_3",3154,1,"2005-04-29 06:10:00",661,1326,113997,"2005-04-29 06:05:00",127046,128,122,"Ah, I see where your confusion lies now. Yes an expansion due to rapid release of heat is an explosion. The ""big bang"" was a rapid expansion of space unrelated to the heat of the contents of that space. The expansion hasn't (probably) slowed even though everything has cooled down. This is the clue to it not being an explosion that you are missing. Calling the ""big bang"" and explosion is a sign of gross ignorance of the subject.

Well aside from the obvious inaccuracy of that statement, may I remind you that you were the first to ""name call"", so go shove your hypocricy where the sun don't shine emoticonXRolleyes",127044,3,3154,1,"Heat expansion -explosion -same difference.
It is pure imagination. Science fiction.
Only immature and uninformed people find it necessary to name call.","http://www.4forums.com/political/creation-intelligent-design-vs-evolution/4856-does-christianity-preclude-evolution.html",113994,124
"1-3154_126_124_3",3154,1,"2005-04-29 06:14:00",1326,661,114000,"2005-04-29 06:10:00",127048,39,124,"Continuing to name call verifies your immaturity, Why is it personal to you?
Here's a question. If the Big Happened why are there binary systems?Furthermore why are there binary systems with opposite rotations?",127046,3,3154,1,"Ah, I see where your confusion lies now. Yes an expansion due to rapid release of heat is an explosion. The ""big bang"" was a rapid expansion of space unrelated to the heat of the contents of that space. The expansion hasn't (probably) slowed even though everything has cooled down. This is the clue to it not being an explosion that you are missing. Calling the ""big bang"" and explosion is a sign of gross ignorance of the subject.

Well aside from the obvious inaccuracy of that statement, may I remind you that you were the first to ""name call"", so go shove your hypocricy where the sun don't shine emoticonXRolleyes","http://www.4forums.com/political/creation-intelligent-design-vs-evolution/4856-does-christianity-preclude-evolution.html",113997,126
"1-3154_128_126_3",3154,1,"2005-04-29 06:26:00",661,1326,114010,"2005-04-29 06:14:00",127050,39,126,"Because you made it so and I'm responding in kind.

What? Next you'll be asking me ""if the big bang happened, why do we eat ice cream sometimes"". The question is meaningless.",127048,3,3154,1,"Continuing to name call verifies your immaturity, Why is it personal to you?
Here's a question. If the Big Happened why are there binary systems?Furthermore why are there binary systems with opposite rotations?","http://www.4forums.com/political/creation-intelligent-design-vs-evolution/4856-does-christianity-preclude-evolution.html",114000,128
"1-3154_151_150_4",3154,1,"2005-05-01 12:10:00",661,1326,114961,"2005-05-01 09:55:00",127073,88,150,"And here ladies and gentlemen, we see the creationist in its natural habitat: ""the lie"". Note that the handlers around here have repeated pointed out that the big bang has nothing to do with evolution. Note how the creationist's ears are armoured against such unwelcome news and how he happily continues to wallow in the mud of dillusion that lines this ""lie"" habitat that he has built for himself.
You are a pathetic little liar, peddler8111.",127072,4,3154,1,"...There are lots of miracles in evolution. The big bang...","http://www.4forums.com/political/creation-intelligent-design-vs-evolution/4856-does-christianity-preclude-evolution.html",114905,151
"1-3154_152_151_4",3154,1,"2005-05-01 12:24:00",1326,661,114971,"2005-05-01 12:10:00",127074,80,151,"How dare you call me little!
I disagree with the handlers . In order to have a naturalistic explanation for the origin of life you must  have a naturalistic explanation for the origin of the universe do you not?
Naturalism is a worldview not just one specific subject. The god of time and chance-The Almighty IT- must exist for evolution to be true. 
Therefore evolutionary cosmology is a necessary part of the evolution theory.",127073,4,3154,1,"And here ladies and gentlemen, we see the creationist in its natural habitat: ""the lie"". Note that the handlers around here have repeated pointed out that the big bang has nothing to do with evolution. Note how the creationist's ears are armoured against such unwelcome news and how he happily continues to wallow in the mud of dillusion that lines this ""lie"" habitat that he has built for himself.
You are a pathetic little liar, peddler8111.","http://www.4forums.com/political/creation-intelligent-design-vs-evolution/4856-does-christianity-preclude-evolution.html",114961,152
"1-3154_153_152_4",3154,1,"2005-05-01 12:29:00",661,1326,114973,"2005-05-01 12:24:00",127075,68,152,"Neither statement relates to evolution. Evolution is concerned with the change in form of organisms: not with how the universe came to be and not with how the first life came to be. A god could have created the first life fully formed. A god could have caused the ""big bang"". Neither has any affect upon the theory of evolution.",127074,4,3154,1,"...In order to have a naturalistic explanation for the origin of life youmust  have a naturalistic explanation for the origin of the universe do you not?...","http://www.4forums.com/political/creation-intelligent-design-vs-evolution/4856-does-christianity-preclude-evolution.html",114971,153
"1-3154_154_153_4",3154,1,"2005-05-01 12:46:00",1326,661,114983,"2005-05-01 12:29:00",127076,113,153,"Evolution is concerned with the change in form of organisms? 
That is a totally meaningless statement. Evolutionist decide what evolution means to fit their paticular argument at the time.
Evolution is based on the god of time and chance.
If the universe is only millions of years old it could not have happened. 
If you honestly look at the history of the age of the earth you will see it must be agreed on by committee-all these various branches of science could not have come to the same conclusion at the same time.
Cosmology , geology , palentology must agree or it is a dead idea.",127075,4,3154,1,"Neither statement relates to evolution. Evolution is concerned with the change in form of organisms: not with how the universe came to be and not with how the first life came to be. A god could have created the first life fully formed. A god could have caused the ""big bang"". Neither has any affect upon the theory of evolution.","http://www.4forums.com/political/creation-intelligent-design-vs-evolution/4856-does-christianity-preclude-evolution.html",114973,154
"1-3154_155_154_4",3154,1,"2005-05-01 14:14:00",661,1326,114999,"2005-05-01 12:46:00",127077,52,154,"Incorrect. You may not understand it, but it isn't meaningless.

Incorrect. Evolution could be a completely god-driven mechanism for all we know. The science of evolution can only view it from a naturalistic perspective though.

It isn't, so your point is irrevelent.

Incorrect.",127076,4,3154,1,"Evolution is concerned with the change in form of organisms?
That is a totally meaningless statement.","http://www.4forums.com/political/creation-intelligent-design-vs-evolution/4856-does-christianity-preclude-evolution.html",114983,155
"1-3154_156_155_4",3154,1,"2005-05-01 15:22:00",1326,661,115017,"2005-05-01 14:14:00",127078,28,155,"Incorrect. Evolution could be a completely god-driven mechanism for all we know. The science of evolution can only view it from a naturalistic perspective though.

",127077,4,3154,1,"Incorrect. You may not understand it, but it isn't meaningless.

Incorrect. Evolution could be a completely god-driven mechanism for all we know. The science of evolution can only view it from a naturalistic perspective though.

It isn't, so your point is irrevelent.

Incorrect.","http://www.4forums.com/political/creation-intelligent-design-vs-evolution/4856-does-christianity-preclude-evolution.html",114999,156
"1-3154_168_156_4",3154,1,"2005-05-03 01:44:00",661,1326,115714,"2005-05-01 15:22:00",127090,196,156,"Surely you know, what with you claiming to be an expert. Do you really need me to define what the theory of evolution (ie what is meant by ""evolution"" in this context) covers though? It is:
the change in allele frequency over time
Happy now, or do you need me to translate this into simple terms for you?

Incorrect. The theory of evolution is one of the best understood and most detailed of all sciences. It is at the core of all modern biology.

True, only with social evolution, evolution of operating systems etc. The word ""evolution"" does have other uses. In the context of a discussion of the theory of evolution though it is concerned solely with biological evolution, ie the change in organisms over time (or more precisely the change in allele frequency over time)

Showing macro evolution doing what? There are thousands of peer reviewed documents out there relating to evolution. Please be more specific so that I can narrow the list down a bit.

Don't lie please.",127078,4,3154,1,"I understand it fine. Getting fat or getting thin would qualify as change in a living organism. You need to define what [b[ you [/b] mean when you say evolution.","http://www.4forums.com/political/creation-intelligent-design-vs-evolution/4856-does-christianity-preclude-evolution.html",115017,168
"1-3154_188_187_5",3154,1,"2005-05-03 15:05:00",661,1326,116134,"2005-05-03 15:02:00",127110,31,187,"I am composed of matter. I can think. Matter can, under certain circumstances, therefore think. Peddler8111 loses again. Watch him run away again
emoticonXRolleyes",127109,5,3154,1,"Do you believe matter can think?","http://www.4forums.com/political/creation-intelligent-design-vs-evolution/4856-does-christianity-preclude-evolution.html",116131,188
"1-3154_189_188_5",3154,1,"2005-05-03 15:13:00",1326,661,116139,"2005-05-03 15:05:00",127111,210,188,"Your funny. 
Will you material body think after it dies. Does it get less intelligence once decay sets in? :) 
Thoughts are non-material .
To have or formulate in the mind. 
To reason about or reflect on; ponder: Think how complex language is. Think the matter through. 
To decide by reasoning, reflection, or pondering: thinking what to do. 
To judge or regard; look upon: I think it only fair. 
To believe; suppose: always thought he was right. 
To expect; hope: They thought she'd arrive early. 
To intend: They thought they'd take their time. 
To call to mind; remember: I can't think what her name was. 
To visualize; imagine: Think what a scene it will be at the reunion. 
To devise or evolve; invent: thought up a plan to get rich quick. 
To bring into a given condition by mental preoccupation: He thought himself into a panic over the impending examination. 
To concentrate one's thoughts on: “Think languor” (Diana Vreeland). 
The truth shall set you free.",127110,5,3154,1,"I am composed of matter. I can think. Matter can, under certain circumstances, therefore think. Peddler8111 loses again. Watch him run away again
emoticonXRolleyes","http://www.4forums.com/political/creation-intelligent-design-vs-evolution/4856-does-christianity-preclude-evolution.html",116134,189
"1-3154_190_189_5",3154,1,"2005-05-03 15:18:00",661,1326,116146,"2005-05-03 15:13:00",127112,48,189,"The mind is a function of the brain, which is composed of matter: thoughts are a product of matter. When I die, I'll stop thinking as thinking requires large amounts of glucose (more matter) to sustain the brain's ability to think.",127111,5,3154,1,"...Will you material body think after it dies...Thoughts are non-material .
To have or formulate in the mind.","http://www.4forums.com/political/creation-intelligent-design-vs-evolution/4856-does-christianity-preclude-evolution.html",116139,190
"1-3154_193_190_5",3154,1,"2005-05-03 15:52:00",1326,661,116171,"2005-05-03 15:18:00",127115,16,190,"Thoughts are non-material -Information is non-material. 
It really isn't that difficult to grasp.",127112,5,3154,1,"The mind is a function of the brain, which is composed of matter: thoughts are a product of matter. When I die, I'll stop thinking as thinking requires large amounts of glucose (more matter) to sustain the brain's ability to think.","http://www.4forums.com/political/creation-intelligent-design-vs-evolution/4856-does-christianity-preclude-evolution.html",116146,193
"1-3154_200_193_5",3154,1,"2005-05-04 02:22:00",661,1326,116406,"2005-05-03 15:52:00",127122,172,193,"So is heat. It doesn't stop things being hot as it is a function of the material. Thoughts also are non-material, but they too are a function of the material. Information can be material (a rock, merely by existing, is in itself information) or it can be a function of the material (a rock is 14 squiggles long for example) or it can be completely abstract (the example rock is rock number 1,489,765. It really isn't that difficult to grasp.
I'll give credit where credit is due though peddler8111: you are impressively assinine. You have shown yourself ignorant of evolution theory, cosmology theory, chaos theory and information theory, yet you keep posting on these subjects, getting laughed at and coming back for more. How about we move onto thermodynamics next. You haven't claimed that evolution contradicts the laws of thermodynamics yet. That has to be coming up soon.",127115,5,3154,1,"Thoughts are non-material -Information is non-material. 
It really isn't that difficult to grasp.","http://www.4forums.com/political/creation-intelligent-design-vs-evolution/4856-does-christianity-preclude-evolution.html",116171,200
"1-3154_256_251_6",3154,1,"2005-05-06 09:46:00",661,1326,117887,"2005-05-06 09:30:00",127178,34,251,"This is a complete false dichotomy. Has it really never occured to you that your god could have used evolution to create us? Evolution is an excellent design tool after all.",127173,6,3154,1,"...That is the ultimate reality. Either God created us or evolution is true. If evolution is true there is no God. It really is that simple...","http://www.4forums.com/political/creation-intelligent-design-vs-evolution/4856-does-christianity-preclude-evolution.html",117867,256
"1-3154_260_256_6",3154,1,"2005-05-06 11:07:00",1326,661,117914,"2005-05-06 09:46:00",127182,42,256,"RM+NS an excellent design tool? I think that is what you meant , or was it puntuated equilibrium?
Random stupid blind chance -I would never have thought of that myself. But I am not God.",127178,6,3154,1,"This is a complete false dichotomy. Has it really never occured to you that your god could have used evolution to create us? Evolution is an excellent design tool after all.","http://www.4forums.com/political/creation-intelligent-design-vs-evolution/4856-does-christianity-preclude-evolution.html",117887,260
"1-3154_284_260_6",3154,1,"2005-05-06 14:12:00",661,1326,118004,"2005-05-06 11:07:00",127206,128,260,"You are correct: that is what I meant. It's the future of design as far as biochemistry, software and electronic at least are concerned. It works: it results in designs that are far smaller, in terms of components, than traditional design can come up with. It isn't ""random stupid blind chance"" as you so ""eloquently"" put it, for natural selection algorithms are used. I can well believe you never thought of it as you are hostile to the idea of evolution. Whether you would ever have thought of it or not is irrelevent though; no amount of denial by you will make design by evolution go away and cease to exist.",127182,6,3154,1,"RM+NS an excellent design tool? I think that is what you meant , or was it puntuated equilibrium?
Random stupid blind chance -I would never have thought of that myself. But I am not God.","http://www.4forums.com/political/creation-intelligent-design-vs-evolution/4856-does-christianity-preclude-evolution.html",117914,284
"1-3154_286_284_6",3154,1,"2005-05-06 15:42:00",1326,661,118047,"2005-05-06 14:12:00",127208,12,284,"Random mutations that design things?.Give me an example .",127206,6,3154,1,"You are correct: that is what I meant. It's the future of design as far as biochemistry, software and electronic at least are concerned. It works: it results in designs that are far smaller, in terms of components, than traditional design can come up with. It isn't ""random stupid blind chance"" as you so ""eloquently"" put it, for natural selection algorithms are used. I can well believe you never thought of it as you are hostile to the idea of evolution. Whether you would ever have thought of it or not is irrelevent though; no amount of denial by you will make design by evolution go away and cease to exist.","http://www.4forums.com/political/creation-intelligent-design-vs-evolution/4856-does-christianity-preclude-evolution.html",118004,286
"1-3154_294_286_6",3154,1,"2005-05-06 23:31:00",661,1326,118180,"2005-05-06 15:42:00",127216,10,286,"Sure, try these two for starters:
http://www.newscientist.com/article.ns?id=dn2732
http://www.sun.rhbnc.ac.uk/~uhap016/...ons/ices98.pdf",127208,6,3154,1,"Random mutations that design things?.Give me an example .","http://www.4forums.com/political/creation-intelligent-design-vs-evolution/4856-does-christianity-preclude-evolution.html",118047,294
