"key","quote_source_post_discussion_id","posts_dataset_id","posts_timestamp","posts_author_id","quote_source_author_id","posts_native_post_id","quote_source_timestamp","post_text_id","Word_Count","quote_source_post_id","post_text","quote_source_text_id","Dialog_Turn","posts_discussion_id","quote_source_post_dataset_id","Fullquote_text","discussion_url","quote_source_native_post_id","posts_post_id"
"1-3197_101_100_1",3197,1,"2005-04-27 15:45:00",472,1843,113187,"2005-04-27 15:40:00",129917,78,100,"That's it? emoticonXWow 
Really? emoticonXFrazzled 
What points? What evidence? What insults?
This is pointless, not to mention VERY frustrating. emoticonXRolleyes 
I tried to step back and calmly narrow the discussion and focus on some debatable points. You don't seem to be willing to do so, preferring to simply post sweeping opinions and run. 
I'm done here unless you actually show me a reason to believe otherwise. 
Waxy",129916,1,3197,1,"Massive evasion of points, evidence, arguments via insult.
Ray M.","http://www.4forums.com/political/creation-intelligent-design-vs-evolution/4925-kbs-tuff-comedy-central.html",113185,101
"1-3197_103_101_1",3197,1,"2005-04-27 16:01:00",1843,472,113199,"2005-04-27 15:45:00",129919,85,101,"Feigning a phony honesty in order to insult the points, arguments, and evidence to not be evidence.
The universal Darwinian tactic: Assert all evidence to not be evidence via continually ""asking"" for the evidence hoping an Admin will jump in and back this defeated tactic.
Your previous post was an enraged flame trying very hard to appear calm.
Get lost or debate in good faith - I don't suffer fools - creationist or Darwinian.
Ray M.",129917,1,3197,1,"That's it? emoticonXWow 
Really? emoticonXFrazzled 
What points? What evidence? What insults?
This is pointless, not to mention VERY frustrating. emoticonXRolleyes 
I tried to step back and calmly narrow the discussion and focus on some debatable points. You don't seem to be willing to do so, preferring to simply post sweeping opinions and run. 
I'm done here unless you actually show me a reason to believe otherwise. 
Waxy","http://www.4forums.com/political/creation-intelligent-design-vs-evolution/4925-kbs-tuff-comedy-central.html",113187,103
"1-3197_106_103_1",3197,1,"2005-04-27 16:09:00",472,1843,113210,"2005-04-27 16:01:00",129922,93,103,"Man, you must have a hard time living with yourself. :p 
You're asking me to debate in good faith. emoticonXWow emoticonXFrazzled 
Your anger at being challenged and being asked to provide evidence is very revealing. :p Why the aversion? 
If you aren't willing to answer questions or provide proof of your assertions, how is it possible to have a debate in good faith?
So-
You propose the topic - please make it clear and concise, and I will attempt to debate it.
Waxy",129919,1,3197,1,"Feigning a phony honesty in order to insult the points, arguments, and evidence to not be evidence.
The universal Darwinian tactic: Assert all evidence to not be evidence via continually ""asking"" for the evidence hoping an Admin will jump in and back this defeated tactic.
Your previous post was an enraged flame trying very hard to appear calm.
Get lost or debate in good faith - I don't suffer fools - creationist or Darwinian.
Ray M.","http://www.4forums.com/political/creation-intelligent-design-vs-evolution/4925-kbs-tuff-comedy-central.html",113199,106
"1-3197_111_106_1",3197,1,"2005-04-28 12:01:00",1843,472,113597,"2005-04-27 16:09:00",129927,34,106,"Waxy:
Why are you standing by saying nothing while one of your own is continuing to show how ignorant he is by asserting Isochron was not used at KBS Tuff ?
Ray M.",129922,1,3197,1,"Man, you must have a hard time living with yourself. :p 
You're asking me to debate in good faith. emoticonXWow emoticonXFrazzled 
Your anger at being challenged and being asked to provide evidence is very revealing. :p Why the aversion? 
If you aren't willing to answer questions or provide proof of your assertions, how is it possible to have a debate in good faith?
So-
You propose the topic - please make it clear and concise, and I will attempt to debate it.
Waxy","http://www.4forums.com/political/creation-intelligent-design-vs-evolution/4925-kbs-tuff-comedy-central.html",113210,111
"1-3197_112_111_1",3197,1,"2005-04-28 12:24:00",472,1843,113601,"2005-04-28 12:01:00",129928,152,111,"Quite simply because I don't know whether isochron dating was used or not.
It becomes a ""he said, she said"" situation. (no offense intened, it's just a phrase :p )
So as it stands - Pandion says that to the best of his knowledge it wasn't used and provided evidence to support his claim, you've said that it was used, but provided no evidence to support your claim.
So, given that, it becomes a simple matter evidence supplied and the credibility of the person supplying it.
Pandion has a record of honesty and has continually demonstrated an excellent knowledge of science, as of yet, you've demonstrated neither.
Perphaps you would like to prove Pandion's ignorance for all to see by demostrating your understanding of isochron dating, and it's application to the KBS tuff. 
Waxy",129927,1,3197,1,"Waxy:
Why are you standing by saying nothing while one of your own is continuing to show how ignorant he is by asserting Isochron was not used at KBS Tuff ?
Ray M.","http://www.4forums.com/political/creation-intelligent-design-vs-evolution/4925-kbs-tuff-comedy-central.html",113597,112
