"key","quote_source_post_discussion_id","posts_dataset_id","posts_timestamp","posts_author_id","quote_source_author_id","posts_native_post_id","quote_source_timestamp","post_text_id","Word_Count","quote_source_post_id","post_text","quote_source_text_id","Dialog_Turn","posts_discussion_id","quote_source_post_dataset_id","Fullquote_text","discussion_url","quote_source_native_post_id","posts_post_id"
"1-3546_117_116_1",3546,1,"2005-06-19 15:55:00",81,101,139033,"2005-06-19 15:53:00",147470,44,116,"First of all, prove that there was a 'primary event'. Don't say 99% of the people accept it.. I want to see evidence that the Big Bang was THE primary event, and there wasn't anything before it.",147469,1,3546,1,"A load of bull eh? Would you be so kind as to explain how this is a load of incoherent bull? Just because you dont understand what im asking, doesnt mean that it is incoherent bull. If you dont have any valuable input, then shut your vaccuous trap!","http://www.4forums.com/political/creation-intelligent-design-vs-evolution/5421-too-many-meteor-strikes-6000-year-old-earth.html",139031,117
"1-3546_119_117_1",3546,1,"2005-06-19 16:10:00",101,81,139041,"2005-06-19 15:55:00",147472,171,117,"I am saying that 99% of the pop of the planet believes this, and I'll give you a method to prove this true for yourself. STEP 1 Start asking everyone that you know if they believe in creation or evolution. If they believe in creation, then chalk that down as 1 for creation. STEP 2 If they believe in evolution, ask them what they think of the big bang theory. If they believe that the current big bang model is correct, then chalk that one up as someone who believes there was a creation event. STEP 3 for the people who do not believe either, inquire about there beliefs, and let me know, cause it should be pretty interesting. I think that this should support my argument quite well.
And by the way, with the current big bang model, time was created at the moment of the big bang hence there was no before.",147470,1,3546,1,"First of all, prove that there was a 'primary event'. Don't say 99% of the people accept it.. I want to see evidence that the Big Bang was THE primary event, and there wasn't anything before it.","http://www.4forums.com/political/creation-intelligent-design-vs-evolution/5421-too-many-meteor-strikes-6000-year-old-earth.html",139033,119
"1-3546_120_119_1",3546,1,"2005-06-19 16:14:00",81,101,139044,"2005-06-19 16:10:00",147473,9,119,"Except , of course, in imaginary time.",147472,1,3546,1,"I am saying that 99% of the pop of the planet believes this, and I'll give you a method to prove this true for yourself. STEP 1 Start asking everyone that you know if they believe in creation or evolution. If they believe in creation, then chalk that down as 1 for creation. STEP 2 If they believe in evolution, ask them what they think of the big bang theory. If they believe that the current big bang model is correct, then chalk that one up as someone who believes there was a creation event. STEP 3 for the people who do not believe either, inquire about there beliefs, and let me know, cause it should be pretty interesting. I think that this should support my argument quite well.
And by the way, with the current big bang model, time was created at the moment of the big bang hence there was no before.","http://www.4forums.com/political/creation-intelligent-design-vs-evolution/5421-too-many-meteor-strikes-6000-year-old-earth.html",139041,120
"1-3546_123_120_1",3546,1,"2005-06-19 16:28:00",101,81,139049,"2005-06-19 16:14:00",147476,13,120,"I dont understand this statement. Are you trying to mock me?",147473,1,3546,1,"Except , of course, in imaginary time.","http://www.4forums.com/political/creation-intelligent-design-vs-evolution/5421-too-many-meteor-strikes-6000-year-old-earth.html",139044,123
"1-3546_127_123_1",3546,1,"2005-06-19 18:32:00",81,101,139075,"2005-06-19 16:28:00",147480,3,123,"No.. http://www.pbs.org/wnet/hawking/stra...imaginary.html",147476,1,3546,1,"I dont understand this statement. Are you trying to mock me?","http://www.4forums.com/political/creation-intelligent-design-vs-evolution/5421-too-many-meteor-strikes-6000-year-old-earth.html",139049,127
"1-3546_128_127_1",3546,1,"2005-06-20 14:29:00",101,81,139309,"2005-06-19 18:32:00",147481,44,127,"Cool. Sorry bout that. I'm used to getting cut down by people that dont share my views. This is interesting. I wonder if this imaginary time would theoretically have a direction that would be opposite of our current timeline?",147480,1,3546,1,"No.. http://www.pbs.org/wnet/hawking/stra...imaginary.html","http://www.4forums.com/political/creation-intelligent-design-vs-evolution/5421-too-many-meteor-strikes-6000-year-old-earth.html",139075,128
"1-3546_58_57_2",3546,1,"2005-06-03 17:49:00",91,101,132639,"2005-06-03 17:28:00",147411,27,57,"Well, as you have already been informed:

To continue making such statements about scientific proof of god only makes your scientific illiteracy more obvious.",147410,2,3546,1,"What I meant was that someday I hope that scientific evidence will support a strong argument that god exists. One that every objective scientist will agree with.","http://www.4forums.com/political/creation-intelligent-design-vs-evolution/5421-too-many-meteor-strikes-6000-year-old-earth.html",132633,58
"1-3546_60_58_2",3546,1,"2005-06-03 19:36:00",101,91,132659,"2005-06-03 17:49:00",147413,42,58,"Science by definition wont support a strong argument that god exists if the proper evidence is presented? Are you saying that scientific procedures dismiss any possibility of a god existing? Sounds like you're the scientifically illiterate one to me.",147411,2,3546,1,"Well, as you have already been informed:

To continue making such statements about scientific proof of god only makes your scientific illiteracy more obvious.","http://www.4forums.com/political/creation-intelligent-design-vs-evolution/5421-too-many-meteor-strikes-6000-year-old-earth.html",132639,60
"1-3546_63_60_2",3546,1,"2005-06-03 20:17:00",91,101,132670,"2005-06-03 19:36:00",147416,90,60,"Somehow I knew that you wouldn't be able to understand. God is, by definition, supernatural. That means that He is beyond nature. Science is, by definition, naturalistic. That means that it lacks the tools to examine anything that is supernatural. Not only are you a scientific illiterate, you also seem to be totally ignorant of theology. I think that maybe your religion is based on superstition rather than theology, just as your science is based on ignorance.",147413,2,3546,1,"Science by definition wont support a strong argument that god exists if the proper evidence is presented? Are you saying that scientific procedures dismiss any possibility of a god existing? Sounds like you're the scientifically illiterate one to me.","http://www.4forums.com/political/creation-intelligent-design-vs-evolution/5421-too-many-meteor-strikes-6000-year-old-earth.html",132659,63
"1-3546_64_63_2",3546,1,"2005-06-04 15:04:00",101,91,132928,"2005-06-03 20:17:00",147417,75,63,"Science has explained many things that were previously considered supernatural. The northern lights, earthquakes, the stars in the sky at one time were thought to be supernatural. There goes your theory. What would someone from ancient times say if you told them that there body was made up of trillions of little things that resembled solar systems. That would just be silly. Mayabe even a supernatural dream?",147416,2,3546,1,"Somehow I knew that you wouldn't be able to understand. God is, by definition, supernatural. That means that He is beyond nature. Science is, by definition, naturalistic. That means that it lacks the tools to examine anything that is supernatural. Not only are you a scientific illiterate, you also seem to be totally ignorant of theology. I think that maybe your religion is based on superstition rather than theology, just as your science is based on ignorance.","http://www.4forums.com/political/creation-intelligent-design-vs-evolution/5421-too-many-meteor-strikes-6000-year-old-earth.html",132670,64
"1-3546_73_64_2",3546,1,"2005-06-05 06:40:00",91,101,133079,"2005-06-04 15:04:00",147426,87,64,"You still are using a mythology and superstition based theology. Of course there are things that science has explained that were once thought to have been the work of your god. Turns out, they weren't supernatural events after all. So when the evidence is discovered so that your god can be examined by science, that will mean that your god isn't supernatural, and therefore not God - just a creation.
Actually, your god is a creation of mankind.",147417,2,3546,1,"Science has explained many things that were previously considered supernatural. The northern lights, earthquakes, the stars in the sky at one time were thought to be supernatural. There goes your theory. What would someone from ancient times say if you told them that there body was made up of trillions of little things that resembled solar systems. That would just be silly. Mayabe even a supernatural dream?","http://www.4forums.com/political/creation-intelligent-design-vs-evolution/5421-too-many-meteor-strikes-6000-year-old-earth.html",132928,73
"1-3546_66_65_3",3546,1,"2005-06-04 22:10:00",101,105,133007,"2005-06-04 16:58:00",147419,101,65,"Nothing can be proven beyond a doubt. And I cant prove that god exists, but you cant prove he doesnt, so I say he does exist and thats all there is to it. Prove to me he doesnt exist... Im waiting. Well? Were is your undeniable proof that he doesnt exist? Really I would like to see this proof that you base your logical conclusion that there is no way he exists on. Honestly, I'd really like to see it, or did your dog eat your report this morning?",147418,3,3546,1,"canadianman77: oddly you keep arguing that God can be proven, but you haven't seemd to be able to do so","http://www.4forums.com/political/creation-intelligent-design-vs-evolution/5421-too-many-meteor-strikes-6000-year-old-earth.html",132947,66
"1-3546_68_66_3",3546,1,"2005-06-04 22:19:00",105,101,133016,"2005-06-04 22:10:00",147421,116,66,"Good. You are learning. 

But you are claiming God as proof for other issues. As such, you have a problem with your fundemental argument as it rests upon something as yet unproven. 

You seem to have a very selective memory. I never said it does not exist. As such, the rest of your argument is quite worthless as it accuses me of something I never said. I do recall however, saying that God cannot be proven or disproven many, many time here. In the future, it would help you to look that up before making yourself out to be a fool,.",147419,3,3546,1,"Nothing can be proven beyond a doubt. And I cant prove that god exists, but you cant prove he doesnt, so I say he does exist and thats all there is to it. Prove to me he doesnt exist... Im waiting. Well? Were is your undeniable proof that he doesnt exist? Really I would like to see this proof that you base your logical conclusion that there is no way he exists on. Honestly, I'd really like to see it, or did your dog eat your report this morning?","http://www.4forums.com/political/creation-intelligent-design-vs-evolution/5421-too-many-meteor-strikes-6000-year-old-earth.html",133007,68
"1-3546_69_68_3",3546,1,"2005-06-04 22:27:00",101,105,133021,"2005-06-04 22:19:00",147422,43,68,"You just said that my statement ""nothing can be proven beyond a doubt"" was true, and then accuse me of arguing my point upon something that is unproven... And I'm making myself look like a fool? Idiot.",147421,3,3546,1,"Good. You are learning. 

But you are claiming God as proof for other issues. As such, you have a problem with your fundemental argument as it rests upon something as yet unproven. 

You seem to have a very selective memory. I never said it does not exist. As such, the rest of your argument is quite worthless as it accuses me of something I never said. I do recall however, saying that God cannot be proven or disproven many, many time here. In the future, it would help you to look that up before making yourself out to be a fool,.","http://www.4forums.com/political/creation-intelligent-design-vs-evolution/5421-too-many-meteor-strikes-6000-year-old-earth.html",133016,69
"1-3546_70_69_3",3546,1,"2005-06-05 00:32:00",105,101,133053,"2005-06-04 22:27:00",147423,88,69,"Alright...

Ah, but you are claiming such as proof that your argument is true. If we apply your logic even further, you cannot even make such claims. 

Of course you are. You are claiming that the existance of God is true, and then use that to allege something else is true. That doesn't fly. 
Thank you for admitting you are a idiot. Saves me the trouble
I'm waiting for you to prove when I said God doesn't exist",147422,3,3546,1,"You just said that my statement ""nothing can be proven beyond a doubt"" was true, and then accuse me of arguing my point upon something that is unproven... And I'm making myself look like a fool? Idiot.","http://www.4forums.com/political/creation-intelligent-design-vs-evolution/5421-too-many-meteor-strikes-6000-year-old-earth.html",133021,70
"1-3546_71_70_3",3546,1,"2005-06-05 01:22:00",101,105,133060,"2005-06-05 00:32:00",147424,43,70,"I just assumed that you dont believe in god, seeing as how you take such strong offense to the fact that I believe he does exist. Or do you believe that he does exist and you have a hidden agenda?",147423,3,3546,1,"Alright...

Ah, but you are claiming such as proof that your argument is true. If we apply your logic even further, you cannot even make such claims. 

Of course you are. You are claiming that the existance of God is true, and then use that to allege something else is true. That doesn't fly. 
Thank you for admitting you are a idiot. Saves me the trouble
I'm waiting for you to prove when I said God doesn't exist","http://www.4forums.com/political/creation-intelligent-design-vs-evolution/5421-too-many-meteor-strikes-6000-year-old-earth.html",133053,71
"1-3546_75_71_3",3546,1,"2005-06-05 11:51:00",105,101,133206,"2005-06-05 01:22:00",147428,56,71,"Well, you assumed wrong. I take offense to you claiming something without proving it. 
While nothing can be proven beyond a doubt, you cannot live your life as a true skeptic. As such, as you obviously do not understand that bit of philosophy, the reasoning is beyond you.",147424,3,3546,1,"I just assumed that you dont believe in god, seeing as how you take such strong offense to the fact that I believe he does exist. Or do you believe that he does exist and you have a hidden agenda?","http://www.4forums.com/political/creation-intelligent-design-vs-evolution/5421-too-many-meteor-strikes-6000-year-old-earth.html",133060,75
