"key","quote_source_post_discussion_id","posts_dataset_id","posts_timestamp","posts_author_id","quote_source_author_id","posts_native_post_id","quote_source_timestamp","post_text_id","Word_Count","quote_source_post_id","post_text","quote_source_text_id","Dialog_Turn","posts_discussion_id","quote_source_post_dataset_id","Fullquote_text","discussion_url","quote_source_native_post_id","posts_post_id"
"1-3578_41_40_1",3578,1,"2005-06-01 20:59:00",81,101,131643,"2005-06-01 20:23:00",149063,40,40,"Right, Uh Huh. Lets see you post a peer reviewed archelogical journal with this claim.
I notice you switched from Mount arafat to the exodus mid steam too. Isn't that lovely. Equally silly too..",149062,1,3578,1,"Im not talking about wyatt, The discovery of a volcanic eruption on the other side of the ocean, wich caused underwater earthquakes, that caused a tsunami that crossed the ocean and drew the water out of the bay that they called the sea of reeds just long enough for them to cross, and then the ocean came crashing back in and layed the smack down on the bad guys. Sounds like a believable miracle to me. Again, nothing to do with wyatt.","http://www.4forums.com/political/creation-intelligent-design-vs-evolution/5465-carbon-14-dating-recalibrated.html",131614,41
"1-3578_42_41_1",3578,1,"2005-06-01 21:10:00",101,81,131651,"2005-06-01 20:59:00",149064,69,41,"Sorry bout that switch, if you want, I'll find the names of the scientists and labs that did the assays on the petrified timbers, and the remains of the bolts, as well as the ballast material that was in the hull of the ship, seeing as how it is clear that you havent read the information on the site that i gave you.",149063,1,3578,1,"Right, Uh Huh. Lets see you post a peer reviewed archelogical journal with this claim.
I notice you switched from Mount arafat to the exodus mid steam too. Isn't that lovely. Equally silly too..","http://www.4forums.com/political/creation-intelligent-design-vs-evolution/5465-carbon-14-dating-recalibrated.html",131643,42
"1-3578_45_42_1",3578,1,"2005-06-02 06:43:00",81,101,131769,"2005-06-01 21:10:00",149067,28,42,"I asked for a peer reviewed article on from an archelogocal journal , not a fancy web site put up by frauds, cons, and flakes.",149064,1,3578,1,"Sorry bout that switch, if you want, I'll find the names of the scientists and labs that did the assays on the petrified timbers, and the remains of the bolts, as well as the ballast material that was in the hull of the ship, seeing as how it is clear that you havent read the information on the site that i gave you.","http://www.4forums.com/political/creation-intelligent-design-vs-evolution/5465-carbon-14-dating-recalibrated.html",131651,45
"1-3578_46_45_1",3578,1,"2005-06-02 10:34:00",101,81,131925,"2005-06-02 06:43:00",149068,94,45,"You can call the los alimos research lab that did the assay on the sample of the petrified timber if you want. Mayabe they are ""Hacks"" as you put it. Steven Hawkings, and Albert Einstein believe God exists. They must be a bunch of flakes and hacks. Thanks for clearing that up! We better throw out the theories of relativity put forth by einstein! Hey everybody! This man is a genius! He discovered that Einstein is a fraud! Thank the heavens!",149067,1,3578,1,"I asked for a peer reviewed article on from an archelogocal journal , not a fancy web site put up by frauds, cons, and flakes.","http://www.4forums.com/political/creation-intelligent-design-vs-evolution/5465-carbon-14-dating-recalibrated.html",131769,46
"1-3578_47_46_1",3578,1,"2005-06-02 10:55:00",81,101,131935,"2005-06-02 10:34:00",149069,114,46,"Like I said, show me a peer reviewed article about it. I don't accept any information that comes from a Ron Wyatt web site.
You DO know what a peer reviewed scientific article about it , isn't it? And, by the way, you are mistating ALbert Einsteins view of God. That is very dishonest of you, and by the way, totally irrelavent to the discustion about the claims from Ron Wyatt.
As for my asking the alamo labs, why shoudl it. It's your claim. you provide the evidence. You know WHY you aren't going to?? Because you can't.",149068,1,3578,1,"You can call the los alimos research lab that did the assay on the sample of the petrified timber if you want. Mayabe they are ""Hacks"" as you put it. Steven Hawkings, and Albert Einstein believe God exists. They must be a bunch of flakes and hacks. Thanks for clearing that up! We better throw out the theories of relativity put forth by einstein! Hey everybody! This man is a genius! He discovered that Einstein is a fraud! Thank the heavens!","http://www.4forums.com/political/creation-intelligent-design-vs-evolution/5465-carbon-14-dating-recalibrated.html",131925,47
"1-3578_48_46_2",3578,1,"2005-06-02 11:04:00",653,101,131944,"2005-06-02 10:34:00",149070,35,46,"Really? And you have sources to back up this statement? Please provide them. Thanks!
(BTW -- Which 'god' do Hawking and Einstein 'believe exists'?)",149068,2,3578,1,"You can call the los alimos research lab that did the assay on the sample of the petrified timber if you want. Mayabe they are ""Hacks"" as you put it. Steven Hawkings, and Albert Einstein believe God exists. They must be a bunch of flakes and hacks. Thanks for clearing that up! We better throw out the theories of relativity put forth by einstein! Hey everybody! This man is a genius! He discovered that Einstein is a fraud! Thank the heavens!","http://www.4forums.com/political/creation-intelligent-design-vs-evolution/5465-carbon-14-dating-recalibrated.html",131925,48
"1-3578_51_48_2",3578,1,"2005-06-02 11:27:00",101,653,131963,"2005-06-02 11:04:00",149073,78,48,"A supreme being, thats good enough for me. If someone believes in buddah, thats just a different name for god. as for Hawking, he is a devout christian, and has a much more strict faith than i ever will. Einstein? You can quote him from several of his writings. And if I could give you the sources off of the top of my head, then I would.",149070,2,3578,1,"Really? And you have sources to back up this statement? Please provide them. Thanks!
(BTW -- Which 'god' do Hawking and Einstein 'believe exists'?)","http://www.4forums.com/political/creation-intelligent-design-vs-evolution/5465-carbon-14-dating-recalibrated.html",131944,51
"1-3578_66_51_2",3578,1,"2005-06-02 22:28:00",653,101,132276,"2005-06-02 11:27:00",149088,118,51,"I'm not asking you to provide sources off the top of your head. I'm asking you to do a little work and research that which you are discussing so that if you make claims during the discussion, you are able to back them up with reputable sources. I have done a bit of research on my own, and I believe your claims are inaccurate -- or misleading at best. However, since YOU are the one making the claims, it is up to YOU to provide references for them. If you cannot, then there is no logical reason your claims should be accepted as true. Sound fair enough?",149073,2,3578,1,"A supreme being, thats good enough for me. If someone believes in buddah, thats just a different name for god. as for Hawking, he is a devout christian, and has a much more strict faith than i ever will. Einstein? You can quote him from several of his writings. And if I could give you the sources off of the top of my head, then I would.","http://www.4forums.com/political/creation-intelligent-design-vs-evolution/5465-carbon-14-dating-recalibrated.html",131963,66
"1-3578_67_66_2",3578,1,"2005-06-02 23:36:00",101,653,132282,"2005-06-02 22:28:00",149089,52,66,"I dont expect anyone to accept my claims as true, and sometimes I just blurt out what i think is true to make a point. please replace budist with muslim in the post that I messed up on. I just meant anyone who believes in a higher power.",149088,2,3578,1,"I'm not asking you to provide sources off the top of your head. I'm asking you to do a little work and research that which you are discussing so that if you make claims during the discussion, you are able to back them up with reputable sources. I have done a bit of research on my own, and I believe your claims are inaccurate -- or misleading at best. However, since YOU are the one making the claims, it is up to YOU to provide references for them. If you cannot, then there is no logical reason your claims should be accepted as true. Sound fair enough?","http://www.4forums.com/political/creation-intelligent-design-vs-evolution/5465-carbon-14-dating-recalibrated.html",132276,67
"1-3578_68_67_2",3578,1,"2005-06-03 10:03:00",653,101,132462,"2005-06-02 23:36:00",149090,84,67,"How can you make a valid point when you blurt out what you 'think' is true, without any idea whether it is actually true? What is your point, anyway?
If you want to participate fruitfully on a debate forum, I'd encourage you to have your facts straight and have references available... keep an open mind... and gracefully admit when your argument is illogical, based on untrue facts, or based on any fallacy.",149089,2,3578,1,"I dont expect anyone to accept my claims as true, and sometimes I just blurt out what i think is true to make a point. please replace budist with muslim in the post that I messed up on. I just meant anyone who believes in a higher power.","http://www.4forums.com/political/creation-intelligent-design-vs-evolution/5465-carbon-14-dating-recalibrated.html",132282,68
"1-3578_69_68_2",3578,1,"2005-06-03 15:45:00",101,653,132604,"2005-06-03 10:03:00",149091,23,68,"Did I not admit that my argument was illogical using buddah? Besides, do you always use references when you debate?",149090,2,3578,1,"How can you make a valid point when you blurt out what you 'think' is true, without any idea whether it is actually true? What is your point, anyway?
If you want to participate fruitfully on a debate forum, I'd encourage you to have your facts straight and have references available... keep an open mind... and gracefully admit when your argument is illogical, based on untrue facts, or based on any fallacy.","http://www.4forums.com/political/creation-intelligent-design-vs-evolution/5465-carbon-14-dating-recalibrated.html",132462,69
