"key","quote_source_post_discussion_id","posts_dataset_id","posts_timestamp","posts_author_id","quote_source_author_id","posts_native_post_id","quote_source_timestamp","post_text_id","Word_Count","quote_source_post_id","post_text","quote_source_text_id","Dialog_Turn","posts_discussion_id","quote_source_post_dataset_id","Fullquote_text","discussion_url","quote_source_native_post_id","posts_post_id"
"1-3765_61_50_1",3765,1,"2005-06-29 06:59:00",55,89,142485,"2005-06-28 13:33:00",156945,66,50,"the only way the guy in china could know for 100% certain that you would choose a green shirt since last week, is if he was the one that made your decision for you. in other words, he would have to control your choice faculties and control your actions. otherwise it would be merely a lucky guess. foreknowledge removes free will",156934,1,3765,1,"Of course it matters. I ended up in this green shirt somehow. You say it wasn't a matter of my choosing. In that case there must have been some other mechanism at work. What is it? To my mind if you can't name a mechanism then it's a substantial hole in your philosophy.","http://www.4forums.com/political/creation-intelligent-design-vs-evolution/5735-would-proof-creationism-change-your-ethics.html",142114,61
"1-3765_63_61_1",3765,1,"2005-06-29 09:44:00",89,55,142550,"2005-06-29 06:59:00",156947,118,61,"Not at all. Maybe he's got a time travelling psychic power. He can see through my eyes, a week ahead. He has no ability to interfere with my actions, but he knows what I'll see next week.
The mechanism isn't important. We're just assuming that this guy knows somehow what shirt I was going to wear. His ability is 100% accurate, I'm unaware of it, and he's exerting no influence on me. If the situation seems less absurd if you substitue ""God"" for ""some guy in China"" then feel free to make that substitution. That is where this strated after all.",156945,1,3765,1,"the only way the guy in china could know for 100% certain that you would choose a green shirt since last week, is if he was the one that made your decision for you. in other words, he would have to control your choice faculties and control your actions. otherwise it would be merely a lucky guess. foreknowledge removes free will","http://www.4forums.com/political/creation-intelligent-design-vs-evolution/5735-would-proof-creationism-change-your-ethics.html",142485,63
"1-3765_65_63_1",3765,1,"2005-06-30 06:13:00",55,89,143002,"2005-06-29 09:44:00",156949,31,63,"a time travelling psychic with the ability to see the future would mean that the future is fixed and predetermination exists. in such a scenario free will does not exist",156947,1,3765,1,"Not at all. Maybe he's got a time travelling psychic power. He can see through my eyes, a week ahead. He has no ability to interfere with my actions, but he knows what I'll see next week.
The mechanism isn't important. We're just assuming that this guy knows somehow what shirt I was going to wear. His ability is 100% accurate, I'm unaware of it, and he's exerting no influence on me. If the situation seems less absurd if you substitue ""God"" for ""some guy in China"" then feel free to make that substitution. That is where this strated after all.","http://www.4forums.com/political/creation-intelligent-design-vs-evolution/5735-would-proof-creationism-change-your-ethics.html",142550,65
"1-3765_66_65_1",3765,1,"2005-06-30 06:17:00",89,55,143003,"2005-06-30 06:13:00",156950,89,65,"You keep saying that. And you seldom take more that two sentences to do so. Please, expand! Like I said, I've thought about this quite a bit. It's going to take more than two words to give me something new to chew on. Why does the fact that someone already knew what my choice was going to be mean I didn't actually choose? Please, use lots and lots of words! Feel free to ramble, I don't mind.",156949,1,3765,1,"a time travelling psychic with the ability to see the future would mean that the future is fixed and predetermination exists. in such a scenario free will does not exist","http://www.4forums.com/political/creation-intelligent-design-vs-evolution/5735-would-proof-creationism-change-your-ethics.html",143002,66
"1-3765_68_66_1",3765,1,"2005-06-30 06:33:00",55,89,143006,"2005-06-30 06:17:00",156952,249,66,"lol
suppose it was knowable in some realm that you were definitely going to wear a green shirt next week tuesday. you have serveral shirts of various colors, all of them equally comfortable and stylish, all of them clean. you usually pick your shirts in no particular order, and you dont wear the same color twice in a row. if you are foreknown to be wearing the green shirt on tuesday, it eliminates the option to wear the green shirt on monday, and it eliminates the option of wearing any other color shirt than green on tuesday. in other words, the option of wearing a not-green shirt on tuesday does not exist. you could not choose, for example, a white shirt on tuesday, because it would make the prediction wrong.
seeing the future means that the path of options is already known. each decision you make can only be the decision you were foreseen making. the other options can never be chosen because they are not the ones you were foreseen to choose. events that lead to your decision making are also already foreknown, meaning that the other possible events that could have happened instead of the foreseen one could never possibly happen. in a future where the outcome is foreknown, only one option is choosable: the one that is foreknown. one option = no choice",156950,1,3765,1,"You keep saying that. And you seldom take more that two sentences to do so. Please, expand! Like I said, I've thought about this quite a bit. It's going to take more than two words to give me something new to chew on. Why does the fact that someone already knew what my choice was going to be mean I didn't actually choose? Please, use lots and lots of words! Feel free to ramble, I don't mind.","http://www.4forums.com/political/creation-intelligent-design-vs-evolution/5735-would-proof-creationism-change-your-ethics.html",143003,68
"1-3765_16_14_2",3765,1,"2005-06-24 08:09:00",55,101,140713,"2005-06-24 04:31:00",156900,105,14,"why would making the good option more apparent mean the choice still doesnt exist? if god were to walk around claiming he was god and doing godly things, do you think there wouldnt be a huge portion of the world that would still choose to reject him? if that were the case, then there should be absolutely no christians in the world today. if the choice of sinful or righteous exists (and in many minds it does), then the manifestation of either god or the devil will do very little to change people's freedom of choice.",156898,2,3765,1,"Mayabe the reason that God doesnt reveal himself is so that we deep down dont really know for sure, and therefore choose our own path? Mayabe this is a test to find out who is good, and who is bad?","http://www.4forums.com/political/creation-intelligent-design-vs-evolution/5735-would-proof-creationism-change-your-ethics.html",140664,16
"1-3765_30_16_2",3765,1,"2005-06-27 19:06:00",101,55,141801,"2005-06-24 08:09:00",156914,58,16,"If you absolutely knew 100% for sure that god and the devil existed, then you would be absolutely terrified to do anything for fear that it may be something that will damn you to hell. Not knowing for sure has a lot to do with the freedom of choice that god so kindly gave us.",156900,2,3765,1,"why would making the good option more apparent mean the choice still doesnt exist? if god were to walk around claiming he was god and doing godly things, do you think there wouldnt be a huge portion of the world that would still choose to reject him? if that were the case, then there should be absolutely no christians in the world today. if the choice of sinful or righteous exists (and in many minds it does), then the manifestation of either god or the devil will do very little to change people's freedom of choice.","http://www.4forums.com/political/creation-intelligent-design-vs-evolution/5735-would-proof-creationism-change-your-ethics.html",140713,30
"1-3765_44_30_2",3765,1,"2005-06-28 11:47:00",55,101,142048,"2005-06-27 19:06:00",156928,82,30,"interesting. would you then say that laws against certain behaviors (such as murder and rape) are also restricting free will? i mean, knowing that selling drugs will very likely end you up in jail, yet there are drug dealers all over, and every day they are getting busted. it still doesnt stop those that chose to deal drugs from doing so. so huw much does a known consequence really affect free will?",156914,2,3765,1,"If you absolutely knew 100% for sure that god and the devil existed, then you would be absolutely terrified to do anything for fear that it may be something that will damn you to hell. Not knowing for sure has a lot to do with the freedom of choice that god so kindly gave us.","http://www.4forums.com/political/creation-intelligent-design-vs-evolution/5735-would-proof-creationism-change-your-ethics.html",141801,44
"1-3765_55_44_2",3765,1,"2005-06-28 15:15:00",101,55,142187,"2005-06-28 11:47:00",156939,63,44,"That isnt an absolute. There are lots of drug dealers that never get caught. Although, I dont often see anyone try to dive down to the titanic with a snorkel and fins. Even though there isnt a law against that. But I am just pointing out an absolute consequence, wich in this case would be death.",156928,2,3765,1,"interesting. would you then say that laws against certain behaviors (such as murder and rape) are also restricting free will? i mean, knowing that selling drugs will very likely end you up in jail, yet there are drug dealers all over, and every day they are getting busted. it still doesnt stop those that chose to deal drugs from doing so. so huw much does a known consequence really affect free will?","http://www.4forums.com/political/creation-intelligent-design-vs-evolution/5735-would-proof-creationism-change-your-ethics.html",142048,55
"1-3765_62_55_2",3765,1,"2005-06-29 07:05:00",55,101,142490,"2005-06-28 15:15:00",156946,52,55,"but even in the cases where there is the absolute consequence of death, such as shooting oneself in the head, it does not prevent people from making that choice. people seem to have no problem knowing the inevitable dire consequences of a decision and still making that decision.",156939,2,3765,1,"That isnt an absolute. There are lots of drug dealers that never get caught. Although, I dont often see anyone try to dive down to the titanic with a snorkel and fins. Even though there isnt a law against that. But I am just pointing out an absolute consequence, wich in this case would be death.","http://www.4forums.com/political/creation-intelligent-design-vs-evolution/5735-would-proof-creationism-change-your-ethics.html",142187,62
"1-3765_64_62_2",3765,1,"2005-06-29 22:36:00",101,55,142907,"2005-06-29 07:05:00",156948,87,62,"But they dont know for sure that they are going to not ever be conscious ever again, or if they are going to go to heaven or hell. Thats what I am saying. You have the choice to do whatever you want without knowing for sure what the concequences are. That is what allows for free will. The fact that you dont really know of god is out there, ready to lay the smack down of you **** him off.",156946,2,3765,1,"but even in the cases where there is the absolute consequence of death, such as shooting oneself in the head, it does not prevent people from making that choice. people seem to have no problem knowing the inevitable dire consequences of a decision and still making that decision.","http://www.4forums.com/political/creation-intelligent-design-vs-evolution/5735-would-proof-creationism-change-your-ethics.html",142490,64
"1-3765_67_64_2",3765,1,"2005-06-30 06:18:00",55,101,143004,"2005-06-29 22:36:00",156951,87,64,"and what i'm saying is that even though the reality of heaven and hell were blatantly apparent to everyone in the world, some people would still choose hell of their own accord. thats just the way it is. there are people brazen and rooted enough in their own preconception and outlook that even i the face of death and destruction they still willingly and deliberately stick to their decision. being certain of the outcome does little to change their minds about their actions",156948,2,3765,1,"But they dont know for sure that they are going to not ever be conscious ever again, or if they are going to go to heaven or hell. Thats what I am saying. You have the choice to do whatever you want without knowing for sure what the concequences are. That is what allows for free will. The fact that you dont really know of god is out there, ready to lay the smack down of you **** him off.","http://www.4forums.com/political/creation-intelligent-design-vs-evolution/5735-would-proof-creationism-change-your-ethics.html",142907,67
"1-3765_39_37_3",3765,1,"2005-06-28 04:23:00",81,101,141901,"2005-06-28 02:43:00",156923,18,37,"If the outcome of a destiny is known before it is even started, that negates free will",156921,3,3765,1,"Just because you are free to choose your own destiny, doesnt mean that god doesnt know what the outcome will be.","http://www.4forums.com/political/creation-intelligent-design-vs-evolution/5735-would-proof-creationism-change-your-ethics.html",141888,39
"1-3765_52_39_3",3765,1,"2005-06-28 15:09:00",101,81,142181,"2005-06-28 04:23:00",156936,34,39,"Not if you arent the one who knows. Just because he knows the final outcome of what you will do, doesnt mean that he is making you do what you do.",156923,3,3765,1,"If the outcome of a destiny is known before it is even started, that negates free will","http://www.4forums.com/political/creation-intelligent-design-vs-evolution/5735-would-proof-creationism-change-your-ethics.html",141901,52
"1-3765_57_52_3",3765,1,"2005-06-28 17:45:00",81,101,142272,"2005-06-28 15:09:00",156941,18,52,"Why? It doesn't matter if you are forced, the matterv is that it is known.",156936,3,3765,1,"Not if you arent the one who knows. Just because he knows the final outcome of what you will do, doesnt mean that he is making you do what you do.","http://www.4forums.com/political/creation-intelligent-design-vs-evolution/5735-would-proof-creationism-change-your-ethics.html",142181,57
"1-3765_59_57_3",3765,1,"2005-06-28 23:46:00",101,81,142400,"2005-06-28 17:45:00",156943,22,57,"I know that the sun is commin up tomorrow. Does that mean that the sun is predestined to do so?",156941,3,3765,1,"Why? It doesn't matter if you are forced, the matterv is that it is known.","http://www.4forums.com/political/creation-intelligent-design-vs-evolution/5735-would-proof-creationism-change-your-ethics.html",142272,59
"1-3765_60_59_3",3765,1,"2005-06-29 05:02:00",81,101,142446,"2005-06-28 23:46:00",156944,33,59,"That is your perception. It is, however, false.
THere is no choice involved.. it is a purely mechanical. Therefore, you are buiding a false analogy.",156943,3,3765,1,"I know that the sun is commin up tomorrow. Does that mean that the sun is predestined to do so?","http://www.4forums.com/political/creation-intelligent-design-vs-evolution/5735-would-proof-creationism-change-your-ethics.html",142400,60
"1-3765_83_82_4",3765,1,"2005-07-06 14:47:00",81,101,145195,"2005-07-06 13:55:00",156967,6,82,"References for your claim are??",156966,4,3765,1,"Thats not what quantum ambiguity shows.","http://www.4forums.com/political/creation-intelligent-design-vs-evolution/5735-would-proof-creationism-change-your-ethics.html",145174,83
"1-3765_84_83_4",3765,1,"2005-07-08 19:58:00",101,81,146008,"2005-07-06 14:47:00",156968,49,83,"Irwin schroedinger. Wave/particle experiments, Albert Einstein, Steven Hawkins. The quantum computer is based on the fact that a particle can exist in more than one state at the same time. Could this be one thing travelling down two paths at once?",156967,4,3765,1,"References for your claim are??","http://www.4forums.com/political/creation-intelligent-design-vs-evolution/5735-would-proof-creationism-change-your-ethics.html",145195,84
"1-3765_85_84_4",3765,1,"2005-07-09 07:00:00",81,101,146046,"2005-07-08 19:58:00",156969,21,84,"It says that it can be ambigiuos to a point. SHow me where the path can be changed once known",156968,4,3765,1,"Irwin schroedinger. Wave/particle experiments, Albert Einstein, Steven Hawkins. The quantum computer is based on the fact that a particle can exist in more than one state at the same time. Could this be one thing travelling down two paths at once?","http://www.4forums.com/political/creation-intelligent-design-vs-evolution/5735-would-proof-creationism-change-your-ethics.html",146008,85
"1-3765_86_85_4",3765,1,"2005-07-11 01:50:00",101,81,146322,"2005-07-09 07:00:00",156970,176,85,"The outcome does change once known in the double slit experiment. When a single photon is observed passing through one of the slits, its state collapses to a point particle. If it is not observed, the photon quanta exibits characteristics akin to a wave. This means that until cause and effect are observed, the outcome will be every possible variation. 1 the photon is emitted from the source. 2 the photon passes through the double slit barrier wich either is or is not detecting wich one of the two slits the photon passes through. 3 the photon arrives at the detector as either a particle if it was observed passing through the slit. Or a wave if it was not. This means that as the photon is manifested in the source its state is affected by the observation that will or will not happen in the future at the double slit barrier. This is an example of a future event effecting the past.",156969,4,3765,1,"It says that it can be ambigiuos to a point. SHow me where the path can be changed once known","http://www.4forums.com/political/creation-intelligent-design-vs-evolution/5735-would-proof-creationism-change-your-ethics.html",146046,86
"1-3765_87_86_4",3765,1,"2005-07-11 05:44:00",81,101,146332,"2005-07-11 01:50:00",156971,34,86,"No, the event is not past. If so, that would violate the principles of cause/effect, where the effect has to be later in time than the cause.",156970,4,3765,1,"The outcome does change once known in the double slit experiment. When a single photon is observed passing through one of the slits, its state collapses to a point particle. If it is not observed, the photon quanta exibits characteristics akin to a wave. This means that until cause and effect are observed, the outcome will be every possible variation. 1 the photon is emitted from the source. 2 the photon passes through the double slit barrier wich either is or is not detecting wich one of the two slits the photon passes through. 3 the photon arrives at the detector as either a particle if it was observed passing through the slit. Or a wave if it was not. This means that as the photon is manifested in the source its state is affected by the observation that will or will not happen in the future at the double slit barrier. This is an example of a future event effecting the past.","http://www.4forums.com/political/creation-intelligent-design-vs-evolution/5735-would-proof-creationism-change-your-ethics.html",146322,87
