"key","quote_source_post_discussion_id","posts_dataset_id","posts_timestamp","posts_author_id","quote_source_author_id","posts_native_post_id","quote_source_timestamp","post_text_id","Word_Count","quote_source_post_id","post_text","quote_source_text_id","Dialog_Turn","posts_discussion_id","quote_source_post_dataset_id","Fullquote_text","discussion_url","quote_source_native_post_id","posts_post_id"
"1-4061_110_106_1",4061,1,"2005-08-22 11:08:00",2016,81,156304,"2005-08-22 10:50:00",168367,194,106,"Ok, I'm going to give more of a scenario, then I have to get some work done and would like to see some kind of proof either for the development of life of a single cell and if any, what you have as proof that it didn't happen by intelligent design.
I think we are all aware of attempts to listen to space to pick up anomalies. All we receive are static random sounds and its reasonable to assume there is no intelligence behind that. But what is generally agreed to is that if we one day start to get other organized signals it would indicate intelligence out there somewhere. 
If a single message from space is enough to convince us there is intelligence behind it, then what about the inforamtion contained in a single cell? 
Do you know that the odds of the single cell being able to organize itself is 10 w/ 60 zeroes after it? Or essentially zero. Can we agree that only the very biased would deny that creation should be on the table as a possiblity?",168363,1,4061,1,"Fine.. we have some claims by a biologist that is talking about 'biological predestination'. How can you test for that? How can you show that there was a 'creator' behind it. It seems to be a religiously oriented claim that is untestable.
Does Dean Kenyon have a peer reviewed scientific article on this subject?
How can this claim be tested? How can it be disproved? what predictions does it make ?","http://www.4forums.com/political/creation-intelligent-design-vs-evolution/6121-evolution-creationism-whos-right.html",156299,110
"1-4061_112_110_1",4061,1,"2005-08-22 11:14:00",81,2016,156309,"2005-08-22 11:08:00",168369,108,110,"Oh yes. we went though that odds.. that was the odds given in a scientific american in 1954, when DNA was first found... it was the odds of an enzyme orgianizing itself sponstankoulsy. That was before we knew how DNA and RNA actually worked.
However, what that odds doesn't take into accound it that the life processes is not a spontanious all at once. It is an incremental process. That blows your entire odds calcuation out of the water, and makes those 'odds' just blowing smoke and taking things out of context with little understanding.",168367,1,4061,1,"Ok, I'm going to give more of a scenario, then I have to get some work done and would like to see some kind of proof either for the development of life of a single cell and if any, what you have as proof that it didn't happen by intelligent design.
I think we are all aware of attempts to listen to space to pick up anomalies. All we receive are static random sounds and its reasonable to assume there is no intelligence behind that. But what is generally agreed to is that if we one day start to get other organized signals it would indicate intelligence out there somewhere. 
If a single message from space is enough to convince us there is intelligence behind it, then what about the inforamtion contained in a single cell? 
Do you know that the odds of the single cell being able to organize itself is 10 w/ 60 zeroes after it? Or essentially zero. Can we agree that only the very biased would deny that creation should be on the table as a possiblity?","http://www.4forums.com/political/creation-intelligent-design-vs-evolution/6121-evolution-creationism-whos-right.html",156304,112
"1-4061_115_112_1",4061,1,"2005-08-22 12:18:00",2016,81,156326,"2005-08-22 11:14:00",168372,69,112,"Interesting. Where do you get your information from? What source are you quoting? Do you have referrence to a website or book or both?
I'd like some validation for incremental process and how it works. If you're going accuse me of taking things out of context and having little understanding, you better be sure to back it up w/ some facts.",168369,1,4061,1,"Oh yes. we went though that odds.. that was the odds given in a scientific american in 1954, when DNA was first found... it was the odds of an enzyme orgianizing itself sponstankoulsy. That was before we knew how DNA and RNA actually worked.
However, what that odds doesn't take into accound it that the life processes is not a spontanious all at once. It is an incremental process. That blows your entire odds calcuation out of the water, and makes those 'odds' just blowing smoke and taking things out of context with little understanding.","http://www.4forums.com/political/creation-intelligent-design-vs-evolution/6121-evolution-creationism-whos-right.html",156309,115
"1-4061_118_115_1",4061,1,"2005-08-22 12:46:00",81,2016,156336,"2005-08-22 12:18:00",168375,97,115,"There was a discusson on the religion forum just this last week.
As for validation of an incremental process.. lets do a thought experiment.
Take 2 to the 1000 coins. Flip them. Then take all the coins that landed on heads, and flip them again.. repeat that until you only have 1 head left.
You will have flipped the coins 1000 times. You will have the coin that landed on it's head 1000 times in a row. Now, what are the odds of that happening?",168372,1,4061,1,"Interesting. Where do you get your information from? What source are you quoting? Do you have referrence to a website or book or both?
I'd like some validation for incremental process and how it works. If you're going accuse me of taking things out of context and having little understanding, you better be sure to back it up w/ some facts.","http://www.4forums.com/political/creation-intelligent-design-vs-evolution/6121-evolution-creationism-whos-right.html",156326,118
"1-4061_119_118_1",4061,1,"2005-08-22 13:07:00",2016,81,156341,"2005-08-22 12:46:00",168376,27,118,"Tell me if I'm wrong, but heads or tails only offers two choices and isn't applicable. How does this relate to origin of life?",168375,1,4061,1,"There was a discusson on the religion forum just this last week.
As for validation of an incremental process.. lets do a thought experiment.
Take 2 to the 1000 coins. Flip them. Then take all the coins that landed on heads, and flip them again.. repeat that until you only have 1 head left.
You will have flipped the coins 1000 times. You will have the coin that landed on it's head 1000 times in a row. Now, what are the odds of that happening?","http://www.4forums.com/political/creation-intelligent-design-vs-evolution/6121-evolution-creationism-whos-right.html",156336,119
"1-4061_138_133_2",4061,1,"2005-08-22 19:52:00",81,2016,156479,"2005-08-22 17:37:00",168395,9,133,"My mistake.. it was the cassini probe
http://www.ctv.ca/servlet/ArticleNew..._name=&no_ads=",168390,2,4061,1,"http://www.esa.int/SPECIALS/Cassini-Huygens/SEMHB881Y3E_0.html[/url] (appropriate use of a link ;) )
","http://www.4forums.com/political/creation-intelligent-design-vs-evolution/6121-evolution-creationism-whos-right.html",156441,138
"1-4061_144_138_2",4061,1,"2005-08-23 06:25:00",2016,81,156540,"2005-08-22 19:52:00",168401,40,138,"Now, this IS an interesting news story. However, I am interested in exactly what kind of complex organic material. I can't address otherwise. Please advise a more detailed link of this information.
thx.",168395,2,4061,1,"My mistake.. it was the cassini probe
http://www.ctv.ca/servlet/ArticleNew..._name=&no_ads=","http://www.4forums.com/political/creation-intelligent-design-vs-evolution/6121-evolution-creationism-whos-right.html",156479,144
"1-4061_147_144_2",4061,1,"2005-08-23 06:58:00",81,2016,156546,"2005-08-23 06:25:00",168404,116,144,"At the begining of this discussion, you made the claim you can show how invoking an intelligent designer is more 'logical' than considering abiogenesis.
So far, you have failed to even approch that subject. Care to take a stab at that first?
Attacking what we surmise about abiogenesis is not promoting 'an intelligent desinger'.. it is only attacking the current state of knowledge of abiogenesis, or in the case of the 'odds' you gave, the state of what we knew about organic chemistry from 50 years ago.
That does not promote the concept of an 'intelligent designer' at all.",168401,2,4061,1,"Now, this IS an interesting news story. However, I am interested in exactly what kind of complex organic material. I can't address otherwise. Please advise a more detailed link of this information.
thx.","http://www.4forums.com/political/creation-intelligent-design-vs-evolution/6121-evolution-creationism-whos-right.html",156540,147
"1-4061_154_147_2",4061,1,"2005-08-23 08:26:00",2016,81,156564,"2005-08-23 06:58:00",168411,70,147,"So what you're saying is, you don't know what kind of complex organic chemical, you didn't understand the basics of biology that I was referring to and You can't backup what you're saying. 
...and you don't care to respond to whether or not my scenario is hypocritical. How can I proceed w/ further arguments, if you won't even address this simple one.",168404,2,4061,1,"At the begining of this discussion, you made the claim you can show how invoking an intelligent designer is more 'logical' than considering abiogenesis.
So far, you have failed to even approch that subject. Care to take a stab at that first?
Attacking what we surmise about abiogenesis is not promoting 'an intelligent desinger'.. it is only attacking the current state of knowledge of abiogenesis, or in the case of the 'odds' you gave, the state of what we knew about organic chemistry from 50 years ago.
That does not promote the concept of an 'intelligent designer' at all.","http://www.4forums.com/political/creation-intelligent-design-vs-evolution/6121-evolution-creationism-whos-right.html",156546,154
"1-4061_159_154_2",4061,1,"2005-08-23 10:31:00",81,2016,156584,"2005-08-23 08:26:00",168416,117,154,"No, that isn't what I am saying. Thank you for creating a strawman.
I have backed up what I said. However, what I said is entirely different than the claim you insisted you woudl show. 
Your attacks on our knowledge of organic chemistry does not promote the claim you said. You seem to be avoiding that very simple piece. If you want to keep on avoiding your claim, go right ahead, but until you show SOME kind of reasoning that attempts to show your claim that 'an intelligent designer is more logical than nature for the origin of life', I will not respond.",168411,2,4061,1,"So what you're saying is, you don't know what kind of complex organic chemical, you didn't understand the basics of biology that I was referring to and You can't backup what you're saying. 
...and you don't care to respond to whether or not my scenario is hypocritical. How can I proceed w/ further arguments, if you won't even address this simple one.","http://www.4forums.com/political/creation-intelligent-design-vs-evolution/6121-evolution-creationism-whos-right.html",156564,159
"1-4061_152_150_3",4061,1,"2005-08-23 07:31:00",81,2016,156554,"2005-08-23 07:29:00",168409,36,150,"I don't understand. When I gave you links, you whined about my giving links and not discussing the informatin. Now, you want links. 
Why are you playing it both ways?",168407,3,4061,1,"No, no, lol. Again, please provide the proof. I keep getting knocked because I'm not providing proof of a creator (when all I'm actually trying to do is prove that a creator is a plausable theory) You need to be able to back up your claims with a reputuable source. If this is true, there should be any of number of websites and books dedicated to it. Please advise where to find this information.","http://www.4forums.com/political/creation-intelligent-design-vs-evolution/6121-evolution-creationism-whos-right.html",156552,152
"1-4061_156_152_3",4061,1,"2005-08-23 08:34:00",2016,81,156566,"2005-08-23 07:31:00",168413,81,152,"Don't be ridiculous. When you gave me links you didn't say anything, just there go check out these links. Whatever.
Next time I watch a debate on TV i'll pay close attetion to see if they just direct each other to other sources to go and check out what they say they are argueing for. AND if they then don't back up there argument w/ any credable sources. Give me a break already.",168409,3,4061,1,"I don't understand. When I gave you links, you whined about my giving links and not discussing the informatin. Now, you want links. 
Why are you playing it both ways?","http://www.4forums.com/political/creation-intelligent-design-vs-evolution/6121-evolution-creationism-whos-right.html",156554,156
"1-4061_157_156_3",4061,1,"2005-08-23 09:08:00",81,2016,156570,"2005-08-23 08:34:00",168414,186,156,"You ask for links, you reject links, I don't know what you want.
However, you have NOT done one thing you claimed you were going to do.
You claims you were going to show it wsa more logical that there was an intelligent designer than abiogenesis. YOu have not addressed that subject all.
All you have done is attempt to attack what we know about abiogensis.. 
You don't seem to have any supporting evidence FOR your point of view.
So, tell me, why is it more logical to postulate an intelligent designer (which you claim that nature of which is irrelavent, and you have provided no evidence for), rather than accept we don't know everything about how life could have formed naturally ? Even if all your critizisms were true (which they are not), nothing you have done has attempted to answer that question. That is what your original claim that you were going to do was.
When are you going to address that subject?",168413,3,4061,1,"Don't be ridiculous. When you gave me links you didn't say anything, just there go check out these links. Whatever.
Next time I watch a debate on TV i'll pay close attetion to see if they just direct each other to other sources to go and check out what they say they are argueing for. AND if they then don't back up there argument w/ any credable sources. Give me a break already.","http://www.4forums.com/political/creation-intelligent-design-vs-evolution/6121-evolution-creationism-whos-right.html",156566,157
"1-4061_160_157_3",4061,1,"2005-08-23 10:40:00",2016,81,156586,"2005-08-23 09:08:00",168417,155,157,"I did, but you conveniently ignore what I say that you can't answer. You can't get to B if you don't first have A. See?
I said that this was a debate of science vs. science. And before my original intended argument turns into evolution, which is irrelevant, I really would like to get back to this. 
I expected you to at least move on to self ordering tendencies w/ my argument against amino acids and protiens being able to organize themselves, but you haven't. 
Why haven't we gotten into the guts of what a cell is really comprised of and why do you refuse to discuss this self organization?
I suggest that is because you know you must take a great leap of faith. Your very refusal to discuss these things is evidence that we should at least consider intelligent design.",168414,3,4061,1,"You ask for links, you reject links, I don't know what you want.
However, you have NOT done one thing you claimed you were going to do.
You claims you were going to show it wsa more logical that there was an intelligent designer than abiogenesis. YOu have not addressed that subject all.
All you have done is attempt to attack what we know about abiogensis.. 
You don't seem to have any supporting evidence FOR your point of view.
So, tell me, why is it more logical to postulate an intelligent designer (which you claim that nature of which is irrelavent, and you have provided no evidence for), rather than accept we don't know everything about how life could have formed naturally ? Even if all your critizisms were true (which they are not), nothing you have done has attempted to answer that question. That is what your original claim that you were going to do was.
When are you going to address that subject?","http://www.4forums.com/political/creation-intelligent-design-vs-evolution/6121-evolution-creationism-whos-right.html",156570,160
"1-4061_161_160_3",4061,1,"2005-08-23 10:52:00",81,2016,156587,"2005-08-23 10:40:00",168418,151,160,"Let's see.. 
We gave you lots of answers. You reject it. YOu insist on more information , you move the goal posts.
You have not discuess 'ID' at all when it comes to the origin of life.
I suggest you aren't discussing ID because you have nothing to say about it.
I suggest you reject the information provided, because it threatens you.
I suggest that it doesn't matter, because at the essence of your claim is that 
'An intelligent designer is more logical than natural process as the origin of life'"" makes the knowledge, (or lack there of) irrelavent. You made a claim for the logic, you fail to address that issue..
Untill you act with a little more honesty, I am not going to sucked into your lies.",168417,3,4061,1,"I did, but you conveniently ignore what I say that you can't answer. You can't get to B if you don't first have A. See?
I said that this was a debate of science vs. science. And before my original intended argument turns into evolution, which is irrelevant, I really would like to get back to this. 
I expected you to at least move on to self ordering tendencies w/ my argument against amino acids and protiens being able to organize themselves, but you haven't. 
Why haven't we gotten into the guts of what a cell is really comprised of and why do you refuse to discuss this self organization?
I suggest that is because you know you must take a great leap of faith. Your very refusal to discuss these things is evidence that we should at least consider intelligent design.","http://www.4forums.com/political/creation-intelligent-design-vs-evolution/6121-evolution-creationism-whos-right.html",156586,161
"1-4061_29_28_4",4061,1,"2005-08-10 18:42:00",89,655,154263,"2005-08-10 18:25:00",168286,27,28,"I'm just waiting for you to show your source for the ""odds"" you quote, then I can prove to you that they're wrong.",168285,4,4061,1,"well so has anyone decided whos right?","http://www.4forums.com/political/creation-intelligent-design-vs-evolution/6121-evolution-creationism-whos-right.html",154256,29
"1-4061_30_29_4",4061,1,"2005-08-10 20:30:00",655,89,154296,"2005-08-10 18:42:00",168287,5,29,"what if theyre not wrong",168286,4,4061,1,"I'm just waiting for you to show your source for the ""odds"" you quote, then I can prove to you that they're wrong.","http://www.4forums.com/political/creation-intelligent-design-vs-evolution/6121-evolution-creationism-whos-right.html",154263,30
"1-4061_33_30_4",4061,1,"2005-08-11 04:39:00",89,655,154347,"2005-08-10 20:30:00",168290,55,30,"If they're not wrong then I'll conceed that ID might have a point. Now when I show you why they're wrong will you at least acknowledge that they're wrong?
And will you actually give a source, instead of dodging? It's time to make bread or get out of the kitchen.",168287,4,4061,1,"what if theyre not wrong","http://www.4forums.com/political/creation-intelligent-design-vs-evolution/6121-evolution-creationism-whos-right.html",154296,33
"1-4061_34_33_4",4061,1,"2005-08-11 11:21:00",655,89,154398,"2005-08-11 04:39:00",168291,63,33,"ok but thats when you prove that theyre wrong.. which is .... NEVER! i really dont care what you say becaause i know in the end i will be right. until then its our jobs as christians to make sure that everyone knows the truth.. then our consciences will be clear. oh and you forgot the yeast.",168290,4,4061,1,"If they're not wrong then I'll conceed that ID might have a point. Now when I show you why they're wrong will you at least acknowledge that they're wrong?
And will you actually give a source, instead of dodging? It's time to make bread or get out of the kitchen.","http://www.4forums.com/political/creation-intelligent-design-vs-evolution/6121-evolution-creationism-whos-right.html",154347,34
"1-4061_35_34_4",4061,1,"2005-08-11 11:29:00",89,655,154402,"2005-08-11 11:21:00",168292,85,34,"So you care more about dogma than truth.
You care more about blowing your own horn than backing up what you say.
Your failure to even attempt to back up what you say is simply convincing more people that what you say has no basis. If you're trying to show people ""the truth"" you are in fact having the opposite effect. You're not demonstrating the ""truth"" of your position, your demonstrating the weakness of it.",168291,4,4061,1,"ok but thats when you prove that theyre wrong.. which is .... NEVER! i really dont care what you say becaause i know in the end i will be right. until then its our jobs as christians to make sure that everyone knows the truth.. then our consciences will be clear. oh and you forgot the yeast.","http://www.4forums.com/political/creation-intelligent-design-vs-evolution/6121-evolution-creationism-whos-right.html",154398,35
"1-4061_132_129_5",4061,1,"2005-08-22 16:28:00",89,2016,156395,"2005-08-22 14:19:00",168389,131,129,"You've been playing fast and loose with this terminology, and it really has to stop. Evolution is the study of how populations change over time. The theory of evolution has been conclusively proven to be true. Abiogenesis is the study of how life started on this planet. There are no theories yes, just hypothesis. We know evolution is true. We know life started somehow, and we're trying to figure out the details. 
If you want to talk about how populations change, use the term evolution. If you want to talk about the process by which life started, call it by it's proper term, abiogenesis. Otherwise you're just adding another layer of confusion to the discussion.",168386,5,4061,1,"Isn't that the exact definition of why people have belief in evolution. Your funny. :p (ie. We don't know how it was done, but it happened, so even though we can't actually prove it, we must be right. 
So much for that theory.
Don't you see that is exactly what this debate is about! Neither side can prove a. evolution or b. a creator 100%
That is why my argument is : what is a more plausable explanation for the origin of life.","http://www.4forums.com/political/creation-intelligent-design-vs-evolution/6121-evolution-creationism-whos-right.html",156371,132
"1-4061_134_132_5",4061,1,"2005-08-22 17:45:00",2016,89,156447,"2005-08-22 16:28:00",168391,156,132,"emoticonXWow 
I was referring to evolution. You think it is fact and I don't think it is fact. In your own words and what I was laughing at:

still hilarious. closer to a fact does not make a fact. What don't you get about that? I think I've already asked you that.
Don't you see? Listen to what trebor said:

But hey, you think evolution is a fact, er I mean almost a fact( emoticonXRolleyes )? I have tried to keep this to one argument, but with the billions and billions of species in the world, you should be able to show me at least many many, but for now if you can show me just one scenario where the links take us from one species completely to another, I'd be happy to look at it and comment.",168389,5,4061,1,"You've been playing fast and loose with this terminology, and it really has to stop. Evolution is the study of how populations change over time. The theory of evolution has been conclusively proven to be true. Abiogenesis is the study of how life started on this planet. There are no theories yes, just hypothesis. We know evolution is true. We know life started somehow, and we're trying to figure out the details. 
If you want to talk about how populations change, use the term evolution. If you want to talk about the process by which life started, call it by it's proper term, abiogenesis. Otherwise you're just adding another layer of confusion to the discussion.","http://www.4forums.com/political/creation-intelligent-design-vs-evolution/6121-evolution-creationism-whos-right.html",156395,134
"1-4061_136_134_5",4061,1,"2005-08-22 18:52:00",89,2016,156456,"2005-08-22 17:45:00",168393,156,134,"Sigh. We, and by we I mean anyone who knows anything about the science of evolution, understand that the theory of evolution is 99.999% likely to be correct. The .001% basically is to allow for something utterly bizzare to appear out of nowhere and discount it. Based on that I'd call evolution a fact. What would you call it? 

We have the fossil record that goes from modern horses back to something that resembles a dog. Multiple examples are spelled out in the book ""The Beak of the Finch"". We have genetically determined that the whale's closest land based relative is the hippo. And of course people have taken boars and turned them into pigs, wolves into dogs, and wild fowl into chickens.
These are just the easy ones. There are literally millions of examples in the literature.",168391,5,4061,1,"emoticonXWow 
I was referring to evolution. You think it is fact and I don't think it is fact. In your own words and what I was laughing at:

still hilarious. closer to a fact does not make a fact. What don't you get about that? I think I've already asked you that.
Don't you see? Listen to what trebor said:

But hey, you think evolution is a fact, er I mean almost a fact( emoticonXRolleyes )? I have tried to keep this to one argument, but with the billions and billions of species in the world, you should be able to show me at least many many, but for now if you can show me just one scenario where the links take us from one species completely to another, I'd be happy to look at it and comment.","http://www.4forums.com/political/creation-intelligent-design-vs-evolution/6121-evolution-creationism-whos-right.html",156447,136
"1-4061_146_136_5",4061,1,"2005-08-23 06:47:00",2016,89,156543,"2005-08-22 18:52:00",168403,99,136,"LOL. Isn't that a little like me saying God exists because creationists say so?
If there are so many examples in literture, please point me in the right direction. I'm not really interested in micro evolution. We all know that that is a fact. So, no whales growing legs. What I want to see is just ONE example of one species turning into another. 
No matter how many times you say it is so, it doesn't make it so. You need to start backing up your assertation.",168393,5,4061,1,"Sigh. We, and by we I mean anyone who knows anything about the science of evolution, understand that the theory of evolution is 99.999% likely to be correct. The .001% basically is to allow for something utterly bizzare to appear out of nowhere and discount it. Based on that I'd call evolution a fact. What would you call it? 

We have the fossil record that goes from modern horses back to something that resembles a dog. Multiple examples are spelled out in the book ""The Beak of the Finch"". We have genetically determined that the whale's closest land based relative is the hippo. And of course people have taken boars and turned them into pigs, wolves into dogs, and wild fowl into chickens.
These are just the easy ones. There are literally millions of examples in the literature.","http://www.4forums.com/political/creation-intelligent-design-vs-evolution/6121-evolution-creationism-whos-right.html",156456,146
"1-4061_148_146_5",4061,1,"2005-08-23 07:01:00",89,2016,156548,"2005-08-23 06:47:00",168405,65,146,"Of course not. Scientists base their statements on observable facts and reasoning, which you can check up on. There's nothing similar backing up creationists claims.

I just gave you several. Do you literally mean that you only want one? Fine.
We have a fossil record showing a dog sized animal changing over time into the modern horse.",168403,5,4061,1,"LOL. Isn't that a little like me saying God exists because creationists say so?
If there are so many examples in literture, please point me in the right direction. I'm not really interested in micro evolution. We all know that that is a fact. So, no whales growing legs. What I want to see is just ONE example of one species turning into another. 
No matter how many times you say it is so, it doesn't make it so. You need to start backing up your assertation.","http://www.4forums.com/political/creation-intelligent-design-vs-evolution/6121-evolution-creationism-whos-right.html",156543,148
"1-4061_150_148_5",4061,1,"2005-08-23 07:29:00",2016,89,156552,"2005-08-23 07:01:00",168407,85,148,"No, no, lol. Again, please provide the proof. I keep getting knocked because I'm not providing proof of a creator (when all I'm actually trying to do is prove that a creator is a plausable theory) You need to be able to back up your claims with a reputuable source. If this is true, there should be any of number of websites and books dedicated to it. Please advise where to find this information.",168405,5,4061,1,"Of course not. Scientists base their statements on observable facts and reasoning, which you can check up on. There's nothing similar backing up creationists claims.

I just gave you several. Do you literally mean that you only want one? Fine.
We have a fossil record showing a dog sized animal changing over time into the modern horse.","http://www.4forums.com/political/creation-intelligent-design-vs-evolution/6121-evolution-creationism-whos-right.html",156548,150
"1-4061_153_150_5",4061,1,"2005-08-23 07:49:00",89,2016,156559,"2005-08-23 07:29:00",168410,179,150,"Seriously? I though this was common knowledge. Ok, here's a site with good photos of the fossils, showing the change over the course of 55 million years.
http://chem.tufts.edu/science/evolut...eEvolution.htm
If you don't think that this constitutes proof then please spell out, as exactly as you can, where you think the holes are. I have no idea what your educational background is, but there are clearly things that I think are common knowledge that you haven't heard, so I really don't know how much detail you need to be able to follow this.
BTW, since you keep claiming that your discussion isn't about evolution at all, I'll have no objections to your dropping this thread, if it'll give you the time to state what you position actually is on ID. If you have stated when and how this design was supposed to have happened I must have missed it. I'm much more interested in hearing about that than trying to explain evolution to you.",168407,5,4061,1,"No, no, lol. Again, please provide the proof. I keep getting knocked because I'm not providing proof of a creator (when all I'm actually trying to do is prove that a creator is a plausable theory) You need to be able to back up your claims with a reputuable source. If this is true, there should be any of number of websites and books dedicated to it. Please advise where to find this information.","http://www.4forums.com/political/creation-intelligent-design-vs-evolution/6121-evolution-creationism-whos-right.html",156552,153
