"key","quote_source_post_discussion_id","posts_dataset_id","posts_timestamp","posts_author_id","quote_source_author_id","posts_native_post_id","quote_source_timestamp","post_text_id","Word_Count","quote_source_post_id","post_text","quote_source_text_id","Dialog_Turn","posts_discussion_id","quote_source_post_dataset_id","Fullquote_text","discussion_url","quote_source_native_post_id","posts_post_id"
"1-4455_27_25_1",4455,1,"2005-10-17 11:53:00",87,2230,171725,"2005-10-17 11:39:00",189071,37,25,"I suggest you follow this link: http://www.talkorigins.org/faqs/faq-speciation.html. This will provide you with numerous instances of observed speciation. Not even the most ardent creationist could call the emergence of a new species 'micro-evolution'.",189069,1,4455,1,"It may be perfectly legitimate to make these inferences, but the point of the statement from wikipedia  was that micro-evolution is directly and (more importantly) currently observable. This seems to be a huge difference between macro and micro evolution, especially when one remembers the defintion of the scientific method.","http://www.4forums.com/political/creation-intelligent-design-vs-evolution/6634-evolution-schmevolution-jon-stewarts-daily-show-special.html",171721,27
"1-4455_30_27_1",4455,1,"2005-10-17 11:57:00",2230,87,171728,"2005-10-17 11:53:00",189074,44,27,"I appreciate the link, but I was hoping for ""sound bites"" which the general public would understand. Would you be able to list 3-4 of these instances (so that the common man would understand it)?",189071,1,4455,1,"I suggest you follow this link: http://www.talkorigins.org/faqs/faq-speciation.html. This will provide you with numerous instances of observed speciation. Not even the most ardent creationist could call the emergence of a new species 'micro-evolution'.","http://www.4forums.com/political/creation-intelligent-design-vs-evolution/6634-evolution-schmevolution-jon-stewarts-daily-show-special.html",171725,30
"1-4455_31_30_1",4455,1,"2005-10-17 12:01:00",87,2230,171732,"2005-10-17 11:57:00",189075,17,30,"The link already does this. You seem to have considerable contempt for the common man.",189074,1,4455,1,"I appreciate the link, but I was hoping for ""sound bites"" which the general public would understand. Would you be able to list 3-4 of these instances (so that the common man would understand it)?","http://www.4forums.com/political/creation-intelligent-design-vs-evolution/6634-evolution-schmevolution-jon-stewarts-daily-show-special.html",171728,31
"1-4455_33_31_1",4455,1,"2005-10-17 12:16:00",2230,87,171744,"2005-10-17 12:01:00",189077,20,31,"Well, yes, being one I do. However, did you mean to post this one? http://www.talkorigins.org/faqs/speciation.html",189075,1,4455,1,"The link already does this. You seem to have considerable contempt for the common man.","http://www.4forums.com/political/creation-intelligent-design-vs-evolution/6634-evolution-schmevolution-jon-stewarts-daily-show-special.html",171732,33
"1-4455_34_33_1",4455,1,"2005-10-17 12:26:00",87,2230,171752,"2005-10-17 12:16:00",189078,13,33,"No, oddly enough I meant to post the link I posted.",189077,1,4455,1,"Well, yes, being one I do. However, did you mean to post this one? http://www.talkorigins.org/faqs/speciation.html","http://www.4forums.com/political/creation-intelligent-design-vs-evolution/6634-evolution-schmevolution-jon-stewarts-daily-show-special.html",171744,34
"1-4455_35_34_1",4455,1,"2005-10-17 12:34:00",2230,87,171757,"2005-10-17 12:26:00",189079,11,34,"then I am going to need your help distilling it...",189078,1,4455,1,"No, oddly enough I meant to post the link I posted.","http://www.4forums.com/political/creation-intelligent-design-vs-evolution/6634-evolution-schmevolution-jon-stewarts-daily-show-special.html",171752,35
"1-4455_37_35_1",4455,1,"2005-10-17 12:53:00",87,2230,171762,"2005-10-17 12:34:00",189081,154,35,"Really? I wonder.
Section 5.1 deals with speciation events involving multiplication of chromosome number in plants. These are very well established and hard to dispute; it could, however, be claimed that they are limited to higher plants, and that the proposed mechanism is not observed in the animal kingdom.
Section 5.3 refers to observations of wild fruit fly populations, and is by far the most significant. According to neo-Darwinian theory, speciation is not a 0/1 digital event, but rather one characterised by very many degrees of separation. The fruit fly populations of South America give us freeze-frame pictures of a huge number of stages in the process, from the beginnings of post-zygotic isolation to fully fledged pre-zygotic.
Forgive my suspicious nature, but I am by no means convinced that you really needed this spelled out to you.",189079,1,4455,1,"then I am going to need your help distilling it...","http://www.4forums.com/political/creation-intelligent-design-vs-evolution/6634-evolution-schmevolution-jon-stewarts-daily-show-special.html",171757,37
"1-4455_39_37_1",4455,1,"2005-10-17 13:41:00",2230,87,171770,"2005-10-17 12:53:00",189083,29,37,"lol...thank you...but to be honest, I am still trying to understand your summary of the article.
no worries, I will get it",189081,1,4455,1,"Really? I wonder.
Section 5.1 deals with speciation events involving multiplication of chromosome number in plants. These are very well established and hard to dispute; it could, however, be claimed that they are limited to higher plants, and that the proposed mechanism is not observed in the animal kingdom.
Section 5.3 refers to observations of wild fruit fly populations, and is by far the most significant. According to neo-Darwinian theory, speciation is not a 0/1 digital event, but rather one characterised by very many degrees of separation. The fruit fly populations of South America give us freeze-frame pictures of a huge number of stages in the process, from the beginnings of post-zygotic isolation to fully fledged pre-zygotic.
Forgive my suspicious nature, but I am by no means convinced that you really needed this spelled out to you.","http://www.4forums.com/political/creation-intelligent-design-vs-evolution/6634-evolution-schmevolution-jon-stewarts-daily-show-special.html",171762,39
"1-4455_48_46_2",4455,1,"2005-10-19 10:47:00",87,2230,172251,"2005-10-18 14:15:00",189092,164,46,"The concept of 'species' is a human construct. Plant and animal populations in the wild do not have to conform to it, and all degrees of separation from 0% to 100% can be found.
I'm not sure why you've put ""mouse"" in quotes: the Faroe Islands Mouse is most certainly a mouse. By convention, it becomes a species in its own right, distinct from Mus musculus, when it is sufficiently reproductively isolated from Mus musculus for hybridisation between the two to fail to produce fertile offspring. In practice, this is not a clear-cut event, but quite long drawn out: commonly, hybrids first produce offspring of which one sex is fertile, the other sterile. This is when the Wallace Effect kicks in: individuals of either population that are pre-disposed to avoid hybridisation have a major reproductive advantage, and pre-zygotic isolation is quickly established.",189090,2,4455,1,"What new species was this ""mouse"" classified under? The same question for the new ""fish"" what species were they classified as?","http://www.4forums.com/political/creation-intelligent-design-vs-evolution/6634-evolution-schmevolution-jon-stewarts-daily-show-special.html",172062,48
"1-4455_49_48_2",4455,1,"2005-10-19 14:23:00",2230,87,172297,"2005-10-19 10:47:00",189093,54,48,"so mice are classified as mus musculus but within this classification there are further distinctions, ie mus musculus faeroensis?
a follow-up question - is the ""Wallace Effect"" reversable? has there ever been an instance where, over time, animals which have grown reproductively incompatible become compatible again?",189092,2,4455,1,"I'm not sure why you've put ""mouse"" in quotes: the Faroe Islands Mouse is most certainly a mouse. By convention, it becomes a species in its own right, distinct fromMus musculus, when it is sufficiently reproductively isolated from Mus musculus for hybridisation between the two to fail to produce fertile offspring. In practice, this is not a clear-cut event, but quite long drawn out: commonly, hybrids first produce offspring of which one sex is fertile, the other sterile. This is when the Wallace Effect kicks in: individuals of either population that are pre-disposed to avoid hybridisation have a major reproductive advantage, and pre-zygotic isolation is quickly established.","http://www.4forums.com/political/creation-intelligent-design-vs-evolution/6634-evolution-schmevolution-jon-stewarts-daily-show-special.html",172251,49
"1-4455_53_49_2",4455,1,"2005-10-20 10:10:00",87,2230,172538,"2005-10-19 14:23:00",189097,93,49,"The house mouse is Mus musculus. There are several other species of Mus, and numerous other genera broadly described as 'mice'. The wood mouse, for example, is Apodemus sylvaticus.
The Faroe Islands Mouse is a population that has diverged genetically from Mus musculus. When that divergence establishes reproductive isolation from the ancestral species, we will call it a species in its own right. But bear in mind that species are defined by humans, and the dividing lines are not clear-cut.",189093,2,4455,1,"so mice are classified asmus musculus but within this classification there are further distinctions, ie mus musculus faeroensis?","http://www.4forums.com/political/creation-intelligent-design-vs-evolution/6634-evolution-schmevolution-jon-stewarts-daily-show-special.html",172297,53
"1-4455_62_53_2",4455,1,"2005-10-21 12:19:00",2230,87,172856,"2005-10-20 10:10:00",189106,55,53,"two questions:
Is mouse a species? It seems that species is being defined here as what I had thought of as sub-categories of species, ie a wood mouse.
Also, you make defining a species sound very subjective. Is there not a good scientific definition that can be followed?",189097,2,4455,1,"The house mouse is Mus musculus. There are several other species of Mus, and numerous other genera broadly described as 'mice'. The wood mouse, for example, is Apodemus sylvaticus.
The Faroe Islands Mouse is a population that has diverged genetically from Mus musculus. When that divergence establishes reproductive isolation from the ancestral species, we will call it a species in its own right. But bear in mind that species are defined by humans, and the dividing lines are not clear-cut.","http://www.4forums.com/political/creation-intelligent-design-vs-evolution/6634-evolution-schmevolution-jon-stewarts-daily-show-special.html",172538,62
"1-4455_63_62_2",4455,1,"2005-10-21 12:35:00",87,2230,172860,"2005-10-21 12:19:00",189107,172,62,"The generic word 'mouse' - a small pointy-faced rodent - does not describe a species. If you captured males and females of the house mouse, the field mouse and the wood mouse, and put them together in all possible male/female combinations, you'd find house mice would mate only with house mice, field mice only with field mice, etc. The wood mouse is emphatically not a sub-category of some over-arching 'mouse', but rather a genus and species in its own right. (As a rough analogy, are humans a sub-category of ape?)

The only reliable scientific definition is the one I have given: a species is a population whose members are capable of mating to produce fertile offspring with each other, but not with other populations. In the real world, there are very many stages on the way to that condition. Look up South American Drosophila populations if in doubt.",189106,2,4455,1,"two questions:
Is mouse a species? It seems that species is being defined here as what I had thought of as sub-categories of species, ie a wood mouse.
Also, you make defining a species sound very subjective. Is there not a good scientific definition that can be followed?","http://www.4forums.com/political/creation-intelligent-design-vs-evolution/6634-evolution-schmevolution-jon-stewarts-daily-show-special.html",172856,63
"1-4455_65_63_2",4455,1,"2005-10-21 13:59:00",2230,87,172891,"2005-10-21 12:35:00",189109,5,63,"thanks for the clarification...",189107,2,4455,1,"The generic word 'mouse' - a small pointy-faced rodent - does not describe a species. If you captured males and females of the house mouse, the field mouse and the wood mouse, and put them together in all possible male/female combinations, you'd find house mice would mate only with house mice, field mice only with field mice, etc. The wood mouse is emphatically not a sub-category of some over-arching 'mouse', but rather a genus and species in its own right. (As a rough analogy, are humans a sub-category of ape?)

The only reliable scientific definition is the one I have given: a species is a population whose members are capable of mating to produce fertile offspring with each other, but not with other populations. In the real world, there are very many stages on the way to that condition. Look up South American Drosophila populations if in doubt.","http://www.4forums.com/political/creation-intelligent-design-vs-evolution/6634-evolution-schmevolution-jon-stewarts-daily-show-special.html",172860,65
"1-4455_108_105_3",4455,1,"2006-02-27 10:17:00",87,2230,200356,"2006-02-26 08:56:00",189152,63,105,"I assumed no such thing. Read the post again.

But when it comes to contemporary observations of degrees of reproductive isolation between overlapping Drosophila populations, we are seeing speciation happening now, and there is no need to turn to 'areas of historical examination'. This is your straw man, and not a very persuasive one.",189149,3,4455,1,"In regard to your ""clamouring"" students. Why are you assuming that I do not think it is important to teach the effects of prezygotic and postzygotic isolation? Of course this would be taught, it is currently observable and repeatable.
Because something ""concerns"" itself with a currently observable process does not mean we study it in science class. Just because we can observe boats crossing the Deleware River does not mean that we teach that Washington crossed the Deleware in science class.
Likewise, prezygotic and postzygotic isolation currently affect how traits evolve in species...this should be taught in science class. Did these mechanisms cause a fish to turn into a land based mammal? We have not seen it happen, so we must turn to areas of historical examination.
Experts must then present complex theories based on these historical examinations. However, these theories simply cannot be scientificly tested. It is these theories of the past that I am suggesting we move to a historical worldview class.","http://www.4forums.com/political/creation-intelligent-design-vs-evolution/6634-evolution-schmevolution-jon-stewarts-daily-show-special.html",200240,108
"1-4455_109_108_3",4455,1,"2006-02-27 13:37:00",2230,87,200381,"2006-02-27 10:17:00",189153,65,108,"Please explain what you mean when you say, ""but then, when clamouring to know what happens next, would have to be referred elsewhere."" I had assumed ""what happens next"" meant ""effects.""

Again, as it is observable and testable, the extensive and ongoing research of the Dropsophila would remain in science class.",189152,3,4455,1,"I assumed no such thing. Read the post again.

But when it comes to contemporary observations of degrees of reproductive isolation between overlapping Drosophila populations, we are seeing speciation happening now, and there is no need to turn to 'areas of historical examination'. This is your straw man, and not a very persuasive one.","http://www.4forums.com/political/creation-intelligent-design-vs-evolution/6634-evolution-schmevolution-jon-stewarts-daily-show-special.html",200356,109
"1-4455_111_109_3",4455,1,"2006-03-03 09:42:00",87,2230,200959,"2006-02-27 13:37:00",189155,24,109,"And would we be allowed to call the observed degree of genetic separation between D. willistoni willistoni and D. willistoni quechua incipient speciation?",189153,3,4455,1,"Again, as it is observable and testable, the extensive and ongoing research of theDropsophila would remain in science class.","http://www.4forums.com/political/creation-intelligent-design-vs-evolution/6634-evolution-schmevolution-jon-stewarts-daily-show-special.html",200381,111
"1-4455_113_111_3",4455,1,"2006-03-04 09:58:00",2230,87,201113,"2006-03-03 09:42:00",189157,26,111,"Yes, the theory (or is it currently considered a hypothesis?) that this observation is incipient speciation would studied in science class.",189155,3,4455,1,"And would we be allowed to call the observed degree of genetic separation between D. willistoni willistoni and D. willistoni quechua incipient speciation?","http://www.4forums.com/political/creation-intelligent-design-vs-evolution/6634-evolution-schmevolution-jon-stewarts-daily-show-special.html",200959,113
"1-4455_118_113_3",4455,1,"2006-03-05 03:07:00",87,2230,201203,"2006-03-04 09:58:00",189162,5,113,"Then what happened to

?",189157,3,4455,1,"Yes, the theory (or is it currently considered a hypothesis?) that this observation is incipient speciation would studied in science class.","http://www.4forums.com/political/creation-intelligent-design-vs-evolution/6634-evolution-schmevolution-jon-stewarts-daily-show-special.html",201113,118
"1-4455_12_6_4",4455,1,"2005-10-16 06:31:00",90,2230,171262,"2005-10-15 15:26:00",189056,34,6,"A question for you, ender_krum.
Does your above statement matter?
Evolution is worthy knowledge alone as an explaination of the history of change in life on this planet.",189050,4,4455,1,"You are right. In fact, I looked up Mendel in wikipedia and found out I was wrong on more than one account. Mendel didn't predate Darwin at all...they were contemporaries. (High school biology is much too far away for me to try to make educated assertions on this subject.) I need to read more on this before making further comments.
So, back to my question...what scientific breakthroughs has evolution given us?
1. Medical testing on mice and monkeys.","http://www.4forums.com/political/creation-intelligent-design-vs-evolution/6634-evolution-schmevolution-jon-stewarts-daily-show-special.html",171157,12
"1-4455_15_12_4",4455,1,"2005-10-16 19:38:00",2230,90,171518,"2005-10-16 06:31:00",189059,70,12,"I am asking this question because in the clip (available here), Dr. Larson was upset that a theory which has accomplished ""all the breakthroughs in medicine and biotechnology...over the past hundred years"" be put on the same level as non-scientific theories. He was the one that emphasized this...not me. I am merely trying to flush these advancements out.",189056,4,4455,1,"A question for you, ender_krum.
Does your above statement matter?
Evolution is worthy knowledge alone as an explaination of the history of change in life on this planet.","http://www.4forums.com/political/creation-intelligent-design-vs-evolution/6634-evolution-schmevolution-jon-stewarts-daily-show-special.html",171262,15
"1-4455_23_15_4",4455,1,"2005-10-17 10:26:00",90,2230,171688,"2005-10-16 19:38:00",189067,108,15,"I'm not convinced that Larson was attributing ""all the breakthroughs in medicine and biotechnology...over the past hundred years"" to evolution specifically but more too the scientific method as a whole. In this regard he is 100% correct to be upset that ID be given equal standing to a process that has built our understanding and world.

See above, but I reiterate my initial point: why does it matter if evolution has contributed nothing to scientific advancement except an understanding of the nature of life over time and space?
That is a question I would like you to answer.",189059,4,4455,1,"I am asking this question because in the clip (available here), Dr. Larson was upset that a theory which has accomplished ""all the breakthroughs in medicine and biotechnology...over the past hundred years"" be put on the same level as non-scientific theories. He was the one that emphasized this...not me. I am merely trying to flush these advancements out.","http://www.4forums.com/political/creation-intelligent-design-vs-evolution/6634-evolution-schmevolution-jon-stewarts-daily-show-special.html",171518,23
"1-4455_26_23_4",4455,1,"2005-10-17 11:49:00",2230,90,171724,"2005-10-17 10:26:00",189070,72,23,"But he did...did you watch the video?

Seriously? Then what is the difference between evolution and mystical creationism? This view also presents a ""an understanding of the nature of life over time and space.""
But again...this is how he differentiated evolution from the other two views presented. I did not make this question up, seriously, watch the clip.",189067,4,4455,1,"I'm not convinced that Larson was attributing ""all the breakthroughs in medicine and biotechnology...over the past hundred years"" to evolution specifically but more too the scientific method as a whole. In this regard he is 100% correct to be upset that ID be given equal standing to a process that has built our understanding and world.

See above, but I reiterate my initial point: why does it matter if evolution has contributed nothing to scientific advancement except an understanding of the nature of life over time and space?
That is a question I would like you to answer.","http://www.4forums.com/political/creation-intelligent-design-vs-evolution/6634-evolution-schmevolution-jon-stewarts-daily-show-special.html",171688,26
"1-4455_51_26_4",4455,1,"2005-10-20 08:47:00",90,2230,172518,"2005-10-17 11:49:00",189095,157,26,"Off course, but for your benefit I've transcribed the section that you are citing:

So I don't think that it is unreasonable to assert that Dr Larson was refering to the scientific method as a whole as the source of the breakthoughs he gives. Perhaps if you could produce some of Larsons opinion on the matter at greater length rather than a few minutes of soundbites on a somewhat combative discussion show we might see if your interpretation is accurate. I think it isn't for the reasons I've given.

""Mystical creationism"" is based upon supersitition and belief/faith in that which has no supporting physical evidence. The scientific view is based upon observation, analysis and interpretation of the real and tangible. If you think the former is somehow more valid than the latter in this instance I'd be interested to hear why.

See above.",189070,4,4455,1,"But he did...did you watch the video?

Seriously? Then what is the difference between evolution and mystical creationism? This view also presents a ""an understanding of the nature of life over time and space.""
But again...this is how he differentiated evolution from the other two views presented. I did not make this question up, seriously, watch the clip.","http://www.4forums.com/political/creation-intelligent-design-vs-evolution/6634-evolution-schmevolution-jon-stewarts-daily-show-special.html",171724,51
"1-4455_64_51_4",4455,1,"2005-10-21 13:57:00",2230,90,172890,"2005-10-20 08:47:00",189108,118,51,"First, I guess we simply disagree about whether he was referring to evolution or science in general. I thought he was speaking about evolution, but I guess I could be wrong.
To address your comments above, originally you said ""why does it matter if evolution has contributed nothing to scientific advancement except an understanding of the nature of life over time and space?"". My point was that many worldviews give ""an understanding of the nature of life over time and space,"" many which are false. What is important is if evolution proves to be scientific...rather than simlpy a way of understanding life.",189095,4,4455,1,"Off course, but for your benefit I've transcribed the section that you are citing:

So I don't think that it is unreasonable to assert that Dr Larson was refering to the scientific method as a whole as the source of the breakthoughs he gives. Perhaps if you could produce some of Larsons opinion on the matter at greater length rather than a few minutes of soundbites on a somewhat combative discussion show we might see if your interpretation is accurate. I think it isn't for the reasons I've given.

""Mystical creationism"" is based upon supersitition and belief/faith in that which has no supporting physical evidence. The scientific view is based upon observation, analysis and interpretation of the real and tangible. If you think the former is somehow more valid than the latter in this instance I'd be interested to hear why.

See above.","http://www.4forums.com/political/creation-intelligent-design-vs-evolution/6634-evolution-schmevolution-jon-stewarts-daily-show-special.html",172518,64
"1-4455_76_64_4",4455,1,"2005-10-23 08:31:00",90,2230,173408,"2005-10-21 13:57:00",189120,63,64,"An usual assertion to suggest that evolution needs to be proven to be scientific.
Evolution is a product of the scientific process- I don't think there is a reasonable arguement against that- and as such is inherently scientific.
So I think we confidently can set it apart from faith based interpretations of the development of life over time.",189108,4,4455,1,"First, I guess we simply disagree about whether he was referring to evolution or science in general. I thought he was speaking about evolution, but I guess I could be wrong.
To address your comments above, originally you said ""why does it matter if evolution has contributed nothing to scientific advancement except an understanding of the nature of life over time and space?"". My point was that many worldviews give ""an understanding of the nature of life over time and space,"" many which are false. What is important is if evolution proves to be scientific...rather than simlpy a way of understanding life.","http://www.4forums.com/political/creation-intelligent-design-vs-evolution/6634-evolution-schmevolution-jon-stewarts-daily-show-special.html",172890,76
"1-4455_77_76_4",4455,1,"2005-10-23 18:04:00",2230,90,173533,"2005-10-23 08:31:00",189121,63,76,"An unusual prinicple, that a theory need not be proved.
Anyways (though the survival/sexual aspect of body hair is a facinating topic), I am still curious as to whether speciation is reversable.
Also, an example of speciation given above was field and house mice. Could one artificialy ensimenate between these groups? thx",189120,4,4455,1,"An usual assertion to suggest that evolution needs to be proven to be scientific.
Evolution is a product of the scientific process- I don't think there is a reasonable arguement against that- and as such is inherently scientific.
So I think we confidently can set it apart from faith based interpretations of the development of life over time.","http://www.4forums.com/political/creation-intelligent-design-vs-evolution/6634-evolution-schmevolution-jon-stewarts-daily-show-special.html",173408,77
