"key","quote_source_post_discussion_id","posts_dataset_id","posts_timestamp","posts_author_id","quote_source_author_id","posts_native_post_id","quote_source_timestamp","post_text_id","Word_Count","quote_source_post_id","post_text","quote_source_text_id","Dialog_Turn","posts_discussion_id","quote_source_post_dataset_id","Fullquote_text","discussion_url","quote_source_native_post_id","posts_post_id"
"1-5221_15_14_1",5221,1,"2006-04-01 19:09:00",81,1367,205102,"2006-04-01 19:04:00",219168,49,14,"But, then again, any 'scripture' you don't like isn't ""TRUE"" scripture.
Most of the books you call 'scripture' wasn't even written when 2 timoty was written.
You reject much scripture.. yet you quote that. How ironic.",219167,1,5221,1,"It was more than ""reporting"". All scripture is ""God breathed"" - Biblical writers were inspired by God. They didn't seem to be very inspired to elevate themselves, as almost any author does. To me, a good source for information is one that doesn't seek to promote itself.","http://www.4forums.com/political/creation-intelligent-design-vs-evolution/7645-question-creationists.html",205099,15
"1-5221_16_15_1",5221,1,"2006-04-01 19:21:00",1367,81,205103,"2006-04-01 19:09:00",219169,23,15,"What scripture have I indicated that I don't like? What books have I called scripture? What scripture have I rejected?",219168,1,5221,1,"But, then again, any 'scripture' you don't like isn't ""TRUE"" scripture.
Most of the books you call 'scripture' wasn't even written when 2 timoty was written.
You reject much scripture.. yet you quote that. How ironic.","http://www.4forums.com/political/creation-intelligent-design-vs-evolution/7645-question-creationists.html",205102,16
"1-5221_17_16_1",5221,1,"2006-04-01 19:43:00",81,1367,205105,"2006-04-01 19:21:00",219170,56,16,"Let's see.
Gospel of JUdas, Book of the Mormon, Gospel of Mary> , Tobias, Judith, 1st and second macabees, wisdom, baruch, the sophia of Jesus Christ, , the gospel of thomas, the gospel of truth. the gospel of phllip.
Shall I continue?",219169,1,5221,1,"What scripture have I indicated that I don't like? What books have I called scripture? What scripture have I rejected?","http://www.4forums.com/political/creation-intelligent-design-vs-evolution/7645-question-creationists.html",205103,17
"1-5221_18_17_1",5221,1,"2006-04-01 20:43:00",1367,81,205106,"2006-04-01 19:43:00",219171,72,17,"Yes, when you can show the threads and post numbers where I have referred to all this. 
There is good reason for the Bible to be arranged as is commonly accepted today. From ""How Reliable Is The Bible"", by Judson Poling;

That's good enough for me. Now you don't have to guess at what I reject or accept concerning scripture, and why.",219170,1,5221,1,"Let's see.
Gospel of JUdas, Book of the Mormon, Gospel of Mary> , Tobias, Judith, 1st and second macabees, wisdom, baruch, the sophia of Jesus Christ, , the gospel of thomas, the gospel of truth. the gospel of phllip.
Shall I continue?","http://www.4forums.com/political/creation-intelligent-design-vs-evolution/7645-question-creationists.html",205105,18
"1-5221_19_18_1",5221,1,"2006-04-01 20:54:00",81,1367,205109,"2006-04-01 20:43:00",219172,163,18,"Well, you know.. Judson was quite wrong about the 'new testament books'. Many were, but not all.
And, you are rejecting many of the scriptures. despite the fact one of your scriptures (2 timothy) says not to, and 2nd timothy was written between 100 and 150 C.E, which directly contradicts the claim of Judson Poling
For that matter, the Gospel of john, 1st john and second john all were written after 90, and perhaps as late as 120. 
Judith and Baruch were written in the bc time frame, with Baruch being about 200 B.C. and Judith was written proably between 160 BC and 140 BC.
So, your 'rational' is based on misinfomration. And it means that you 'pick and choose' what is 'scripture'.. It makes your quoting of 2 timothy totally irrelavant and hipocrytical.",219171,1,5221,1,"Yes, when you can show the threads and post numbers where I have referred to all this. 
There is good reason for the Bible to be arranged as is commonly accepted today. From ""How Reliable Is The Bible"", by Judson Poling;

That's good enough for me. Now you don't have to guess at what I reject or accept concerning scripture, and why.","http://www.4forums.com/political/creation-intelligent-design-vs-evolution/7645-question-creationists.html",205106,19
"1-5221_22_19_1",5221,1,"2006-04-02 06:54:00",1367,81,205140,"2006-04-01 20:54:00",219175,32,19,"What is YOUR source? Where can one obtain a copy of the Bible that you believe is correct?
Why are timelines so important - were they having a race?",219172,1,5221,1,"Well, you know.. Judson was quite wrong about the 'new testament books'. Many were, but not all.
And, you are rejecting many of the scriptures. despite the fact one of your scriptures (2 timothy) says not to, and 2nd timothy was written between 100 and 150 C.E, which directly contradicts the claim of Judson Poling
For that matter, the Gospel of john, 1st john and second john all were written after 90, and perhaps as late as 120. 
Judith and Baruch were written in the bc time frame, with Baruch being about 200 B.C. and Judith was written proably between 160 BC and 140 BC.
So, your 'rational' is based on misinfomration. And it means that you 'pick and choose' what is 'scripture'.. It makes your quoting of 2 timothy totally irrelavant and hipocrytical.","http://www.4forums.com/political/creation-intelligent-design-vs-evolution/7645-question-creationists.html",205109,22
"1-5221_25_22_2",5221,1,"2006-04-02 12:11:00",91,1367,205180,"2006-04-02 06:54:00",219178,121,22,"Well, I'm not sure that he claimed that it was ""correct,"" only that you pick and choose what you want to believe is ""inspired scripture."" However, between 382 and 405, St. Jerome translated the Bible from the original Greek and Hebrew into Latin. That compliation was considered as ""The Bible"" from then until Protestant sects started throwing out parts that didn't quite fit their revised christian theology. You can still get copies of St. Jerome's Bible. It's known as the Vulgate. Check it out. You'll find that it contains several books that probably aren't in the Bible that you have declared to be inspired.",219175,2,5221,1,"What is YOUR source? Where can one obtain a copy of the Bible that you believe is correct?
Why are timelines so important - were they having a race?","http://www.4forums.com/political/creation-intelligent-design-vs-evolution/7645-question-creationists.html",205140,25
"1-5221_26_25_2",5221,1,"2006-04-06 16:09:00",1367,91,205853,"2006-04-02 12:11:00",219179,19,25,"I think you're trying to re-write history.

http://www.parbarwestward.org/frmApocrypha.htm
I'm not the one doing the picking and choosing.",219178,2,5221,1,"Well, I'm not sure that he claimed that it was ""correct,"" only that you pick and choose what you want to believe is ""inspired scripture."" However, between 382 and 405, St. Jerome translated the Bible from the original Greek and Hebrew into Latin. That compliation was considered as ""The Bible"" from then until Protestant sects started throwing out parts that didn't quite fit their revised christian theology. You can still get copies of St. Jerome's Bible. It's known as the Vulgate. Check it out. You'll find that it contains several books that probably aren't in the Bible that you have declared to be inspired.","http://www.4forums.com/political/creation-intelligent-design-vs-evolution/7645-question-creationists.html",205180,26
"1-5221_27_26_2",5221,1,"2006-04-06 17:03:00",91,1367,205871,"2006-04-06 16:09:00",219180,34,26,"No. You are just a sheep following a ""ministry"" in it's efforts to justify the elimination of scripture that they find contrary to what they want god's word to say.",219179,2,5221,1,"I think you're trying to re-write history.

http://www.parbarwestward.org/frmApocrypha.htm
I'm not the one doing the picking and choosing.","http://www.4forums.com/political/creation-intelligent-design-vs-evolution/7645-question-creationists.html",205853,27
"1-5221_28_27_2",5221,1,"2006-04-06 17:41:00",1367,91,205882,"2006-04-06 17:03:00",219181,32,27,"I'm a Luthuran. Martin Luther's works have been around a lot longer than Darwin's. (Luther was mentioned in the link, in case you didn't read it.)",219180,2,5221,1,"No. You are just a sheep following a ""ministry"" in it's efforts to justify the elimination of scripture that they find contrary to what they want god's word to say.","http://www.4forums.com/political/creation-intelligent-design-vs-evolution/7645-question-creationists.html",205871,28
"1-5221_29_28_2",5221,1,"2006-04-06 17:56:00",91,1367,205885,"2006-04-06 17:41:00",219182,25,28,"What does the fact that Protestants (including Lutherans) edited the Bible when they wanted to change Christianity have to do with Darwin?",219181,2,5221,1,"I'm a Luthuran. Martin Luther's works have been around a lot longer than Darwin's. (Luther was mentioned in the link, in case you didn't read it.)","http://www.4forums.com/political/creation-intelligent-design-vs-evolution/7645-question-creationists.html",205882,29
"1-5221_30_29_2",5221,1,"2006-04-06 18:01:00",1367,91,205887,"2006-04-06 17:56:00",219183,34,29,"The ""editing"" has been going on with a lot more thought and a lot more people involved than the editing of worldviews by the sheep who follow the ministry of Darwin.",219182,2,5221,1,"What does the fact that Protestants (including Lutherans) edited the Bible when they wanted to change Christianity have to do with Darwin?","http://www.4forums.com/political/creation-intelligent-design-vs-evolution/7645-question-creationists.html",205885,30
"1-5221_31_30_2",5221,1,"2006-04-06 18:29:00",91,1367,205892,"2006-04-06 18:01:00",219184,29,30,"Again, what does Darwin have to do with it? And what does he have to do with ""world view"", mine or anyone elses?",219183,2,5221,1,"The ""editing"" has been going on with a lot more thought and a lot more people involved than the editing of worldviews by the sheep who follow the ministry of Darwin.","http://www.4forums.com/political/creation-intelligent-design-vs-evolution/7645-question-creationists.html",205887,31
"1-5221_32_31_2",5221,1,"2006-04-06 18:43:00",1367,91,205897,"2006-04-06 18:29:00",219185,80,31,"Darwinism is a basic foundation of those who question the Bible, who attack and question scriptural inspiration, who call Christians ""sheep"", while never calling Darwinists (themselves) ""sheep"".
The word ""worldview"" bridges a gap that the word religion arguably doesn't. To say that you have no religion implies that you aren't a ""sheep"", but the word worldview shows that we're all ""sheep"".",219184,2,5221,1,"Again, what does Darwin have to do with it? And what does he have to do with ""world view"", mine or anyone elses?","http://www.4forums.com/political/creation-intelligent-design-vs-evolution/7645-question-creationists.html",205892,32
"1-5221_34_32_2",5221,1,"2006-04-06 20:22:00",91,1367,205905,"2006-04-06 18:43:00",219187,12,32,"Jeez, marc. Wipe the foam off of your mouth.",219185,2,5221,1,"Darwinism is a basic foundation of those who question the Bible, who attack and question scriptural inspiration, who call Christians ""sheep"", while never calling Darwinists (themselves) ""sheep"".
The word ""worldview"" bridges a gap that the word religion arguably doesn't. To say that you have no religion implies that you aren't a ""sheep"", but the word worldview shows that we're all ""sheep"".","http://www.4forums.com/political/creation-intelligent-design-vs-evolution/7645-question-creationists.html",205897,34
"1-5221_46_44_3",5221,1,"2006-04-10 16:31:00",1367,91,206507,"2006-04-10 12:51:00",219199,39,44,"How come you didn't climb on him for his spelling like you do me?? emoticonXCry 

I've read it, and I know how it relates to the rest of Christ's teachings / the rest of the Bible.",219197,3,5221,1,"Gee, guys. Go easy on Marc. He's never read John 10.","http://www.4forums.com/political/creation-intelligent-design-vs-evolution/7645-question-creationists.html",206454,46
"1-5221_48_46_3",5221,1,"2006-04-10 17:13:00",91,1367,206516,"2006-04-10 16:31:00",219201,20,46,"Great. Then you know that in it Jesus compares himself to that shepherd and his followers to sheep.",219199,3,5221,1,"I've read it,...","http://www.4forums.com/political/creation-intelligent-design-vs-evolution/7645-question-creationists.html",206507,48
"1-5221_49_48_3",5221,1,"2006-04-10 17:17:00",1367,91,206519,"2006-04-10 17:13:00",219202,8,48,"If only Richard Dawkins was that honest.",219201,3,5221,1,"Great. Then you know that in it Jesus compares himself to that shepherd and his followers to sheep.","http://www.4forums.com/political/creation-intelligent-design-vs-evolution/7645-question-creationists.html",206516,49
"1-5221_50_49_3",5221,1,"2006-04-14 21:16:00",91,1367,207329,"2006-04-10 17:17:00",219203,37,49,"Great! Then you are aware that your denials of the comparison of christians to sheep are based on a fundamental ignorance of scripture. Either that, or you are less honest that Richard Dawkins.",219202,3,5221,1,"If only Richard Dawkins was that honest.","http://www.4forums.com/political/creation-intelligent-design-vs-evolution/7645-question-creationists.html",206519,50
"1-5221_52_50_3",5221,1,"2006-04-17 17:41:00",1367,91,207991,"2006-04-14 21:16:00",219205,77,50,"I've never denied that Christians aren't sheep. They're just labeled that way by atheists to downgrade them, rather than address their points. The reason It's ad hom more than anything else, is that atheists are sheep in exactly the same way. It's the pot calling the kettle black. Science is one of your many shephards. The definition of science shifts around, just like the definition of evolution does.",219203,3,5221,1,"Great! Then you are aware that your denials of the comparison of christians to sheep are based on a fundamental ignorance of scripture. Either that, or you are less honest that Richard Dawkins.","http://www.4forums.com/political/creation-intelligent-design-vs-evolution/7645-question-creationists.html",207329,52
