"key","quote_source_post_discussion_id","posts_dataset_id","posts_timestamp","posts_author_id","quote_source_author_id","posts_native_post_id","quote_source_timestamp","post_text_id","Word_Count","quote_source_post_id","post_text","quote_source_text_id","Dialog_Turn","posts_discussion_id","quote_source_post_dataset_id","Fullquote_text","discussion_url","quote_source_native_post_id","posts_post_id"
"1-6192_92_91_1",6192,1,"2006-11-15 12:37:00",696,75,239930,"2006-11-14 17:48:00",260307,42,91,"True, but if it can be shown that a ""better"" universe could exist, then it would follow that no omnibenevolent, omnipotent god exists, as that god would have made the universe better than it is.",260306,1,6192,1,"Good God (NPI). You guys have been hopelessly bound in speculation for the last 30 posts or so.","http://www.4forums.com/political/creation-intelligent-design-vs-evolution/9034-could-god-really-exist.html",239812,92
"1-6192_93_92_1",6192,1,"2006-11-15 13:08:00",75,696,239933,"2006-11-15 12:37:00",260308,122,92,"Okay, let me tell you as someone who by no means believes in Christianity that your point is just stupid. You simply don't know what God's intentions are. I design my own situations with a map editor for the computer game Operation Flashpoint. I can make the situations better any time I want, and I can make the situations more realistic... but I don't because I don't want to.
You and UnkerPaulie have gone waaay beyond the core of the argument: what was God intending. Since you simply don't and can't know, it's utterly senseless to say the concept of God has been disproven by a universe He chose to create.",260307,1,6192,1,"True, but if it can be shown that a ""better"" universe could exist, then it would follow that no omnibenevolent, omnipotent god exists, as that god would have made the universe better than it is.","http://www.4forums.com/political/creation-intelligent-design-vs-evolution/9034-could-god-really-exist.html",239930,93
"1-6192_94_93_1",6192,1,"2006-11-15 13:57:00",696,75,239943,"2006-11-15 13:08:00",260309,89,93,"The key is that the bible claims that he loves everyone. A god without this characteristic would have no problem with the argument from evil. Similarly, the argument from evil does not refute the existance of a non-omnipotent god.
I am trying to show that there is no god who has both of these characteristics (omnibenevolence and omnipotence). A god with both those characters (in full) would not have created a universe with any more unhappiness than absolutely necessary.",260308,1,6192,1,"Okay, let me tell you as someone who by no means believes in Christianity that your point is just stupid. You simply don't know what God's intentions are. I design my own situations with a map editor for the computer game Operation Flashpoint. I can make the situations better any time I want, and I can make the situations more realistic... but I don't because I don't want to.
You and UnkerPaulie have gone waaay beyond the core of the argument: what was God intending. Since you simply don't and can't know, it's utterly senseless to say the concept of God has been disproven by a universe He chose to create.","http://www.4forums.com/political/creation-intelligent-design-vs-evolution/9034-could-god-really-exist.html",239933,94
"1-6192_95_94_1",6192,1,"2006-11-15 14:26:00",75,696,239950,"2006-11-15 13:57:00",260310,23,94,"Who are you, as a non-omni[anything] yourself, one to judge what a necessary level of happiness is?",260309,1,6192,1,"The key is that the bible claims that he loves everyone. A god without this characteristic would have no problem with the argument from evil. Similarly, the argument from evil does not refute the existance of a non-omnipotent god.
I am trying to show that there is no god who has both of these characteristics (omnibenevolence and omnipotence). A god with both those characters (in full) would not have created a universe with any more unhappiness than absolutely necessary.","http://www.4forums.com/political/creation-intelligent-design-vs-evolution/9034-could-god-really-exist.html",239943,95
"1-6192_96_95_1",6192,1,"2006-11-15 14:46:00",696,75,239955,"2006-11-15 14:26:00",260311,23,95,"The ideal level of happiness would be one where unhappiness was all but nonexistant. That is not the case, currently.",260310,1,6192,1,"Who are you, as a non-omni[anything] yourself, one to judge what a necessary level of happiness is?","http://www.4forums.com/political/creation-intelligent-design-vs-evolution/9034-could-god-really-exist.html",239950,96
