"key","quote_source_post_discussion_id","posts_dataset_id","posts_timestamp","posts_author_id","quote_source_author_id","posts_native_post_id","quote_source_timestamp","post_text_id","Word_Count","quote_source_post_id","post_text","quote_source_text_id","Dialog_Turn","posts_discussion_id","quote_source_post_dataset_id","Fullquote_text","discussion_url","quote_source_native_post_id","posts_post_id"
"1-6468_7_5_1",6468,1,"2007-01-03 14:21:00",2581,44,245734,"2007-01-03 14:16:00",272031,65,5,"I did not come on here to talk about Dr. Lipton's spiritual beliefs. My OP is about how evolutionists have developed a whole theory based on the fraudulent premise that genes control everything. How many times have you head ""it's in the genes""? But how can genes control anything if they don't even control the cell they reside in?",272029,1,6468,1,"Are you sure you want to hitch your wagon to a New Age Buddhist? So I resemble my father because we live in the same town or because I imagine I want to or should? I'm confused.emoticonXBanghead","http://www.4forums.com/political/creation-intelligent-design-vs-evolution/9401-toe-biggest-fraud-all-time.html",245729,7
"1-6468_9_7_1",6468,1,"2007-01-03 14:31:00",44,2581,245738,"2007-01-03 14:21:00",272033,7,7,"You don't believe in inherited traits?",272031,1,6468,1,"I did not come on here to talk about Dr. Lipton's spiritual beliefs. My OP is about how evolutionists have developed a whole theory based on the fraudulent premise that genes control everything. How many times have you head ""it's in the genes""? But how can genes control anything if they don't even control the cell they reside in?","http://www.4forums.com/political/creation-intelligent-design-vs-evolution/9401-toe-biggest-fraud-all-time.html",245734,9
"1-6468_10_9_1",6468,1,"2007-01-03 15:16:00",2581,44,245756,"2007-01-03 14:31:00",272034,85,9,"yes but that does not mean that genes are in control of these traits. Remember the ""car key"" analogy? Don't get confused with correlation and causation. Genes are just tools that the body uses. They are correlated with traits but they themselves are not the cause. And like I said, if genes aren't even in control of the cell in which they reside, how could they be in control of anything else in the body?",272033,1,6468,1,"You don't believe in inherited traits?","http://www.4forums.com/political/creation-intelligent-design-vs-evolution/9401-toe-biggest-fraud-all-time.html",245738,10
"1-6468_11_10_1",6468,1,"2007-01-03 15:25:00",44,2581,245759,"2007-01-03 15:16:00",272035,17,10,"So what do you believe is the mechanism passing traits from one generation to the next?",272034,1,6468,1,"yes but that does not mean that genes are in control of these traits. Remember the ""car key"" analogy? Don't get confused with correlation and causation. Genes are just tools that the body uses. They are correlated with traits but they themselves are not the cause. And like I said, if genes aren't even in control of the cell in which they reside, how could they be in control of anything else in the body?","http://www.4forums.com/political/creation-intelligent-design-vs-evolution/9401-toe-biggest-fraud-all-time.html",245756,11
"1-6468_12_11_1",6468,1,"2007-01-03 15:27:00",2581,44,245760,"2007-01-03 15:25:00",272036,52,11,"It's called the miracle of life, brotha! Life is non-scientific and no mechanism can be ascribed to it. You may be able to watch new traits form or emerge in offspring, but how it happens will always remain a mystery...just like mystery of life itself.",272035,1,6468,1,"So what do you believe is the mechanism passing traits from one generation to the next?","http://www.4forums.com/political/creation-intelligent-design-vs-evolution/9401-toe-biggest-fraud-all-time.html",245759,12
"1-6468_14_12_1",6468,1,"2007-01-03 15:41:00",44,2581,245764,"2007-01-03 15:27:00",272038,23,12,"I'm fairly certain that no miracle is involved with the fact that my eye color is exactly the same as my father's.",272036,1,6468,1,"It's called the miracle of life, brotha! Life is non-scientific and no mechanism can be ascribed to it. You may be able to watch new traits form or emerge in offspring, but how it happens will always remain a mystery...just like mystery of life itself.","http://www.4forums.com/political/creation-intelligent-design-vs-evolution/9401-toe-biggest-fraud-all-time.html",245760,14
"1-6468_16_14_1",6468,1,"2007-01-03 18:17:00",2581,44,245790,"2007-01-03 15:41:00",272040,48,14,"Maybe so...but let's change it up. How do you explain that butterflys emerge with different traits according to which season/which environment they are born in? what is that mechanism?...the people who did the study don't evidently know.
http://www.arachnology.org/monteiro/...0400080400.htm",272038,1,6468,1,"I'm fairly certain that no miracle is involved with the fact that my eye color is exactly the same as my father's.","http://www.4forums.com/political/creation-intelligent-design-vs-evolution/9401-toe-biggest-fraud-all-time.html",245764,16
