"key","quote_source_post_discussion_id","posts_dataset_id","posts_timestamp","posts_author_id","quote_source_author_id","posts_native_post_id","quote_source_timestamp","post_text_id","Word_Count","quote_source_post_id","post_text","quote_source_text_id","Dialog_Turn","posts_discussion_id","quote_source_post_dataset_id","Fullquote_text","discussion_url","quote_source_native_post_id","posts_post_id"
"1-6595_24_19_1",6595,1,"2007-02-16 16:32:00",428,2581,251223,"2007-02-16 14:24:00",276835,34,19,"He won't 'debate' your posts here for the same reason I won't.
You run away from them every time you encounter serious resistance. 
We won't play shotgun with you.",276830,1,6595,1,"If I'm so pathetic why don't you start debating my on my OP here. by the way, I could care less what evolutionists think of my posting habits. Come to think of it I may go find another board to post on.","http://www.4forums.com/political/creation-intelligent-design-vs-evolution/9565-environmental-evolution-revolution.html",251214,24
"1-6595_26_24_1",6595,1,"2007-02-16 16:54:00",2581,428,251227,"2007-02-16 16:32:00",276837,88,24,"your version of ""serious resistance"" is blathering, changing the subject, lying and having no regards for reality. And when that doesn't work you resort to attacking me personally.
Why don't you get busy debating the substance of my OP if you are so sure of yourself....?
And by the way....the artwork originally found were authentic and not mass-produced....thousands of them were found and authorities desperately tried to keep them from being revealed to the public.",276835,1,6595,1,"He won't 'debate' your posts here for the same reason I won't.
You run away from them every time you encounter serious resistance. 
We won't play shotgun with you.","http://www.4forums.com/political/creation-intelligent-design-vs-evolution/9565-environmental-evolution-revolution.html",251223,26
"1-6595_45_26_1",6595,1,"2007-02-16 22:13:00",428,2581,251293,"2007-02-16 16:54:00",276856,76,26,"That's pretty damn funny comming from you. If I am wrong why do you have countless threads that have been abandoned after you encountered people who refuted you?

I don't play shotgun with frauds.

Look up Gulliable in the dictionary.
http://www.talkorigins.org/indexcc/CH/CH710_1.html
Try again. Basilio Uchuya and his wife admit to drawing them to sell to Tourists based on comic books.
You fell for a tourists scheme! How amusing.",276837,1,6595,1,"your version of ""serious resistance"" is blathering, changing the subject, lying and having no regards for reality. And when that doesn't work you resort to attacking me personally.
Why don't you get busy debating the substance of my OP if you are so sure of yourself....?
And by the way....the artwork originally found were authentic and not mass-produced....thousands of them were found and authorities desperately tried to keep them from being revealed to the public.","http://www.4forums.com/political/creation-intelligent-design-vs-evolution/9565-environmental-evolution-revolution.html",251227,45
"1-6595_46_45_1",6595,1,"2007-02-16 22:27:00",2581,428,251300,"2007-02-16 22:13:00",276857,6,45,"boy that link was convincing...",276856,1,6595,1,"That's pretty damn funny comming from you. If I am wrong why do you have countless threads that have been abandoned after you encountered people who refuted you?

I don't play shotgun with frauds.

Look up Gulliable in the dictionary.
http://www.talkorigins.org/indexcc/CH/CH710_1.html
Try again. Basilio Uchuya and his wife admit to drawing them to sell to Tourists based on comic books.
You fell for a tourists scheme! How amusing.","http://www.4forums.com/political/creation-intelligent-design-vs-evolution/9565-environmental-evolution-revolution.html",251293,46
"1-6595_47_46_1",6595,1,"2007-02-17 00:06:00",428,2581,251312,"2007-02-16 22:27:00",276858,38,46,"It should be for someone as gulliable as you are. 
But back to the point
If I am wrong why do you have countless threads that have been abandoned after you encountered people who refuted you?",276857,1,6595,1,"boy that link was convincing...","http://www.4forums.com/political/creation-intelligent-design-vs-evolution/9565-environmental-evolution-revolution.html",251300,47
