"key","quote_source_post_discussion_id","posts_dataset_id","posts_timestamp","posts_author_id","quote_source_author_id","posts_native_post_id","quote_source_timestamp","post_text_id","Word_Count","quote_source_post_id","post_text","quote_source_text_id","Dialog_Turn","posts_discussion_id","quote_source_post_dataset_id","Fullquote_text","discussion_url","quote_source_native_post_id","posts_post_id"
"1-7005_33_31_1",7005,1,"2007-07-05 22:11:00",375,2581,272480,"2007-07-05 21:58:00",299417,26,31,"Funny.... that exact same comment can be made about every single post you've made on this and the many other forums you post on.",299415,1,7005,1,"what a dumb post. You contribute nothing.","http://www.4forums.com/political/creation-intelligent-design-vs-evolution/10076-reptiles-turning-mammals.html",272478,33
"1-7005_35_33_1",7005,1,"2007-07-05 22:31:00",2581,375,272482,"2007-07-05 22:11:00",299419,7,33,"So what are all these forums?",299417,1,7005,1,"Funny.... that exact same comment can be made about every single post you've made on this and the many other forums you post on.","http://www.4forums.com/political/creation-intelligent-design-vs-evolution/10076-reptiles-turning-mammals.html",272480,35
"1-7005_40_35_1",7005,1,"2007-07-05 23:05:00",375,2581,272488,"2007-07-05 22:31:00",299424,195,35,"Are you actually, seriously, going to try to play dumb here? Let's see - You once posted on Internet Infidels Discussion Boards (IIDB - remember your ""Butterfly Wombs"" fiasco there?), and eventually were banned from there for infractions of the rules - then you came in under the sockpuppet handle of ""YourWorstNightMare"", and then rather dumbly revealed that you were really ""Supersport"" who had been banned (right in your first post, I might add); Richard Dawkins Foundation Forums (RDFF); TheologyWeb (TWeb) (with a choice post of yours); Darwin Central (where you lasted less than a day); and Christian Discussion Forums (known as CARM.org).
Just to name a few.
Edit: Looks like T.Q. already beat me to calling you on your bull, but as I went to the trouble to look up several places you actually posted (already knew about IIDB, and CARM, as I post there), I'll leave them up for everyone to investigate.",299419,1,7005,1,"So what are all these forums?","http://www.4forums.com/political/creation-intelligent-design-vs-evolution/10076-reptiles-turning-mammals.html",272482,40
"1-7005_41_40_1",7005,1,"2007-07-05 23:14:00",2581,375,272489,"2007-07-05 23:05:00",299425,109,40,"Yeap, I had about a 2 week stint at Secular web...a 2-days stint at Darwin Central -- both atheist forums who banned me for nothing. I have not regularly posted at the richard dawkins forum (not banned) in many many months....I also no longer post at TheologyWeb...(not banned) Nowdays I mainly post here and at Carm. What exactly does it matter though? I guarantee you most everybody on here posts at different forums as well. Quite honestly the only reason I visit this forum on occasion is to read WW's posts.",299424,1,7005,1,"Are you actually, seriously, going to try to play dumb here? Let's see - You once posted on Internet Infidels Discussion Boards (IIDB - remember your ""Butterfly Wombs"" fiasco there?), and eventually were banned from there for infractions of the rules - then you came in under the sockpuppet handle of ""YourWorstNightMare"", and then rather dumbly revealed that you were really ""Supersport"" who had been banned (right in your first post, I might add); Richard Dawkins Foundation Forums (RDFF); TheologyWeb (TWeb) (with a choice post of yours); Darwin Central (where you lasted less than a day); and Christian Discussion Forums (known as CARM.org).
Just to name a few.
Edit: Looks like T.Q. already beat me to calling you on your bull, but as I went to the trouble to look up several places you actually posted (already knew about IIDB, and CARM, as I post there), I'll leave them up for everyone to investigate.","http://www.4forums.com/political/creation-intelligent-design-vs-evolution/10076-reptiles-turning-mammals.html",272488,41
"1-7005_43_41_1",7005,1,"2007-07-05 23:27:00",375,2581,272491,"2007-07-05 23:14:00",299427,109,41,"You asked what forums (playing dumb of course), and you were given an answer that shows we won't tolerate your playing dumb (A.K.A. lying - rather un-Christian, isn't it?).
Ah, they banned you for nothing, eh? I invite everyone to go to those forum and use the search function to look up SS's posts there (by Secular Web he means IIDB, I believe), and then the notices of his banning and the reasons.
I note you ignored that you attempted to come back at IIDB under the handle ""YourWorstNightmare"".",299425,1,7005,1,"Yeap, I had about a 2 week stint at Secular web...a 2-days stint at Darwin Central -- both atheist forums who banned me for nothing. I have not regularly posted at the richard dawkins forum (not banned) in many many months....I also no longer post at TheologyWeb...(not banned) Nowdays I mainly post here and at Carm. What exactly does it matter though? I guarantee you most everybody on here posts at different forums as well. Quite honestly the only reason I visit this forum on occasion is to read WW's posts.","http://www.4forums.com/political/creation-intelligent-design-vs-evolution/10076-reptiles-turning-mammals.html",272489,43
"1-7005_45_43_1",7005,1,"2007-07-06 00:51:00",2581,375,272499,"2007-07-05 23:27:00",299429,223,43,"um...don't you think if I actually did something specific to be banned they would have said it? But no, they list like 5 things, thinking/hoping I must have done something wrong. Not only that but I get banned for life...no suspension of a few days or a week -- total ban for life. Yet they have those foul-mouthed jokers on that site who do little more than call names and engage in a constant barrage of personal insults because that's all they've got to support their nonsense theory. Please notice I'm not banned from this forum after many many months. Don't you think if I didn't know how to act it would show up here?
And I was just being honest when I went back on under a different name -- if they wanted to ban me again, then so be it....which they did. What exactly is your point?
The Darwin Central place banned me before 2 whole days for nothing but debating the issue. They obviously did not want me around....but gave no real reason for banning me....they're just chickens.
Since you like following my movements, why don't you respond to my latest OP:
http://www.christiandiscussionforums...ad.php?t=60848",299427,1,7005,1,"You asked what forums (playing dumb of course), and you were given an answer that shows we won't tolerate your playing dumb (A.K.A. lying - rather un-Christian, isn't it?).
Ah, they banned you for nothing, eh? I invite everyone to go to those forum and use the search function to look up SS's posts there (by Secular Web he means IIDB, I believe), and then the notices of his banning and the reasons.
I note you ignored that you attempted to come back at IIDB under the handle ""YourWorstNightmare"".","http://www.4forums.com/political/creation-intelligent-design-vs-evolution/10076-reptiles-turning-mammals.html",272491,45
"1-7005_49_45_1",7005,1,"2007-07-06 09:28:00",375,2581,272551,"2007-07-06 00:51:00",299433,154,45,"Yeah. I totally believe you. Dude, I was there on IIDB when you were posting your spam and other $hit. As I said before, everyone is invited to go and actully look at your posts and such. I like how you admt to using different usernames now. Wonder what other handles you use here. Archie perhaps? Nah, that'd be too obvious. Wascally I suppose, would be a more sensible assumption. Then there was that whole BlackWodin poster back around February or so (and several other new posters) that were your loyal cheerleading fans. Too bad you got banned under them, eh SS?

Ah, but I have. I don't use the ""ShadowPikachu"" handle there - I only use that name on here. Hint: I'm right there on page 1.",299429,1,7005,1,"um...don't you think if I actually did something specific to be banned they would have said it? But no, they list like 5 things, thinking/hoping I must have done something wrong. Not only that but I get banned for life...no suspension of a few days or a week -- total ban for life. Yet they have those foul-mouthed jokers on that site who do little more than call names and engage in a constant barrage of personal insults because that's all they've got to support their nonsense theory. Please notice I'm not banned from this forum after many many months. Don't you think if I didn't know how to act it would show up here?
And I was just being honest when I went back on under a different name -- if they wanted to ban me again, then so be it....which they did. What exactly is your point?
The Darwin Central place banned me before 2 whole days for nothing but debating the issue. They obviously did not want me around....but gave no real reason for banning me....they're just chickens.
Since you like following my movements, why don't you respond to my latest OP:
http://www.christiandiscussionforums...ad.php?t=60848","http://www.4forums.com/political/creation-intelligent-design-vs-evolution/10076-reptiles-turning-mammals.html",272499,49
"1-7005_30_28_2",7005,1,"2007-07-05 21:54:00",697,2581,272476,"2007-07-05 21:30:00",299414,120,28,"More than likely

Read. Do some actually research. It's not a hidden secret.

No, first the female stuck her finger in her mouth and blew really hard. That's what took so long-they had to wait to evolve fingers.

That's nice. I like the cute picture you have of the guy in agony nailed to two sticks of wood.

Nope, not a one. Don't you know, fossils were all planted by the devil. We just make this stuff up as we go along to screw with you.
You do know what www.google.com is, right? 

(I know I'm going to regret this but...)
Why?",299412,2,7005,1,"er...did I miss something? Where was the formation of breasts in those? Did breasts just pop out instantly? Also, I love those cute little cartoonish artistic renditions of mammal/reptile creatures....do you have any actual fossils to go along with those?","http://www.4forums.com/political/creation-intelligent-design-vs-evolution/10076-reptiles-turning-mammals.html",272471,30
"1-7005_31_30_2",7005,1,"2007-07-05 21:58:00",2581,697,272478,"2007-07-05 21:54:00",299415,9,30,"what a dumb post. You contribute nothing.",299414,2,7005,1,"More than likely

Read. Do some actually research. It's not a hidden secret.

No, first the female stuck her finger in her mouth and blew really hard. That's what took so long-they had to wait to evolve fingers.

That's nice. I like the cute picture you have of the guy in agony nailed to two sticks of wood.

Nope, not a one. Don't you know, fossils were all planted by the devil. We just make this stuff up as we go along to screw with you.
You do know what www.google.com is, right? 

(I know I'm going to regret this but...)
Why?","http://www.4forums.com/political/creation-intelligent-design-vs-evolution/10076-reptiles-turning-mammals.html",272476,31
"1-7005_32_31_2",7005,1,"2007-07-05 22:09:00",697,2581,272479,"2007-07-05 21:58:00",299416,64,31,":( 
That hurts my feelings coming from such an insightful poster such as yourself.
So, what problems with the proposed mechanism for breast development have you turned up in your exhaustive research? If Adam and Eve didn't have belly buttons, why have all the pictures always depicted them with such an accessory? And why do men have nipples?",299415,2,7005,1,"what a dumb post. You contribute nothing.","http://www.4forums.com/political/creation-intelligent-design-vs-evolution/10076-reptiles-turning-mammals.html",272478,32
"1-7005_34_32_2",7005,1,"2007-07-05 22:29:00",2581,697,272481,"2007-07-05 22:09:00",299418,63,32,"Men have nipples for the same reason they have any other body part -- because they were created that way. Besides that, according to this link, men can breastfeed....(maybe as a substitute if something happened to mom?)
http://www.unassistedchildbirth.com/...s/milkmen.html
so take that...
Why would nipples be selected for in males in a darwinian world?",299416,2,7005,1,":( 
That hurts my feelings coming from such an insightful poster such as yourself.
So, what problems with the proposed mechanism for breast development have you turned up in your exhaustive research? If Adam and Eve didn't have belly buttons, why have all the pictures always depicted them with such an accessory? And why do men have nipples?","http://www.4forums.com/political/creation-intelligent-design-vs-evolution/10076-reptiles-turning-mammals.html",272479,34
"1-7005_36_34_2",7005,1,"2007-07-05 22:38:00",697,2581,272484,"2007-07-05 22:29:00",299420,37,34,"Take that?!? That supports the evolutionary theory! 
http://menshealth.about.com/od/condi...ipples_Men.htm

See above. Now, explain to me why god would create his most prized creation with useless nipples. 
And you never answered my other questions",299418,2,7005,1,"Men have nipples for the same reason they have any other body part -- because they were created that way. Besides that, according to this link, men can breastfeed....(maybe as a substitute if something happened to mom?)
http://www.unassistedchildbirth.com/...s/milkmen.html
so take that...
Why would nipples be selected for in males in a darwinian world?","http://www.4forums.com/political/creation-intelligent-design-vs-evolution/10076-reptiles-turning-mammals.html",272481,36
