"key","quote_source_post_discussion_id","posts_dataset_id","posts_timestamp","posts_author_id","quote_source_author_id","posts_native_post_id","quote_source_timestamp","post_text_id","Word_Count","quote_source_post_id","post_text","quote_source_text_id","Dialog_Turn","posts_discussion_id","quote_source_post_dataset_id","Fullquote_text","discussion_url","quote_source_native_post_id","posts_post_id"
"1-7112_28_27_1",7112,1,"2007-08-10 20:04:00",2581,567,277701,"2007-08-10 19:58:00",305235,90,27,"Wait. natural selection is supposed to be the creative element in your theory. If bacteria trade specific genes which provide resistnace, the creativity lies right there -- no selection. It would be no different if an organism experienced a nonrandom or adaptive mutation...the mutation would immediately make its host more fit....which means fitness occurred without selection...it would also mean that the individual evolved and did not need the population to do so. Bacteria swapping genes are no different.",305234,1,7112,1,"(an
Because once transferred the new genes are simply another source of variation and on the next reproductive cycles the fitness of the resulting hybrid is subjected to the crucible of selection. Some such transfers prove to increase fitness - most are neutral or detrimental. Its just another source of genetic variability and thats what selection selects from! Same with endosymbionts (and one might add even exosymbionts!).
.","http://www.4forums.com/political/creation-intelligent-design-vs-evolution/10216-evolutions-greatest-mistakes.html",277698,28
"1-7112_30_28_1",7112,1,"2007-08-10 20:18:00",567,2581,277703,"2007-08-10 20:04:00",305237,107,28,"NDS does not deal with creativity nor does it have a ""creative"" element. Selection is non-random and its clear why that is so. Genetic changes on the other hand are largely by chance and show no discernable pattern in most instances. This includes gene-transfers, and acquistition of endosymbionts. And think about it my friend, horizontal transfer is not some sort of flea market where the organisms get together and swap genes like a market place. ""I'll trade you a resistance gene if you will give me a metal tolerance gene"" is NOT what goes on!",305235,1,7112,1,"Wait. natural selection is supposed to be the creative element in your theory. If bacteria trade specific genes which provide resistnace, the creativity lies right there -- no selection. It would be no different if an organism experienced a nonrandom or adaptive mutation...the mutation would immediately make its host more fit....which means fitness occurred without selection...it would also mean that the individual evolved and did not need the population to do so. Bacteria swapping genes are no different.","http://www.4forums.com/political/creation-intelligent-design-vs-evolution/10216-evolutions-greatest-mistakes.html",277701,30
"1-7112_33_30_1",7112,1,"2007-08-10 20:44:00",2581,567,277711,"2007-08-10 20:18:00",305240,11,30,"do you deny that bacteria swap specific genes for resistance?",305237,1,7112,1,"NDS does not deal with creativity nor does it have a ""creative"" element. Selection is non-random and its clear why that is so. Genetic changes on the other hand are largely by chance and show no discernable pattern in most instances. This includes gene-transfers, and acquistition of endosymbionts. And think about it my friend, horizontal transfer is not some sort of flea market where the organisms get together and swap genes like a market place. ""I'll trade you a resistance gene if you will give me a metal tolerance gene"" is NOT what goes on!","http://www.4forums.com/political/creation-intelligent-design-vs-evolution/10216-evolutions-greatest-mistakes.html",277703,33
"1-7112_41_33_1",7112,1,"2007-08-11 01:04:00",567,2581,277730,"2007-08-10 20:44:00",305248,70,33,"First of all its not a swap, there are horizontal transfers, but it would be very rare for it to go both ways. Secondly what are transferred are various genetic elements, sometimes very very large numbers of them borne on plasmids. These MAY include resistance genes, but they are cerainly specifically constratined to do so. In other words the exchanges are non-specific.",305240,1,7112,1,"do you deny that bacteria swap specific genes for resistance?","http://www.4forums.com/political/creation-intelligent-design-vs-evolution/10216-evolutions-greatest-mistakes.html",277711,41
"1-7112_43_41_1",7112,1,"2007-08-11 07:11:00",2581,567,277765,"2007-08-11 01:04:00",305250,12,41,"From what I understand, bacteria ""share"" their assets.",305248,1,7112,1,"First of all its not a swap, there are horizontal transfers, but it would be very rare for it to go both ways. Secondly what are transferred are various genetic elements, sometimes very very large numbers of them borne on plasmids. These MAY include resistance genes, but they are cerainly specifically constratined to do so. In other words the exchanges are non-specific.","http://www.4forums.com/political/creation-intelligent-design-vs-evolution/10216-evolutions-greatest-mistakes.html",277730,43
"1-7112_44_43_1",7112,1,"2007-08-11 08:52:00",567,2581,277783,"2007-08-11 07:11:00",305251,31,43,"Sorry but ""share"" is a very misleading way of looking at it. Genes are sometimes transferred between species of bacteria. The correct term is horizontal transfer.",305250,1,7112,1,"From what I understand, bacteria ""share"" their assets.","http://www.4forums.com/political/creation-intelligent-design-vs-evolution/10216-evolutions-greatest-mistakes.html",277765,44
