"key","quote_source_post_discussion_id","posts_dataset_id","posts_timestamp","posts_author_id","quote_source_author_id","posts_native_post_id","quote_source_timestamp","post_text_id","Word_Count","quote_source_post_id","post_text","quote_source_text_id","Dialog_Turn","posts_discussion_id","quote_source_post_dataset_id","Fullquote_text","discussion_url","quote_source_native_post_id","posts_post_id"
"1-7135_56_42_1",7135,1,"2007-08-18 13:29:00",567,1367,279102,"2007-08-18 08:50:00",306184,132,42,"This belief once more being darwinian evolution. Well not exactly my friend. There were atheists long before Darwin you realize. Its perfectly possible to be an atheist and not even be aware of Darwins work since atheism only requires that one not believe in Gods. One can reach that belief easily without any knowledge or invocation of evolutionary theory at all. They are not linked in that way.
As to SS you are also incorrect. We do not know whether or not he believes in the bible. He could well be atheist or non-Christian/Jewish/Islamic for all we know. He argues from an entirely different base. And of course he could be the Pope for all we know.",306170,1,7135,1,"I know, to atheists, the most unpleasant and unwelcome thing imaginable is for evidence to be presented to heave poor old Chuck out the window. That contradicts their beliefs. 

Linimus found this and its associated statements to be profound. They are in fact, just more atheist talking points - nothing more. 

This belief is as irreplaceable to atheists as belief in the Bible is irreplaceable to SS. ""Emotion and self worth"" - comparable in all beliefs.","http://www.4forums.com/political/creation-intelligent-design-vs-evolution/10244-physics-crashes-burns.html",279035,56
"1-7135_77_56_1",7135,1,"2007-08-19 11:28:00",1367,567,279313,"2007-08-18 13:29:00",306205,62,56,"But any atheist, any person, will want to have some backing for their beliefs. The atheists that existed before Darwin didn't have anything. (simple animal like illiteracy maybe) They're practically non existant today, as far as debate is concerned. 

You'd be very suprised how easily one actual Christian can recognize another one. emoticonXAngel",306184,1,7135,1,"This belief once more being darwinian evolution. Well not exactly my friend. There were atheists long before Darwin you realize. Its perfectly possible to be an atheist and not even be aware of Darwins work since atheism only requires that one not believe in Gods. One can reach that belief easily without any knowledge or invocation of evolutionary theory at all. They are not linked in that way.
As to SS you are also incorrect. We do not know whether or not he believes in the bible. He could well be atheist or non-Christian/Jewish/Islamic for all we know. He argues from an entirely different base. And of course he could be the Pope for all we know.","http://www.4forums.com/political/creation-intelligent-design-vs-evolution/10244-physics-crashes-burns.html",279102,77
"1-7135_80_77_1",7135,1,"2007-08-19 11:48:00",567,1367,279316,"2007-08-19 11:28:00",306208,136,77,"Tsk tsk my friend do you not know that Darwin published in 1850 and there were many many convinced atheists in say 1840, and in the 1700s (for example Thomas Paine whose name you may recognize - read The Age of Reason). They were convinced on the basis of many many empirical observations. And of course science was a well organized enterprise before Darwin and it did not admit of non-material explanations well before his time! And its worth noting that Paley predated Darwin what would he argue against if there were only ""illiterate"" atheists. Sorry but atheism was present in the ancient civilizations right down to the present date and Darwin was not the basis of such beliefs - it could not have been.",306205,1,7135,1,"But any atheist, any person, will want to have some backing for their beliefs. The atheists that existed before Darwin didn't have anything. (simple animal like illiteracy maybe) They're practically non existant today, as far as debate is concerned. 

You'd be very suprised how easily one actual Christian can recognize another one. emoticonXAngel","http://www.4forums.com/political/creation-intelligent-design-vs-evolution/10244-physics-crashes-burns.html",279313,80
"1-7135_95_80_1",7135,1,"2007-08-20 16:06:00",1367,567,279528,"2007-08-19 11:48:00",306223,178,80,"Well, those are good points. But if there were ""many many empirical observations"" against religion before Darwin, why aren't they more prominent in atheist talking points today? Can you name any of them? I've never heard of any of them. Why is Darwinism and all its various paths practically all todays atheists refer to when backing up their beliefs? 

No, the secret is how quickly and easily we draw the ire of atheists and evolutionists. 

If you’re being serious, I’d like you to explain that one. You believe in some of the teachings of Christ, and not much of the rest of the Bible, is that it? I think Kenneth Miller is that way, and some other posters here on 4forums. But from what basics I know about the teachings of Christ and the characteristics of God, I have a hard time becoming convinced of any sincerity from them.",306208,1,7135,1,"Tsk tsk my friend do you not know that Darwin published in 1850 and there were many many convinced atheists in say 1840, and in the 1700s (for example Thomas Paine whose name you may recognize - read The Age of Reason). They were convinced on the basis of many many empirical observations. And of course science was a well organized enterprise before Darwin and it did not admit of non-material explanations well before his time! And its worth noting that Paley predated Darwin what would he argue against if there were only ""illiterate"" atheists. Sorry but atheism was present in the ancient civilizations right down to the present date and Darwin was not the basis of such beliefs - it could not have been.","http://www.4forums.com/political/creation-intelligent-design-vs-evolution/10244-physics-crashes-burns.html",279316,95
"1-7135_98_95_1",7135,1,"2007-08-20 16:46:00",567,1367,279545,"2007-08-20 16:06:00",306226,127,95,"Surely you are aware that after the death of Christ and the dispersal of the disciples to foreign parts and during the rise of the Church in rome the powers that be found themselves adding theological element after theological element to the original unadulterated teachings of Christ. To the point that what was a workable ethical philosophy became so larded with OT concepts and with Roman religious concepts (and organizational structure) that one could hardly find the original teachings under the overlays of theology and authoritarian structure. Christian athesists discard the theological and structural overlays and go back to the actual original philosophical teachings which were atheist in their content. Christian atheists get back to the basics , the true teachings.",306223,1,7135,1,"Well, those are good points. But if there were ""many many empirical observations"" against religion before Darwin, why aren't they more prominent in atheist talking points today? Can you name any of them? I've never heard of any of them. Why is Darwinism and all its various paths practically all todays atheists refer to when backing up their beliefs? 

No, the secret is how quickly and easily we draw the ire of atheists and evolutionists. 

If you’re being serious, I’d like you to explain that one. You believe in some of the teachings of Christ, and not much of the rest of the Bible, is that it? I think Kenneth Miller is that way, and some other posters here on 4forums. But from what basics I know about the teachings of Christ and the characteristics of God, I have a hard time becoming convinced of any sincerity from them.","http://www.4forums.com/political/creation-intelligent-design-vs-evolution/10244-physics-crashes-burns.html",279528,98
"1-7135_112_98_1",7135,1,"2007-08-21 16:33:00",1367,567,279773,"2007-08-20 16:46:00",306240,14,98,"So the original teachings of Christ were atheist in their content? Links??",306226,1,7135,1,"Surely you are aware that after the death of Christ and the dispersal of the disciples to foreign parts and during the rise of the Church in rome the powers that be found themselves adding theological element after theological element to the original unadulterated teachings of Christ. To the point that what was a workable ethical philosophy became so larded with OT concepts and with Roman religious concepts (and organizational structure) that one could hardly find the original teachings under the overlays of theology and authoritarian structure. Christian athesists discard the theological and structural overlays and go back to the actual original philosophical teachings which were atheist in their content. Christian atheists get back to the basics , the true teachings.","http://www.4forums.com/political/creation-intelligent-design-vs-evolution/10244-physics-crashes-burns.html",279545,112
"1-7135_84_68_2",7135,1,"2007-08-19 12:02:00",1367,567,279320,"2007-08-18 20:25:00",306212,21,68,"If only this disclaimer were in Dawkins books. :p 
Actually, the conflict is often between Republicans and Democrats.",306196,2,7135,1,"By the way the conflict between the fundamentalists and scientists is not one between atheists and believers. None of science takes theist explanations as being useful. But that means the answer to the question ""Does GOD exist"" is ""I don't know"" rather than ""NO"". Atheism is a belief system and its conclusion cannot be proven or disproven. Theism is a belief system and its conclusions cannot be proven or disproven. Science cannot state the either belief system is either true or false. In effect science is and must be neutral on the subject although scientists are free as is everyone to hold their own beliefs.","http://www.4forums.com/political/creation-intelligent-design-vs-evolution/10244-physics-crashes-burns.html",279186,84
"1-7135_88_84_2",7135,1,"2007-08-19 12:18:00",567,1367,279324,"2007-08-19 12:02:00",306216,75,84,"Its more often between realists and mystics. You can see this as the Republican party fractures along those lines after a temporary alliance between the realists (mostly economic interests) and the mystics (the social and geopolitical fanatics who got us into Iraq and bobbled Katrina and who think Conservation is for wimps and atheists). We shall see what candidates for the Republican nomination are crucified by which factions.",306212,2,7135,1,"If only this disclaimer were in Dawkins books. :p 
Actually, the conflict is often between Republicans and Democrats.","http://www.4forums.com/political/creation-intelligent-design-vs-evolution/10244-physics-crashes-burns.html",279320,88
"1-7135_96_88_2",7135,1,"2007-08-20 16:20:00",1367,567,279535,"2007-08-19 12:18:00",306224,213,88,"It would depend on how it was being done, if it was defensive in nature or offensive in nature. Today, it’s almost always defensive, trying to slow the constant march of the establishment of atheism. 

Not at all, since Washington DC is loaded with displays of the ten commandments and other references to God, and they’ve been there since the founding of the country. 

I don’t mind anyone resorting to science for political reasons, as long as it’s done in an honest way, in the proper setting. It makes me nervous when it’s done in classrooms and courts. 

I don’t. Unless it’s in a setting where corruption can be involved in important decisions concerning public polity. 

So you’re a Democrat? It seems that most militant evolutionists are. It seems that a belief in the unguided, mindless processes of evolution also produce the Democrat views on things like the middle east, domestic spending and activity, redistribution of wealth, the environment, etc.",306216,2,7135,1,"Its more often between realists and mystics. You can see this as the Republican party fractures along those lines after a temporary alliance between the realists (mostly economic interests) and the mystics (the social and geopolitical fanatics who got us into Iraq and bobbled Katrina and who think Conservation is for wimps and atheists). We shall see what candidates for the Republican nomination are crucified by which factions.","http://www.4forums.com/political/creation-intelligent-design-vs-evolution/10244-physics-crashes-burns.html",279324,96
"1-7135_102_96_2",7135,1,"2007-08-20 16:56:00",567,1367,279551,"2007-08-20 16:20:00",306230,20,96,"And just what arena is there where corruption cannot become involved in decisions affecting public policy???? Name one!",306224,2,7135,1,"It would depend on how it was being done, if it was defensive in nature or offensive in nature. Today, it’s almost always defensive, trying to slow the constant march of the establishment of atheism. 

Not at all, since Washington DC is loaded with displays of the ten commandments and other references to God, and they’ve been there since the founding of the country. 

I don’t mind anyone resorting to science for political reasons, as long as it’s done in an honest way, in the proper setting. It makes me nervous when it’s done in classrooms and courts. 

I don’t. Unless it’s in a setting where corruption can be involved in important decisions concerning public polity. 

So you’re a Democrat? It seems that most militant evolutionists are. It seems that a belief in the unguided, mindless processes of evolution also produce the Democrat views on things like the middle east, domestic spending and activity, redistribution of wealth, the environment, etc.","http://www.4forums.com/political/creation-intelligent-design-vs-evolution/10244-physics-crashes-burns.html",279535,102
"1-7135_103_102_2",7135,1,"2007-08-20 16:59:00",1367,567,279554,"2007-08-20 16:56:00",306231,27,102,"Cannot? Or SHOULD NOT? I can name a lot where it should not. Education is the main one on my mind right now.",306230,2,7135,1,"And just what arena is there where corruption cannot become involved in decisions affecting public policy???? Name one!","http://www.4forums.com/political/creation-intelligent-design-vs-evolution/10244-physics-crashes-burns.html",279551,103
