"key","quote_source_post_discussion_id","posts_dataset_id","posts_timestamp","posts_author_id","quote_source_author_id","posts_native_post_id","quote_source_timestamp","post_text_id","Word_Count","quote_source_post_id","post_text","quote_source_text_id","Dialog_Turn","posts_discussion_id","quote_source_post_dataset_id","Fullquote_text","discussion_url","quote_source_native_post_id","posts_post_id"
"1-7204_16_14_1",7204,1,"2007-09-06 22:20:00",567,2581,282659,"2007-09-06 22:16:00",310341,79,14,"For what earthly reason would an evolutionist or NDS student refer to MIND as a component of evolution of say bacteria. Bacteria lack minds. Worms lack minds, Snails lack minds. If mind drives evolution then it would have to preceed evolutionary processes (cause comes before effect ya know) since it does not it can be ruled out on first principles alone. At least for any species which evolved before minds evolved.",310339,1,7204,1,"obviously I'm referring to the Darwinists who are the mainstream writers who have shaped and molded society's belief system in regards to evolution. My statement was directed to those whose books the public actually reads....which is why I asked you for a ""high-profile"" neo-darwinist/materialist. I could care less about any tom, dick or joe who writes a book nobody in the real world cares about or has read.
here's my challenge again:
name me 1 high-profile materialist/neo-darwinist book that talks about the mind as a biological alternative to RMNS.","http://www.4forums.com/political/creation-intelligent-design-vs-evolution/10333-why-do-evos-avoid-real-debate.html",282657,16
"1-7204_18_16_1",7204,1,"2007-09-06 22:23:00",2581,567,282661,"2007-09-06 22:20:00",310343,41,16,"an organism obviously does not necessarily need a brain to have a mind. How do plants, for example, ""know"" to drop more seeds when they are spaced far apart than they do when they're crowded?",310341,1,7204,1,"For what earthly reason would an evolutionist or NDS student refer to MIND as a component of evolution of say bacteria. Bacteria lack minds. Worms lack minds, Snails lack minds. If mind drives evolution then it would have to preceed evolutionary processes (cause comes before effect ya know) since it does not it can be ruled out on first principles alone. At least for any species which evolved before minds evolved.","http://www.4forums.com/political/creation-intelligent-design-vs-evolution/10333-why-do-evos-avoid-real-debate.html",282659,18
"1-7204_21_18_1",7204,1,"2007-09-06 22:25:00",567,2581,282664,"2007-09-06 22:23:00",310346,7,18,"Phytochrome pigments. Not mind.
http://en.wikipedia.org/wiki/Phytochrome",310343,1,7204,1,"an organism obviously does not necessarily need a brain to have a mind. How do plants, for example, ""know"" to drop more seeds when they are spaced far apart than they do when they're crowded?","http://www.4forums.com/political/creation-intelligent-design-vs-evolution/10333-why-do-evos-avoid-real-debate.html",282661,21
"1-7204_24_21_1",7204,1,"2007-09-06 22:28:00",2581,567,282667,"2007-09-06 22:25:00",310349,5,21,"how does it know?",310346,1,7204,1,"Phytochrome pigments. Not mind.
http://en.wikipedia.org/wiki/Phytochrome","http://www.4forums.com/political/creation-intelligent-design-vs-evolution/10333-why-do-evos-avoid-real-debate.html",282664,24
"1-7204_28_24_1",7204,1,"2007-09-06 22:32:00",567,2581,282671,"2007-09-06 22:28:00",310353,21,24,"It does not know. It simply responds with a tropism. Plants know nothing, indeed can KNOW nothing.",310349,1,7204,1,"how does it know?","http://www.4forums.com/political/creation-intelligent-design-vs-evolution/10333-why-do-evos-avoid-real-debate.html",282667,28
"1-7204_31_28_1",7204,1,"2007-09-06 22:34:00",2581,567,282674,"2007-09-06 22:32:00",310356,31,28,"well the plant is evidently aware that there aren't too many other plants around when it decides to make/drop more seeds. From where does this awareness originate?",310353,1,7204,1,"It does not know. It simply responds with a tropism. Plants know nothing, indeed can KNOW nothing.","http://www.4forums.com/political/creation-intelligent-design-vs-evolution/10333-why-do-evos-avoid-real-debate.html",282671,31
"1-7204_34_31_1",7204,1,"2007-09-06 22:42:00",567,2581,282677,"2007-09-06 22:34:00",310359,54,31,"Nope its not evident that plants are aware. Not in the sense which applies to animals. They have systems which respond to light, moisture, gravity, etc to produce tropisms. Fell free to ask any plant you believe has a mind to explain it to you some day.",310356,1,7204,1,"well the plant is evidently aware that there aren't too many other plants around when it decides to make/drop more seeds. From where does this awareness originate?","http://www.4forums.com/political/creation-intelligent-design-vs-evolution/10333-why-do-evos-avoid-real-debate.html",282674,34
"1-7204_36_34_1",7204,1,"2007-09-07 07:09:00",2581,567,282716,"2007-09-06 22:42:00",310361,93,34,"Nope its not evident that plants are aware
prove it scientifically. Your statement is simply a guess. You have no idea. 
They have systems which respond to light, moisture, gravity, etc to produce tropisms
yea they have all kinds of systems to respond to all kinds of stimuli, including some sort of awareness that enables them to determine how many seeds to generate and drop. I'm asking from where does this awareness originate...what senses the environment?..and how? Mechanism?",310359,1,7204,1,"Nope its not evident that plants are aware. Not in the sense which applies to animals. They have systems which respond to light, moisture, gravity, etc to produce tropisms. Fell free to ask any plant you believe has a mind to explain it to you some day.","http://www.4forums.com/political/creation-intelligent-design-vs-evolution/10333-why-do-evos-avoid-real-debate.html",282677,36
