"key","quote_source_post_discussion_id","posts_dataset_id","posts_timestamp","posts_author_id","quote_source_author_id","posts_native_post_id","quote_source_timestamp","post_text_id","Word_Count","quote_source_post_id","post_text","quote_source_text_id","Dialog_Turn","posts_discussion_id","quote_source_post_dataset_id","Fullquote_text","discussion_url","quote_source_native_post_id","posts_post_id"
"1-7293_160_159_1",7293,1,"2009-06-28 19:20:00",236,421,359009,"2009-06-28 19:19:00",315123,15,159,"Er . . . how can you rebel against something that does not exist?",315122,1,7293,1,"Really? You consider rebelling against your heavenly father growing up? I call it denying ones birthright. 
Rom 8:13 For if you live according to the flesh you will die; but if by the Spirit you put to death the deeds of the body, you will live.
Rom 8:14 For as many as are led by the Spirit of God, these are sons of God.
Rom 8:15 For you did not receive the spirit of bondage again to fear, but you received the Spirit of adoption by whom we cry out, ""Abba, Father.""
Rom 8:16 The Spirit Himself bears witness with our spirit that we are children of God,
Rom 8:17 and if children, then heirs--heirs of God and joint heirs with Christ, if indeed we suffer with [Him], that we may also be glorified together.
","http://www.4forums.com/political/creation-intelligent-design-vs-evolution/10445-big-bang-lol-you-cant-serious.html",359008,160
"1-7293_162_160_1",7293,1,"2009-06-28 19:29:00",421,236,359012,"2009-06-28 19:20:00",315125,88,160,"If God be a myth then you would have a valid point. But since you are the product of His existence, then your claim is a total denial of reality. And unfortunately this will be the result for you.
Mat 10:32 ""Therefore whoever confesses Me before men, him I will also confess before My Father who is in heaven.
Mat 10:33 But whoever denies Me before men, him I will also deny before My Father who is in heaven.
",315123,1,7293,1,"Er . . . how can you rebel against something that does not exist?","http://www.4forums.com/political/creation-intelligent-design-vs-evolution/10445-big-bang-lol-you-cant-serious.html",359009,162
"1-7293_164_162_1",7293,1,"2009-06-28 21:10:00",236,421,359021,"2009-06-28 19:29:00",315127,34,162,"Goody! I made a valid point.
It is you who are in total denial of reality.
Oh, and I regard your empty threat with the contempt it fully deserves.",315125,1,7293,1,"If God be a myth then you would have a valid point. But since you are the product of His existence, then your claim is a total denial of reality. And unfortunately this will be the result for you.
Mat 10:32 ""Therefore whoever confesses Me before men, him I will also confess before My Father who is in heaven.
Mat 10:33 But whoever denies Me before men, him I will also deny before My Father who is in heaven.
","http://www.4forums.com/political/creation-intelligent-design-vs-evolution/10445-big-bang-lol-you-cant-serious.html",359012,164
"1-7293_169_164_1",7293,1,"2009-06-29 02:39:00",421,236,359030,"2009-06-28 21:10:00",315132,76,164,"Mock God all you like atheists. None of it changes who He is or the inevitable shock which awaits all who deny His eternal Lordship over all that is.
Mat 10:32 ""Therefore whoever confesses Me before men, him I will also confess before My Father who is in heaven.
Mat 10:33 But whoever denies Me before men, him I will also deny before My Father who is in heaven.
",315127,1,7293,1,"Goody! I made a valid point.
It is you who are in total denial of reality.
Oh, and I regard your empty threat with the contempt it fully deserves.","http://www.4forums.com/political/creation-intelligent-design-vs-evolution/10445-big-bang-lol-you-cant-serious.html",359021,169
"1-7293_170_169_1",7293,1,"2009-06-29 04:25:00",236,421,359032,"2009-06-29 02:39:00",315133,26,169,"Take offense on behalf of your imaginary god all you like. None of it changes reality, and the inevitable nothing that awaits you.",315132,1,7293,1,"Mock God all you like atheists. None of it changes who He is or the inevitable shock which awaits all who deny His eternal Lordship over all that is.
Mat 10:32 ""Therefore whoever confesses Me before men, him I will also confess before My Father who is in heaven.
Mat 10:33 But whoever denies Me before men, him I will also deny before My Father who is in heaven.
","http://www.4forums.com/political/creation-intelligent-design-vs-evolution/10445-big-bang-lol-you-cant-serious.html",359030,170
"1-7293_171_170_1",7293,1,"2009-06-29 07:39:00",421,236,359041,"2009-06-29 04:25:00",315134,43,170,"Where did I say I was offended in any way by your ignorance smiley? It is God you are offending and God who will deal with you at the judgment. He doesn't need me defending Him from God denying atheists.",315133,1,7293,1,"Take offense on behalf of your imaginary god all you like. None of it changes reality, and the inevitable nothing that awaits you.","http://www.4forums.com/political/creation-intelligent-design-vs-evolution/10445-big-bang-lol-you-cant-serious.html",359032,171
"1-7293_172_171_1",7293,1,"2009-06-29 08:26:00",236,421,359043,"2009-06-29 07:39:00",315135,31,171,"Taking offense is what you do. Your god does not exist, so he/she/it is incapable of doing so. Your last sentence is correct.",315134,1,7293,1,"Where did I say I was offended in any way by your ignorance smiley? It is God you are offending and God who will deal with you at the judgment. He doesn't need me defending Him from God denying atheists.","http://www.4forums.com/political/creation-intelligent-design-vs-evolution/10445-big-bang-lol-you-cant-serious.html",359041,172
"1-7293_78_59_2",7293,1,"2007-10-06 09:00:00",421,428,286827,"2007-10-04 19:36:00",315041,181,59,"Sorry moose but I don't know what to respond to. Let this liar post my actual post which he mockingly accuses me of saying in these quotes above and I will gladly respond to them. But why should I explain statements I never made ? The point I'm making here that you are also apparently to thick to get is that it is childs M.O. to re-interpret what others say and repeat them back to them in ways to make that person not only sound stupid, but insane to believe something so ludicrous.
So let this lying punk post me saying that birds need jet engines coming out of their butts in order to fly and I will gladly explain what I meant. I mean, if he sent it to chemist so he could get a good laugh at my expense then surely he can post the exact link of me saying that so we can all get a good laugh together, right ? Either that or he owes me an apology. emoticonXCool",315022,2,7293,1,"Not really. We just didn't report you. And remind me, who is the person calling everyone who disagrees with him a ""hatemonger?""
Was it you or was it me? 

Come again? Could you care to show where you disproved a single point made against you?
Shall we bring up your hoaxes and the infamous ""birds with jet engines coming out of their butts?""
And apparently you consider everyone who isn't a radical fundementalist Christian to be ""spiritually dead,"" nevermind that you can't even prove your God exists much less your religion is correct....

Self declared victory. Always hollow, always shallow, always wrong.","http://www.4forums.com/political/creation-intelligent-design-vs-evolution/10445-big-bang-lol-you-cant-serious.html",286609,78
"1-7293_83_78_2",7293,1,"2007-10-06 13:53:00",428,421,286857,"2007-10-06 09:00:00",315046,32,78,"Moose posted from the link I gave you which shows your quote.
He provided what you asked for. 
How is he wrong in his explanation of what you meant? 


",315041,2,7293,1,"Sorry moose but I don't know what to respond to. Let this liar post my actual post which he mockingly accuses me of saying in these quotes above and I will gladly respond to them. But why should I explain statements I never made?","http://www.4forums.com/political/creation-intelligent-design-vs-evolution/10445-big-bang-lol-you-cant-serious.html",286827,83
"1-7293_86_83_2",7293,1,"2007-10-06 14:18:00",421,428,286865,"2007-10-06 13:53:00",315049,71,83,"Moose didn't post any link at all. Just a line that someone said, allegedly. YOU post the link where I said birds have jets coming out of their butts to fly as you mockingly attributed to me as if I was defending that claim. Put up or shut up child, and don't try to wiggle out of it with your usual scurillous and cowardly techniques.",315046,2,7293,1,"Moose posted from the link I gave you which shows your quote.
He provided what you asked for. 
How is he wrong in his explanation of what you meant? 


","http://www.4forums.com/political/creation-intelligent-design-vs-evolution/10445-big-bang-lol-you-cant-serious.html",286857,86
"1-7293_88_86_2",7293,1,"2007-10-06 14:23:00",428,421,286870,"2007-10-06 14:18:00",315051,67,86,"Wow you are lazy.
I provided you the link to the page. Moose provided you the direct quote.
What more do you want? Seriously, does Jesus smile upon sheer laziness and sloth?
I remember a quote, ""idle hands are the devil's playthings""
http://www.4forums.com/political/sho...4&postcount=51
Geez, lazy...

I already did post the link...you're just lazy.",315049,2,7293,1,"Moose didn't post any link at all. Just a line that someone said, allegedly. YOU post the link where I said birds have jets coming out of their butts to fly as you mockingly attributed to me as if I was defending that claim. Put up or shut up child, and don't try to wiggle out of it with your usual scurillous and cowardly techniques.","http://www.4forums.com/political/creation-intelligent-design-vs-evolution/10445-big-bang-lol-you-cant-serious.html",286865,88
"1-7293_95_88_2",7293,1,"2007-10-06 16:13:00",421,428,286885,"2007-10-06 14:23:00",315058,189,88,"Where did I say anything about birds not being able to fly without jet propulsion ? Now let me show the great flaw in the argument you were attempting to make. On the one hand you insist that Dragons in no way ever existed, yet in your evidence to prove they didn't exist you referred to wing span to mass ratios as evidence that the implication that they could fly is ridiculous. 
Tell me how that is the least bit rational argument ? First you say they couldn't exist then you show how their wing spans weren't in proportion to their bodies to allow for flight. QUESTION... If they never existed, how do you know their wingspans per body proportion ? But as usual you make off the wall claims with absolutely nothing to support your moronic and irrational contentions. And you don't even see the contradictions in your ludicrous arguments. And then you proceeded to mock me for my beliefs. Maybe that explains why I walked away in total frustration and unable to deal with you any further.",315051,2,7293,1,"Wow you are lazy.
I provided you the link to the page. Moose provided you the direct quote.
What more do you want? Seriously, does Jesus smile upon sheer laziness and sloth?
I remember a quote, ""idle hands are the devil's playthings""
http://www.4forums.com/political/sho...4&postcount=51
Geez, lazy...

I already did post the link...you're just lazy.","http://www.4forums.com/political/creation-intelligent-design-vs-evolution/10445-big-bang-lol-you-cant-serious.html",286870,95
"1-7293_106_105_3",7293,1,"2007-10-07 16:48:00",428,421,286995,"2007-10-07 16:40:00",315069,46,105,"It's funny how you pretend to be the winner here when you can't even address a single point made to you or refute any reasonings made against you.
Explain to me how ""I'm right because I said so"" is a viable argument.",315068,3,7293,1,"Stop whining child, you're embarrassing yourself. emoticonXCry and while you're at it, get a clue. emoticonXIdea","http://www.4forums.com/political/creation-intelligent-design-vs-evolution/10445-big-bang-lol-you-cant-serious.html",286993,106
"1-7293_107_106_3",7293,1,"2007-10-07 17:04:00",421,428,287002,"2007-10-07 16:48:00",315070,28,106,"I am the winner, simply because I'm not you. But of course you'd have to be me to fully appreciate that in this lifetime. :)",315069,3,7293,1,"It's funny how you pretend to be the winner here when you can't even address a single point made to you or refute any reasonings made against you.
Explain to me how ""I'm right because I said so"" is a viable argument.","http://www.4forums.com/political/creation-intelligent-design-vs-evolution/10445-big-bang-lol-you-cant-serious.html",286995,107
"1-7293_110_107_3",7293,1,"2007-10-07 18:07:00",428,421,287008,"2007-10-07 17:04:00",315073,50,107,"Life is sure nice when you don't have to make sense isn't it? emoticonXAgree
Not that anyone with a education actually thinks you're nothing more then a troll though...
And I'm the one embarrassing myself....
Remind me next time I seriously use your kind of logic.",315070,3,7293,1,"I am the winner, simply because I'm not you. But of course you'd have to be me to fully appreciate that in this lifetime. :)","http://www.4forums.com/political/creation-intelligent-design-vs-evolution/10445-big-bang-lol-you-cant-serious.html",287002,110
"1-7293_111_110_3",7293,1,"2007-10-07 19:01:00",421,428,287013,"2007-10-07 18:07:00",315074,54,110,"Talk about making sense, the proper grammar is ""Not that anyone with an education actually thinks you're anything more than a troll though."" An educated person would know proper english. emoticonXGood So you can lie to these other guys about being educated, but don't lie to me.",315073,3,7293,1,"Life is sure nice when you don't have to make sense isn't it? emoticonXAgree
Not that anyone with a education actually thinks you're nothing more then a troll though...
And I'm the one embarrassing myself....
Remind me next time I seriously use your kind of logic.","http://www.4forums.com/political/creation-intelligent-design-vs-evolution/10445-big-bang-lol-you-cant-serious.html",287008,111
"1-7293_113_111_3",7293,1,"2007-10-07 19:13:00",428,421,287015,"2007-10-07 19:01:00",315076,84,111,"So you're now using grammar attacks. Not surprising after all. You can't actually address a single argument made to you, which again isn't surprising given your argument that you're right because you're not me. Has it ever occurred to you that perhaps English is not my first language? And improper grammar is hardly a sign one is uneducated. Failure to show any critical reasoning whatsoever and relying upon Goddidit and I'm right because I say so is.",315074,3,7293,1,"Talk about making sense, the proper grammar is ""Not that anyone with an education actually thinks you're anything more than a troll though."" An educated person would know proper english. emoticonXGood So you can lie to these other guys about being educated, but don't lie to me.","http://www.4forums.com/political/creation-intelligent-design-vs-evolution/10445-big-bang-lol-you-cant-serious.html",287013,113
"1-7293_114_113_3",7293,1,"2007-10-07 20:59:00",421,428,287019,"2007-10-07 19:13:00",315077,70,113,"Hey, you're the one telling us how intelligent you are so you should at least learn simple grammar. And I've never met an educated person who couldn't form a proper sentence. So take a word of advice and dont think more of yourself than you ought to because there's always going to be someone who is smarter than you are. Especially in your case. emoticonXRolleyes",315076,3,7293,1,"So you're now using grammar attacks. Not surprising after all. You can't actually address a single argument made to you, which again isn't surprising given your argument that you're right because you're not me. Has it ever occurred to you that perhaps English is not my first language? And improper grammar is hardly a sign one is uneducated. Failure to show any critical reasoning whatsoever and relying upon Goddidit and I'm right because I say so is.","http://www.4forums.com/political/creation-intelligent-design-vs-evolution/10445-big-bang-lol-you-cant-serious.html",287015,114
"1-7293_238_235_4",7293,1,"2009-07-04 03:22:00",421,697,359571,"2009-07-03 21:36:00",315201,78,235,"I'm telling you what it meant, since you either aren't smart enough to figure it out or i'm saying that you're a liar. Take that any way you want to. Since I could post a hundred examples of you and your cohorts misinterpreting what I have clearly stated, so why should I accept this interpretation of yours of what you claim admin said when I have brought the issue up to him personally?",315198,4,7293,1,"Wait, so you're going to tell me what the private message that the admin sent me stated?
You're absolutely delusional, aren't you Archie? You just invent your own reality to suit your own preconceptions, and you are so far gone that you aren't even aware of it.","http://www.4forums.com/political/creation-intelligent-design-vs-evolution/10445-big-bang-lol-you-cant-serious.html",359555,238
"1-7293_241_238_4",7293,1,"2009-07-04 07:18:00",697,421,359595,"2009-07-04 03:22:00",315204,127,238,"Just so we're clear here Archie:
I'm too stupid to understand, or lying about the meaning of, a private message that you have never seen, and have therefore taken it upon yourself to interpret what this private message, that you have never seen and can therefore have no idea of the contents, actually means. Does that about sum it up correctly?

You know, you keep accusing everyone around here of dishonesty, or misinterpretation. Did you ever consider that the problem might be you? 
We have a whole forum here for you to prove your accusations of my dishonesty. You have yet to do it. Odd, since I'm such a prolific liar.",315201,4,7293,1,"I'm telling you what it meant, since you either aren't smart enough to figure it out or i'm saying that you're a liar. Take that any way you want to. Since I could post a hundred examples of you and your cohorts misinterpreting what I have clearly stated, so why should I accept this interpretation of yours of what you claim admin said when I have brought the issue up to him personally?","http://www.4forums.com/political/creation-intelligent-design-vs-evolution/10445-big-bang-lol-you-cant-serious.html",359571,241
"1-7293_243_241_4",7293,1,"2009-07-04 08:19:00",421,697,359605,"2009-07-04 07:18:00",315206,20,241,"Talks cheap tq, but I don't see you proving your claim with any evidence. Got any proof?",315204,4,7293,1,"Just so we're clear here Archie:
I'm too stupid to understand, or lying about the meaning of, a private message that you have never seen, and have therefore taken it upon yourself to interpret what this private message, that you have never seen and can therefore have no idea of the contents, actually means. Does that about sum it up correctly?

You know, you keep accusing everyone around here of dishonesty, or misinterpretation. Did you ever consider that the problem might be you? 
We have a whole forum here for you to prove your accusations of my dishonesty. You have yet to do it. Odd, since I'm such a prolific liar.","http://www.4forums.com/political/creation-intelligent-design-vs-evolution/10445-big-bang-lol-you-cant-serious.html",359595,243
"1-7293_244_243_4",7293,1,"2009-07-04 08:35:00",697,421,359608,"2009-07-04 08:19:00",315207,36,243,"This in no way answers my question.
However, I've forwarded you the PM from admin. If you'd like, feel free to post it for everyone and explain it to us all.",315206,4,7293,1,"Talks cheap tq, but I don't see you proving your claim with any evidence. Got any proof?","http://www.4forums.com/political/creation-intelligent-design-vs-evolution/10445-big-bang-lol-you-cant-serious.html",359605,244
"1-7293_245_244_4",7293,1,"2009-07-04 08:56:00",421,697,359611,"2009-07-04 08:35:00",315208,27,244,"Let admin PM me and take credit for writing it. Unfortunately you have no credibility with me so I don't know who actually wrote that.",315207,4,7293,1,"This in no way answers my question.
However, I've forwarded you the PM from admin. If you'd like, feel free to post it for everyone and explain it to us all.","http://www.4forums.com/political/creation-intelligent-design-vs-evolution/10445-big-bang-lol-you-cant-serious.html",359608,245
"1-7293_246_245_4",7293,1,"2009-07-04 09:31:00",697,421,359614,"2009-07-04 08:56:00",315209,16,245,"Boggles the mind. The pair you must have. You should bronze those suckers.",315208,4,7293,1,"Let admin PM me and take credit for writing it. Unfortunately you have no credibility with me so I don't know who actually wrote that.","http://www.4forums.com/political/creation-intelligent-design-vs-evolution/10445-big-bang-lol-you-cant-serious.html",359611,246
"1-7293_247_246_4",7293,1,"2009-07-04 13:35:00",421,697,359639,"2009-07-04 09:31:00",315210,14,246,"That's ridiculous, I happen to still be very attached to them. emoticonXSmilie",315209,4,7293,1,"Boggles the mind. The pair you must have. You should bronze those suckers.","http://www.4forums.com/political/creation-intelligent-design-vs-evolution/10445-big-bang-lol-you-cant-serious.html",359614,247
"1-7293_146_145_5",7293,1,"2009-06-28 11:49:00",421,1033,358950,"2009-06-28 09:06:00",315109,88,145,"My words are as empty and shallow as yours are. But these words from the bible are the meat of life and never come back void. Sure, you can ignore them and insist that they don't have any influence on you, but when all is said and done in this life, they will be all that truly mattered. I also find it interesting that you so fear the TRUTH that you are afraid to even read it. So I repeat.

",315108,5,7293,1,"You may as well not post cut and paste from the bible because I don’t read it.
If you can’t argue in your own words I am not interested.","http://www.4forums.com/political/creation-intelligent-design-vs-evolution/10445-big-bang-lol-you-cant-serious.html",358934,146
"1-7293_148_146_5",7293,1,"2009-06-28 13:11:00",1033,421,358963,"2009-06-28 11:49:00",315111,26,146,"Your approach assumes we agree that there is a god and that the bible is the word of god, I disagree on both points.",315109,5,7293,1,"My words are as empty and shallow as yours are. But these words from the bible are the meat of life and never come back void. Sure, you can ignore them and insist that they don't have any influence on you, but when all is said and done in this life, they will be all that truly mattered. I also find it interesting that you so fear the TRUTH that you are afraid to even read it. So I repeat.

","http://www.4forums.com/political/creation-intelligent-design-vs-evolution/10445-big-bang-lol-you-cant-serious.html",358950,148
"1-7293_149_148_5",7293,1,"2009-06-28 15:22:00",421,1033,358974,"2009-06-28 13:11:00",315112,119,148,"The bible is the word of God and your rejection of that FACT does nothing to negate that reality. Don't you get it yet? You can ignore, deny, reject and turn away from the living God all you want to, but that does nothing to lessen the fact that HE IS THE GOD OF ALL CREATION AND THE LORD OF LIFE. 
FOR IT IS WRITTEN AND A RELIABLE PROMISE: Phl 2:10 that at the name of Jesus every knee shall bow, in heaven and on earth and under the earth,
Phl 2:11 and every tongue confess that Jesus Christ is Lord, to the glory of God the Father.",315111,5,7293,1,"Your approach assumes we agree that there is a god and that the bible is the word of god, I disagree on both points.","http://www.4forums.com/political/creation-intelligent-design-vs-evolution/10445-big-bang-lol-you-cant-serious.html",358963,149
"1-7293_154_149_5",7293,1,"2009-06-28 16:12:00",1033,421,358984,"2009-06-28 15:22:00",315117,31,149,"Your argument is a joke as usual.
I don’t know what happened to you to make you this way but it must have been terrible.",315112,5,7293,1,"The bible is the word of God and your rejection of that FACT does nothing to negate that reality. Don't you get it yet? You can ignore, deny, reject and turn away from the living God all you want to, but that does nothing to lessen the fact that HE IS THE GOD OF ALL CREATION AND THE LORD OF LIFE. 
FOR IT IS WRITTEN AND A RELIABLE PROMISE: Phl 2:10 that at the name of Jesus every knee shall bow, in heaven and on earth and under the earth,
Phl 2:11 and every tongue confess that Jesus Christ is Lord, to the glory of God the Father.","http://www.4forums.com/political/creation-intelligent-design-vs-evolution/10445-big-bang-lol-you-cant-serious.html",358974,154
"1-7293_155_154_5",7293,1,"2009-06-28 16:30:00",421,1033,358987,"2009-06-28 16:12:00",315118,77,154,"Jhn 3:5 Jesus answered, ""I tell you the truth, no one can enter the kingdom of God unless he is born of water and the Spirit.
Jhn 3:6 Flesh gives birth to flesh, but the Spirit [fn] gives birth to spirit.
Jhn 3:7 You should not be surprised at my saying, 'You [fn] must be born again.'
",315117,5,7293,1,"Your argument is a joke as usual.
I don’t know what happened to you to make you this way but it must have been terrible.","http://www.4forums.com/political/creation-intelligent-design-vs-evolution/10445-big-bang-lol-you-cant-serious.html",358984,155
"1-7293_173_169_6",7293,1,"2009-06-29 10:02:00",1033,421,359048,"2009-06-29 02:39:00",315136,11,169,"They are not mocking god, they are mocking you.",315132,6,7293,1,"Mock God all you like atheists. None of it changes who He is or the inevitable shock which awaits all who deny His eternal Lordship over all that is.
Mat 10:32 ""Therefore whoever confesses Me before men, him I will also confess before My Father who is in heaven.
Mat 10:33 But whoever denies Me before men, him I will also deny before My Father who is in heaven.
","http://www.4forums.com/political/creation-intelligent-design-vs-evolution/10445-big-bang-lol-you-cant-serious.html",359030,173
"1-7293_174_173_6",7293,1,"2009-06-29 10:29:00",421,1033,359050,"2009-06-29 10:02:00",315137,63,173,"THEY? I suppose you're just the little innocent kid on the sideline watching, huh! Are you attempting to absolve yourself of guilt for all of the mockery you have thrown at God? emoticonXGood Could it be you have been convicted and feel some guilt and maybe a little fear because of the side you have been supporting? emoticonXChicken",315136,6,7293,1,"They are not mocking god, they are mocking you.","http://www.4forums.com/political/creation-intelligent-design-vs-evolution/10445-big-bang-lol-you-cant-serious.html",359048,174
"1-7293_175_174_6",7293,1,"2009-06-29 10:39:00",1033,421,359053,"2009-06-29 10:29:00",315138,77,174,"No I have been mocking you as well.
I have done nothing but mock you since I arrived.
If you also want to say that I am mocking god then yes I am doing that too.
Maybe it would be more accurate if I said I was mocking YOUR god, because quite literally he is as big a joke as you are just look at who he picked to do his promoting.",315137,6,7293,1,"THEY? I suppose you're just the little innocent kid on the sideline watching, huh! Are you attempting to absolve yourself of guilt for all of the mockery you have thrown at God? emoticonXGood Could it be you have been convicted and feel some guilt and maybe a little fear because of the side you have been supporting? emoticonXChicken","http://www.4forums.com/political/creation-intelligent-design-vs-evolution/10445-big-bang-lol-you-cant-serious.html",359050,175
"1-7293_176_175_6",7293,1,"2009-06-29 10:45:00",421,1033,359055,"2009-06-29 10:39:00",315139,37,175,"Thanks, I'm glad we were able to clear that up. Now you'll know better than to deny your ignorant rebellion against Him when you are finally standing before Him on that final day. emoticonXGood",315138,6,7293,1,"No I have been mocking you as well.
I have done nothing but mock you since I arrived.
If you also want to say that I am mocking god then yes I am doing that too.
Maybe it would be more accurate if I said I was mocking YOUR god, because quite literally he is as big a joke as you are just look at who he picked to do his promoting.","http://www.4forums.com/political/creation-intelligent-design-vs-evolution/10445-big-bang-lol-you-cant-serious.html",359053,176
"1-7293_177_176_6",7293,1,"2009-06-29 11:04:00",1033,421,359057,"2009-06-29 10:45:00",315140,23,176,"My rebellion comes not from ignorance but from you, so yeah in a round about way it does come from ignorance.",315139,6,7293,1,"Thanks, I'm glad we were able to clear that up. Now you'll know better than to deny your ignorant rebellion against Him when you are finally standing before Him on that final day. emoticonXGood","http://www.4forums.com/political/creation-intelligent-design-vs-evolution/10445-big-bang-lol-you-cant-serious.html",359055,177
"1-7293_178_177_6",7293,1,"2009-06-29 19:11:00",421,1033,359094,"2009-06-29 11:04:00",315141,86,177,"No my young friend, you are proving how ignorant you are by claiming that I or anyone else can cause you to rebel against God and deny He exists. You will learn one day that just as we are all born alone, and walk through life alone, we also die alone and will be held accountable as individuals by God based on our own personal experiences and opportunities to receive Him, which will be painfully obvious to you by then.",315140,6,7293,1,"My rebellion comes not from ignorance but from you, so yeah in a round about way it does come from ignorance.","http://www.4forums.com/political/creation-intelligent-design-vs-evolution/10445-big-bang-lol-you-cant-serious.html",359057,178
