"key","quote_source_post_discussion_id","posts_dataset_id","posts_timestamp","posts_author_id","quote_source_author_id","posts_native_post_id","quote_source_timestamp","post_text_id","Word_Count","quote_source_post_id","post_text","quote_source_text_id","Dialog_Turn","posts_discussion_id","quote_source_post_dataset_id","Fullquote_text","discussion_url","quote_source_native_post_id","posts_post_id"
"1-7481_50_47_1",7481,1,"2007-12-20 09:39:00",89,421,294538,"2007-12-20 09:10:00",323735,123,47,"Not exactly, but you don't care about the actual science so I won't try to explain it to you. We'll just use your erroneous example, since it's really close enough for this discussion.

They can and do take those things into account. That's why they say it's 14 billion years old, instead of 14.12437845682376534756 billion. There are some factors that we can't pin down exactly, and they add a small degree of uncertainty. That uncertainty might add up to 100 million years. But out of 14 billion, that's not really a big problem. There is NO way the uncertainty could, for example, turn 14 billion into 6 thousand.",323732,1,7481,1,"We have done much more than rely on Telescopes in our search for life. Voyager is a good example of our continuing search to the edge of our Solar System and beyond.
http://www.google.com/url?q=http://v...7hh5vgs_yiA_2A
And isn't it true that scientists have dated the Universe by looking back to the beginning with Telescopes and extrapolating its age based on the speed that light travels from then until now and here? Did they account for the effect Solar Winds would have on the speed of light? Or the effect the varrying densities of the Space that light traveled through had on its speed over sucha vast distance? 
Of course they didn't and couldn't as that information is impossible to compile as it is a statistical unknown with no way to determine over such an incredibly vast distance of Space. So how do some confidently state that the Universe is 14 billion years old? They can't with any confidence. Yet they do.
http://www.space.com/scienceastronom...se_030103.html","http://www.4forums.com/political/creation-intelligent-design-vs-evolution/10711-creation-intelligent-design.html",294526,50
"1-7481_52_50_1",7481,1,"2007-12-20 10:17:00",421,89,294546,"2007-12-20 09:39:00",323737,161,50,"So my example is erroneous but it's close enough not to correct huh? If it's so erroneous you would jump on the chance to prove me wrong. But even when I'm right, you must attempt to imply I am wrong. You're a perfect example of a philosophical coward kronos. So post a link saying my questions are incorrect if you can. And if you can't, stop making assertions you can't back up.

Prove any of these huge assumptions. Don't you get it that none of what you are saying can be proven absolutely? You are placing a tremendous amount of faith in what you are saying above. None of which can be proven beyond a reasonable doubt by a preponderance the evidence. Huge assumptions must be made and held on to in order to accept most all of what this type of science asserts to be reasonable conclusions.",323735,1,7481,1,"Not exactly, but you don't care about the actual science so I won't try to explain it to you. We'll just use your erroneous example, since it's really close enough for this discussion.

They can and do take those things into account. That's why they say it's 14 billion years old, instead of 14.12437845682376534756 billion. There are some factors that we can't pin down exactly, and they add a small degree of uncertainty. That uncertainty might add up to 100 million years. But out of 14 billion, that's not really a big problem. There is NO way the uncertainty could, for example, turn 14 billion into 6 thousand.","http://www.4forums.com/political/creation-intelligent-design-vs-evolution/10711-creation-intelligent-design.html",294538,52
"1-7481_55_52_1",7481,1,"2007-12-20 10:26:00",89,421,294550,"2007-12-20 10:17:00",323740,220,52,"The measurments are based on the red shift of light, not on the speed of light. There, you now know as much as you did before, and everyone else has further proof of the quality of your debates and scientific knowledge. :)

Pretty much everyone else who read what I wrote understood it, and you don't want to understand it. You have no idea how big any assumptions are, or even what the assumption are, or how hard it would be to prove something, nor do you want to know. I'm right, aren't I? If you cared about learning you'd be asking questions, not making blatantly false claims. I've shown everyone what they already knew, that your claim is invalid. If you want me to explain it to you let me know, but don't expect me to waste time with you if all you're going to do is chant ""nu-uh!"" Prove to me you want to learn and I'll teach you, otherwise I have better things to do. I know you'll call that a retreat, but again, everyone else recognizes the truth of the matter, so your accusations will fall on deaf ears.",323737,1,7481,1,"So my example is erroneous but it's close enough not to correct huh? If it's so erroneous you would jump on the chance to prove me wrong. But even when I'm right, you must attempt to imply I am wrong. You're a perfect example of a philosophical coward kronos. So post a link saying my questions are incorrect if you can. And if you can't, stop making assertions you can't back up.

Prove any of these huge assumptions. Don't you get it that none of what you are saying can be proven absolutely? You are placing a tremendous amount of faith in what you are saying above. None of which can be proven beyond a reasonable doubt by a preponderance the evidence. Huge assumptions must be made and held on to in order to accept most all of what this type of science asserts to be reasonable conclusions.","http://www.4forums.com/political/creation-intelligent-design-vs-evolution/10711-creation-intelligent-design.html",294546,55
"1-7481_60_55_1",7481,1,"2007-12-20 10:56:00",421,89,294558,"2007-12-20 10:26:00",323745,94,55,"You realize this rant is completely unresponsive and argumentative while adding nothing of substance to my response to you. How easily you speak for everyone else rather than respond to me directly. 
By the way, do you have a link explaining this red shift of light or am I supposed to just take the word of a XXXX hard who likes to think he's intelligent? 
And what blatantly false claims did I make? All I did was ask questions. SEE, here is what you're responding to?

",323740,1,7481,1,"The measurments are based on the red shift of light, not on the speed of light. There, you now know as much as you did before, and everyone else has further proof of the quality of your debates and scientific knowledge. :)

Pretty much everyone else who read what I wrote understood it, and you don't want to understand it. You have no idea how big any assumptions are, or even what the assumption are, or how hard it would be to prove something, nor do you want to know. I'm right, aren't I? If you cared about learning you'd be asking questions, not making blatantly false claims. I've shown everyone what they already knew, that your claim is invalid. If you want me to explain it to you let me know, but don't expect me to waste time with you if all you're going to do is chant ""nu-uh!"" Prove to me you want to learn and I'll teach you, otherwise I have better things to do. I know you'll call that a retreat, but again, everyone else recognizes the truth of the matter, so your accusations will fall on deaf ears.","http://www.4forums.com/political/creation-intelligent-design-vs-evolution/10711-creation-intelligent-design.html",294550,60
"1-7481_67_60_1",7481,1,"2007-12-20 11:57:00",89,421,294574,"2007-12-20 10:56:00",323752,52,60,"And here we have it again! Folks, I'm still searching for the exact word to describe Archie's response here. That irony plus thing I was talking about before, where he attacks a behavior that describes himself so perfectly. A cookie for whoever figures it out! emoticonXHoho",323745,1,7481,1,"You realize this rant is completely unresponsive and argumentative while adding nothing of substance to my response to you. How easily you speak for everyone else rather than respond to me directly. 
By the way, do you have a link explaining this red shift of light or am I supposed to just take the word of a XXXX hard who likes to think he's intelligent? 
And what blatantly false claims did I make? All I did was ask questions. SEE, here is what you're responding to?

","http://www.4forums.com/political/creation-intelligent-design-vs-evolution/10711-creation-intelligent-design.html",294558,67
"1-7481_112_108_2",7481,1,"2007-12-22 10:53:00",421,236,294812,"2007-12-22 10:34:00",323797,160,108,"Again you allow your ignorance and denial of your spiritual humanity to cause you to make another incorrect assumption. And you do it with such bravado, it is laughable. I have first hand evidence that is available to all who seek it personally. The key word is PERSONALLY. God does not perform for crowds all the time regarding His personal love for us but He will always make a private appearance for those who will just seek Him personally. 
So don't think I am just hoping I will be proven right someday. I know I'm right regarding our origins and am just waiting for the precise details to be made clear to me. But this I do know for certain. That you are 110% wrong in you pseudo man made science that completely excludes the author of life in your equations. That much you can bet your soul on.",323793,2,7481,1,"Your challenge is so easy, I'm surprised you even bothered.
Your whole world view is based on one assumption that has no hard evidence whatsoever. The existence of an almighty deity. Did you really think that it would be difficult to show that you are the one who is making assumptions that effect everything you believe?
However, very few assumptions are made when dealing with scientific evidence. If someone were to look at your scientific evidence and find a glaring assumption had been made then you would be laughed out of the scientific community. It may be true that some of the more far reaching theories have gaps, due to unknowns, but to throw out all scientific knowledge from the base up just because we don't know everything is very short-sighted indeed.
Smiley
PS Make the next challenge a bit more of a . . . . challenge.","http://www.4forums.com/political/creation-intelligent-design-vs-evolution/10711-creation-intelligent-design.html",294807,112
"1-7481_117_112_2",7481,1,"2007-12-22 13:21:00",236,421,294817,"2007-12-22 10:53:00",323802,9,112,"So I was right. No real evidence.",323797,2,7481,1,"Again you allow your ignorance and denial of your spiritual humanity to cause you to make another incorrect assumption. And you do it with such bravado, it is laughable. I have first hand evidence that is available to all who seek it personally. The key word is PERSONALLY. God does not perform for crowds all the time regarding His personal love for us but He will always make a private appearance for those who will just seek Him personally. 
So don't think I am just hoping I will be proven right someday. I know I'm right regarding our origins and am just waiting for the precise details to be made clear to me. But this I do know for certain. That you are 110% wrong in you pseudo man made science that completely excludes the author of life in your equations. That much you can bet your soul on.","http://www.4forums.com/political/creation-intelligent-design-vs-evolution/10711-creation-intelligent-design.html",294812,117
"1-7481_118_117_2",7481,1,"2007-12-22 16:28:00",421,236,294822,"2007-12-22 13:21:00",323803,75,117,"Like I said smiley, I have my evidence and it's overwhelming. You need to seek it yourself and if you are sincere, you will receive it too. Besides, any evidence I present will only be scoffed at and rejected out of hand. But denying what I have personally experienced is a fools errand. But then again, coming from your ilk, it's par for the course.",323802,2,7481,1,"So I was right. No real evidence.","http://www.4forums.com/political/creation-intelligent-design-vs-evolution/10711-creation-intelligent-design.html",294817,118
"1-7481_120_118_2",7481,1,"2007-12-22 17:15:00",236,421,294825,"2007-12-22 16:28:00",323805,55,118,"Ever hear of Peter Sutcliffe? He had enough evidence of the existence of his god to go out and butcher 13 women. It certainly overwhelmed him. It's possible that he was delusional. But then again . . .
Let's just hope your god doesn't ask anything similar of you.
Smiley",323803,2,7481,1,"Like I said smiley, I have my evidence and it's overwhelming. You need to seek it yourself and if you are sincere, you will receive it too. Besides, any evidence I present will only be scoffed at and rejected out of hand. But denying what I have personally experienced is a fools errand. But then again, coming from your ilk, it's par for the course.","http://www.4forums.com/political/creation-intelligent-design-vs-evolution/10711-creation-intelligent-design.html",294822,120
"1-7481_125_120_2",7481,1,"2007-12-22 19:43:00",421,236,294834,"2007-12-22 17:15:00",323810,222,120,"Smiley, if you weren't so utterly clueless regarding what it means to be born again you would actually be funny. But as it stands you are seriously pathetic for even attempting to lay this psychopath at Gods door in any way. 
During the time of their courtship, Sutcliffe had developed an obsession with prostitutes that he indulged together with a friend, Trevor Birdsall, and they spent a large portion of their spare time cruising red-light districts in the Yorkshire area. This obsession continued after their marriage and the acquisition of his HGV licence in June 1975, and his subsequent work as a lorry driver, took him away from home more than ever, enabling him to indulge his obsession without fear of detection. There is speculation that a bad experience with a prostitute, during one of these forays, led to the violent hatred of these women that resulted in the death of thirteen women, and the vicious attack of seven others.
This is just such a great example of why it is a waste of time even attempting to reason with people with such limited understanding of who born again believers are to even think that this demon possessed sociopath was told to do this by God.",323805,2,7481,1,"Ever hear of Peter Sutcliffe? He had enough evidence of the existence of his god to go out and butcher 13 women. It certainly overwhelmed him. It's possible that he was delusional. But then again . . .
Let's just hope your god doesn't ask anything similar of you.
Smiley","http://www.4forums.com/political/creation-intelligent-design-vs-evolution/10711-creation-intelligent-design.html",294825,125
"1-7481_127_125_2",7481,1,"2007-12-22 19:54:00",236,421,294838,"2007-12-22 19:43:00",323812,35,125,"He certainly believed in god, as he had had personal contact with him. So, did you happen to miss that bit?
Or perhaps it was too inconvenient for you.
Smiley",323810,2,7481,1,"Smiley, if you weren't so utterly clueless regarding what it means to be born again you would actually be funny. But as it stands you are seriously pathetic for even attempting to lay this psychopath at Gods door in any way. 
During the time of their courtship, Sutcliffe had developed an obsession with prostitutes that he indulged together with a friend, Trevor Birdsall, and they spent a large portion of their spare time cruising red-light districts in the Yorkshire area. This obsession continued after their marriage and the acquisition of his HGV licence in June 1975, and his subsequent work as a lorry driver, took him away from home more than ever, enabling him to indulge his obsession without fear of detection. There is speculation that a bad experience with a prostitute, during one of these forays, led to the violent hatred of these women that resulted in the death of thirteen women, and the vicious attack of seven others.
This is just such a great example of why it is a waste of time even attempting to reason with people with such limited understanding of who born again believers are to even think that this demon possessed sociopath was told to do this by God.","http://www.4forums.com/political/creation-intelligent-design-vs-evolution/10711-creation-intelligent-design.html",294834,127
"1-7481_131_127_2",7481,1,"2007-12-22 20:08:00",421,236,294842,"2007-12-22 19:54:00",323816,165,127,"Talks cheap smiley, I'm saying that if he truly had personal contact with the real and living God, he would have witnessed to those women rather than first pay them for illicit sex as he cheated on his wife and then butchered 13 of them because he had a bad experience with one of them. 
What I truly marvel at though about all of you hypocrites is that in all of my posts when i insist i have a personal relationship with God that is based on unconditional love, you demand proof. And yet, with this obscure serial killer who claims God told Him to do it and you hold him up as a believable example of what a christian is. Do you see why you are a tool of satan and an enemy of the God of love, and of all that is good and righteous? You are seeped in darkness and spiritual death.",323812,2,7481,1,"He certainly believed in god, as he had had personal contact with him. So, did you happen to miss that bit?
Or perhaps it was too inconvenient for you.
Smiley","http://www.4forums.com/political/creation-intelligent-design-vs-evolution/10711-creation-intelligent-design.html",294838,131
"1-7481_45_43_3",7481,1,"2007-12-20 02:37:00",710,443,294476,"2007-12-20 02:05:00",323730,232,43,"Uh... because we've only begun exploring it and are still pretty much stuck on this speck of dust? There is simply no reason to believe that life itself might not be common, but maybe by far the most common examples of life are simple microbial ones. We wouldn't expect to detect them at present even if every solar system had at least one example. More and more complex life is likely (if the earth's history is a typical one) to be increasingly more improbable, known to have existed only in about the last 500 million years of the 3-4 billion years of life on earth. And technologically adept life has only existed for the last few hundred years.
If you imagine the history of life as extending from your shoulder to your fingertip, chopping off the fingers would wipe out most complex life, while while a single swipe of a nail file would wipe out human civilisation. 
So asking why we haven't detected life out there yet is not a very telling question. Space could be teeming with microbial life, but we weren't aware of it even on earth till the microscope was invented. Our telescopes just aren't good enough. And not all life leaves an oxygen signature, only photosynthetic life.",323728,3,7481,1,"you are reasoning in a way similar to archie. Archie is a believer in the antromorphic principle you are a believer that life is an entity that materialises everywhere it gets a chance, kind of God like. 
How come we have found no evidence of life anywhere else in the universe?","http://www.4forums.com/political/creation-intelligent-design-vs-evolution/10711-creation-intelligent-design.html",294474,45
"1-7481_78_45_3",7481,1,"2007-12-20 22:41:00",443,710,294642,"2007-12-20 02:37:00",323763,9,45,"plenty of speculation but not a shred of evidence",323730,3,7481,1,"Uh... because we've only begun exploring it and are still pretty much stuck on this speck of dust? There is simply no reason to believe that life itself might not be common, but maybe by far the most common examples of life are simple microbial ones. We wouldn't expect to detect them at present even if every solar system had at least one example. More and more complex life is likely (if the earth's history is a typical one) to be increasingly more improbable, known to have existed only in about the last 500 million years of the 3-4 billion years of life on earth. And technologically adept life has only existed for the last few hundred years.
If you imagine the history of life as extending from your shoulder to your fingertip, chopping off the fingers would wipe out most complex life, while while a single swipe of a nail file would wipe out human civilisation. 
So asking why we haven't detected life out there yet is not a very telling question. Space could be teeming with microbial life, but we weren't aware of it even on earth till the microscope was invented. Our telescopes just aren't good enough. And not all life leaves an oxygen signature, only photosynthetic life.","http://www.4forums.com/political/creation-intelligent-design-vs-evolution/10711-creation-intelligent-design.html",294476,78
"1-7481_82_78_3",7481,1,"2007-12-21 02:50:00",710,443,294651,"2007-12-20 22:41:00",323767,27,78,"Like your god, huh. :) At least with ET life, we have some hope of proving whether it is there or not! emoticonXGood",323763,3,7481,1,"plenty of speculation but not a shred of evidence","http://www.4forums.com/political/creation-intelligent-design-vs-evolution/10711-creation-intelligent-design.html",294642,82
"1-7481_85_82_3",7481,1,"2007-12-21 14:09:00",443,710,294721,"2007-12-21 02:50:00",323770,13,82,"all religions are founded on hope which is faith by another name.",323767,3,7481,1,"Like your god, huh. :) At least with ET life, we have some hope of proving whether it is there or not! emoticonXGood","http://www.4forums.com/political/creation-intelligent-design-vs-evolution/10711-creation-intelligent-design.html",294651,85
"1-7481_91_85_3",7481,1,"2007-12-22 06:24:00",710,443,294779,"2007-12-21 14:09:00",323776,63,85,"If faith were identical to hope, then we would have only two virtues instead of three. Free thinkers can certainly have hope and charity. It's much harder for us to have faith in what we can't test. I don't have faith in politicians I can't test; why would I change my habits of mind for your deity?",323770,3,7481,1,"all religions are founded on hope which is faith by another name.","http://www.4forums.com/political/creation-intelligent-design-vs-evolution/10711-creation-intelligent-design.html",294721,91
