"key","quote_source_post_discussion_id","posts_dataset_id","posts_timestamp","posts_author_id","quote_source_author_id","posts_native_post_id","quote_source_timestamp","post_text_id","Word_Count","quote_source_post_id","post_text","quote_source_text_id","Dialog_Turn","posts_discussion_id","quote_source_post_dataset_id","Fullquote_text","discussion_url","quote_source_native_post_id","posts_post_id"
"1-8309_22_20_1",8309,1,"2008-11-08 19:44:00",428,3055,331840,"2008-11-08 19:13:00",366769,43,20,"In normal debates, one side makes a point, the other tries to refute it.
In evolution vs literal creationists, literal creationists make arguments and then refute themselves
And I fully know you won't attempt to actually refute me.",366767,1,8309,1,"You're the one that's ignorant. You stated that creationists cannot argue without resorting to fallacies, generalities are clearly false.
I've never seen such an idiotic comment. 
All you've done is resort to personal attacks. You're an embarrassment, but I assume you already know that.","http://www.4forums.com/political/creation-intelligent-design-vs-evolution/11889-why-creationists.html",331827,22
"1-8309_23_22_1",8309,1,"2008-11-08 19:54:00",3055,428,331845,"2008-11-08 19:44:00",366770,24,22,"This is your tactic. When your arguments are shown to be insane, simply change the subject and resort to personal attacks.",366769,1,8309,1,"In normal debates, one side makes a point, the other tries to refute it.
In evolution vs literal creationists, literal creationists make arguments and then refute themselves
And I fully know you won't attempt to actually refute me.","http://www.4forums.com/political/creation-intelligent-design-vs-evolution/11889-why-creationists.html",331840,23
"1-8309_24_23_1",8309,1,"2008-11-08 19:56:00",428,3055,331847,"2008-11-08 19:54:00",366771,59,23,"Let's see. You claim that my statement about the dishonesty of creationists is wrong., specifically you argue that creationists don't use fallacies Then you go and use a fallacy of changing the subject. 
Seriously. People may think I'm in cahoots with you. I say predict and BAM you go and prove it.",366770,1,8309,1,"This is your tactic. When your arguments are shown to be insane, simply change the subject and resort to personal attacks.","http://www.4forums.com/political/creation-intelligent-design-vs-evolution/11889-why-creationists.html",331845,24
"1-8309_27_24_1",8309,1,"2008-11-08 20:01:00",3055,428,331851,"2008-11-08 19:56:00",366774,56,24,"Show me where I changed the subject.
Show me where I stated that I'm a creationist.
Show me where I specifically said that your statement about the dishonesty of creationists is wrong.
Show me where I stated that creationists don't use fallacies.
You're an embarrassment and a liar. Admit it.",366771,1,8309,1,"Let's see. You claim that my statement about the dishonesty of creationists is wrong., specifically you argue that creationists don't use fallacies Then you go and use a fallacy of changing the subject. 
Seriously. People may think I'm in cahoots with you. I say predict and BAM you go and prove it.","http://www.4forums.com/political/creation-intelligent-design-vs-evolution/11889-why-creationists.html",331847,27
"1-8309_28_27_1",8309,1,"2008-11-08 20:05:00",428,3055,331855,"2008-11-08 20:01:00",366775,50,27,"http://www.4forums.com/political/331739-post12.html
http://www.4forums.com/political/331738-post9.html

Perhaps you need to read better?
I stated this:
Fair enough. You have yet to argue for literal creationism.

So you'll admit that creationists do use dishonest methods? 

You're reported. Enjoy.
Btw, thanks again for proving my prediction true.",366774,1,8309,1,"Show me where I changed the subject.
Show me where I stated that I'm a creationist.
Show me where I specifically said that your statement about the dishonesty of creationists is wrong.
Show me where I stated that creationists don't use fallacies.
You're an embarrassment and a liar. Admit it.","http://www.4forums.com/political/creation-intelligent-design-vs-evolution/11889-why-creationists.html",331851,28
"1-8309_30_28_1",8309,1,"2008-11-08 20:11:00",3055,428,331860,"2008-11-08 20:05:00",366777,70,28,"I did not change the subject. I was responding to your opening post.

So you admit that you lied?

I never said that. 
You said I stated something in which I clearly did not.

you're the one who resorted to personal attacks first.
Don't dish out what you can't take.
It's clear that you're a liar and that you have no defense.",366775,1,8309,1,"http://www.4forums.com/political/331739-post12.html
http://www.4forums.com/political/331738-post9.html

Perhaps you need to read better?
I stated this:
Fair enough. You have yet to argue for literal creationism.

So you'll admit that creationists do use dishonest methods? 

You're reported. Enjoy.
Btw, thanks again for proving my prediction true.","http://www.4forums.com/political/creation-intelligent-design-vs-evolution/11889-why-creationists.html",331855,30
"1-8309_32_30_1",8309,1,"2008-11-08 20:16:00",428,3055,331862,"2008-11-08 20:11:00",366779,160,30,"By changing the subject. Just because you reply doesn't mean you don't change the subject. I could reply with gibberish.

You apparently missed the post where you claimed that creationwiki had refuted talkorigins. As Talkorigins supports the TOH, and since you think that that TO is incorrect, well, you do the math. 

Do you know what a question is? In the English Langauge, a question is meant to gain clarification. My question clearly did not accuse you of saying such, only requesting clarification to whether or not you believed creationists used dishonest tactics. Perhaps you should enroll in a English Comprehension course at your local college? 

See above. Google is a good tool for finding such classes. 
Keep insulting me. Not only will it get you warnings, but it keeps proving my point. 
You have no argument. Only insults.",366777,1,8309,1,"I did not change the subject. I was responding to your opening post.

So you admit that you lied?

I never said that. 
You said I stated something in which I clearly did not.

you're the one who resorted to personal attacks first.
Don't dish out what you can't take.
It's clear that you're a liar and that you have no defense.","http://www.4forums.com/political/creation-intelligent-design-vs-evolution/11889-why-creationists.html",331860,32
"1-8309_34_32_1",8309,1,"2008-11-08 20:38:00",3055,428,331873,"2008-11-08 20:16:00",366781,133,32,"I never changed the subject.
The ""i'm right cuz i say so"" argument is getting old.

Because if I support a theory, I've got to agree with everyone else who supports the theory, right? No matter how asinine their arguments are? I have yet to see a single thing you've posted that would be indicative of any intelligence. Just because someone agrees with you on an issue doesn't mean they have to agree with every asinine thing you say

Your question implied it.
""So basically you're an #####?"" is not asking for clarification, it's an implied statement.

You resorted to insults when all I did was disagree with you.
don't use insults if you can't take it",366779,1,8309,1,"By changing the subject. Just because you reply doesn't mean you don't change the subject. I could reply with gibberish.

You apparently missed the post where you claimed that creationwiki had refuted talkorigins. As Talkorigins supports the TOH, and since you think that that TO is incorrect, well, you do the math. 

Do you know what a question is? In the English Langauge, a question is meant to gain clarification. My question clearly did not accuse you of saying such, only requesting clarification to whether or not you believed creationists used dishonest tactics. Perhaps you should enroll in a English Comprehension course at your local college? 

See above. Google is a good tool for finding such classes. 
Keep insulting me. Not only will it get you warnings, but it keeps proving my point. 
You have no argument. Only insults.","http://www.4forums.com/political/creation-intelligent-design-vs-evolution/11889-why-creationists.html",331862,34
