"key","quote_source_post_discussion_id","posts_dataset_id","posts_timestamp","posts_author_id","quote_source_author_id","posts_native_post_id","quote_source_timestamp","post_text_id","Word_Count","quote_source_post_id","post_text","quote_source_text_id","Dialog_Turn","posts_discussion_id","quote_source_post_dataset_id","Fullquote_text","discussion_url","quote_source_native_post_id","posts_post_id"
"1-8435_288_287_1",8435,1,"2011-06-16 21:12:00",1033,237,432448,"2011-06-16 20:43:00",373865,73,287,"Emptiness suggests that you have something with emptiness inside of it, before the big bang time did not exist and there was no volume of anything, it was truly nothing.
We don't know what if anything exists ""out side"" of the universe or what came before the big bang, but what we do know suggests there was nothing, no space, no time, nothing.",373864,1,8435,1,"Are you then postulating 'true' emptiness before the big bang?","http://www.4forums.com/political/creation-intelligent-design-vs-evolution/12062-honesty-intelligent-design-creationists.html",432444,288
"1-8435_290_288_1",8435,1,"2011-06-16 21:56:00",237,1033,432450,"2011-06-16 21:12:00",373867,201,288,"Before ... time did not exist, is a contradiction in terms.
How does 'truly nothing' imply the spontaneous generation of matter, energy, or dimension?

You're in a state of delusion, nothing can suggest a contradiction like time exists as a value on itself.

You mean a field that drops off exponentially from the source? I can easily imagine that. I don't even need to use the trick I mentioned before because I have been thinking about fields for so long.

Alright, have fun with that point. My point is and has been that mr. michael is correct in everything he said. There can be no rational non-causality, the supposition of non-causality is the supposition of irrational universe. I maintain that a dimension being a value on itself is circular contradiction. I deny that 0 = 1-1 is a model from the generation of existance from non-existance. If anything it represents the ultimate neutrality of a system with respect to the arbitrary zero point. An area totally devoid of force fields classically cannot exist in a universe with charges.",373865,1,8435,1,"Emptiness suggests that you have something with emptiness inside of it, before the big bang time did not exist and there was no volume of anything, it was truly nothing.
We don't know what if anything exists ""out side"" of the universe or what came before the big bang, but what we do know suggests there was nothing, no space, no time, nothing.","http://www.4forums.com/political/creation-intelligent-design-vs-evolution/12062-honesty-intelligent-design-creationists.html",432448,290
"1-8435_291_290_1",8435,1,"2011-06-17 04:30:00",1033,237,432462,"2011-06-16 21:56:00",373868,15,290,"Well, I guess if you don't get it, you don't get it.",373867,1,8435,1,"Before ... time did not exist, is a contradiction in terms.
How does 'truly nothing' imply the spontaneous generation of matter, energy, or dimension?

You're in a state of delusion, nothing can suggest a contradiction like time exists as a value on itself.

You mean a field that drops off exponentially from the source? I can easily imagine that. I don't even need to use the trick I mentioned before because I have been thinking about fields for so long.

Alright, have fun with that point. My point is and has been that mr. michael is correct in everything he said. There can be no rational non-causality, the supposition of non-causality is the supposition of irrational universe. I maintain that a dimension being a value on itself is circular contradiction. I deny that 0 = 1-1 is a model from the generation of existance from non-existance. If anything it represents the ultimate neutrality of a system with respect to the arbitrary zero point. An area totally devoid of force fields classically cannot exist in a universe with charges.","http://www.4forums.com/political/creation-intelligent-design-vs-evolution/12062-honesty-intelligent-design-creationists.html",432450,291
"1-8435_292_291_1",8435,1,"2011-06-17 04:40:00",237,1033,432464,"2011-06-17 04:30:00",373869,25,291,"Was your pretty graph supposed to convince me that the universe can't be understood? Perhaps I was to intuitively understand that you're right :p",373868,1,8435,1,"Well, I guess if you don't get it, you don't get it.","http://www.4forums.com/political/creation-intelligent-design-vs-evolution/12062-honesty-intelligent-design-creationists.html",432462,292
"1-8435_294_292_1",8435,1,"2011-06-17 07:09:00",1033,237,432475,"2011-06-17 04:40:00",373871,56,292,"I know I won't be able to convince you of anything, I don't know why I keep trying, guess it's just a flaw in my nature.
Universe can be understood (with in limits) it's just not going to present it self as something we can instantly visualize and understand intuitively.",373869,1,8435,1,"Was your pretty graph supposed to convince me that the universe can't be understood? Perhaps I was to intuitively understand that you're right :p","http://www.4forums.com/political/creation-intelligent-design-vs-evolution/12062-honesty-intelligent-design-creationists.html",432464,294
"1-8435_295_294_1",8435,1,"2011-06-17 11:06:00",237,1033,432481,"2011-06-17 07:09:00",373872,30,294,"Thanks, but wait; who's on first?

You might be able to convince me that you really want to honestly debate me, but I doubt it.",373871,1,8435,1,"I know I won't be able to convince you of anything, I don't know why I keep trying, guess it's just a flaw in my nature.
Universe can be understood (with in limits) it's just not going to present it self as something we can instantly visualize and understand intuitively.","http://www.4forums.com/political/creation-intelligent-design-vs-evolution/12062-honesty-intelligent-design-creationists.html",432475,295
"1-8435_296_295_1",8435,1,"2011-06-17 19:53:00",1033,237,432510,"2011-06-17 11:06:00",373873,15,295,"I don't know what you mean, how have I been dishonestly debating you?",373872,1,8435,1,"Youmight be able to convince me that you really want to honestly debate me, but I doubt it.","http://www.4forums.com/political/creation-intelligent-design-vs-evolution/12062-honesty-intelligent-design-creationists.html",432481,296
"1-8435_297_296_1",8435,1,"2011-06-18 14:03:00",237,1033,432554,"2011-06-17 19:53:00",373874,71,296,"You constantly quit under the excuse that even though you made an assertion any opposition to it is too foolish to acknowledge. You attack the character, intelligence, education, knowledge, and objectivity of me and others. You make absurd statements like ""When you're explaining you're losing"" in response to the (compared to you) extraordinary effort to clarify my position to you.",373873,1,8435,1,"I don't know what you mean, how have I been dishonestly debating you?","http://www.4forums.com/political/creation-intelligent-design-vs-evolution/12062-honesty-intelligent-design-creationists.html",432510,297
"1-8435_298_297_1",8435,1,"2011-06-18 21:05:00",1033,237,432572,"2011-06-18 14:03:00",373875,24,297,"I guess it worded that poorly, I what I meant to say is, what makes you think I am debating you?",373874,1,8435,1,"You constantly quit under the excuse that even though you made an assertion any opposition to it is too foolish to acknowledge. You attack the character, intelligence, education, knowledge, and objectivity of me and others. You make absurd statements like ""When you're explaining you're losing"" in response to the (compared to you) extraordinary effort to clarify my position to you.","http://www.4forums.com/political/creation-intelligent-design-vs-evolution/12062-honesty-intelligent-design-creationists.html",432554,298
"1-8435_299_298_1",8435,1,"2011-06-18 21:27:00",237,1033,432574,"2011-06-18 21:05:00",373876,70,298,"Rofl!, I promise you I did laugh in the hearing of others when I read that. No, you're quite right; it would be a mistake to say you've ever put enough effort into any post to describe it as trying to debate. That however is dishonest in itself given that you are expected to argue when you assert things on a debate site.",373875,1,8435,1,"I guess it worded that poorly, I what I meant to say is, what makes you think I am debating you?","http://www.4forums.com/political/creation-intelligent-design-vs-evolution/12062-honesty-intelligent-design-creationists.html",432572,299
"1-8435_300_299_1",8435,1,"2011-06-19 05:53:00",1033,237,432580,"2011-06-18 21:27:00",373877,16,299,"Would you say that last little exchange we had about visualization and intuition was honest?",373876,1,8435,1,"Rofl!, I promise you I did laugh in the hearing of others when I read that. No, you're quite right; it would be a mistake to say you've ever put enough effort into any post to describe it as trying to debate. That however is dishonest in itself given that you are expected to argue when you assert things on a debate site.","http://www.4forums.com/political/creation-intelligent-design-vs-evolution/12062-honesty-intelligent-design-creationists.html",432574,300
"1-8435_302_300_1",8435,1,"2011-06-19 09:27:00",237,1033,432612,"2011-06-19 05:53:00",373879,141,300,"Dangerously close (it was also suspiciously similar to explaining!!!).
Except that you said these things in the same string:

Unsupported.

Unsupported.

Ad hominem

Ad hominem

Science is not all of one piece. I think those who set themselves against problems with such an extreme lack of hard data are setting themselves up to fail. It's of course still not excusable that they think they can throw out human logic if they think the math or the reasoning is leading them that way, because of course math and reasoning are human logic. Sounds an awful lot like Aquinas' defense of faith in which he basically said that men have to use their reason to conclude that faith is the only way to achieve the divine truths of the universe.",373877,1,8435,1,"Would you say that last little exchange we had about visualization and intuition was honest?","http://www.4forums.com/political/creation-intelligent-design-vs-evolution/12062-honesty-intelligent-design-creationists.html",432580,302
"1-8435_393_390_2",8435,1,"2011-07-12 09:27:00",1033,237,434328,"2011-07-12 07:09:00",373970,17,390,"What about in the quantum world where probability is the rule, nothing certain about that.",373967,2,8435,1,"Indeed perfect certainty is hard to come by but that is a result of perfect evidence being rare, not the validity of the logic used to evaluate the evidence.","http://www.4forums.com/political/creation-intelligent-design-vs-evolution/12062-honesty-intelligent-design-creationists.html",434306,393
"1-8435_396_393_2",8435,1,"2011-07-12 10:57:00",237,1033,434351,"2011-07-12 09:27:00",373973,34,393,"We all have access to reality, and discernment and truth presume reason.

Are you certain probability is the rule?

Are you saying that is the only deductive argument that exists?",373970,2,8435,1,"What about in the quantum world where probability is the rule, nothing certain about that.","http://www.4forums.com/political/creation-intelligent-design-vs-evolution/12062-honesty-intelligent-design-creationists.html",434328,396
"1-8435_405_396_2",8435,1,"2011-07-12 21:48:00",1033,237,434403,"2011-07-12 10:57:00",373982,4,396,"nothing is certain.",373973,2,8435,1,"We all have access to reality, and discernment and truth presume reason.

Are you certain probability is the rule?

Are you saying that is the only deductive argument that exists?","http://www.4forums.com/political/creation-intelligent-design-vs-evolution/12062-honesty-intelligent-design-creationists.html",434351,405
"1-8435_406_405_2",8435,1,"2011-07-12 22:29:00",237,1033,434405,"2011-07-12 21:48:00",373983,12,405,"What is the probability that there is no probability in QM?",373982,2,8435,1,"nothing is certain.","http://www.4forums.com/political/creation-intelligent-design-vs-evolution/12062-honesty-intelligent-design-creationists.html",434403,406
"1-8435_408_406_2",8435,1,"2011-07-13 02:38:00",1033,237,434415,"2011-07-12 22:29:00",373985,3,406,"It's unknown.",373983,2,8435,1,"What is the probability that there is no probability in QM?","http://www.4forums.com/political/creation-intelligent-design-vs-evolution/12062-honesty-intelligent-design-creationists.html",434405,408
"1-8435_409_408_2",8435,1,"2011-07-13 10:40:00",237,1033,434453,"2011-07-13 02:38:00",373986,24,408,"I see then in fact the bolded statement here is not true:

because you don't actually know that probability is the rule.",373985,2,8435,1,"It's unknown.","http://www.4forums.com/political/creation-intelligent-design-vs-evolution/12062-honesty-intelligent-design-creationists.html",434415,409
"1-8435_410_409_2",8435,1,"2011-07-13 12:11:00",1033,237,434457,"2011-07-13 10:40:00",373987,52,409,"You say certainty I say no, you say are you certain I say no, you say are you certain in your certainty that nothing is certain I say no, what more do you want? 

Did you ever read René Descartes story about the evil genius?",373986,2,8435,1,"I see then in fact the bolded statement here is not true:

because you don't actually know that probability is the rule.","http://www.4forums.com/political/creation-intelligent-design-vs-evolution/12062-honesty-intelligent-design-creationists.html",434453,410
"1-8435_411_410_2",8435,1,"2011-07-13 12:38:00",237,1033,434461,"2011-07-13 12:11:00",373988,117,410,"Some rational thought. You leave yourself a void absent of knowledge; merely comforting yourself with the shadows of facts.
I said that facts do exist, one can be certain; you said 'what about the QM world', but your own inane premises prevent you from even claiming that the QM world is uncertain so all you said was ""It's possible that QM is uncertain, but I nor you will ever know for sure."" :p It is the same family self-defeating ideas that come with subjectivism I have seen a million times. You sir can't actually contradict me emoticonXIdea.

I don't even recognize it.",373987,2,8435,1,"You say certainty I say no, you say are you certain I say no, you say are you certain in your certainty that nothing is certain I say no, what more do you want? 

Did you ever read René Descartes story about the evil genius?","http://www.4forums.com/political/creation-intelligent-design-vs-evolution/12062-honesty-intelligent-design-creationists.html",434457,411
"1-8435_412_411_2",8435,1,"2011-07-13 13:27:00",1033,237,434466,"2011-07-13 12:38:00",373989,22,411,"are you certain?

Evil demon - Wikipedia, the free encyclopedia
Brain in a vat - Wikipedia, the free encyclopedia",373988,2,8435,1,"Some rational thought. You leave yourself a void absent of knowledge; merely comforting yourself with the shadows of facts.
I said that facts do exist, one can be certain; you said 'what about the QM world', but your own inane premises prevent you from even claiming that the QM world is uncertain so all you said was ""It's possible that QM is uncertain, but I nor you will ever know for sure."" :p It is the same family self-defeating ideas that come with subjectivism I have seen a million times. You sir can't actually contradict me emoticonXIdea.

I don't even recognize it.","http://www.4forums.com/political/creation-intelligent-design-vs-evolution/12062-honesty-intelligent-design-creationists.html",434461,412
"1-8435_413_412_2",8435,1,"2011-07-13 13:55:00",237,1033,434469,"2011-07-13 13:27:00",373990,181,412,"Yes.

i.e. the matrix. The answer is simple, when evidence is presented that indicates that life is an illusion then it can be considered a truth; at such time all that we have learned about the illusion will remain true but only for the illusion.
What is however implicit is that reality exists, in the matrix the matrix only had definition as illusion because a red pill existed.
I sense therefore it is. It could be a complicated computer or an evil spirit which is real or it can be reality itself but they are both real.
What can the illusion corrupt? Not reason according to Descartes, and we can still be certain that a sound argument is true, which means we can still be certain that a two masses in the same reference frame will attract each other; those definitions already 'take care of' the nature of reality for us by being based entirely on logical relations between concepts which are constructed from percepts.",373989,2,8435,1,"are you certain?

Evil demon - Wikipedia, the free encyclopedia
Brain in a vat - Wikipedia, the free encyclopedia","http://www.4forums.com/political/creation-intelligent-design-vs-evolution/12062-honesty-intelligent-design-creationists.html",434466,413
"1-8435_574_572_3",8435,1,"2011-08-18 18:18:00",237,1033,437147,"2011-08-18 02:05:00",374151,32,572,"That's your favourite fallacy huh? Accipiter, you may have to actually think about things a little more than going 'ohh god, must be argument from ignorance'.",374149,3,8435,1,"I can show that your entire argument is a logical fallacy, it's called an argument from incredulity.

Argument from ignorance - Wikipedia, the free encyclopedia","http://www.4forums.com/political/creation-intelligent-design-vs-evolution/12062-honesty-intelligent-design-creationists.html",437117,574
"1-8435_575_574_3",8435,1,"2011-08-18 21:16:00",1033,237,437160,"2011-08-18 18:18:00",374152,79,574,"The creationists arguments invariably make the same error in logic. 
It's not possible for them not to make this mistake, the nature of their argument compels it.
There are ways a universe could have been created that no one has imagined yet, some that can't be imagined and a few that have been imagined.
Sure a god creating the universe is a possibility but saying it is the only possibility is just stupid.",374151,3,8435,1,"That's your favourite fallacy huh? Accipiter, you may have to actually think about things a little more than going 'ohh god, must be argument from ignorance'.","http://www.4forums.com/political/creation-intelligent-design-vs-evolution/12062-honesty-intelligent-design-creationists.html",437147,575
"1-8435_576_575_3",8435,1,"2011-08-18 22:59:00",237,1033,437164,"2011-08-18 21:16:00",374153,35,575,"Ah interesting, I'm sure that strategy works out pretty well until it makes a complete fool of you because you started spewing it like a slogan without actually bothering to identify the fallacy.",374152,3,8435,1,"The creationists arguments invariably make the same error in logic. 
It's not possible for them not to make this mistake, the nature of their argument compels it.
There are ways a universe could have been created that no one has imagined yet, some that can't be imagined and a few that have been imagined.
Sure a god creating the universe is a possibility but saying it is the only possibility is just stupid.","http://www.4forums.com/political/creation-intelligent-design-vs-evolution/12062-honesty-intelligent-design-creationists.html",437160,576
"1-8435_577_576_3",8435,1,"2011-08-19 07:33:00",1033,237,437184,"2011-08-18 22:59:00",374154,21,576,"It should be obvious, his conclusion is that there must have been a conscious being which created the universe.

",374153,3,8435,1,"Ah interesting, I'm sure that strategy works out pretty well until it makes a complete fool of you because you started spewing it like a slogan without actually bothering to identify the fallacy.","http://www.4forums.com/political/creation-intelligent-design-vs-evolution/12062-honesty-intelligent-design-creationists.html",437164,577
"1-8435_579_577_3",8435,1,"2011-08-20 16:38:00",237,1033,437254,"2011-08-19 07:33:00",374156,218,577,"Yea but it didn't come from saying 'what else could it possibly be', he's mutilating and stretching definitions to get there. All you need to do is illustrate that by using his definitions on a local thought experiment which can be verified independently.
For instance the way he goes from causation to animation allows a meteor to be animate provided it hits a planet, but since it's obvious this planet hitting meteor is alive we can refer to him/her as something that theist might call god.
He's confusing categories with time (A common affliction in this thread), 'stuck' in timelessness. Time is a variable and that's all we can treat it as, if something exists irrespective of time that does not mean it is 'frozen' because nothing can change because time isn't moving, it's irrespective so it doesn't matter; it could be changing with respect to another dimension, and simply intersect with time on a certain place in time just like a cube can intersect a plane at a certain place on the plane without claiming that the cube needs to be alive in order to traverse from it's non intersecting points to it's intersecting points.",374154,3,8435,1,"It should be obvious, his conclusion is that there must have been a conscious being which created the universe.

","http://www.4forums.com/political/creation-intelligent-design-vs-evolution/12062-honesty-intelligent-design-creationists.html",437184,579
"1-8435_584_579_3",8435,1,"2011-08-23 04:00:00",1033,237,437378,"2011-08-20 16:38:00",374161,201,579,"In all his supporting arguments from the beginning there could have been alternate choices, he chose the ones that support his conclusion and the other choices are not mentioned but if so would be much more likely then saying god did it.
His first post in this thread:

There are two possibilities here, either time has existed forever or it didn't. He offers no supporting argument at all, exactly how did he determine that the universe had a beginning? At this point in our history no one knows which of the two possibilities are true. There is a third possibility as well, our brains are inadequate to really understand whats going on.

How does he know, that things that begin to exist don't cause themselves to exist? Either it needs no cause or it does not need a cause or our brains are inadequate to really understand whats going on. Has to be some sort of being or power that caused the universe to exist? Again he fails to consider other possibilities.
His arguments after that are just a more complex variations of the above.",374156,3,8435,1,"Yea but it didn't come from saying 'what else could it possibly be', he's mutilating and stretching definitions to get there. All you need to do is illustrate that by using his definitions on a local thought experiment which can be verified independently.
For instance the way he goes from causation to animation allows a meteor to be animate provided it hits a planet, but since it's obvious this planet hitting meteor is alive we can refer to him/her as something that theist might call god.
He's confusing categories with time (A common affliction in this thread), 'stuck' in timelessness. Time is a variable and that's all we can treat it as, if something exists irrespective of time that does not mean it is 'frozen' because nothing can change because time isn't moving, it's irrespective so it doesn't matter; it could be changing with respect to another dimension, and simply intersect with time on a certain place in time just like a cube can intersect a plane at a certain place on the plane without claiming that the cube needs to be alive in order to traverse from it's non intersecting points to it's intersecting points.","http://www.4forums.com/political/creation-intelligent-design-vs-evolution/12062-honesty-intelligent-design-creationists.html",437254,584
"1-8435_588_584_3",8435,1,"2011-08-23 19:04:00",237,1033,437420,"2011-08-23 04:00:00",374165,106,584,"Those are bad premises not an example of the fallacy you named. He did not try to go from ignorance to conclusion, he setup false dichotomies like either god or nothing.
You must understand that a false statement can generate many different kinds of fallacies and that which ones pop up depend on how you manipulate it and how it's used. I did not see mr. michael say anything along the lines of ""We can't think of anything but god so it must be god"".
Oh and ""time did/didn't exist forever"" is a oxymoron.",374161,3,8435,1,"In all his supporting arguments from the beginning there could have been alternate choices, he chose the ones that support his conclusion and the other choices are not mentioned but if so would be much more likely then saying god did it.
His first post in this thread:

There are two possibilities here, either time has existed forever or it didn't. He offers no supporting argument at all, exactly how did he determine that the universe had a beginning? At this point in our history no one knows which of the two possibilities are true. There is a third possibility as well, our brains are inadequate to really understand whats going on.

How does he know, that things that begin to exist don't cause themselves to exist? Either it needs no cause or it does not need a cause or our brains are inadequate to really understand whats going on. Has to be some sort of being or power that caused the universe to exist? Again he fails to consider other possibilities.
His arguments after that are just a more complex variations of the above.","http://www.4forums.com/political/creation-intelligent-design-vs-evolution/12062-honesty-intelligent-design-creationists.html",437378,588
"1-8435_637_636_4",8435,1,"2011-09-10 11:20:00",237,1033,438180,"2011-09-10 05:59:00",374214,9,636,"You should check out #3, and #4 :p",374213,4,8435,1,"Freedom and mr.michael ask yourselves this question:
Are you a quack?
Other interesting reading on the subject:
Crackpot index","http://www.4forums.com/political/creation-intelligent-design-vs-evolution/12062-honesty-intelligent-design-creationists.html",438175,637
"1-8435_640_637_4",8435,1,"2011-09-11 04:32:00",1033,237,438199,"2011-09-10 11:20:00",374217,21,637,"Show me where I have said ""You're wrong!"" or ""BUT I HAVE PROVEN YOU WRONG!!""",374214,4,8435,1,"You should check out #3, and #4 :p","http://www.4forums.com/political/creation-intelligent-design-vs-evolution/12062-honesty-intelligent-design-creationists.html",438180,640
"1-8435_641_640_4",8435,1,"2011-09-11 10:17:00",237,1033,438208,"2011-09-11 04:32:00",374218,20,640,"Oh this is going to take a while. You often like to say it through an ad hominem.




















",374217,4,8435,1,"Show me where I have said ""You're wrong!"" or ""BUT I HAVE PROVEN YOU WRONG!!""","http://www.4forums.com/political/creation-intelligent-design-vs-evolution/12062-honesty-intelligent-design-creationists.html",438199,641
"1-8435_644_641_4",8435,1,"2011-09-12 04:33:00",1033,237,438235,"2011-09-11 10:17:00",374221,50,641,"Well 90% of those remarks were directed at ez so throw them out.
The rest were all directed at people who deserved it so throw them out.
And not one of them said ""You're wrong!"" or ""BUT I HAVE PROVEN YOU WRONG!!""",374218,4,8435,1,"Oh this is going to take a while. You often like to say it through an ad hominem.




















","http://www.4forums.com/political/creation-intelligent-design-vs-evolution/12062-honesty-intelligent-design-creationists.html",438208,644
"1-8435_645_644_4",8435,1,"2011-09-12 06:29:00",237,1033,438240,"2011-09-12 04:33:00",374222,81,644,"I see so if someone 'deserves' an ad hominem it's permissible.

Reading comprehension issues? Let me guess, it wasn't what you were thinking at the time? but it's what you wrote.
Your remarks are clearly just the rudest way you know how to say ""you're wrong"" (and twice they were verbatim). You think posing it as an insult frees you from the responsibility of debate? It doesn't.",374221,4,8435,1,"Well 90% of those remarks were directed at ez so throw them out.
The rest were all directed at people who deserved it so throw them out.
And not one of them said ""You're wrong!"" or ""BUT I HAVE PROVEN YOU WRONG!!""","http://www.4forums.com/political/creation-intelligent-design-vs-evolution/12062-honesty-intelligent-design-creationists.html",438235,645
"1-8435_646_645_4",8435,1,"2011-09-12 10:18:00",1033,237,438243,"2011-09-12 06:29:00",374223,46,645,"Not only is it permissible it's my responsibility to do so.

For it to have been a reading comprehension issue I would have had to read your post.

It's more like grabbing my responsibility by the horns and ramming it down there throats.",374222,4,8435,1,"I see so if someone 'deserves' an ad hominem it's permissible.

Reading comprehension issues? Let me guess, it wasn't what you were thinking at the time? but it's what you wrote.
Your remarks are clearly just the rudest way you know how to say ""you're wrong"" (and twice they were verbatim). You think posing it as an insult frees you from the responsibility of debate? It doesn't.","http://www.4forums.com/political/creation-intelligent-design-vs-evolution/12062-honesty-intelligent-design-creationists.html",438240,646
"1-8435_459_456_5",8435,1,"2011-07-25 10:30:00",1537,237,435361,"2011-07-24 18:23:00",374036,108,456,"Freedom, the equation is an analogy. You have negative energy and you have positive energy. You have matter and antimatter as well. You have E=mc^2. This is really not that difficult and by no means am I first person to bring this concept to light. And also, so what if something = something and nothing = nothing. What is violated here? 
Look, I have 1 iota of negative energy. I then add 1 iota of positive energy. What am I left with? Did I really need to spell this out?",374033,5,8435,1,"Bull
Your equation is not modeling something equals nothing any more than 42 models the universe.
This kind of insane interpretation of an equation is what has some people's views on QM in trouble with me.
Observe, 1-1 = 0
Let X = 1-1
Then X = 0
Then X = nothing (according to you)
1-1 = 0 => X = X
Which is to say nothing = nothing and also to say that something = something
Now by you perverse logic of saying that the equation models something from nothing it also models something from something which would mean (in your crazy mind) that something must come from something.
I don't know how many times it is going to take before you realize that something = nothing is a contradiction, that nothing is modeled by a null set in mathematics and logic and not zero.
A root is not defined by 'when the equation is nothing' it is when the equation is zero.","http://www.4forums.com/political/creation-intelligent-design-vs-evolution/12062-honesty-intelligent-design-creationists.html",435304,459
"1-8435_460_459_5",8435,1,"2011-07-25 13:22:00",237,1537,435373,"2011-07-25 10:30:00",374037,37,459,"What is violated here was already expounded by mr michael quite well. Something is nothing is contradiction, mathematically and logically (what's the difference).
Neutrality or zero value does not mean nothing.",374036,5,8435,1,"Freedom, the equation is an analogy. You have negative energy and you have positive energy. You have matter and antimatter as well. You have E=mc^2. This is really not that difficult and by no means am I first person to bring this concept to light. And also, so what if something = something and nothing = nothing. What is violated here? 
Look, I have 1 iota of negative energy. I then add 1 iota of positive energy. What am I left with? Did I really need to spell this out?","http://www.4forums.com/political/creation-intelligent-design-vs-evolution/12062-honesty-intelligent-design-creationists.html",435361,460
"1-8435_461_460_5",8435,1,"2011-07-25 15:12:00",1537,237,435383,"2011-07-25 13:22:00",374038,74,460,"Will you please, I repeat please, use your brain. Did I ever say something is nothing? No I did not. This is not a difficult concept to grasp and your just being a brat. All you ever do is disagree. You never offer anything other than incoherent childish retorts. 
I found a link for you. Please read it.
ASP: A Universe from Nothing",374037,5,8435,1,"What is violated here was already expounded by mr michael quite well. Something is nothing is contradiction, mathematically and logically (what's the difference).
Neutrality or zero value does not mean nothing.","http://www.4forums.com/political/creation-intelligent-design-vs-evolution/12062-honesty-intelligent-design-creationists.html",435373,461
"1-8435_463_461_5",8435,1,"2011-07-25 20:36:00",237,1537,435411,"2011-07-25 15:12:00",374040,1,461,"-----------------------------------------------------",374038,5,8435,1,"Will you please, I repeat please, use your brain. Did I ever say somethingis nothing? No I did not.","http://www.4forums.com/political/creation-intelligent-design-vs-evolution/12062-honesty-intelligent-design-creationists.html",435383,463
"1-8435_464_463_5",8435,1,"2011-07-26 05:17:00",1537,237,435436,"2011-07-25 20:36:00",374041,29,463,"You know what I mean. Find where I said something is nothing. You're playing with semantics and as usual have nothing of any substance to say.",374040,5,8435,1,"-----------------------------------------------------","http://www.4forums.com/political/creation-intelligent-design-vs-evolution/12062-honesty-intelligent-design-creationists.html",435411,464
"1-8435_470_464_5",8435,1,"2011-07-26 12:05:00",237,1537,435482,"2011-07-26 05:17:00",374047,15,464,"You're drawing a distinction between is and = and I am playing with semantics?!",374041,5,8435,1,"You know what I mean. Find where I said something is nothing. You're playing with semantics and as usual have nothing of any substance to say.","http://www.4forums.com/political/creation-intelligent-design-vs-evolution/12062-honesty-intelligent-design-creationists.html",435436,470
"1-8435_584_83_6",8435,1,"2011-08-23 04:00:00",1033,2555,437378,"2008-12-11 22:58:00",374161,201,83,"In all his supporting arguments from the beginning there could have been alternate choices, he chose the ones that support his conclusion and the other choices are not mentioned but if so would be much more likely then saying god did it.
His first post in this thread:

There are two possibilities here, either time has existed forever or it didn't. He offers no supporting argument at all, exactly how did he determine that the universe had a beginning? At this point in our history no one knows which of the two possibilities are true. There is a third possibility as well, our brains are inadequate to really understand whats going on.

How does he know, that things that begin to exist don't cause themselves to exist? Either it needs no cause or it does not need a cause or our brains are inadequate to really understand whats going on. Has to be some sort of being or power that caused the universe to exist? Again he fails to consider other possibilities.
His arguments after that are just a more complex variations of the above.",373660,6,8435,1,"This universe or world could not have existed forever or had an infinite past, so it must have had a beginning. Things that begin to exist, don't cause themselves to exist (that would mean that it would have to exist before existing, in order to cause its own existence) Therefore there has to be some sort of being or power that caused the universe to exist, and this being itself must be infinite.","http://www.4forums.com/political/creation-intelligent-design-vs-evolution/12062-honesty-intelligent-design-creationists.html",336358,584
"1-8435_586_584_6",8435,1,"2011-08-23 14:48:00",2555,1033,437405,"2011-08-23 04:00:00",374163,170,584,"Accipter, I would like to challenge a specific point you brought up; you think that it is possible for things to cause themselves to exist. You seem to think that something can create itself. The reason I do not allow this as a possibility is because it is contradictory. For a particle to cause itself into existence means that the particle is the cause and also the effect. The cause is the effect at the same time and with respect to the particle itself. Another way of putting it, is that for something to have causal power, presupposes that there is ‘something’ that exists. So for the particle to cause itself to exist, by its own power, would mean it would have to exist and not exist at the same time (before it existed) in the same sense. This is a text-book contradiction.

You just repeated yourself.",374161,6,8435,1,"In all his supporting arguments from the beginning there could have been alternate choices, he chose the ones that support his conclusion and the other choices are not mentioned but if so would be much more likely then saying god did it.
His first post in this thread:

There are two possibilities here, either time has existed forever or it didn't. He offers no supporting argument at all, exactly how did he determine that the universe had a beginning? At this point in our history no one knows which of the two possibilities are true. There is a third possibility as well, our brains are inadequate to really understand whats going on.

How does he know, that things that begin to exist don't cause themselves to exist? Either it needs no cause or it does not need a cause or our brains are inadequate to really understand whats going on. Has to be some sort of being or power that caused the universe to exist? Again he fails to consider other possibilities.
His arguments after that are just a more complex variations of the above.","http://www.4forums.com/political/creation-intelligent-design-vs-evolution/12062-honesty-intelligent-design-creationists.html",437378,586
"1-8435_592_586_6",8435,1,"2011-08-25 04:13:00",1033,2555,437492,"2011-08-23 14:48:00",374169,104,586,"Yes I think it is possible that ""something can create itself"" I also think it is possible that something can not create itself. When you are talking about something outside of our universe you can not assume that contradiction and causality will work the same way. Even inside our own universe there are things that contradict our experience and intuition for example black holes, how can a single point of zero dimensions (the singularity) have the mass of hundreds of thousands of suns? How could anything whose size is absolutely nothing even exist at all?",374163,6,8435,1,"Accipter, I would like to challenge a specific point you brought up; you think that it is possible for things to cause themselves to exist. You seem to think that something can create itself. The reason I do not allow this as a possibility is because it is contradictory. For a particle to cause itself into existence means that the particle is the cause and also the effect. The cause is the effect at the same time and with respect to the particle itself. Another way of putting it, is that for something to have causal power, presupposes that there is ‘something’ that exists. So for the particle to cause itself to exist, by its own power, would mean it would have to exist and not exist at the same time (before it existed) in the same sense. This is a text-book contradiction.

You just repeated yourself.","http://www.4forums.com/political/creation-intelligent-design-vs-evolution/12062-honesty-intelligent-design-creationists.html",437405,592
"1-8435_596_592_6",8435,1,"2011-08-26 16:48:00",2555,1033,437536,"2011-08-25 04:13:00",374173,46,592,"It sounds like you're saying causality and contradictions don't work at all.

Whoa whoa whoa ... that's not what I'm challenging. I'm not saying self-creation contradicts our intuition or experience, I'm saying self-creation is self-contradictory, thus making it a logical impossibility.",374169,6,8435,1,"Yes I think it is possible that ""something can create itself"" I also think it is possible that something can not create itself. When you are talking about something outside of our universe you can not assume that contradiction and causality will work the same way. Even inside our own universe there are things that contradict our experience and intuition for example black holes, how can a single point of zero dimensions (the singularity) have the mass of hundreds of thousands of suns? How could anything whose size is absolutely nothing even exist at all?","http://www.4forums.com/political/creation-intelligent-design-vs-evolution/12062-honesty-intelligent-design-creationists.html",437492,596
"1-8435_597_596_6",8435,1,"2011-08-27 16:13:00",1033,2555,437562,"2011-08-26 16:48:00",374174,89,596,"Virtual particles create themselves from nothing all the time all around us.
The universe is a zero energy state, if you take all the positive energy and subtract all the negative energy you get zero, no power is needed to create it.
""The theory of quantum electrodynamics describes nature as absurd from the point of view of common sense. And it agrees fully with experiment. So I hope you can accept nature as she is, absurd."" - Richard Feynman",374173,6,8435,1,"It sounds like you're saying causality and contradictions don't work at all.

Whoa whoa whoa ... that's not what I'm challenging. I'm not saying self-creation contradicts our intuition or experience, I'm saying self-creation is self-contradictory, thus making it a logical impossibility.","http://www.4forums.com/political/creation-intelligent-design-vs-evolution/12062-honesty-intelligent-design-creationists.html",437536,597
"1-8435_603_597_6",8435,1,"2011-08-30 09:58:00",2555,1033,437690,"2011-08-27 16:13:00",374180,206,597,"I'm not sure anyone would say that they literally create themselves, as you have done, but either way even stonewall would disagree with you since he said, ""Conservation is maintained as the energy of the system never actually changes."" So to say they come from literally nothing is wrong, but that still doesn't deal with the logic of self-creation.

Actually, ""if you take all the positive energy and subtract all the negative energy"" you do not get zero, you get twice the amount of absolute energy in the system. Even if I were to take the view that there is no imbalance in the universe's energy, that still doesn't mean it was uncaused ... you're statement AGREES with me that it was caused, you just say that it was caused BY ITSELF. You are avoiding the fact that you said it created itself (caused itself to exist), and shifting gears to a position of it being created by nothing at all. 

Do you hold to this quote if 'absurd' means contradictory? If so, then do you concede that self-creation is contradictory.",374174,6,8435,1,"Virtual particles create themselves from nothing all the time all around us.
The universe is a zero energy state, if you take all the positive energy and subtract all the negative energy you get zero, no power is needed to create it.
""The theory of quantum electrodynamics describes nature as absurd from the point of view of common sense. And it agrees fully with experiment. So I hope you can accept nature as she is, absurd."" - Richard Feynman","http://www.4forums.com/political/creation-intelligent-design-vs-evolution/12062-honesty-intelligent-design-creationists.html",437562,603
"1-8435_604_603_6",8435,1,"2011-08-30 16:11:00",1033,2555,437704,"2011-08-30 09:58:00",374181,205,603,"You are right I would not say it that way, I tried to put it in to words that are similar to what you are saying. What I would say is that virtual particles pop in and out of existence from nothing all the time, or virtual particles are created by nothing from nothing. The zero-energy universe thing was again me trying to put it into words that you could relate to, the correct way to say it is: The amount of positive energy in the form of matter is exactly canceled out by the negative energy in the form of gravity. Which ever way it is said the fact remains, it took nothing to create the universe, no power full omnipotent being needed.
Feynman's quote says if your argument or logic or whatever does not match observation then there is a very strong possibility that it is wrong no matter how unbelievable that may seem. Another thing that is very possible is not that logic has failed it's your application of it which has failed.
What created the universe was a quantum fluctuation and what created the quantum fluctuation is nothing.",374180,6,8435,1,"I'm not sure anyone would say that they literally create themselves, as you have done, but either way even stonewall would disagree with you since he said, ""Conservation is maintained as the energy of the system never actually changes."" So to say they come from literally nothing is wrong, but that still doesn't deal with the logic of self-creation.

Actually, ""if you take all the positive energy and subtract all the negative energy"" you do not get zero, you get twice the amount of absolute energy in the system. Even if I were to take the view that there is no imbalance in the universe's energy, that still doesn't mean it was uncaused ... you're statement AGREES with me that it was caused, you just say that it was caused BY ITSELF. You are avoiding the fact that you said it created itself (caused itself to exist), and shifting gears to a position of it being created by nothing at all. 

Do you hold to this quote if 'absurd' means contradictory? If so, then do you concede that self-creation is contradictory.","http://www.4forums.com/political/creation-intelligent-design-vs-evolution/12062-honesty-intelligent-design-creationists.html",437690,604
"1-8435_607_604_6",8435,1,"2011-08-31 17:24:00",2555,1033,437744,"2011-08-30 16:11:00",374184,53,604,"I have to disagree with you on the idea that things can come into existence from nothing, by nothing, and for nothing, for reasons I've already stated. But either way, the specific point you stated that I was challenging you on can now be laid to rest.",374181,6,8435,1,"You are right I would not say it that way, I tried to put it in to words that are similar to what you are saying. What I would say is that virtual particles pop in and out of existence from nothing all the time, or virtual particles are created by nothing from nothing. The zero-energy universe thing was again me trying to put it into words that you could relate to, the correct way to say it is: The amount of positive energy in the form of matter is exactly canceled out by the negative energy in the form of gravity. Which ever way it is said the fact remains, it took nothing to create the universe, no power full omnipotent being needed.
Feynman's quote says if your argument or logic or whatever does not match observation then there is a very strong possibility that it is wrong no matter how unbelievable that may seem. Another thing that is very possible is not that logic has failed it's your application of it which has failed.
What created the universe was a quantum fluctuation and what created the quantum fluctuation is nothing.","http://www.4forums.com/political/creation-intelligent-design-vs-evolution/12062-honesty-intelligent-design-creationists.html",437704,607
"1-8435_608_607_6",8435,1,"2011-08-31 18:38:00",1033,2555,437747,"2011-08-31 17:24:00",374185,45,607,"Could you point out others who share your opinion?
I am sure someone out there has pondered this question seriously and I honestly would like to read about it.
As far as the issue being laid to rest I have to disagree.",374184,6,8435,1,"I have to disagree with you on the idea that things can come into existence from nothing, by nothing, and for nothing, for reasons I've already stated. But either way, the specific point you stated that I was challenging you on can now be laid to rest.","http://www.4forums.com/political/creation-intelligent-design-vs-evolution/12062-honesty-intelligent-design-creationists.html",437744,608
"1-8435_610_608_6",8435,1,"2011-08-31 19:18:00",2555,1033,437750,"2011-08-31 18:38:00",374187,78,608,"I only challenged you on one specific point; your view of a particle creating itself. To which you responded..

So you have conceded, and changed your phrasing to something different. Though I still disagree with what you changed it to, the specific point that I challenged is laid to rest because you are no longer holding to a self-created particle but rather to a particle created from nothing, by nothing.",374185,6,8435,1,"Could you point out others who share your opinion?
I am sure someone out there has pondered this question seriously and I honestly would like to read about it.
As far as the issue being laid to rest I have to disagree.","http://www.4forums.com/political/creation-intelligent-design-vs-evolution/12062-honesty-intelligent-design-creationists.html",437747,610
"1-8435_611_610_6",8435,1,"2011-08-31 19:54:00",1033,2555,437751,"2011-08-31 19:18:00",374188,63,610,"Does it really make a difference to say particle creating it self from nothing or particle popping into existence from nothing?
Might as well say it created it self, the result is the same.
I would still like to see some references on your position or are you the only person in the world that believes what you believe?",374187,6,8435,1,"I only challenged you on one specific point; your view of a particle creating itself. To which you responded..

So you have conceded, and changed your phrasing to something different. Though I still disagree with what you changed it to, the specific point that I challenged is laid to rest because you are no longer holding to a self-created particle but rather to a particle created from nothing, by nothing.","http://www.4forums.com/political/creation-intelligent-design-vs-evolution/12062-honesty-intelligent-design-creationists.html",437750,611
"1-8435_613_611_6",8435,1,"2011-09-01 07:49:00",2555,1033,437772,"2011-08-31 19:54:00",374190,98,611,"What would be the difference between saying a particle created itself from nothing or saying that something else created the particle from nothing, the result is the same right? 
The difference isn't in the FROM nothing, the difference is in the BY nothing (the causal question) and that makes all the difference in the world, especially between your view and mine. So yes, it does matter how you say it.

My position on virtual particles being caused by something else? or the physical universe having a beginning?",374188,6,8435,1,"Does it really make a difference to say particle creating it self from nothing or particle popping into existence from nothing?
Might as well say it created it self, the result is the same.
I would still like to see some references on your position or are you the only person in the world that believes what you believe?","http://www.4forums.com/political/creation-intelligent-design-vs-evolution/12062-honesty-intelligent-design-creationists.html",437751,613
"1-8435_614_613_6",8435,1,"2011-09-01 10:32:00",1033,2555,437775,"2011-09-01 07:49:00",374191,16,613,"That the universe was created by god, and it is illogical to think otherwise.",374190,6,8435,1,"What would be the difference between saying a particle created itself from nothing or saying that something else created the particle from nothing, the result is the same right? 
The difference isn't in the FROM nothing, the difference is in the BY nothing (the causal question) and that makes all the difference in the world, especially between your view and mine. So yes, it does matter how you say it.

My position on virtual particles being caused by something else? or the physical universe having a beginning?","http://www.4forums.com/political/creation-intelligent-design-vs-evolution/12062-honesty-intelligent-design-creationists.html",437772,614
"1-8435_276_275_7",8435,1,"2011-06-16 00:59:00",2555,1790,432372,"2011-06-15 23:40:00",373853,125,275,"Stonewall, I know it was stated that there was nothing more to say, but I just like debating too much :) Besides, you brought up the uncertainty principle and I want to talk about that for a bit. I understand that the uncertainty principle, based on the probability of a wave function, states that it is inherently impossible for someone to find out the estimate of where the position of a particle is and its momentum at the same time. But why does this necessitate that the particle itself does not follow certain laws that determine its path? Isn't the inherent indetermination on the part of the observer not being able to predict the particles behavior?",373852,7,8435,1,"It doesn'thave to spawn, but it does, thanks to the uncertainty principle. It's quantum fluctuations.","http://www.4forums.com/political/creation-intelligent-design-vs-evolution/12062-honesty-intelligent-design-creationists.html",432370,276
"1-8435_277_276_7",8435,1,"2011-06-16 03:04:00",1790,2555,432376,"2011-06-16 00:59:00",373854,189,276,"It's not about us (or the observer) measuring it, it's about the way the particles actually act... it's a law of physics itself.
Take our sun for instance. For the atoms in the sun to overcome the strong nuclear force and allow for hydrogen fusion, the temperature needs to be around 10 billion degrees K. The sun's temperature, though, is only about 15 million degrees K... The gravity that is crushing these atoms (and causing the heat) is putting the hydrogen nuclei into a very tiny box, which severely limits where the protons can be found (meaning the momentum and position don't have a lot of options here). Because of this, the uncertainty principle allows protons to jump out of the nucleus in what is know as tunneling. Without the uncertainty principle, the sun wouldn't shine at all. 
It doesn't matter that there is no observer in the middle of the sun to see it, it is the simple principle that causes these particles to act sporadically.",373853,7,8435,1,"Stonewall, I know it was stated that there was nothing more to say, but I just like debating too much :) Besides, you brought up the uncertainty principle and I want to talk about that for a bit. I understand that the uncertainty principle, based on the probability of a wave function, states that it is inherently impossible for someone to find out the estimate of where the position of a particle is and its momentum at the same time. But why does this necessitate that the particle itself does not follow certain laws that determine its path? Isn't the inherent indetermination on the part of the observer not being able to predict the particles behavior?","http://www.4forums.com/political/creation-intelligent-design-vs-evolution/12062-honesty-intelligent-design-creationists.html",432372,277
"1-8435_305_277_7",8435,1,"2011-06-20 13:20:00",2555,1790,432772,"2011-06-16 03:04:00",373882,47,277,"You think that observing has nothing to do with it? Aren't you getting off track with what Heisenberg himself said? What about wave-function collapse? The very act of observing collapses the wave function. Where are you coming from, Copenhagen or Decoherence?",373854,7,8435,1,"It's not about us (or the observer) measuring it, it's about the way the particles actually act... it's a law of physics itself.
It doesn't matter that there is no observer in the middle of the sun to see it, it is the simple principle that causes these particles to act sporadically.","http://www.4forums.com/political/creation-intelligent-design-vs-evolution/12062-honesty-intelligent-design-creationists.html",432376,305
"1-8435_306_305_7",8435,1,"2011-06-20 15:43:00",1790,2555,432782,"2011-06-20 13:20:00",373883,145,305,"Did I say that observation has nothing to do with the uncertainty principle? No. 
I understand the wave-function collapse, and I already made reference to it in this thread with the double slit experiment... but it isn't about the observer. 
As I showed with tunneling, it's a real law of nature and will affect the way particles act whether anyone observes them or not. The particle can't allow itself to be in a position where both its momentum and position are known, regardless if anyone is actually there to do the measurement. 
You were implying that particles may behave 'rationally' and that it is the observations that make them seem crazy, but that is completely incorrect. They actually behave ridiculously no matter what, and that is the beauty of it.",373882,7,8435,1,"You think that observing has nothing to do with it? Aren't you getting off track with what Heisenberg himself said? What about wave-function collapse? The very act of observing collapses the wave function. Where are you coming from, Copenhagen or Decoherence?","http://www.4forums.com/political/creation-intelligent-design-vs-evolution/12062-honesty-intelligent-design-creationists.html",432772,306
"1-8435_307_306_7",8435,1,"2011-06-21 01:03:00",2555,1790,432811,"2011-06-20 15:43:00",373884,61,306,"But isn't this quantum indeterminacy resolved through observation? I mean, your using the uncertainty principle as a basis to say that quantum events are uncaused sporadic fluctuations (particles popping into existence) right? How exactly does collapsing the wave function play into this? If it is observed, do particles all of sudden behave deterministic?",373883,7,8435,1,"Did I say that observation has nothing to do with the uncertainty principle? No. 
I understand the wave-function collapse, and I already made reference to it in this thread with the double slit experiment... but it isn't about the observer. 
As I showed with tunneling, it's a real law of nature and will affect the way particles act whether anyone observes them or not. The particle can't allow itself to be in a position where both its momentum and position are known, regardless if anyone is actually there to do the measurement. 
You were implying that particles may behave 'rationally' and that it is the observations that make them seem crazy, but that is completely incorrect. They actually behave ridiculously no matter what, and that is the beauty of it.","http://www.4forums.com/political/creation-intelligent-design-vs-evolution/12062-honesty-intelligent-design-creationists.html",432782,307
