"key","quote_source_post_discussion_id","posts_dataset_id","posts_timestamp","posts_author_id","quote_source_author_id","posts_native_post_id","quote_source_timestamp","post_text_id","Word_Count","quote_source_post_id","post_text","quote_source_text_id","Dialog_Turn","posts_discussion_id","quote_source_post_dataset_id","Fullquote_text","discussion_url","quote_source_native_post_id","posts_post_id"
"1-8462_167_165_1",8462,1,"2009-01-02 19:47:00",375,421,338686,"2009-01-02 19:22:00",375578,94,165,"I must have missed that. Edit: I see now in his most recent post he clearly says this, so I stand corrected.
I notice you made no comment on the other half of my post however...... The part about my own dice experience (six ones in a row - those must be out of this world odds according to you; and several in a row on a 20 sided dice), and yes, they it was a single dice and done in a row.",375576,1,8462,1,"SP, why are you making a fool of yourself and defending a guy who already admitted he never rolled 5 six's in a row? Iangb has said he didn't do it so why the heck are you trying to prove he did? Have this discussion with yourself from here on, my time is too valuable to have such infantile arguments.","http://www.4forums.com/political/creation-intelligent-design-vs-evolution/12101-evolution-incompatible-christianity.html",338679,167
"1-8462_169_167_1",8462,1,"2009-01-02 20:38:00",421,375,338693,"2009-01-02 19:47:00",375580,14,167,"Sure you did SP, and right in time for this debate. ;)",375578,1,8462,1,"I must have missed that. Edit: I see now in his most recent post he clearly says this, so I stand corrected.
I notice you made no comment on the other half of my post however...... The part about my own dice experience (six ones in a row - those must be out of this world odds according to you; and several in a row on a 20 sided dice), and yes, they it was a single dice and done in a row.","http://www.4forums.com/political/creation-intelligent-design-vs-evolution/12101-evolution-incompatible-christianity.html",338686,169
"1-8462_170_169_1",8462,1,"2009-01-02 20:46:00",375,421,338695,"2009-01-02 20:38:00",375581,115,169,"No, this has occured in the time since I started playing D&D two and a half years ago. One incident (the four ones on a D20) occured to my first character who died three sessions into the game. The three 20s occured last summer with a centaur (my favorite character thus far). The six ones occured sometime in the last year.
I am sorry that you do not seem to grasp the concept of probability and the fact that rolling the same number several times in a row is quite common and not anything close to ""astronomical"" as you claimed......",375580,1,8462,1,"Sure you did SP, and right in time for this debate. ;)","http://www.4forums.com/political/creation-intelligent-design-vs-evolution/12101-evolution-incompatible-christianity.html",338693,170
"1-8462_172_170_1",8462,1,"2009-01-02 21:16:00",421,375,338699,"2009-01-02 20:46:00",375583,191,170,"You see, here's the problem SP, I'm not stupid. I even sat in on a few D&D games myself. So I know how many dice in a set. 
One 4-sided die
Four 6-sided dice
One 8-sided die
One 10-sided die
One percentile die
One 12-sided die
One 20-sided die
Dungeons & Dragons Dice
So your claim that you threw 6 ones in a row with a single die just defies belief since you rarely, if ever get an opportunity to throw six singles in a row on a 6 sided die in D&D. But you keep it up, you're just blowing smoke all over the place as you attempt to make throwing six rolls of the same number with one dice a common place event. I would just challenge any observer of this argument to take a dice while sitting around and throw it a couple of hundred times while keeping track of how many times the same number comes up in back to back succession. 

",375581,1,8462,1,"No, this has occured in the time since I started playing D&D two and a half years ago. One incident (the four ones on a D20) occured to my first character who died three sessions into the game. The three 20s occured last summer with a centaur (my favorite character thus far). The six ones occured sometime in the last year.
I am sorry that you do not seem to grasp the concept of probability and the fact that rolling the same number several times in a row is quite common and not anything close to ""astronomical"" as you claimed......","http://www.4forums.com/political/creation-intelligent-design-vs-evolution/12101-evolution-incompatible-christianity.html",338695,172
"1-8462_175_172_1",8462,1,"2009-01-02 21:31:00",375,421,338703,"2009-01-02 21:16:00",375586,177,172,"1) I don't have that D&D dice set. I got one in a short tube (you can get from any gaming store) which has one of each of those dice you just listed, not multiple. They are not made by Wizards Co. but are a generic gaming dice set made by Koplow Games (""The NICE DICE Company"") Right here: http://www.g2ch.com/dice-opaque-with...ers-p-516.html. Actually cheaper there (without shipping) than it was at my gaming store. No comment on the D20 I see........
2) Apparently you aren't familiar with it, as there are NUMEROUS weapons that do only 1d6 damage - that means only one dice roll (for example the club, the sickle, the short sword, the hand crossbow, etc.), and also spells which do only 1d6 damage. So yes, each turn I did damage I rolled that 1d6 damage dice, and all those turns it came out as a 1.",375583,1,8462,1,"You see, here's the problem SP, I'm not stupid. I even sat in on a few D&D games myself. So I know how many dice in a set.
One 4-sided die
Four 6-sided dice
One 8-sided die
One 10-sided die
One percentile die
One 12-sided die
One 20-sided die
Dungeons & Dragons Dice
So your claim that you threw 6 ones in a row with a single die just defies belief since you rarely, if ever get an opportunity to throw six singles in a row in D&D. But you keep it up, you're just blowing smoke all over the place as you attempt to make throwing six rolls of the same number with one dice a common place event. I would just challenge any observer of this argument to take a dice while sitting around and throw it a couple of hundred times while keeping track of how many times the same number comes up in back to back succession.","http://www.4forums.com/political/creation-intelligent-design-vs-evolution/12101-evolution-incompatible-christianity.html",338699,175
"1-8462_5_4_2",8462,1,"2008-12-14 13:45:00",1069,2713,336655,"2008-12-14 13:14:00",375416,68,4,"And yet now we have returned to a faith-based view of the universe that relies on a Creator acting illogically (read: deliberately fabricating a false version of reality, with (for example) light from the stars sped up in order to reach earth in time) in order to work.
I can't help but feel that some of us have moved backwards.",375415,2,8462,1,"In fact, the ""Scientific Method"" originated from the idea that the Physical Universe operates on rational physical laws because the Creator did it in logical fashion.
What did we have b4 that? ""Dragons eating the moon during an eclipse'? Angry gods causing volcanoes to erupt? Apollo racing his fiery chariot across the sky every day? ","http://www.4forums.com/political/creation-intelligent-design-vs-evolution/12101-evolution-incompatible-christianity.html",336651,5
"1-8462_7_5_2",8462,1,"2008-12-14 14:58:00",2713,1069,336671,"2008-12-14 13:45:00",375418,124,5,"I agree.
From what I have heard it was the ""Church"" that declared the earth to be flat. On the other hand - The Bible talks about the ""...circle of the Earth"" !!! [Do not believe man is another adage attributed to the Bible.] :) Not to mention that the ""... the Earth hangeth on nothing"", in Job - - contrast that with the superstition of Atlas holding the earth on his back.
[Even as a child I remember wondering ""What is Atlas standing on? :) ]
Does anyone remember if Atlas's earth was flat or spherical? The picture is always spherical in modern times.",375416,2,8462,1,"And yet now we have returned to a faith-based view of the universe that relies on a Creator acting illogically (read: deliberately fabricating a false version of reality, with (for example) light from the stars sped up in order to reach earth in time) in order to work.
I can't help but feel that some of us have moved backwards.","http://www.4forums.com/political/creation-intelligent-design-vs-evolution/12101-evolution-incompatible-christianity.html",336655,7
"1-8462_9_7_2",8462,1,"2008-12-14 15:12:00",1069,2713,336675,"2008-12-14 14:58:00",375420,102,7,"I can't remember. From what I can remember, however, ancient greek orrerys (heliocentric models of the solar system) have been found. A quick visit to wikipedia agrees with me. A slightly longer visit to my bookshelf confirms it with a name - (link to wikipedia again because I'm to lazy too type the relevant quotes). The Greeks knew.
While faith may inspire scientific progress, blind faith - in this case the unfaltering assumption that your particular translation of the bible is the correct one - tends to stunt it.",375418,2,8462,1,"I agree.
From what I have heard it was the ""Church"" that declared the earth to be flat. On the other hand - The Bible talks about the ""...circle of the Earth"" !!! [Do not believe man is another adage attributed to the Bible.] :) Not to mention that the ""... the Earth hangeth on nothing"", in Job - - contrast that with the superstition of Atlas holding the earth on his back.
[Even as a child I remember wondering ""What is Atlas standing on? :) ]
Does anyone remember if Atlas's earth was flat or spherical? The picture is always spherical in modern times.","http://www.4forums.com/political/creation-intelligent-design-vs-evolution/12101-evolution-incompatible-christianity.html",336671,9
"1-8462_11_9_2",8462,1,"2008-12-15 06:06:00",2713,1069,336738,"2008-12-14 15:12:00",375422,133,9,"There is no doubt that a lot of cultures retained a lot of knowledge about our physical universe and how things work. We have no real idea about the science of the anti-deluvian world - but we do know, they remembered how to build pyramids.
More than one culture remembered how to handle stone in such a way. We still cannot duplicate how it was done. :)
As far as stunting scientific progress with blind faith in bad ideas, I agree. How much progress was stunted with the idea of pangenesis? then later ""mutations"" providing new and useful genetic information? 
In my world - The Bible is true until it is proven wrong. 
Then it is no longer the Bible.",375420,2,8462,1,"I can't remember. From what I can remember, however, ancient greek orrerys (heliocentric models of the solar system) have been found. A quick visit to wikipedia agrees with me. A slightly longer visit to my bookshelf confirms it with a name - (link to wikipedia again because I'm to lazy too type the relevant quotes). The Greeks knew.
While faith may inspire scientific progress, blind faith - in this case the unfaltering assumption that your particular translation of the bible is the correct one - tends to stunt it.","http://www.4forums.com/political/creation-intelligent-design-vs-evolution/12101-evolution-incompatible-christianity.html",336675,11
"1-8462_17_11_2",8462,1,"2008-12-15 09:28:00",1069,2713,336762,"2008-12-15 06:06:00",375428,168,11,"You do know that this has been directly observed, yes? Panda Shepherds are a good example...
To use your analogy, and from a theistic evolutionist point of view - the bible provides the knowledge. The interpretations of that knowledge should provide wisdom - but only if those interpretations are correct.
The bible is the bible is the bible - be it metaphorical or factual. It's the various interpretations thereof that are proved or disproved - and once one interpretation has been disproved, why cling to it? Your only reason is blind faith. The flat earth, geocentrism, and now creationism... all are based on incorrect interpretations, and all are observably false.
To use a favourite quote (paraphrased) of mine - ""The greatest triumph of science over religion was not evolution, or in education. It was in the 17th century, when churches started putting up lightning conductors"".",375422,2,8462,1,"There is no doubt that a lot of cultures retained a lot of knowledge about our physical universe and how things work. We have no real idea about the science of the anti-deluvian world - but we do know, they remembered how to build pyramids.
More than one culture remembered how to handle stone in such a way. We still cannot duplicate how it was done. :)
As far as stunting scientific progress with blind faith in bad ideas, I agree. How much progress was stunted with the idea of pangenesis? then later ""mutations"" providing new and useful genetic information? 
In my world - The Bible is true until it is proven wrong. 
Then it is no longer the Bible.","http://www.4forums.com/political/creation-intelligent-design-vs-evolution/12101-evolution-incompatible-christianity.html",336738,17
"1-8462_18_17_2",8462,1,"2008-12-15 09:42:00",2713,1069,336763,"2008-12-15 09:28:00",375429,138,17,"This is another example of a mutation doing nothing more than scrambling the code that is already there. In this case : Color. No different than 6 fingers on and organism that already had the coding for 5 fingers. 
We can logically extrapolate that to mean the mutations will eventually evolve or even devolve into feathers or something that is genuinely new? I don't think so.
Why are people still clinging to that? Go with pangenesis! It is just as valid yet more interesting. :)
Give me just 1 hair follicle that produces a feather or scale as a result of natural mutation then I might consider it.
Oh, I forgot, we can now splice genes into organisms and create a lot more hoaxes. Nevermind.",375428,2,8462,1,"You do know that this has been directly observed, yes? Panda Shepherds are a good example...
To use your analogy, and from a theistic evolutionist point of view - the bible provides the knowledge. The interpretations of that knowledge should provide wisdom - but only if those interpretations are correct.
The bible is the bible is the bible - be it metaphorical or factual. It's the various interpretations thereof that are proved or disproved - and once one interpretation has been disproved, why cling to it? Your only reason is blind faith. The flat earth, geocentrism, and now creationism... all are based on incorrect interpretations, and all are observably false.
To use a favourite quote (paraphrased) of mine - ""The greatest triumph of science over religion was not evolution, or in education. It was in the 17th century, when churches started putting up lightning conductors"".","http://www.4forums.com/political/creation-intelligent-design-vs-evolution/12101-evolution-incompatible-christianity.html",336762,18
