"key","quote_source_post_discussion_id","posts_dataset_id","posts_timestamp","posts_author_id","quote_source_author_id","posts_native_post_id","quote_source_timestamp","post_text_id","Word_Count","quote_source_post_id","post_text","quote_source_text_id","Dialog_Turn","posts_discussion_id","quote_source_post_dataset_id","Fullquote_text","discussion_url","quote_source_native_post_id","posts_post_id"
"1-8470_51_48_1",8470,1,"2008-12-21 17:25:00",974,1367,337623,"2008-12-21 15:38:00",375993,9,48,"I'm a Christian. What denomination are you?",375990,1,8470,1,"What denomination are you?","http://www.4forums.com/political/creation-intelligent-design-vs-evolution/12114-genetic-basis-speciation.html",337618,51
"1-8470_53_51_1",8470,1,"2008-12-21 18:34:00",1367,974,337631,"2008-12-21 17:25:00",375995,67,51,"I'm a Luthuran. A denomination is ""a large group of religious congregations united under a common faith and name and organized under a single administrative and legal hierarchy."" (dictionary.com) So you didn't answer my question, and I suspect you never will. I was just wondering what type of church you attended. 
Would you consider yourself a Theistic evolutionist?",375993,1,8470,1,"I'm a Christian. What denomination are you?","http://www.4forums.com/political/creation-intelligent-design-vs-evolution/12114-genetic-basis-speciation.html",337623,53
"1-8470_56_53_1",8470,1,"2008-12-21 19:38:00",974,1367,337637,"2008-12-21 18:34:00",375998,129,53,"I think it's spelled ""Lutheran.""

Roman Catholics don't have denominations. We're just Christians.

Roman Catholic.

I consider myself a Christian.
BTW, if you are a Lutheran, you should know what your denomination teaches about it:
On the other hand there are those who can no more close their eyes to the evidence which substantiates some kind of lengthy evolutionary process in the opinion of the vast majority of those scientists most competent to judge than they could deny the awesome reality of God's presence in nature and their own experience of complete dependence upon the creative and sustaining hand of God revealed in the Scriptures. 
The Encyclopedia of the Lutheran Church, published by the Lutheran World Federation",375995,1,8470,1,"I'm a Luthuran. A denomination is ""a large group of religious congregations united under a common faith and name and organized under a single administrative and legal hierarchy."" (dictionary.com) So you didn't answer my question, and I suspect you never will. I was just wondering what type of church you attended. 
Would you consider yourself a Theistic evolutionist?","http://www.4forums.com/political/creation-intelligent-design-vs-evolution/12114-genetic-basis-speciation.html",337631,56
"1-8470_87_56_1",8470,1,"2008-12-22 18:01:00",1367,974,337730,"2008-12-21 19:38:00",376029,100,56,"(post#56)

(post#70)


That's strange, Pandion has corrected me on spelling before, while making two to three times as many spelling errors himself. emoticonXConfused
(post#75)

(post#77)

The one thing that ""true orthodox Christians"" like The Barbarian seem to always have going for them is immediate backup by a militant atheist. The militant atheist introduces us to a book, and two hours later the orthodox Christian is quoting from it. 
Is there anything at all that you two actually disagree on?",375998,1,8470,1,"I think it's spelled ""Lutheran.""

Roman Catholics don't have denominations. We're just Christians.

Roman Catholic.

I consider myself a Christian.
BTW, if you are a Lutheran, you should know what your denomination teaches about it:
On the other hand there are those who can no more close their eyes to the evidence which substantiates some kind of lengthy evolutionary process in the opinion of the vast majority of those scientists most competent to judge than they could deny the awesome reality of God's presence in nature and their own experience of complete dependence upon the creative and sustaining hand of God revealed in the Scriptures. 
The Encyclopedia of the Lutheran Church, published by the Lutheran World Federation","http://www.4forums.com/political/creation-intelligent-design-vs-evolution/12114-genetic-basis-speciation.html",337637,87
"1-8470_93_87_1",8470,1,"2008-12-22 20:13:00",974,1367,337747,"2008-12-22 18:01:00",376035,38,87,"This is probably a hard concept for you, but truth is truth, no matter who says it. 

Something creationists and atheists seem to agree on; ""science and Christianity are not compatible.""",376029,1,8470,1,"(post#56)

(post#70)


That's strange, Pandion has corrected me on spelling before, while making two to three times as many spelling errors himself. emoticonXConfused
(post#75)

(post#77)

The one thing that ""true orthodox Christians"" like The Barbarian seem to always have going for them is immediate backup by a militant atheist. The militant atheist introduces us to a book, and two hours later the orthodox Christian is quoting from it. 
Is there anything at all that you two actually disagree on?","http://www.4forums.com/political/creation-intelligent-design-vs-evolution/12114-genetic-basis-speciation.html",337730,93
