"key","quote_source_post_discussion_id","posts_dataset_id","posts_timestamp","posts_author_id","quote_source_author_id","posts_native_post_id","quote_source_timestamp","post_text_id","Word_Count","quote_source_post_id","post_text","quote_source_text_id","Dialog_Turn","posts_discussion_id","quote_source_post_dataset_id","Fullquote_text","discussion_url","quote_source_native_post_id","posts_post_id"
"1-9101_187_184_1",9101,1,"2009-08-27 15:48:00",421,697,367101,"2009-08-27 14:20:00",407373,62,184,"So of course in your mind because the highest branch in the picture says birds, then that must mean that birds are a more sophisticated species than humans, right? Gee TQ, does that means that Birds are the APEX SPECIES on Earth, and are above humans in creativity, imagination and reason? Go figure. emoticonXWow",407370,1,9101,1,"Actually, birds are on top in your picture. Oops, there goes that rant.","http://www.4forums.com/political/creation-intelligent-design-vs-evolution/13107-effective-arguments-disproving-biblical-creation.html",367085,187
"1-9101_190_187_1",9101,1,"2009-08-27 16:05:00",697,421,367107,"2009-08-27 15:48:00",407376,51,187,"Actually, that was your argument-that because humans are at the top of the ""tree"" that that demonstrates that they are the most sophisticated. So, if you want to get snotty about it, you're the one arguing birds are at the top of the heap.",407373,1,9101,1,"So of course in your mind because the highest branch in the picture says birds, then that must mean that birds are a more sophisticated species than humans, right? Gee TQ, does that means that Birds are the APEX SPECIES on Earth, and are above humans in creativity, imagination and reason? Go figure. emoticonXWow","http://www.4forums.com/political/creation-intelligent-design-vs-evolution/13107-effective-arguments-disproving-biblical-creation.html",367101,190
"1-9101_192_190_1",9101,1,"2009-08-27 16:40:00",421,697,367119,"2009-08-27 16:05:00",407378,29,190,"Wrong again schnook. I don't need a picture to tell me that we humans are at the top of the heap as this planets apex creatures. emoticonXRolleyes",407376,1,9101,1,"Actually, that was your argument-that because humans are at the top of the ""tree"" that that demonstrates that they are the most sophisticated. So, if you want to get snotty about it, you're the one arguing birds are at the top of the heap.","http://www.4forums.com/political/creation-intelligent-design-vs-evolution/13107-effective-arguments-disproving-biblical-creation.html",367107,192
"1-9101_193_192_1",9101,1,"2009-08-27 16:44:00",697,421,367121,"2009-08-27 16:40:00",407379,61,192,"Oh, so you can point out where I argued that birds were the apex species? No? What a shock
You're right, right now, humans are the apex species. BUT (and I know you don't get this part), we are not the most evolved. All extant species are equally as evolved.",407378,1,9101,1,"Wrong again schnook. I don't need a picture to tell me that we humans are at the top of the heap as this planets apex creatures. emoticonXRolleyes","http://www.4forums.com/political/creation-intelligent-design-vs-evolution/13107-effective-arguments-disproving-biblical-creation.html",367119,193
"1-9101_195_193_1",9101,1,"2009-08-27 17:04:00",421,697,367125,"2009-08-27 16:44:00",407381,67,193,"Sure TQ, you are free to believe whatever floats your boat. Tell me though since I'm just dying to learn from you; which lower life form which still eats its own dung is more evolved than us? And if you can tell me, at what point in human history did we decide it was no longer cool to do that? emoticonXDonno",407379,1,9101,1,"You're right, right now, humans are the apex species.BUT (and I know you don't get this part), we are not the most evolved. All extant species are equally as evolved.","http://www.4forums.com/political/creation-intelligent-design-vs-evolution/13107-effective-arguments-disproving-biblical-creation.html",367121,195
"1-9101_34_33_2",9101,1,"2009-08-13 05:09:00",421,1033,365286,"2009-08-13 04:33:00",407220,221,33,"God IS NOT MAGIC you simpleton. He is the supernatural creator of all that is. He is omniscient, omnipotent and omnipresent. He is infinite in that He has no beginning and no end. As He described Himself to Moses who asked Him whom he should tell Pharaoh had sent him, God responded with; ""Tell him I AM sent you."" Try to comprehend that description of our Creators nature and compare it to the wisp of wind you represent in time and space. And then ask yourself what hubris allows you to mock him as you do when you will most assuredly be standing before him in just a blink of an eye, as time is measured. 

Just because we interpret the available evidence differently, for you to assume from that, that we believers know nothing about the universe we inhabit is arrogance to the max.

Read my first paragraph in this post again and tell me that our ignorance has been proven by you humanists in any way at all. Or if in fact, you secularists don't prove your massive ignorance every time you attempt to discuss God, His eternal nature and His character? And at least we can spell.",407219,2,9101,1,"The problem with this idea is that once you arrive at the belief that god is magic no further learning is needed.
I see far to many religious people that know absolutely nothing about the universe they live in as a result.
What’s worse is those that try to apply science to defend the literal inturpation of the bible.
All they succeed in doing is to confuse the already ignorant religious population.","http://www.4forums.com/political/creation-intelligent-design-vs-evolution/13107-effective-arguments-disproving-biblical-creation.html",365281,34
"1-9101_36_34_2",9101,1,"2009-08-13 05:36:00",1033,421,365291,"2009-08-13 05:09:00",407222,50,34,"Ok so why not call it the god is supernatural argument, would you find that more to your liking?
Arch there is no defense against the god is supernatural argument so why don’t you leave it at that or are you a simpleton?",407220,2,9101,1,"God IS NOT MAGIC you simpleton. He is the supernatural creator of all that is. He is omniscient, omnipotent and omnipresent. He is infinite in that He has no beginning and no end. As He described Himself to Moses who asked Him whom he should tell Pharaoh had sent him, God responded with; ""Tell him I AM sent you."" Try to comprehend that description of our Creators nature and compare it to the wisp of wind you represent in time and space. And then ask yourself what hubris allows you to mock him as you do when you will most assuredly be standing before him in just a blink of an eye, as time is measured. 

Just because we interpret the available evidence differently, for you to assume from that, that we believers know nothing about the universe we inhabit is arrogance to the max.

Read my first paragraph in this post again and tell me that our ignorance has been proven by you humanists in any way at all. Or if in fact, you secularists don't prove your massive ignorance every time you attempt to discuss God, His eternal nature and His character? And at least we can spell.","http://www.4forums.com/political/creation-intelligent-design-vs-evolution/13107-effective-arguments-disproving-biblical-creation.html",365286,36
"1-9101_37_36_2",9101,1,"2009-08-13 05:46:00",421,1033,365293,"2009-08-13 05:36:00",407223,36,36,"WOW, as spiritual discussions go, I may as well be dealing with infants. And what is so sad about that statement is that I feel like I am unfairly insulting infants. emoticonXBanghead",407222,2,9101,1,"Ok so why not call it the god is supernatural argument, would you find that more to your liking?
Arch there is no defense against the god is supernatural argument so why don’t you leave it at that or are you a simpleton?","http://www.4forums.com/political/creation-intelligent-design-vs-evolution/13107-effective-arguments-disproving-biblical-creation.html",365291,37
"1-9101_38_37_2",9101,1,"2009-08-13 06:04:00",1033,421,365296,"2009-08-13 05:46:00",407224,32,37,"Now you have been reduced to making childish insults with nothing of substance in you post.
Why not include an argument next time or is that to tough to do?",407223,2,9101,1,"WOW, as spiritual discussions go, I may as well be dealing with infants. And what is so sad about that statement is that I feel like I am unfairly insulting infants. emoticonXBanghead","http://www.4forums.com/political/creation-intelligent-design-vs-evolution/13107-effective-arguments-disproving-biblical-creation.html",365293,38
"1-9101_39_38_2",9101,1,"2009-08-13 07:18:00",421,1033,365305,"2009-08-13 06:04:00",407225,159,38,"You call your statements above, arguments? Why can you post nothing more than insulting and nonsensical drivel yet when I comment on it I am just making childish insults? Why the hypocrisy and double standards in every debate with you deniers of God and His truths? Why can you make the most ignorant and irrational statements from the spiritual perspective, and feel intelligent for it, yet when I call your statements ignorant and shallow, I am being childish and insulting? 
This just proves that your side has no sense of fair play, honor or justice as you blindly assume that your thinking is correct when you deny the spiritual aspect of your own nature, and actually believe that you are intelligent for doing that. Talk about denying ones own nature and reality, you people epitomize it. Yet it is supposedly me who is lacking arguments?",407224,2,9101,1,"Now you have been reduced to making childish insults with nothing of substance in you post.
Why not include an argument next time or is that to tough to do?","http://www.4forums.com/political/creation-intelligent-design-vs-evolution/13107-effective-arguments-disproving-biblical-creation.html",365296,39
"1-9101_40_39_2",9101,1,"2009-08-13 08:04:00",1033,421,365309,"2009-08-13 07:18:00",407226,23,39,"Because when you reach the point where you begin making childish insults with nothing else in your post, I have won.",407225,2,9101,1,"You call your statements above, arguments? Why can you post nothing more than insulting and nonsensical drivel yet when I comment on it I am just making childish insults? Why the hypocrisy and double standards in every debate with you deniers of God and His truths? Why can you make the most ignorant and irrational statements from the spiritual perspective, and feel intelligent for it, yet when I call your statements ignorant and shallow, I am being childish and insulting? 
This just proves that your side has no sense of fair play, honor or justice as you blindly assume that your thinking is correct when you deny the spiritual aspect of your own nature, and actually believe that you are intelligent for doing that. Talk about denying ones own nature and reality, you people epitomize it. Yet it is supposedly me who is lacking arguments?","http://www.4forums.com/political/creation-intelligent-design-vs-evolution/13107-effective-arguments-disproving-biblical-creation.html",365305,40
"1-9101_41_40_2",9101,1,"2009-08-13 08:37:00",421,1033,365319,"2009-08-13 08:04:00",407227,60,40,"First of all, this statement wasn't a childish insult at all. It was a statement of fact which defined the shallowness of your insults and the ignorance of their substance. It is your insulting response which is childish. So the only venue which you have won anything in is in your own small mind. emoticonXGood",407226,2,9101,1,"Because when you reach the point where you begin making childish insults with nothing else in your post, I have won.","http://www.4forums.com/political/creation-intelligent-design-vs-evolution/13107-effective-arguments-disproving-biblical-creation.html",365309,41
"1-9101_49_41_2",9101,1,"2009-08-14 03:30:00",1033,421,365406,"2009-08-13 08:37:00",407235,18,41,"Yeah arch, you are right, it doesn’t insult anyone but yourself.",407227,2,9101,1,"First of all, this statement wasn't a childish insult at all. It was a statement of fact which defined the shallowness of your insults and the ignorance of their substance. It is your insulting response which is childish. So the only venue which you have won anything in is in your own small mind. emoticonXGood","http://www.4forums.com/political/creation-intelligent-design-vs-evolution/13107-effective-arguments-disproving-biblical-creation.html",365319,49
"1-9101_380_370_3",9101,1,"2009-09-03 15:00:00",421,1033,368142,"2009-09-03 12:31:00",407566,66,370,"Sorry, I meant macroevolution. I have been discussing the impossibility of macroevolution occurring throughout this whole debate and have likened microevolution to rapid adaptation which does occur in nature. What hasn't occurred and never will is one species of animal evolving into another species which I did explain in the post in which I mistakingly used the term micro rather than macroevolution.",407556,3,9101,1,"micro-evolution?","http://www.4forums.com/political/creation-intelligent-design-vs-evolution/13107-effective-arguments-disproving-biblical-creation.html",368101,380
"1-9101_398_380_3",9101,1,"2009-09-04 05:16:00",1033,421,368217,"2009-09-03 15:00:00",407584,80,380,"There have been laboratory experiments with fruit flies which have produced the beginnings of speciation.
Two populations of fruit fly’s were separated and kept in separate environments and fed different food.
After many generations these fruit fly’s were brought together and it was found that only fly’s from the same environment would mate. 
Given enough time they would become separate species unable to mate.",407566,3,9101,1,"Sorry, I meant macroevolution. I have been discussing the impossibility of macroevolution occurring throughout this whole debate and have likened microevolution to rapid adaptation which does occur in nature. What hasn't occurred and never will is one species of animal evolving into another species which I did explain in the post in which I mistakingly used the term micro rather than macroevolution.","http://www.4forums.com/political/creation-intelligent-design-vs-evolution/13107-effective-arguments-disproving-biblical-creation.html",368142,398
"1-9101_399_398_3",9101,1,"2009-09-04 05:36:00",421,1033,368221,"2009-09-04 05:16:00",407585,162,398,"Then why didn't you post a link to the actual experiment with evidence that macroevolution occurred? And by that I assume you mean that the fruit fly evolved into something other than a fruit fly, right? It was no longer a member of the same genus of creature at all, but had evolved into another type of fly other than a fruit fly? Is that what you're saying? In other words, Fruit flies are properly named Drosophila melanogaster, so their genus is Drosophila and their species is Drosophila melanogaster. There are a bunch of similar kinds of flies that are in different species, and so would have a different two-part name, but would all be Drosophila. Are you saying that after many generations one group of these fruit flies had evolved into a new and unique genus? If so, please produce evidence of this if you can.",407584,3,9101,1,"There have been laboratory experiments with fruit flies which have produced the beginnings of speciation.
Two populations of fruit fly’s were separated and kept in separate environments and fed different food.
After many generations these fruit fly’s were brought together and it was found that only fly’s from the same environment would mate. 
Given enough time they would become separate species unable to mate.","http://www.4forums.com/political/creation-intelligent-design-vs-evolution/13107-effective-arguments-disproving-biblical-creation.html",368217,399
"1-9101_400_399_3",9101,1,"2009-09-04 05:55:00",1033,421,368224,"2009-09-04 05:36:00",407586,9,399,"Just do a search on, Diane Dodd Speciation",407585,3,9101,1,"Then why didn't you post a link to the actual experiment with evidence that macroevolution occurred? And by that I assume you mean that the fruit fly evolved into something other than a fruit fly, right? It was no longer a member of the same genus of creature at all, but had evolved into another type of fly other than a fruit fly? Is that what you're saying? In other words, Fruit flies are properly named Drosophila melanogaster, so their genus is Drosophila and their species is Drosophila melanogaster. There are a bunch of similar kinds of flies that are in different species, and so would have a different two-part name, but would all be Drosophila. Are you saying that after many generations one group of these fruit flies had evolved into a new and unique genus? If so, please produce evidence of this if you can.","http://www.4forums.com/political/creation-intelligent-design-vs-evolution/13107-effective-arguments-disproving-biblical-creation.html",368221,400
"1-9101_401_400_3",9101,1,"2009-09-04 06:31:00",421,1033,368226,"2009-09-04 05:55:00",407587,216,400,"What! You aren't interested enough to defend your own claim with evidence? Or do you already see the holes in your evidence? For example, doesn't your evidence show that all of the segregated fruit fly populations remained fruit flies at the end of the experiment? All be it flies which preferred other flies with the same diet? 
http://evolution.berkeley.edu/evolib...experiment.gif
Diane Dodd’s fruit fly experiment suggests that isolating populations in different environments (e.g., with different food sources) can lead to the beginning of reproductive isolation. These results are consistent with the idea that geographic isolation is an important step of some speciation events.
Evidence for speciation
As you can see, the result of this experiment promotes the idea of reproductive isolation. The rest of the claims are nothing more than the idea that isolation might lead to some speciation events. But nothing is concluded in absolute terms at all. This just confirms the giant leaps made with little or no actual evidence upon which they are based, at all. With that said, I must ask you, in what valid science is an ""IDEA"" conclusive evidence of any absolute fact at all? emoticonXConfused",407586,3,9101,1,"Just do a search on, Diane Dodd Speciation","http://www.4forums.com/political/creation-intelligent-design-vs-evolution/13107-effective-arguments-disproving-biblical-creation.html",368224,401
"1-9101_402_401_3",9101,1,"2009-09-04 07:22:00",1033,421,368233,"2009-09-04 06:31:00",407588,13,401,"Exactly. 
Bottom line, your type is not worth arguing with.",407587,3,9101,1,"What! You aren't interested enough to defend your own claim with evidence? Or do you already see the holes in your evidence? For example, doesn't your evidence show that all of the segregated fruit fly populations remained fruit flies at the end of the experiment? All be it flies which preferred other flies with the same diet? 
http://evolution.berkeley.edu/evolib...experiment.gif
Diane Dodd’s fruit fly experiment suggests that isolating populations in different environments (e.g., with different food sources) can lead to the beginning of reproductive isolation. These results are consistent with the idea that geographic isolation is an important step of some speciation events.
Evidence for speciation
As you can see, the result of this experiment promotes the idea of reproductive isolation. The rest of the claims are nothing more than the idea that isolation might lead to some speciation events. But nothing is concluded in absolute terms at all. This just confirms the giant leaps made with little or no actual evidence upon which they are based, at all. With that said, I must ask you, in what valid science is an ""IDEA"" conclusive evidence of any absolute fact at all? emoticonXConfused","http://www.4forums.com/political/creation-intelligent-design-vs-evolution/13107-effective-arguments-disproving-biblical-creation.html",368226,402
"1-9101_405_402_3",9101,1,"2009-09-04 08:23:00",421,1033,368245,"2009-09-04 07:22:00",407591,66,402,"Of course we aren't. We are mythbusters who refuse to allow you to propagate your religions lies and misrepresentations regarding the origin of life on earth. And that's no fun for you, is it! emoticonXDonno Macroevolution is an unprovable myth which cannot be supported by science since it has never occurred either in nature or in the laboratory. PERIOD! emoticonXGood",407588,3,9101,1,"Exactly. 
Bottom line, your type is not worth arguing with.","http://www.4forums.com/political/creation-intelligent-design-vs-evolution/13107-effective-arguments-disproving-biblical-creation.html",368233,405
