"key","quote_source_post_discussion_id","posts_dataset_id","posts_timestamp","posts_author_id","quote_source_author_id","posts_native_post_id","quote_source_timestamp","post_text_id","Word_Count","quote_source_post_id","post_text","quote_source_text_id","Dialog_Turn","posts_discussion_id","quote_source_post_dataset_id","Fullquote_text","discussion_url","quote_source_native_post_id","posts_post_id"
"1-9364_56_54_1",9364,1,"2009-11-11 17:11:00",1367,1033,377842,"2009-11-11 16:40:00",419565,134,54,"In Dembski's words ""Intelligent design continues to look for function where nonteleological approaches to evolution attribute clumsiness or incompetence."" 
I think the best way to look at it is like an analyzation of any old cliff face in a state like Tennesee vs looking at Mount Rushmore. One who believes that Mount Rushmore was designed is going to learn more, both about it, and how it compares to the Tennesse cliff, than is the person who believes they both came to be in exactly the same way. 
If abiogenesis were true, what could we do with it? What major scientific discoveries would abiogenesis give us? (Scientific discoveries, not social discoveries, like bigger government, closure of churches, etc.)",419563,1,9364,1,"marc9000, so if ID were true what could we do with it?
What major scientific discoveries would ID give us?","http://www.4forums.com/political/creation-intelligent-design-vs-evolution/13495-i-d-questions.html",377837,56
"1-9364_64_56_1",9364,1,"2009-11-14 08:02:00",1033,1367,378270,"2009-11-11 17:11:00",419573,63,56,"Yeah that’s nice some guy with a religious bias said something ridiculous big deal.
I don’t think you really understand ID at all.
You keep slipping into the science is a conspiracy thing and that is what is really driving your arguments.
How many thick books have you read about ID?",419565,1,9364,1,"In Dembski's words ""Intelligent design continues to look for function where nonteleological approaches to evolution attribute clumsiness or incompetence."" 
I think the best way to look at it is like an analyzation of any old cliff face in a state like Tennesee vs looking at Mount Rushmore. One who believes that Mount Rushmore was designed is going to learn more, both about it, and how it compares to the Tennesse cliff, than is the person who believes they both came to be in exactly the same way. 
If abiogenesis were true, what could we do with it? What major scientific discoveries would abiogenesis give us? (Scientific discoveries, not social discoveries, like bigger government, closure of churches, etc.)","http://www.4forums.com/political/creation-intelligent-design-vs-evolution/13495-i-d-questions.html",377842,64
"1-9364_66_64_1",9364,1,"2009-11-14 17:49:00",1367,1033,378350,"2009-11-14 08:02:00",419575,139,64,"But you gotta admit, it's nowhere near as ridiculous as “abiogenesis is a fact”. 

I don’t think those who seek to destroy something are good judges of the relevant understanding of that subjects promoters. 

What’s driving my arguments is clear inconsistencies, and biased, non-scientific behavior going on in the scientific community, including claims that ID is a conspiracy theory, and I’m not alone. More people than ever are home-schooling their children – the movie “Expelled” showed serious problems in academia. The emotional reaction to that movie from the scientific community was very telling. Very little, if any, admission of problems.",419573,1,9364,1,"Yeah that’s nice some guy with a religious bias said something ridiculous big deal.
I don’t think you really understand ID at all.
You keep slipping into the science is a conspiracy thing and that is what is really driving your arguments.
How many thick books have you read about ID?","http://www.4forums.com/political/creation-intelligent-design-vs-evolution/13495-i-d-questions.html",378270,66
"1-9364_68_66_1",9364,1,"2009-11-15 07:40:00",1033,1367,378402,"2009-11-14 17:49:00",419577,151,66,"I ask one used car salesman how a car works and he says, “magic makes it go.” I say can you show me the magic or explain how the magic works and he says, “no you just have to trust me”. 
I ask another used car salesman the same question and he gives me a detailed comprehensible and logical explanation of the workings of the internal combustion engine. What’s really neat is that he can show me how all the stuff works. The only thing he can’t show me is combustion taking place inside the cylinder but what’s happing all around it certainly indicates that combustion is indeed taking place.
Which man would you buy a used car from?",419575,1,9364,1,"But you gotta admit, it's nowhere near as ridiculous as “abiogenesis is a fact”. 

I don’t think those who seek to destroy something are good judges of the relevant understanding of that subjects promoters. 

What’s driving my arguments is clear inconsistencies, and biased, non-scientific behavior going on in the scientific community, including claims that ID is a conspiracy theory, and I’m not alone. More people than ever are home-schooling their children – the movie “Expelled” showed serious problems in academia. The emotional reaction to that movie from the scientific community was very telling. Very little, if any, admission of problems.","http://www.4forums.com/political/creation-intelligent-design-vs-evolution/13495-i-d-questions.html",378350,68
"1-9364_69_68_1",9364,1,"2009-11-15 12:30:00",1367,1033,378437,"2009-11-15 07:40:00",419578,87,68,"Like, ""no you just have to trust me, abiogenesis is a fact""? A tornado blew through the junkyard of abiogenesis, and this car appeared!

Yes, it was designed! Designers can select for future function, it's a characteristic of design! He can show you how it works, and he doesn't have to show you exactly who designed it! 

The one who showed that something with complex order was designed by an intelligent source. ;)",419577,1,9364,1,"I ask one used car salesman how a car works and he says, “magic makes it go.” I say can you show me the magic or explain how the magic works and he says, “no you just have to trust me”. 
I ask another used car salesman the same question and he gives me a detailed comprehensible and logical explanation of the workings of the internal combustion engine. What’s really neat is that he can show me how all the stuff works. The only thing he can’t show me is combustion taking place inside the cylinder but what’s happing all around it certainly indicates that combustion is indeed taking place.
Which man would you buy a used car from?","http://www.4forums.com/political/creation-intelligent-design-vs-evolution/13495-i-d-questions.html",378402,69
