"native_discussion_id","title","discussion_id","topic_id","initiating_author_id","discussion_url","dataset_id"
22,"Death Penalty",17,6,37,"http://www.4forums.com/political/crime-debates/22-death-penalty.html",1
118,"Death penalty?",107,6,14,"http://www.4forums.com/political/religion-debates/118-death-penalty.html",1
642,"Capital Punishement",373,6,11,"http://www.4forums.com/political/crime-debates/642-capital-punishement.html",1
1367,"When should we execute?",823,6,32,"http://www.4forums.com/political/crime-debates/1367-when-should-we-execute.html",1
1867,"Should CRIMINALS have the right to choose DEATH over a LIFE sentence?",1128,6,336,"http://www.4forums.com/political/crime-debates/1867-should-criminals-have-right-choose-death-over-life-sentence.html",1
2730,"Death penilty",1676,6,116,"http://www.4forums.com/political/crime-debates/2730-death-penilty.html",1
3375,"Capital Punishment",2104,6,358,"http://www.4forums.com/political/crime-debates/3375-capital-punishment.html",1
3635,"Jury debates over Scott Peterson’s fate…",2301,6,1620,"http://www.4forums.com/political/crime-debates/3635-jury-debates-over-scott-peterson-s-fate.html",1
3714,"Guilty!  Should he die?",2358,6,98,"http://www.4forums.com/political/crime-debates/3714-guilty-should-he-die.html",1
4150,"Innocent after 20 years on death row",2652,6,1727,"http://www.4forums.com/political/crime-debates/4150-innocent-after-20-years-death-row.html",1
4161,"Dead tonight...if...",2659,6,98,"http://www.4forums.com/political/crime-debates/4161-dead-tonight-if.html",1
4740,"Are you for or against the death penalty",3065,6,817,"http://www.4forums.com/political/polls-forum/4740-you-against-death-penalty.html",1
4911,"I wonder if my Liberal friends are against the Death Penalty on this one?",3186,6,817,"http://www.4forums.com/political/crime-debates/4911-i-wonder-if-my-liberal-friends-against-death-penalty-one.html",1
5027,"Death sentence to expencive?",3271,6,1021,"http://www.4forums.com/political/crime-debates/5027-death-sentence-expencive.html",1
5325,"Executions lacking concrete evidence.",3469,6,105,"http://www.4forums.com/political/crime-debates/5325-executions-lacking-concrete-evidence.html",1
6948,"Opinion on Tookie?",4690,6,1138,"http://www.4forums.com/political/crime-debates/6948-opinion-tookie.html",1
7033,"An Attack Against the Death Penalty",4756,6,1991,"http://www.4forums.com/political/crime-debates/7033-attack-against-death-penalty.html",1
7056,"Jesus and the death penalty",4774,6,1138,"http://www.4forums.com/political/crime-debates/7056-jesus-death-penalty.html",1
7311,"SCOTUS makes Decision on Dealth Penalty",4960,6,51,"http://www.4forums.com/political/crime-debates/7311-scotus-makes-decision-dealth-penalty.html",1
7451,"Pro Death Penalty Commentary",5065,6,2325,"http://www.4forums.com/political/crime-debates/7451-pro-death-penalty-commentary.html",1
7754,"Justice was served.",5304,6,475,"http://www.4forums.com/political/current-events-debates/7754-justice-served.html",1
8109,"Death Penalty???",5572,6,1175,"http://www.4forums.com/political/crime-debates/8109-death-penalty.html",1
9151,"Vatican condems death penalty",6283,6,632,"http://www.4forums.com/political/religion-debates/9151-vatican-condems-death-penalty.html",1
9372,"Child murderers sentenced to death in Libya",6445,6,115,"http://www.4forums.com/political/current-events-debates/9372-child-murderers-sentenced-death-libya.html",1
9956,"So much for the death sentence being a deterrent",6904,6,312,"http://www.4forums.com/political/crime-debates/9956-so-much-death-sentence-being-deterrent.html",1
9995,"Death Penalty Decreases Crime",6937,6,1549,"http://www.4forums.com/political/crime-debates/9995-death-penalty-decreases-crime.html",1
11057,"Juvenile Death Penalty",7739,6,931,"http://www.4forums.com/political/crime-debates/11057-juvenile-death-penalty.html",1
11312,"Death Penalty",7933,6,1063,"http://www.4forums.com/political/crime-debates/11312-death-penalty.html",1
12157,"Prison Doctor Resigns Over Death Penalty",8492,6,213,"http://www.4forums.com/political/health-debates/12157-prison-doctor-resigns-over-death-penalty.html",1
14169,"Was Da'rryl Durr guilty? [death penalty]",9872,6,130,"http://www.4forums.com/political/crime-debates/14169-darryl-durr-guilty-death-penalty.html",1
