"key","quote_source_post_discussion_id","posts_dataset_id","posts_timestamp","posts_author_id","quote_source_author_id","posts_native_post_id","quote_source_timestamp","post_text_id","Word_Count","quote_source_post_id","post_text","quote_source_text_id","Dialog_Turn","posts_discussion_id","quote_source_post_dataset_id","Fullquote_text","discussion_url","quote_source_native_post_id","posts_post_id"
"1-3186_111_109_1",3186,1,"2005-05-13 09:28:00",135,817,122149,"2005-05-13 09:21:00",243445,47,109,"Post some links for evidence then.
Surprisingly enough, some people don't live in the US (*shock horror*) so won't know about these apparently well-known cases.
As I said, post links for evidence if these things really occured. 
-Wez",243443,1,3186,1,"Do you even keep up with the news at all...........How many sex offenders that should be put away for life have gotten out in just the last couple of months to murder and rape again becasue some liberal judge thought they were rehabilatated.............
The little girl from Florida comes to mind and the college student out west........Both murdered","http://www.4forums.com/political/crime-debates/4911-i-wonder-if-my-liberal-friends-against-death-penalty-one.html",122144,111
"1-3186_112_111_1",3186,1,"2005-05-13 09:38:00",817,135,122166,"2005-05-13 09:28:00",243446,47,111,"I am debating with about 10 liberals at the same time..they know about the cases I have mentioned.there are hundreds of them like that........They know of these cases...........
Just go to google and search on Jessica Lundy for one..........",243445,1,3186,1,"Post some links for evidence then.
Surprisingly enough, some people don't live in the US (*shock horror*) so won't know about these apparently well-known cases.
As I said, post links for evidence if these things really occured. 
-Wez","http://www.4forums.com/political/crime-debates/4911-i-wonder-if-my-liberal-friends-against-death-penalty-one.html",122149,112
"1-3186_119_112_1",3186,1,"2005-05-13 10:52:00",135,817,122264,"2005-05-13 09:38:00",243453,112,112,"The search, brings up no results relating to rape or murder when I run it. What does it bring up when you run it?
You claimed: ""If you knew for sure that this scum would get life behind bars and never see the light of freedom I would agree with you but there have been to many cases where some liberal judge has turned loose a guy like that to rape and murder again...........""
If there have been ""many"" cases why can't you just link me to 3? Is it that there haven't been as many as you claim?
-Wez",243446,1,3186,1,"I am debating with about 10 liberals at the same time..they know about the cases I have mentioned.there are hundreds of them like that........They know of these cases...........
Just go to google and search on Jessica Lundy for one..........","http://www.4forums.com/political/crime-debates/4911-i-wonder-if-my-liberal-friends-against-death-penalty-one.html",122166,119
"1-3186_122_119_1",3186,1,"2005-05-13 10:56:00",817,135,122270,"2005-05-13 10:52:00",243456,7,119,"Did you type in Jessica Lundy?",243453,1,3186,1,"The search, brings up no results relating to rape or murder when I run it. What does it bring up when you run it?
You claimed: ""If you knew for sure that this scum would get life behind bars and never see the light of freedom I would agree with you but there have been to many cases where some liberal judge has turned loose a guy like that to rape and murder again...........""
If there have been ""many"" cases why can't you just link me to 3? Is it that there haven't been as many as you claim?
-Wez","http://www.4forums.com/political/crime-debates/4911-i-wonder-if-my-liberal-friends-against-death-penalty-one.html",122264,122
"1-3186_124_122_1",3186,1,"2005-05-13 10:59:00",135,817,122273,"2005-05-13 10:56:00",243458,49,122,"Yes.
http://www.google.co.uk/search?hl=en...G=Search&meta=
That is what it comes up with.
Still waiting for 3 cases of the ""many"" out there. So far you've asked me to google a name that on my search comes up with nothing related to murder/rape. 
-Wez",243456,1,3186,1,"Did you type in Jessica Lundy?","http://www.4forums.com/political/crime-debates/4911-i-wonder-if-my-liberal-friends-against-death-penalty-one.html",122270,124
"1-3186_125_124_1",3186,1,"2005-05-13 11:00:00",817,135,122276,"2005-05-13 10:59:00",243459,18,124,"Jessica was raped and murdered by a sex offender who a liberal Judge let out of jail................",243458,1,3186,1,"Yes.
http://www.google.co.uk/search?hl=en...G=Search&meta=
That is what it comes up with.
Still waiting for 3 cases of the ""many"" out there. So far you've asked me to google a name that on my search comes up with nothing related to murder/rape. 
-Wez","http://www.4forums.com/political/crime-debates/4911-i-wonder-if-my-liberal-friends-against-death-penalty-one.html",122273,125
"1-3186_126_125_1",3186,1,"2005-05-13 11:05:00",135,817,122279,"2005-05-13 11:00:00",243460,48,125,"A link?
How do I know that what you've said it not just a load of ****? Does jessica even exist or did you just invent her? If she was raped and murdered there'd be an article on it on the internet. 
-Wez",243459,1,3186,1,"Jessica was raped and murdered by a sex offender who a liberal Judge let out of jail................","http://www.4forums.com/political/crime-debates/4911-i-wonder-if-my-liberal-friends-against-death-penalty-one.html",122276,126
