"key","quote_source_post_discussion_id","posts_dataset_id","posts_timestamp","posts_author_id","quote_source_author_id","posts_native_post_id","quote_source_timestamp","post_text_id","Word_Count","quote_source_post_id","post_text","quote_source_text_id","Dialog_Turn","posts_discussion_id","quote_source_post_dataset_id","Fullquote_text","discussion_url","quote_source_native_post_id","posts_post_id"
"1-10060_61_58_1",10060,1,"2010-08-04 08:17:00",44,2104,409107,"2010-08-03 17:26:00",454730,41,58,"I made no attempt to minimize the role of good policing in the continuing reduction in crime. 
But do keep going to strawmen when you feel the need. 
IMO good law and good policing go hand and hand.",454727,1,10060,1,"  18th Annual National Survey Results of Police Chiefs & Sheriffs  
Good policing tactics, more cops and better equipment is the cause of our overwhelming crime drop in America, but do keep on minimizing all of the hard work of our Nation's finest do, in order to give you the safest communities possible. Maybe they will understand that you want to steal their hard earned recognition because you have a political agenda! emoticonXSmilie Maybe!","http://www.4forums.com/political/gun-control-debates/14498-has-reduction-ffls-been-beneficial.html",409075,61
"1-10060_64_61_1",10060,1,"2010-08-04 10:07:00",2104,44,409114,"2010-08-04 08:17:00",454733,97,61,"Let's see. We have guns of the 116 MILLION more background checks civilian hands, and a historically low violent crime rate.
However, you are claiming that you found the cause of our Historic lows in Violent Crime and Murder in the reduction in the number of FFL's? Spin it you Tasmanian Devil you! emoticonXSmilie
I'll bet the CDC and National Academy of Sciences would be all over the proof of that like White on Rice! I love to see them poor over scientific evidence!emoticonXSmilie
As you said,

",454730,1,10060,1,"I made no attempt to minimize the role of good policing in the continuing reduction in crime. 
But do keep going to strawmen when you feel the need. 
IMO good law and good policing go hand and hand.","http://www.4forums.com/political/gun-control-debates/14498-has-reduction-ffls-been-beneficial.html",409107,64
"1-10060_65_64_1",10060,1,"2010-08-04 10:31:00",44,2104,409116,"2010-08-04 10:07:00",454734,32,64,"I never said that the reduction in FFL's was solely responsible for declining crime. Who's spinning here?
Are you in support of NICS background checks? I've asked before.",454733,1,10060,1,"Let's see. We have guns of the 116 MILLION more background checks civilian hands, and a historically low violent crime rate.
However, you are claiming that you found the cause of our Historic lows in Violent Crime and Murder in the reduction in the number of FFL's? Spin it you Tasmanian Devil you! emoticonXSmilie
I'll bet the CDC and National Academy of Sciences would be all over the proof of that like White on Rice! I love to see them poor over scientific evidence!emoticonXSmilie
As you said,

","http://www.4forums.com/political/gun-control-debates/14498-has-reduction-ffls-been-beneficial.html",409114,65
"1-10060_70_65_1",10060,1,"2010-08-04 13:14:00",2104,44,409129,"2010-08-04 10:31:00",454739,173,65,"Do I support them how? I have not called for the repeal of this law, if that is what you are asking. If you are asking if it is effective in controlling violence? These two studies are the only ones that I know that have looked at it's impact in some detail. 
  Brady Gun Law Barely Impacts Homicide Rate -- Study Finds Handgun Law Has Little Impact on Homicide Rate 
And I know the CDC study also looked at the Implications of Brady.  What did they find?  
So what is it that I can say in the face of this research? 
Do I think the NICS checks stops criminals from getting guns? Not On Your Life! Drugs and Drug Dealers make sure that does not happen! The CDC study, along with the Police Chiefs also say no. Who am I to offer an opinion in the presents of this company?
Am I calling for it's repeal. No!",454734,1,10060,1,"I never said that the reduction in FFL's was solely responsible for declining crime. Who's spinning here?
Are you in support of NICS background checks? I've asked before.","http://www.4forums.com/political/gun-control-debates/14498-has-reduction-ffls-been-beneficial.html",409116,70
"1-10060_72_70_1",10060,1,"2010-08-04 13:23:00",44,2104,409132,"2010-08-04 13:14:00",454741,47,70,"""From November 30, 1998, to December 31, 2008, the NICS Section has denied a total of 680,905 background check transactions.
http://www.fbi.gov/hq/cjisd/nics/ops...report2008.pdf
Of course the crooks probably then just get someone to buy for them or look for a private seller.",454739,1,10060,1,"Do I support them how? I have not called for the repeal of this law, if that is what you are asking. If you are asking if it is effective in controlling violence? These two studies are the only ones that I know that have looked at it's impact in some detail. 
  Brady Gun Law Barely Impacts Homicide Rate -- Study Finds Handgun Law Has Little Impact on Homicide Rate 
And I know the CDC study also looked at the Implications of Brady.  What did they find?  
So what is it that I can say in the face of this research? 
Do I think the NICS checks stops criminals from getting guns? Not On Your Life! Drugs and Drug Dealers make sure that does not happen! The CDC study, along with the Police Chiefs also say no. Who am I to offer an opinion in the presents of this company?
Am I calling for it's repeal. No!","http://www.4forums.com/political/gun-control-debates/14498-has-reduction-ffls-been-beneficial.html",409129,72
"1-10060_73_72_1",10060,1,"2010-08-04 13:25:00",2104,44,409133,"2010-08-04 13:23:00",454742,60,72,"Yes they did! emoticonXSmilie Was that supposed to refute something? emoticonXSmilie
Are you trying to say that they can't get guns from criminals and their criminal drug dealers? That is what The CDC says and incidentally the Police Chiefs. Potential Impact on violent outcomes? Maybe a slight amount but there again, Possibly Zero.",454741,1,10060,1,"""From November 30, 1998, to December 31, 2008, the NICS Section has denied a total of 680,905 background check transactions.
http://www.fbi.gov/hq/cjisd/nics/ops...report2008.pdf
Of course the crooks probably then just get someone to buy for them or look for a private seller.","http://www.4forums.com/political/gun-control-debates/14498-has-reduction-ffls-been-beneficial.html",409132,73
"1-10060_74_73_1",10060,1,"2010-08-04 13:28:00",44,2104,409134,"2010-08-04 13:25:00",454743,43,73,"Right. That's why CA requires NICS background checks for secondary sales as well. 
That leaves theft and straw purchases. Oh, and crooked FFL's. 
NRA sponsored programs to combat firearm theft and straw purchases?
Your own ideas?",454742,1,10060,1,"Yes they did! emoticonXSmilie Was that supposed to refute something? emoticonXSmilie
Are you trying to say that they can't get guns from criminals and their criminal drug dealers? That is what The CDC says and incidentally the Police Chiefs. Potential Impact on violent outcomes? Maybe a slight amount but there again, Possibly Zero.","http://www.4forums.com/political/gun-control-debates/14498-has-reduction-ffls-been-beneficial.html",409133,74
"1-10060_75_74_1",10060,1,"2010-08-04 13:42:00",2104,44,409135,"2010-08-04 13:28:00",454744,103,74,"You always want to concentrate on the law-abiding who are Not the Problem! 
Lets us first start with the realization that gun control,   even MASSIVE gun control does not stop people from getting guns.  See the English and Australian studies. 
Next we concentrate on the people who commit crime. 
  Crime factors from the FBI website 
  Violence in America - Effective Solutions 
  Fact 7: Crime, Violence, and Drug Use Go Hand-In-Hand 
The problem IS and always has been Drugs!
  FBI: Burgeoning gangs behind up to 80% of U.S. crime  
Gun Violence and Constitutional Issues 
",454743,1,10060,1,"Right. That's why CA requires NICS background checks for secondary sales as well. 
That leaves theft and straw purchases. Oh, and crooked FFL's. 
NRA sponsored programs to combat firearm theft and straw purchases?
Your own ideas?","http://www.4forums.com/political/gun-control-debates/14498-has-reduction-ffls-been-beneficial.html",409134,75
