"key","quote_source_post_discussion_id","posts_dataset_id","posts_timestamp","posts_author_id","quote_source_author_id","posts_native_post_id","quote_source_timestamp","post_text_id","Word_Count","quote_source_post_id","post_text","quote_source_text_id","Dialog_Turn","posts_discussion_id","quote_source_post_dataset_id","Fullquote_text","discussion_url","quote_source_native_post_id","posts_post_id"
"1-10121_22_21_1",10121,1,"2010-09-18 20:05:00",153,439,412902,"2010-09-18 19:16:00",459257,89,21,"Then prove it already! Show us exactly where it has been established that any person who was physically incapable of taking part in the militia, either due to age, or gender, or physical injury, was barred from ever owning a firearm for any reason. After all according to you, and people like Heinrich Himmler, there's no purpose in regular people owning arms if they can't serve the state.
Show us where and end the matter once and for all.",459256,1,10121,1,"The Magna Carta dates back to 1215. Fast forward to 1689-
""Heller explored the right’s origins, noting that the 1689 English Bill of Rights explicitly protected a right to keep arms for self-defense, 554 U. S., at ___–___ (slip op., at 19–20), and that by 1765, Blackstone was able to assert that the right to keep and bear arms was 'one of the fundamental rights of Englishmen,' id., at ___ (slip op., at 20).""
(McDonald v. Chicago)
Well, the English Historians’ Brief in the McDonald case says that Heller was wrong about that. A brief is ""a written argument submitted to a court"" for those uninformed about legal matters. I have had many people on your side tell me that the Second Amendment protects a preexisting right. But in its preexisting form, the RKBA was connected with militia service. So pointing out that the RKBA is a preexisting right does not support your argument at all.","http://www.4forums.com/political/gun-control-debates/14623-heller-living-constitution.html",412896,22
"1-10121_23_22_1",10121,1,"2010-09-18 23:18:00",439,153,412910,"2010-09-18 20:05:00",459258,20,22,"Why would ownership of weapons by those outside the militia prove that such ownership is protected by the RKBA?",459257,1,10121,1,"Then prove it already! Show us exactly where it has been established that any person who was physically incapable of taking part in the militia, either due to age, or gender, or physical injury, was barred from ever owning a firearm for any reason. After all according to you, and people like Heinrich Himmler, there's no purpose in regular people owning arms if they can't serve the state.
Show us where and end the matter once and for all.","http://www.4forums.com/political/gun-control-debates/14623-heller-living-constitution.html",412902,23
"1-10121_28_23_1",10121,1,"2010-09-19 06:57:00",153,439,412934,"2010-09-18 23:18:00",459263,187,23,"Because you've argued over, and over, and over, and over again, that the right to keep and bear arms existed for the sole and exclusive purpose of guaranteeing that the militia, and only the militia, may be armed in case they're needed to be called upon for defense of the country. You've come out and argued that the right to keep and bear arms was never considered to be applied for any other purpose, such as defense of the individuals against those that would threaten them with harm.
In other words your argument is that those who are female, or under 18, or over 46, who were no longer physically able to serve in the militia, were barred from ever possessing a firearm, because their status of being armed wasn't in the interest of the government.
That's your argument, the long and short of it. Now prove once and for all that this was a cold hard fact of history, or drop the argument once and for all.",459258,1,10121,1,"Why would ownership of weapons by those outside the militia prove that such ownership is protected by the RKBA?","http://www.4forums.com/political/gun-control-debates/14623-heller-living-constitution.html",412910,28
"1-10121_30_28_1",10121,1,"2010-09-19 07:04:00",439,153,412936,"2010-09-19 06:57:00",459265,34,28,"A lack of a ban on firearms ownership by those outside of the militia does not necessarily mean that such ownership was considered to be protected by the RKBA. That's a non-sequitir.",459263,1,10121,1,"Because you've argued over, and over, and over, and over again, that the right to keep and bear arms existed for the sole and exclusive purpose of guaranteeing that the militia, and only the militia, may be armed in case they're needed to be called upon for defense of the country. You've come out and argued that the right to keep and bear arms was never considered to be applied for any other purpose, such as defense of the individuals against those that would threaten them with harm.
In other words your argument is that those who are female, or under 18, or over 46, who were no longer physically able to serve in the militia, were barred from ever possessing a firearm, because their status of being armed wasn't in the interest of the government.
That's your argument, the long and short of it. Now prove once and for all that this was a cold hard fact of history, or drop the argument once and for all.","http://www.4forums.com/political/gun-control-debates/14623-heller-living-constitution.html",412934,30
"1-10121_34_30_1",10121,1,"2010-09-19 07:37:00",153,439,412943,"2010-09-19 07:04:00",459269,201,30,"Yes it does. Being unable to serve in the militia meant that you could no longer fulfill a duty or obligation to the state because you were obsolete. If the Second Amendment were purely about the militia, and absolutely nothing else, then there would be no way retired members would be allowed to remain armed for their own private purposes.
You're not going to slip away from this one and pretend you were never confronted. You made the statement, now you have to prove it.

No it isn't. You've claimed many times that the Second Amendment had absolutely nothing to do with an individual's personal defense. And now that you've been challenged to prove it you're trying to run away from it. Well it's not going to work. You're obligated to prove beyond reasonable doubt that your argument is the correct one. You're charged with proving that those who were either women or over 46 weren't allowed to be armed, because them being armed wasn't in the interest of the state due to the fact that they couldn't serve in the militia.
Get to work!",459265,1,10121,1,"A lack of a ban on firearms ownership by those outside of the militia does not necessarily mean that such ownership was considered to be protected by the RKBA. That's a non-sequitir.","http://www.4forums.com/political/gun-control-debates/14623-heller-living-constitution.html",412936,34
"1-10121_37_34_1",10121,1,"2010-09-19 08:10:00",439,153,412946,"2010-09-19 07:37:00",459272,134,34,"You're asking me to prove a claim I've never made. I never argued there was a complete ban on firearms used for non-militia purposes. Saul Cornell never argued that. His argument was that weapons not constitutionally protected were subject to reasonable regulation by the state, not that there was a complete ban on such weapons-
""The only weapons singled out for constitutional protection were those connected to militia service.... Any law, including firearms regulations, had to be aimed at a legitimate public purpose and had to be consistent with reason.""
Saul Cornell | Forum: Comment: Early American Gun Regulation and the Second Amendment: A Closer Look at the Evidence | Law and History Review, 25.1 | The History Cooperative",459269,1,10121,1,"Yes it does. Being unable to serve in the militia meant that you could no longer fulfill a duty or obligation to the state because you were obsolete. If the Second Amendment were purely about the militia, and absolutely nothing else, then there would be no way retired members would be allowed to remain armed for their own private purposes.
You're not going to slip away from this one and pretend you were never confronted. You made the statement, now you have to prove it.

No it isn't. You've claimed many times that the Second Amendment had absolutely nothing to do with an individual's personal defense. And now that you've been challenged to prove it you're trying to run away from it. Well it's not going to work. You're obligated to prove beyond reasonable doubt that your argument is the correct one. You're charged with proving that those who were either women or over 46 weren't allowed to be armed, because them being armed wasn't in the interest of the state due to the fact that they couldn't serve in the militia.
Get to work!","http://www.4forums.com/political/gun-control-debates/14623-heller-living-constitution.html",412943,37
