"key","quote_source_post_discussion_id","posts_dataset_id","posts_timestamp","posts_author_id","quote_source_author_id","posts_native_post_id","quote_source_timestamp","post_text_id","Word_Count","quote_source_post_id","post_text","quote_source_text_id","Dialog_Turn","posts_discussion_id","quote_source_post_dataset_id","Fullquote_text","discussion_url","quote_source_native_post_id","posts_post_id"
"1-10149_68_67_1",10149,1,"2010-11-08 09:54:00",44,2074,416572,"2010-11-08 08:36:00",461274,30,67,"Requiring purchasers to submit to a background check isn't focusing on the ""tool"".

What is the ""severe"" limiting of rights to which you refer?",461273,1,10149,1,"It is silly to focus on the tools and not bad people who misuse these tools, especially when the tools in question can be easily smuggled as well as made in a modestly-equipped machine shop.
Also, why do many of those who supposedly have a political orientation that favors freedom and opposes tyranny want to severely and arbitrarily limit the rights of tens of millions of people who have not, and show no indication of wanting to, unjustly hurt anyone with these tools? 
It is wrong to tell people that they cannot put certain substances in their bodies and have abortions, just as it is wrong to tell people that they cannot have certain precision-machined metal/polymer/wood objects in their own homes.","http://www.4forums.com/political/gun-control-debates/14667-stop-spread-illegal-guns-states-weak-laws.html",416557,68
"1-10149_82_68_1",10149,1,"2010-11-09 08:47:00",2074,44,416669,"2010-11-08 09:54:00",461288,25,68,"Nonsense. The background check is a prerequisite for buying the tool.

""Stop Spread of Illegal Guns From States With Weak Laws""",461274,1,10149,1,"Requiring purchasers to submit to a background check isn't focusing on the ""tool"".

What is the ""severe"" limiting of rights to which you refer?","http://www.4forums.com/political/gun-control-debates/14667-stop-spread-illegal-guns-states-weak-laws.html",416572,82
"1-10149_83_82_1",10149,1,"2010-11-09 08:52:00",44,2074,416671,"2010-11-09 08:47:00",461289,16,82,"Yes, but the focus is on the buyer.

This answers my question how?",461288,1,10149,1,"Nonsense. The background check is a prerequisite for buying the tool.

""Stop Spread of Illegal Guns From States With Weak Laws""","http://www.4forums.com/political/gun-control-debates/14667-stop-spread-illegal-guns-states-weak-laws.html",416669,83
"1-10149_86_83_1",10149,1,"2010-11-09 08:58:00",2074,44,416675,"2010-11-09 08:52:00",461292,51,83,"The mere existence of the background check law is a focus on guns. 

You asked how rights are being severely limited and I told you. Laws which cost money, time, and energy on the part of peaceful, law-abiding citizens constitute severe limitations on their rights.",461289,1,10149,1,"Yes, but the focus is on the buyer.

This answers my question how?","http://www.4forums.com/political/gun-control-debates/14667-stop-spread-illegal-guns-states-weak-laws.html",416671,86
"1-10149_88_86_1",10149,1,"2010-11-09 09:06:00",44,2074,416678,"2010-11-09 08:58:00",461294,15,86,"I agree except with your definition of ""severe"" and ""limitation"".",461292,1,10149,1,"The mere existence of the background check law is a focus on guns. 

You asked how rights are being severely limited and I told you. Laws which cost money, time, and energy on the part of peaceful, law-abiding citizens constitute severe limitations on their rights.","http://www.4forums.com/political/gun-control-debates/14667-stop-spread-illegal-guns-states-weak-laws.html",416675,88
"1-10149_38_36_2",10149,1,"2010-10-27 16:03:00",439,103,415776,"2010-10-27 15:41:00",461244,19,36,"Given that such gun offences include offences with air rifles and imitation firearms, your claims are misleading.",461242,2,10149,1,"That seems to me a rather dishonest use of statistics to make a flawed point.
The UK data shows 0.4% of gun offences resulted in fatalities.
The UK data shows 0.6% of knife offences resulted in fatalities.
So the kill rate for knives is 50% higher than for guns in the UK, comparing apples to apples, instead of apples to horse manures. Perhaps you can perform the same excercise within SA or within virginia and see if you get the same result.","http://www.4forums.com/political/gun-control-debates/14667-stop-spread-illegal-guns-states-weak-laws.html",415772,38
"1-10149_40_38_2",10149,1,"2010-10-27 16:53:00",103,439,415782,"2010-10-27 16:03:00",461246,116,38,"Even if we exclude all ""other firearms"" - the category which includes air rifles and imitation firearms from the analysis, and assume they were responsible for zero deaths (probably not true), the weapon class of knives still has a higher kill rate.
Furthermore, the weapons classified as ""knives"" also include items like scissors, razorblades, broken bottles and nail files.
So I don't think the claims are misleading at all. What is misleading, and utterly dishonest, is to compare total fatality rates in UK vs Virginia. Why it's almost as if you didn't want to get at the truth.",461244,2,10149,1,"Given that such gun offences include offences with air rifles and imitation firearms, your claims are misleading.","http://www.4forums.com/political/gun-control-debates/14667-stop-spread-illegal-guns-states-weak-laws.html",415776,40
"1-10149_41_40_2",10149,1,"2010-10-27 18:02:00",439,103,415793,"2010-10-27 16:53:00",461247,110,40,"Imitation firearms are not classified as part of the ""other firearm"" category. They are classified in the ""imitation firearm"" category. In fact, the majority of firearms in the ""other firearm"" category are paintball guns according to the notes. In addition, there is the ""unidentified firearm"" category- probably because the police can not always be sure if a reported gun crime involved a real gun. The report also makes a distinction between broken bottles and knives. 

You might want to get the facts straight and stop making misleading claims before making such unsubstantiated criticisms.",461246,2,10149,1,"Even if we exclude all ""other firearms"" - the category which includes air rifles and imitation firearms from the analysis, and assume they were responsible for zero deaths (probably not true), the weapon class of knives still has a higher kill rate.
Furthermore, the weapons classified as ""knives"" also include items like scissors, razorblades, broken bottles and nail files.
So I don't think the claims are misleading at all. What is misleading, and utterly dishonest, is to compare total fatality rates in UK vs Virginia. Why it's almost as if you didn't want to get at the truth.","http://www.4forums.com/political/gun-control-debates/14667-stop-spread-illegal-guns-states-weak-laws.html",415782,41
"1-10149_42_41_2",10149,1,"2010-10-27 18:55:00",103,439,415797,"2010-10-27 18:02:00",461248,120,41,"I never claimed they were, though I can see how you would misread me that way, with my ambiguous use of a conjunction. Perhaps if I repunctuate the sentence it will be more clear:
Even if we exclude all ""other firearms"" (the category which includes air rifles) and imitation firearms from the analysis, and assume they were responsible for zero deaths (probably not true), the weapon class of knives still has a higher kill rate.
In other words, no matter what spin you try and put on the data and no matter what dubious assumptions you make, knives still have a higher fatality rate.",461247,2,10149,1,"Imitation firearms are not classified as part of the ""other firearm"" category. They are classified in the ""imitation firearm"" category. In fact, the majority of firearms in the ""other firearm"" category are paintball guns according to the notes. In addition, there is the ""unidentified firearm"" category- probably because the police can not always be sure if a reported gun crime involved a real gun. The report also makes a distinction between broken bottles and knives. 

You might want to get the facts straight and stop making misleading claims before making such unsubstantiated criticisms.","http://www.4forums.com/political/gun-control-debates/14667-stop-spread-illegal-guns-states-weak-laws.html",415793,42
"1-10149_43_42_2",10149,1,"2010-10-27 19:20:00",439,103,415800,"2010-10-27 18:55:00",461249,20,42,"Let's see...
Knives 0.61% 
Guns 0.68% - 0.9% (depending on if you include the unidentified firearm category)",461248,2,10149,1,"I never claimed they were, though I can see how you would misread me that way, with my ambiguous use of a conjunction. Perhaps if I repunctuate the sentence it will be more clear:
Even if we exclude all ""other firearms"" (the category which includes air rifles) and imitation firearms from the analysis, and assume they were responsible for zero deaths (probably not true), the weapon class of knives still has a higher kill rate.
In other words, no matter what spin you try and put on the data and no matter what dubious assumptions you make, knives still have a higher fatality rate.","http://www.4forums.com/political/gun-control-debates/14667-stop-spread-illegal-guns-states-weak-laws.html",415797,43
