"key","quote_source_post_discussion_id","posts_dataset_id","posts_timestamp","posts_author_id","quote_source_author_id","posts_native_post_id","quote_source_timestamp","post_text_id","Word_Count","quote_source_post_id","post_text","quote_source_text_id","Dialog_Turn","posts_discussion_id","quote_source_post_dataset_id","Fullquote_text","discussion_url","quote_source_native_post_id","posts_post_id"
"1-10175_22_20_1",10175,1,"2010-11-12 15:30:00",153,44,416970,"2010-11-12 15:17:00",462762,161,20,"Fewer restrictions on government authority, less protection of the human rights of the people, allowing them to be terrified by those in power.
It's a lot easier to get tough on criminals when the government is supreme in nature and without opposition from the people. After all look at Japan, they have no constitutional rights or protections against whatever the government deems necessary in the name of maintaining order. Search warrants aren't even needed before the police inspect your house for contraband material. And torture is routinely used in order to acquire a confession of guilt.

You starting this thread would suggest otherwise. Talking about how America is fueling the violence down in Mexico by not having strict and overwhelming laws regarding firearms, etc.
The problem is you don't think these things out. You don't consider all the possibilities, and you make yourself look foolish in the process.",462760,1,10175,1,"Maybe you could explain the low rate of shootings in countries with much stricter gun regulations if their criminals have the same nature as ours?","http://www.4forums.com/political/gun-control-debates/14712-us-firearms-mexico.html",416968,22
"1-10175_24_22_1",10175,1,"2010-11-12 16:49:00",44,153,416972,"2010-11-12 15:30:00",462764,46,22,"And that explains why fewer criminals use guns? Ha!

I started the thread to reference the latest stats on trace requests from Mexico.

Foolish is denying our civilian firearms are in Mexico in huge numbers. 69,000+ trace requests and climbing.",462762,1,10175,1,"Fewer restrictions on government authority, less protection of the human rights of the people, allowing them to be terrified by those in power.
It's a lot easier to get tough on criminals when the government is supreme in nature and without opposition from the people. After all look at Japan, they have no constitutional rights or protections against whatever the government deems necessary in the name of maintaining order. Search warrants aren't even needed before the police inspect your house for contraband material. And torture is routinely used in order to acquire a confession of guilt.

You starting this thread would suggest otherwise. Talking about how America is fueling the violence down in Mexico by not having strict and overwhelming laws regarding firearms, etc.
The problem is you don't think these things out. You don't consider all the possibilities, and you make yourself look foolish in the process.","http://www.4forums.com/political/gun-control-debates/14712-us-firearms-mexico.html",416970,24
"1-10175_26_24_1",10175,1,"2010-11-12 17:01:00",153,44,416974,"2010-11-12 16:49:00",462766,220,24,"Have you got a better explanation? Or are you going to try and claim that foreign criminals are more law abiding in nature?
I'd like to know what your idea on the matter is. Surely you've got something in mind or you wouldn't be bringing it up in the first place.

You have no evidence to show what these ""huge numbers"" are. There are no figures to support your claims or the claims of anyone else. The authorities on both sides of the border don't see successful traces as a viable crime fighting tool. Neither side is fully communicating with the other so even they don't know what one side is talking about or telling the other.
And yet we're expected to take this highly ambiguous and vague claim as if it were religious gospel in nature, completely infallible no matter what, and feel bad about how we're running our country in contrast to other countries.
No hard proof in evidence, no case to be made. It's that simple. You can't hold a trial on mere suspicion and hearsay. Come back when you've got something that'll actually stand up to scrutiny and dispel any measure of reasonable doubt that we still have.",462764,1,10175,1,"And that explains why fewer criminals use guns? Ha!

I started the thread to reference the latest stats on trace requests from Mexico.

Foolish is denying our civilian firearms are in Mexico in huge numbers. 69,000+ trace requests and climbing.","http://www.4forums.com/political/gun-control-debates/14712-us-firearms-mexico.html",416972,26
"1-10175_27_26_1",10175,1,"2010-11-12 18:29:00",44,153,416981,"2010-11-12 17:01:00",462767,82,26,"No, their access to firearms is severely limited by their country's gun laws.

69,000+ trace requests.

Blah, blah, blah.

How many thousands of weapons have be confiscated and are in the hands of Mexican authorities? They aren't evidence? 69,000+ asked to be traced. That's not evidence? 

Your denial knows no limits. Reasonable doubt your XXX. 
You're always telling me to come back and yet I never leave.",462766,1,10175,1,"Have you got a better explanation? Or are you going to try and claim that foreign criminals are more law abiding in nature?
I'd like to know what your idea on the matter is. Surely you've got something in mind or you wouldn't be bringing it up in the first place.

You have no evidence to show what these ""huge numbers"" are. There are no figures to support your claims or the claims of anyone else. The authorities on both sides of the border don't see successful traces as a viable crime fighting tool. Neither side is fully communicating with the other so even they don't know what one side is talking about or telling the other.
And yet we're expected to take this highly ambiguous and vague claim as if it were religious gospel in nature, completely infallible no matter what, and feel bad about how we're running our country in contrast to other countries.
No hard proof in evidence, no case to be made. It's that simple. You can't hold a trial on mere suspicion and hearsay. Come back when you've got something that'll actually stand up to scrutiny and dispel any measure of reasonable doubt that we still have.","http://www.4forums.com/political/gun-control-debates/14712-us-firearms-mexico.html",416974,27
"1-10175_31_27_1",10175,1,"2010-11-12 18:48:00",153,44,416988,"2010-11-12 18:29:00",462771,231,27,"And how exactly are they prevented from importing weapons from outside of the country?

Requests. As in the ATF was requested to make a trace if at all possible. You missed that.

The same authorities that have ties to drug cartel funding and bribery?

They're evidence that the people in Mexico obviously don't respect the law and have no intention of following it. They're evidence that crimes were committed. But what they aren't evidence of, is that America is going out of its way to allow a genocidal drug war to take place and ensure victor of the highest bidder.

Come back when you have evidence of how many were traced back to the United States. Then break that number down to single out how many can be traced back to gun stores and how many were sold by the government to the military in a legitimate deal.

I deny lies, half truths, and liberal propaganda. Meanwhile you deny reason and logic.

You never provide a counterargument either. We ream you and tear down everything you offer, you never do anything to prove us wrong. You act like you've got a superiority complex and are simply gracing us with your presence like you're God and have no need to answer to us.",462767,1,10175,1,"No, their access to firearms is severely limited by their country's gun laws.

69,000+ trace requests.

Blah, blah, blah.

How many thousands of weapons have be confiscated and are in the hands of Mexican authorities? They aren't evidence? 69,000+ asked to be traced. That's not evidence? 

Your denial knows no limits. Reasonable doubt your XXX. 
You're always telling me to come back and yet I never leave.","http://www.4forums.com/political/gun-control-debates/14712-us-firearms-mexico.html",416981,31
"1-10175_34_31_1",10175,1,"2010-11-12 19:21:00",44,153,416993,"2010-11-12 18:48:00",462774,156,31,"They aren't any more than we are. It just isn't necessary in the US because guns are easily had by criminals.

69,000+ requests. I missed nothing. You think the Mexicans are asking the wrong people?

No, different ones.

All the people? 

Not lifting a finger to reduce the criminal access to firearms either.

That number will probably not be released.

What about those acquired on the secondary market? The ones anyone can buy without fear of the firearm ever being traced to them.

Reason and logic suggests where there's smoke, there's fire.

I think you know my counterargument to your unregulated firearms market.

My experience is different I guess.

I forego answering every nonsensical thing you say. Life's too short. I don't have a superiority complex, that's just your insecurity talking. For good reason.",462771,1,10175,1,"And how exactly are they prevented from importing weapons from outside of the country?

Requests. As in the ATF was requested to make a trace if at all possible. You missed that.

The same authorities that have ties to drug cartel funding and bribery?

They're evidence that the people in Mexico obviously don't respect the law and have no intention of following it. They're evidence that crimes were committed. But what they aren't evidence of, is that America is going out of its way to allow a genocidal drug war to take place and ensure victor of the highest bidder.

Come back when you have evidence of how many were traced back to the United States. Then break that number down to single out how many can be traced back to gun stores and how many were sold by the government to the military in a legitimate deal.

I deny lies, half truths, and liberal propaganda. Meanwhile you deny reason and logic.

You never provide a counterargument either. We ream you and tear down everything you offer, you never do anything to prove us wrong. You act like you've got a superiority complex and are simply gracing us with your presence like you're God and have no need to answer to us.","http://www.4forums.com/political/gun-control-debates/14712-us-firearms-mexico.html",416988,34
