"key","quote_source_post_discussion_id","posts_dataset_id","posts_timestamp","posts_author_id","quote_source_author_id","posts_native_post_id","quote_source_timestamp","post_text_id","Word_Count","quote_source_post_id","post_text","quote_source_text_id","Dialog_Turn","posts_discussion_id","quote_source_post_dataset_id","Fullquote_text","discussion_url","quote_source_native_post_id","posts_post_id"
"1-10199_14_9_1",10199,1,"2010-11-30 12:25:00",51,2104,418103,"2010-11-25 03:54:00",463590,92,9,"Way to gloss over that point. I recall NATO wondering what rights exist where you have to register. Daewoo named one. You're arguing that there is a good reason for it. Fine. But then you argument is not ""you shouldn't have to register for a right"" but rather ""you need a good reason to register for a right"". At that point we can just fold up the cards and go home because you've parted ways with original understanding of the constitution.",463585,1,10199,1,"Do you have the Right to vote as many times as you like? Or did they do that so that elections are fair?","http://www.4forums.com/political/gun-control-debates/14742-question-constitutionality-firearm-registration.html",417748,14
"1-10199_15_14_1",10199,1,"2010-12-01 04:28:00",2104,51,418173,"2010-11-30 12:25:00",463591,160,14,"No. My argument is there is no other way in order to accomplish a fair election! A very different and important point!
Daewoo has tried to argue that our Founding Fathers registered their firearms because of the 1792 Militia act. 
  Militia Act of 1792, 
He calls this gun registration, and when pressed, he then had to say that the fusee, bayonet and belt were also registered as well! emoticonXSmilie
My point is that our Founding Fathers totally distrusted government and would never have allowed the government to know where all firearms were, and who had them! Heck the Revolutionary War started when the their very own British Soldiers came to both Lexington and Concord to seize the powder stores, collecting weapons along the way! They would rather die fighting the Most Powerful Army the World had ever known, them instead of being disarmed! 
  George Mason 
",463590,1,10199,1,"Way to gloss over that point. I recall NATO wondering what rights exist where you have to register. Daewoo named one. You're arguing that there is a good reason for it. Fine. But then you argument is not ""you shouldn't have to register for a right"" but rather ""you need a good reason to register for a right"". At that point we can just fold up the cards and go home because you've parted ways with original understanding of the constitution.","http://www.4forums.com/political/gun-control-debates/14742-question-constitutionality-firearm-registration.html",418103,15
"1-10199_39_15_1",10199,1,"2010-12-02 13:03:00",51,2104,418265,"2010-12-01 04:28:00",463615,135,15,"Yes, a very different point than the one Daewoo was making which is the point I'm bringing up.
In other words the constitutionality of gun registration has nothing to do with whether or not other constitutional rights require some kind of registration because clearly some DO allow it. And before you say ""well there is a good reason why those others allow it"" let me remind you that ""because it is a good idea"" is not a requirement of the constitution. You imply that if there was a better idea than voter registration for a fair election (also not required by the constitution) than voter registration would be unconstitutional. If this is what you believe than I'd say it is very much flawed.",463591,1,10199,1,"No. My argument is there is no other way in order to accomplish a fair election! A very different and important point!
Daewoo has tried to argue that our Founding Fathers registered their firearms because of the 1792 Militia act. 
  Militia Act of 1792, 
He calls this gun registration, and when pressed, he then had to say that the fusee, bayonet and belt were also registered as well! emoticonXSmilie
My point is that our Founding Fathers totally distrusted government and would never have allowed the government to know where all firearms were, and who had them! Heck the Revolutionary War started when the their very own British Soldiers came to both Lexington and Concord to seize the powder stores, collecting weapons along the way! They would rather die fighting the Most Powerful Army the World had ever known, them instead of being disarmed! 
  George Mason 
","http://www.4forums.com/political/gun-control-debates/14742-question-constitutionality-firearm-registration.html",418173,39
"1-10199_44_39_1",10199,1,"2010-12-02 13:50:00",2104,51,418272,"2010-12-02 13:03:00",463620,73,39,"Wow! Really! You made that all up by yourself! Amazing! Another person used to stake out a position for me to defend also. 
That person was Daewoo! 
No thanks. I'll speak for myself, thank you very much. Well, unless you have a defense for the position you laid out for me too! But then you don't need me at all! emoticonXSmilie",463615,1,10199,1,"Yes, a very different point than the one Daewoo was making which is the point I'm bringing up.
In other words the constitutionality of gun registration has nothing to do with whether or not other constitutional rights require some kind of registration because clearly some DO allow it. And before you say ""well there is a good reason why those others allow it"" let me remind you that ""because it is a good idea"" is not a requirement of the constitution. You imply that if there was a better idea than voter registration for a fair election (also not required by the constitution) than voter registration would be unconstitutional. If this is what you believe than I'd say it is very much flawed.","http://www.4forums.com/political/gun-control-debates/14742-question-constitutionality-firearm-registration.html",418265,44
"1-10199_56_44_1",10199,1,"2010-12-02 17:52:00",51,2104,418303,"2010-12-02 13:50:00",463632,31,44,"Do you not like people telling you the logic conclusions of your statements? I'd guess I would too if I realized they cause the very thing I was fighting.",463620,1,10199,1,"Wow! Really! You made that all up by yourself! Amazing! Another person used to stake out a position for me to defend also. 
That person was Daewoo! 
No thanks. I'll speak for myself, thank you very much. Well, unless you have a defense for the position you laid out for me too! But then you don't need me at all! emoticonXSmilie","http://www.4forums.com/political/gun-control-debates/14742-question-constitutionality-firearm-registration.html",418272,56
"1-10199_217_215_2",10199,1,"2010-12-15 10:37:00",51,2104,419170,"2010-12-15 07:41:00",463793,13,215,"What country do you live in where they do not pay soldiers?",463791,2,10199,1,"What I wanna know is, just exactly how much would you Constitutional Rights Pimps charge? Lets say a Vietnam Vet who has been shot up, blown up, overrun so bad we had to call our own artillery in on our own positions in order that some might survived. How much would you Pimps charge someone who was medivaced off more dead than alive due to hand to hand combat, for their Constitutional Rights? 
How about a WW2, gulf war, Iraq war, or Afghanistan vet?
I can tell you what we charged you! Not a dime! 
You want to register my Rights? I say that this is NOT you Right!
How MUCH exactly does someone like those above have to pay YOU, in order to secure all of our Constitutionally Recognized as Inalienable Rights? 
I can tell you what we charged you! Not a dime! 
What if we are disabled by war, and cannot work, and are now poor? What if we are just poor and don't have enough money to pay YOU for all of our Constitutionally Recognized as Inalienable Rights? 
So while you are slicing our Rights out of our existence, how about you take a moment to figure that into the cost!","http://www.4forums.com/political/gun-control-debates/14742-question-constitutionality-firearm-registration.html",419148,217
"1-10199_219_217_2",10199,1,"2010-12-15 14:22:00",2104,51,419189,"2010-12-15 10:37:00",463795,52,217,"Oh, I get it. I am just ungrateful because I have been paid for my sacrifice huh? Good argument! Not that I asked for anything more but, If I remember correctly. I think I got a total of 283 dollars a month with combat pay.",463793,2,10199,1,"What country do you live in where they do not pay soldiers?","http://www.4forums.com/political/gun-control-debates/14742-question-constitutionality-firearm-registration.html",419170,219
"1-10199_223_219_2",10199,1,"2010-12-15 19:43:00",51,2104,419211,"2010-12-15 14:22:00",463799,24,219,"So you charged more than a dime. I guess your statement wasn't incorrect though...283 bucks is indeed not a dime.",463795,2,10199,1,"Oh, I get it. I am just ungrateful because I have been paid for my sacrifice huh? Good argument! Not that I asked for anything more but, If I remember correctly. I think I got a total of 283 dollars a month with combat pay.","http://www.4forums.com/political/gun-control-debates/14742-question-constitutionality-firearm-registration.html",419189,223
"1-10199_226_223_2",10199,1,"2010-12-16 06:10:00",2104,51,419236,"2010-12-15 19:43:00",463802,198,223,"Yeah I got 3 thousand dollars a year, and less when I was not in combat. I volunteered, and they gave me 91 dollars a month to start as a private. Do you know how much it cost to exist? 
Is this really an argument you want to make? 
Did I charge them or is that subsistence just what they give you. Factor in, the fact that I could have died, costing me everything. 50 thousand Americans gave everything they had in that war. So try and make that argument of fair compensation to their families. 
Lets see, out of that, I bought a villa on the Riviera. A new Porsche, oh and a gold mine too. Yeah I am a big war profiteer! 
Do you really want to demean my service so you can say I charged you for it.
Hey Steve, do me a favor. You wanna figure out everything else you think I owe you? Let me know, cause I really want to make sure that I don't cheat you. emoticonXSmilie",463799,2,10199,1,"So you charged more than a dime. I guess your statement wasn't incorrect though...283 bucks is indeed not a dime.","http://www.4forums.com/political/gun-control-debates/14742-question-constitutionality-firearm-registration.html",419211,226
"1-10199_227_226_2",10199,1,"2010-12-16 07:21:00",51,2104,419238,"2010-12-16 06:10:00",463803,31,226,"You're the one arguing you worked for free, not me. Besides, I figured by now you would realize I'm making fun of you for sensationalizing the debate.",463802,2,10199,1,"Yeah I got 3 thousand dollars a year, and less when I was not in combat. I volunteered, and they gave me 91 dollars a month to start as a private. Do you know how much it cost to exist?
Is this really an argument you want to make?","http://www.4forums.com/political/gun-control-debates/14742-question-constitutionality-firearm-registration.html",419236,227
