"key","quote_source_post_discussion_id","posts_dataset_id","posts_timestamp","posts_author_id","quote_source_author_id","posts_native_post_id","quote_source_timestamp","post_text_id","Word_Count","quote_source_post_id","post_text","quote_source_text_id","Dialog_Turn","posts_discussion_id","quote_source_post_dataset_id","Fullquote_text","discussion_url","quote_source_native_post_id","posts_post_id"
"1-10300_86_72_1",10300,1,"2011-01-26 12:56:00",237,500,423300,"2011-01-25 16:05:00",469546,37,72,"Yet you seem to expect other people to accept it as fact just because you can google and find links to webpages written by people who agree with you.
You have done so to me.",469532,1,10300,1,"Yeah I can Google "" Obama's Birth Certificate "" and come up with hundreds of links just like the ones you are posting, but I don't because I realize all this is a conspiracy to cast Obama as un-fit for the White House. I realize all the Tea Baggers and uber conservatives want him out of Office and they'll go to any lengths to get him out. I would much rather see Someone beat him on the issues and not have to rely on lies and conspiracies , but That's just me.
I don't need to research this because I never fell for the Lie in the first place. Now we've gone and started EasyRider on this subject , he's opened another thread about it. If EasyRider believes this is real then I'm 150% sure Obama is American, because we know EZ thinks with his Bible and not his brain.","http://www.4forums.com/political/gun-control-debates/14944-obamacare-gun-owners.html",423228,86
"1-10300_89_86_1",10300,1,"2011-01-27 11:24:00",500,237,423347,"2011-01-26 12:56:00",469549,121,86,"I don't expect you or anyone to believe anything just because it can be googled. I expect people to use their own common sense and look at the facts in front of them. 
Anyone claiming Obama is not an American isn't doing that, they're believing lies and rumors told by a right wing nut case who has no basis or evidence for the claim. Obama has served in public office for years, went through Harvard Law School,and along the way he had to have shown his birth records. This isn't some guy who slipped through the cracks. Anyone should simply see it for themselves, don't take my word for it.",469546,1,10300,1,"Yet you seem to expect other people to accept it as fact just because you can google and find links to webpages written by people who agree with you.
You have done so to me.","http://www.4forums.com/political/gun-control-debates/14944-obamacare-gun-owners.html",423300,89
"1-10300_105_89_1",10300,1,"2011-01-28 12:28:00",237,500,423401,"2011-01-27 11:24:00",469565,28,89,"Excellent I will remember that.

What does it matter? That clause in the constitution is an artifact of nationalism, it has no objective justification.",469549,1,10300,1,"I don't expect you or anyone to believe anything just because it can be googled. I expect people to use their own common sense and look at the facts in front of them. 
Anyone claiming Obama is not an American isn't doing that, they're believing lies and rumors told by a right wing nut case who has no basis or evidence for the claim. Obama has served in public office for years, went through Harvard Law School,and along the way he had to have shown his birth records. This isn't some guy who slipped through the cracks. Anyone should simply see it for themselves, don't take my word for it.","http://www.4forums.com/political/gun-control-debates/14944-obamacare-gun-owners.html",423347,105
"1-10300_106_105_1",10300,1,"2011-01-28 12:47:00",500,237,423405,"2011-01-28 12:28:00",469566,42,105,"It doesn't matter, because according to the Constitution Obama is an American, is Legal to serve as President, and shows how ignorant Sara Palin is for starting the rumor without any basis other than her own racist views.",469565,1,10300,1,"Excellent I will remember that.

What does it matter? That clause in the constitution is an artifact of nationalism, it has no objective justification.","http://www.4forums.com/political/gun-control-debates/14944-obamacare-gun-owners.html",423401,106
"1-10300_108_106_1",10300,1,"2011-01-28 15:38:00",237,500,423408,"2011-01-28 12:47:00",469568,40,106,"Whether or not Obama was born here is has nothing to do with whether or not he is an american.
What possible evidence could you have that Palin either started this rumor or that she is a racist?",469566,1,10300,1,"It doesn't matter, because according to the Constitution Obama is an American, is Legal to serve as President, and shows how ignorant Sara Palin is for starting the rumor without any basis other than her own racist views.","http://www.4forums.com/political/gun-control-debates/14944-obamacare-gun-owners.html",423405,108
"1-10300_109_108_1",10300,1,"2011-01-28 17:33:00",500,237,423410,"2011-01-28 15:38:00",469569,8,108,"Her Ignorance is all the evidence needed ..",469568,1,10300,1,"Whether or not Obama was born here is has nothing to do with whether or not he is an american.
What possible evidence could you have that Palin either started this rumor or that she is a racist?","http://www.4forums.com/political/gun-control-debates/14944-obamacare-gun-owners.html",423408,109
"1-10300_114_109_1",10300,1,"2011-01-28 21:00:00",237,500,423429,"2011-01-28 17:33:00",469574,13,109,"You know I haven't seen you argue anything yet. Do you?",469569,1,10300,1,"Her Ignorance is all the evidence needed ..","http://www.4forums.com/political/gun-control-debates/14944-obamacare-gun-owners.html",423410,114
"1-10300_115_114_1",10300,1,"2011-01-28 21:20:00",500,237,423430,"2011-01-28 21:00:00",469575,11,114,"Yeah, I could say the same to you. emoticonXHohoemoticonXGood",469574,1,10300,1,"You know I haven't seen you argue anything yet. Do you?","http://www.4forums.com/political/gun-control-debates/14944-obamacare-gun-owners.html",423429,115
"1-10300_116_115_1",10300,1,"2011-01-29 09:19:00",237,500,423445,"2011-01-28 21:20:00",469576,31,115,"Than you are blind. You have seen me argue at least one thing because I won an argument with you about whether or not I must be a creationist.",469575,1,10300,1,"Yeah, I could say the same to you. emoticonXHohoemoticonXGood","http://www.4forums.com/political/gun-control-debates/14944-obamacare-gun-owners.html",423430,116
"1-10300_117_116_1",10300,1,"2011-01-29 09:24:00",500,237,423446,"2011-01-29 09:19:00",469577,79,116,"Uh,, no, you THINK you won that argument but here you are now trying to goad me into round 2. You didn't win anything, and I didn't consider that an Argument, just like this thing over Obama and his Birth is not an Argument .
As far as I'm Concerned you ARE a Creationist, which that's your choice, but that is for another Forum not included in a Gun Debate Forum.",469576,1,10300,1,"Than you are blind. You have seen me argue at least one thing because I won an argument with you about whether or not I must be a creationist.","http://www.4forums.com/political/gun-control-debates/14944-obamacare-gun-owners.html",423445,117
"1-10300_19_17_2",10300,1,"2011-01-22 17:54:00",500,680,423001,"2011-01-22 17:35:00",469479,211,17,"You're kidding right?.. 
Here, I can post a picture too and a story .. 
Regarding national anthem ""controversy,"" Hannity asks: ""Is this another statement"" by Obama? | Media Matters for America
Barack Obama Refuses to Salute Flag, Anthem?
Note the Picture of Bush, he doesn't seem to know where his heart is either.
Like him or not Obama is as American as anyone in this country, And I say anyone who says otherwise is as Ignorant as Sara Palin and Glenn Beck. Seriously, do you really think this country would have elected a Non- American Citizen?. Politicians, especially the President of this Country are under more scrutiny than any Human on the face of the planet, and there are enough Right Wingers in this country that if Obama was not American he never would have even sniffed the White House. The fact that The Likes of Sara Palin can go on T.V. and make this ridiculous claim and yet he still sits in the White House tells me the GOP knows it's all a fear mongering tactic with no validity. Use a bit of Common Sense.",469477,2,10300,1,"Is he American?We've all heard it said how he won't say the pledge of allegiance
or place his hand over his heart.
Great person to be holding the office of the POTUS huh.
snopes.com: Barack Obama and the National Anthem","http://www.4forums.com/political/gun-control-debates/14944-obamacare-gun-owners.html",422999,19
"1-10300_23_19_2",10300,1,"2011-01-22 18:14:00",680,500,423006,"2011-01-22 17:54:00",469483,50,19,"Well he didn't do it in Sept. so he thought it a good idea to put his hand on his heart in Oct. That's why he has advisers and czars.

Notice the illegal alien problem lately? Hear that Hudson?or is it Hicks?lol",469479,2,10300,1,"You're kidding right?.. 
Here, I can post a picture too and a story .. 
Regarding national anthem ""controversy,"" Hannity asks: ""Is this another statement"" by Obama? | Media Matters for America
Barack Obama Refuses to Salute Flag, Anthem?
Note the Picture of Bush, he doesn't seem to know where his heart is either.
Like him or not Obama is as American as anyone in this country, And I say anyone who says otherwise is as Ignorant as Sara Palin and Glenn Beck. Seriously, do you really think this country would have elected a Non- American Citizen?. Politicians, especially the President of this Country are under more scrutiny than any Human on the face of the planet, and there are enough Right Wingers in this country that if Obama was not American he never would have even sniffed the White House. The fact that The Likes of Sara Palin can go on T.V. and make this ridiculous claim and yet he still sits in the White House tells me the GOP knows it's all a fear mongering tactic with no validity. Use a bit of Common Sense.","http://www.4forums.com/political/gun-control-debates/14944-obamacare-gun-owners.html",423001,23
"1-10300_25_23_2",10300,1,"2011-01-22 18:23:00",500,680,423008,"2011-01-22 18:14:00",469485,68,23,"Show me a time in the last 40 or 50 years when we didn't have a problem with Illegals coming into country?... 
When are people going to stop this ridiculous claim, don't you think Americans have enough reason not to vote him back into office?.. why continue spreading rumors and Lies about the man that Like it or not is Our President.",469483,2,10300,1,"Well he didn't do it in Sept. so he thought it a good idea to put his hand on his heart in Oct. That's why he has advisers and czars.

Notice the illegal alien problem lately? Hear that Hudson?or is it Hicks?lol","http://www.4forums.com/political/gun-control-debates/14944-obamacare-gun-owners.html",423006,25
"1-10300_28_25_2",10300,1,"2011-01-22 19:22:00",680,500,423014,"2011-01-22 18:23:00",469488,62,25,"Show me a time in the last 40-50 years when the POTUS and his cronies have been bending over backwards to get them legal status by the gross. Gosh wonder why?

See post #27.But conceded more than enough reason not to vote back in,at this point getting him out = damage control.emoticonXIdea",469485,2,10300,1,"Show me a time in the last 40 or 50 years when we didn't have a problem with Illegals coming into country?... 
When are people going to stop this ridiculous claim, don't you think Americans have enough reason not to vote him back into office?.. why continue spreading rumors and Lies about the man that Like it or not is Our President.","http://www.4forums.com/political/gun-control-debates/14944-obamacare-gun-owners.html",423008,28
"1-10300_29_28_2",10300,1,"2011-01-22 19:55:00",500,680,423015,"2011-01-22 19:22:00",469489,107,28,"Carter in the late 70's opened the doors to Illegal Immigrants. Bush tried to keep out Mexicans but did nothing to limit Canadians or Immigrants from the Middle East. Obama is not the only President who has less strict Ideas about Immigration. I'm not Convinced he is actually "" bending over backwards"" to get them in either since You have shown no evidence for this claim.
You do realize getting him out is going to be nearly impossible right?. The GOP doesn't want another Clinton style Impeachment, they will try to destroy his image but they won't impeach.",469488,2,10300,1,"Show me a time in the last 40-50 years when the POTUS and his cronies have been bending over backwards to get them legal status by the gross. Gosh wonder why?

See post #27.But conceded more than enough reason not to vote back in,at this point getting him out = damage control.emoticonXIdea","http://www.4forums.com/political/gun-control-debates/14944-obamacare-gun-owners.html",423014,29
"1-10300_41_29_2",10300,1,"2011-01-23 11:02:00",680,500,423045,"2011-01-22 19:55:00",469501,51,29,"Not saying impeach,but it's an idea. It would be good however to limit the damage he's already done.(and again he had help).
Was it Doc that mentioned""backdoor policy""?again I wonder why he and company would want one?",469489,2,10300,1,"Carter in the late 70's opened the doors to Illegal Immigrants. Bush tried to keep out Mexicans but did nothing to limit Canadians or Immigrants from the Middle East. Obama is not the only President who has less strict Ideas about Immigration. I'm not Convinced he is actually "" bending over backwards"" to get them in either since You have shown no evidence for this claim.
You do realize getting him out is going to be nearly impossible right?. The GOP doesn't want another Clinton style Impeachment, they will try to destroy his image but they won't impeach.","http://www.4forums.com/political/gun-control-debates/14944-obamacare-gun-owners.html",423015,41
