"key","quote_source_post_discussion_id","posts_dataset_id","posts_timestamp","posts_author_id","quote_source_author_id","posts_native_post_id","quote_source_timestamp","post_text_id","Word_Count","quote_source_post_id","post_text","quote_source_text_id","Dialog_Turn","posts_discussion_id","quote_source_post_dataset_id","Fullquote_text","discussion_url","quote_source_native_post_id","posts_post_id"
"1-10376_19_18_1",10376,1,"2011-03-14 16:01:00",679,439,425845,"2011-03-14 15:55:00",472641,115,18,"What would truly be silly Galileo is your continued arguing that the Supreme Court issued the wrong ruling in Heller and then again in McDonald. You beat that horse down to the bones despite sufficient evidence to show that you were the one who was wrong in your stance and dishonest in your approach. You claimed you wanted a debate about gun control but you never offered any such opportunity, you just kept bashing the Supreme Court over and over again, arguing that the only correct interpretation of the Second Amendment was that its only true purpose was maintaining government controlled militia that the citizenry was obligated to serve in.",472640,1,10376,1,"Who cares? It's also silly to argue that the Second Amendment only protects arms in common use.","http://www.4forums.com/political/gun-control-debates/15143-5-arrested-planning-second-amendment-solutions.html",425843,19
"1-10376_20_19_1",10376,1,"2011-03-14 16:15:00",439,679,425847,"2011-03-14 16:01:00",472642,16,19,"Do you agree or disagree that the Second Amendment only protects arms in common use?",472641,1,10376,1,"What would truly be silly Galileo is your continued arguing that the Supreme Court issued the wrong ruling in Heller and then again in McDonald. You beat that horse down to the bones despite sufficient evidence to show that you were the one who was wrong in your stance and dishonest in your approach. You claimed you wanted a debate about gun control but you never offered any such opportunity, you just kept bashing the Supreme Court over and over again, arguing that the only correct interpretation of the Second Amendment was that its only true purpose was maintaining government controlled militia that the citizenry was obligated to serve in.","http://www.4forums.com/political/gun-control-debates/15143-5-arrested-planning-second-amendment-solutions.html",425845,20
"1-10376_21_20_1",10376,1,"2011-03-14 16:39:00",679,439,425850,"2011-03-14 16:15:00",472643,83,20,"Trying to derail the topic with something way out of left field? I'm not going to fall for your poor attempt.
Since Heller and McDonald didn't raise the issue regarding the legitimacy of the 1986 machine gun ban it's pointless to discuss the current standing of the law in this post-Heller landscape. Should the Supreme Court even take up a case that directly relates to the 1986 law then the discussion will become relevant and will be discussed then.",472642,1,10376,1,"Do you agree or disagree that the Second Amendment only protects arms in common use?","http://www.4forums.com/political/gun-control-debates/15143-5-arrested-planning-second-amendment-solutions.html",425847,21
"1-10376_22_21_1",10376,1,"2011-03-14 16:47:00",439,679,425852,"2011-03-14 16:39:00",472644,28,21,"A cowardly dodge by Pietro. It's relevant to the topic of what kind of arms are protected by the Second Amendment which you were already discussing.",472643,1,10376,1,"Trying to derail the topic with something way out of left field? I'm not going to fall for your poor attempt.
Since Heller and McDonald didn't raise the issue regarding the legitimacy of the 1986 machine gun ban it's pointless to discuss the current standing of the law in this post-Heller landscape. Should the Supreme Court even take up a case that directly relates to the 1986 law then the discussion will become relevant and will be discussed then.","http://www.4forums.com/political/gun-control-debates/15143-5-arrested-planning-second-amendment-solutions.html",425850,22
"1-10376_23_22_1",10376,1,"2011-03-14 17:29:00",679,439,425857,"2011-03-14 16:47:00",472645,86,22,"No it really isn't. This discussion was started by Brady in an attempt to paint gun owners and militia members as highly dangerous extremists who will carry out murder at the drop of a hat with or without provocation. And then you came along and introduced the discussion of machine guns by talking about arms in common use.
Simply because you throw something into the pot and say it's relevant to the original discussion, that doesn't mean it really is relevant.",472644,1,10376,1,"A cowardly dodge by Pietro. It's relevant to the topic of what kind of arms are protected by the Second Amendment which you were already discussing.","http://www.4forums.com/political/gun-control-debates/15143-5-arrested-planning-second-amendment-solutions.html",425852,23
"1-10376_24_23_1",10376,1,"2011-03-14 18:22:00",439,679,425861,"2011-03-14 17:29:00",472646,17,23,"Machine guns are modern day weapons. Weren't you making a point about modern day weapons?",472645,1,10376,1,"No it really isn't. This discussion was started by Brady in an attempt to paint gun owners and militia members as highly dangerous extremists who will carry out murder at the drop of a hat with or without provocation. And then you came along and introduced the discussion of machine guns by talking about arms in common use.
Simply because you throw something into the pot and say it's relevant to the original discussion, that doesn't mean it really is relevant.","http://www.4forums.com/political/gun-control-debates/15143-5-arrested-planning-second-amendment-solutions.html",425857,24
"1-10376_25_24_1",10376,1,"2011-03-14 18:31:00",679,439,425864,"2011-03-14 18:22:00",472647,134,24,"My rebuking of PeterV was in response to his ludicrous claim that modern guns would never be offered constitutional protection due to them technologically superior to anything the Founding Fathers could have imagined.
However what you don't seem to grasp is the fact that my points applied to the actual scope of the Supreme Court ruling. I talked about commonly available weaponry, both in the days of the Founding Fathers and today.
I didn't introduce machine guns because machine guns weren't relevant to the topic and didn't need to be introduced to make any such point.
When a discussion that's fully relevant to machine guns comes up I'll talk about them then. Until then I see no relevance when the topic of discussion involves the Heller ruling.",472646,1,10376,1,"Machine guns are modern day weapons. Weren't you making a point about modern day weapons?","http://www.4forums.com/political/gun-control-debates/15143-5-arrested-planning-second-amendment-solutions.html",425861,25
