"key","quote_source_post_discussion_id","posts_dataset_id","posts_timestamp","posts_author_id","quote_source_author_id","posts_native_post_id","quote_source_timestamp","post_text_id","Word_Count","quote_source_post_id","post_text","quote_source_text_id","Dialog_Turn","posts_discussion_id","quote_source_post_dataset_id","Fullquote_text","discussion_url","quote_source_native_post_id","posts_post_id"
"1-10453_110_109_1",10453,1,"2011-05-09 13:30:00",191,44,429335,"2011-05-09 12:51:00",477113,67,109,"However there are supporters that are trying to sell disarmament as an option, and they're the ones I'd like to hear from. People like Michael Moore and others, and those that support their message. They're the people I want to hear from and what answers they have when presented with the difficult questions.

I don't understand how that's supposed to work.",477112,1,10453,1,"No, you suggested supporters of gun control are all like those you describe in the OP. They're not.
Not all supporters of a regulated firearms market are selling disarmament.
Not all supporters of a regulated firearms market are selling disarmament.","http://www.4forums.com/political/gun-control-debates/15322-what-do-women.html",429333,110
"1-10453_111_110_1",10453,1,"2011-05-09 13:52:00",44,191,429340,"2011-05-09 13:30:00",477114,7,110,"Have you ever purchased a firearm?",477113,1,10453,1,"However there are supporters that are trying to sell disarmament as an option, and they're the ones I'd like to hear from. People like Michael Moore and others, and those that support their message. They're the people I want to hear from and what answers they have when presented with the difficult questions.

I don't understand how that's supposed to work.","http://www.4forums.com/political/gun-control-debates/15322-what-do-women.html",429335,111
"1-10453_113_111_1",10453,1,"2011-05-09 14:30:00",191,44,429343,"2011-05-09 13:52:00",477116,48,111,"I know what the paperwork is like and how it works. What I meant to say is that I don't understand how the paperwork is supposed to keep anyone safe. How do forms with names and serial numbers prevent severe bodily assault from taking place?",477114,1,10453,1,"Have you ever purchased a firearm?","http://www.4forums.com/political/gun-control-debates/15322-what-do-women.html",429340,113
"1-10453_114_113_1",10453,1,"2011-05-09 14:43:00",44,191,429346,"2011-05-09 14:30:00",477117,39,113,"Does the fact that one needs a prescription for a particular medicine prevent drug abuse in general? Why bother then?
So why are you going around unarmed if you feel so strongly about shooting potential rapists?",477116,1,10453,1,"I know what the paperwork is like and how it works. What I meant to say is that I don't understand how the paperwork is supposed to keep anyone safe. How do forms with names and serial numbers prevent severe bodily assault from taking place?","http://www.4forums.com/political/gun-control-debates/15322-what-do-women.html",429343,114
"1-10453_115_114_1",10453,1,"2011-05-09 14:50:00",191,44,429349,"2011-05-09 14:43:00",477118,50,114,"Can you please elaborate? Wouldn't the paperwork only come into play after the fact once somebody has been victimized and/or murdered?

Whoever said I was going around unarmed? That's the whole point of concealed carry; you don't know one way or the other.",477117,1,10453,1,"Does the fact that one needs a prescription for a particular medicine prevent drug abuse in general? Why bother then?
So why are you going around unarmed if you feel so strongly about shooting potential rapists?","http://www.4forums.com/political/gun-control-debates/15322-what-do-women.html",429346,115
"1-10453_116_115_1",10453,1,"2011-05-09 15:27:00",44,191,429359,"2011-05-09 14:50:00",477119,14,115,"Not NICS.

My mistake. I assumed you didn't own a gun.",477118,1,10453,1,"Can you please elaborate? Wouldn't the paperwork only come into play after the fact once somebody has been victimized and/or murdered?

Whoever said I was going around unarmed? That's the whole point of concealed carry; you don't know one way or the other.","http://www.4forums.com/political/gun-control-debates/15322-what-do-women.html",429349,116
"1-10453_117_116_1",10453,1,"2011-05-09 15:54:00",191,44,429365,"2011-05-09 15:27:00",477120,87,116,"I'm still afraid that I'm not following. The National Instant Check System screens potential buyers at the point of sale, but at the same time this system is being easily bypassed by straw buyers and front men who then turn around and resell to people who couldn't pass it in the first place. How much good would more paperwork do as long as there are people who are willing to serve the role as straw buyers in order to make a quick buck?",477119,1,10453,1,"Not NICS.

My mistake. I assumed you didn't own a gun.","http://www.4forums.com/political/gun-control-debates/15322-what-do-women.html",429359,117
"1-10453_118_117_1",10453,1,"2011-05-09 17:56:00",44,191,429378,"2011-05-09 15:54:00",477121,32,117,"There is no perfect regulatory measure. Would you do away with laws prohibiting the sale
of alcohol to minors since teens bypass the law regularly with ""straw purchasers""?",477120,1,10453,1,"I'm still afraid that I'm not following. The National Instant Check System screens potential buyers at the point of sale, but at the same time this system is being easily bypassed by straw buyers and front men who then turn around and resell to people who couldn't pass it in the first place. How much good would more paperwork do as long as there are people who are willing to serve the role as straw buyers in order to make a quick buck?","http://www.4forums.com/political/gun-control-debates/15322-what-do-women.html",429365,118
"1-10453_119_118_1",10453,1,"2011-05-09 19:20:00",191,44,429386,"2011-05-09 17:56:00",477122,74,118,"I've never bought any booze myself so I can't accurately do a compare and contrast between the two. What are the standards for buying alcoholic beverages as opposed to buying a gun? Can a proper comparison be made since there are gun smuggling rings but the same isn't true for booze? How many prospective individuals earn a living wage by smuggling vodka and malt liquor into the state of California?",477121,1,10453,1,"There is no perfect regulatory measure. Would you do away with laws prohibiting the sale
of alcohol to minors since teens bypass the law regularly with ""straw purchasers""?","http://www.4forums.com/political/gun-control-debates/15322-what-do-women.html",429378,119
"1-10453_120_119_1",10453,1,"2011-05-10 08:01:00",44,191,429409,"2011-05-09 19:20:00",477123,50,119,"WTF? I'm not ""comparing and contrasting"" the two. 
I'll try to make this simple for you.
Do you feel that a law that is broken regularly has no business being on the books in the first place? 
What law has never been broken?",477122,1,10453,1,"I've never bought any booze myself so I can't accurately do a compare and contrast between the two. What are the standards for buying alcoholic beverages as opposed to buying a gun? Can a proper comparison be made since there are gun smuggling rings but the same isn't true for booze? How many prospective individuals earn a living wage by smuggling vodka and malt liquor into the state of California?","http://www.4forums.com/political/gun-control-debates/15322-what-do-women.html",429386,120
"1-10453_122_120_1",10453,1,"2011-05-10 10:06:00",191,44,429421,"2011-05-10 08:01:00",477125,58,120,"If the law is broken so readily and those that have broken it aren't regularly being prosecuted for their crimes then what is the purpose of maintaining the law in the first place?
How often are straw purchasers prosecuted for their crimes, thus proving the federal officials are on the ball and doing their job?",477123,1,10453,1,"WTF? I'm not ""comparing and contrasting"" the two. 
I'll try to make this simple for you.
Do you feel that a law that is broken regularly has no business being on the books in the first place? 
What law has never been broken?","http://www.4forums.com/political/gun-control-debates/15322-what-do-women.html",429409,122
"1-10453_137_136_2",10453,1,"2011-05-15 11:54:00",746,237,429839,"2011-05-15 11:39:00",477140,72,136,"Teaching women martial arts to protect themselves from attacks from men is fraught with danger..for the women.
If you are saying that techniques exist that that are easily taught and remembered as well as easily executed by someone full of tension and fear then you are wrong...dreadfully wrong.
Also, the techniques must overcome an attacker of maybe several times the strength of the defender .",477139,2,10453,1,"Alright charlie, you are right about taking a long time to learn; and about it being more expensive than a gun; but martial arts are not useless. The problem is that most teachers either don't know what their doing or figure since you probably aren't going to use it they don't need to teach you correctly. If however you find someone who wants to teach you how to fight not just some ancient pretty form you would have an excellent chance of defending yourself from anyone who hasn't had training. The strength women between men and women is quite insignificant to the techniques that exist.
That being said there is always the danger that the aggressor is also good at hand to hand combat, but if you think about it; there is also a chance that they have a gun.","http://www.4forums.com/political/gun-control-debates/15322-what-do-women.html",429836,137
"1-10453_143_137_2",10453,1,"2011-05-15 14:13:00",237,746,429868,"2011-05-15 11:54:00",477146,61,137,"What, they might get the guy mad?

I didn't say they were easily taught or remembered. I said if properly taught they are effective.

Strength is an asset to be sure but both genders posses the strength required to incapacitate anyone. Just not by flailing your limbs about trying to bruise the enemy into submission.",477140,2,10453,1,"Teaching women martial arts to protect themselves from attacks from men is fraught with danger..for the women.
If you are saying that techniques exist that that are easily taught and remembered as well as easily executed by someone full of tension and fear then you are wrong...dreadfully wrong.
Also, the techniques must overcome an attacker of maybe several times the strength of the defender .","http://www.4forums.com/political/gun-control-debates/15322-what-do-women.html",429839,143
"1-10453_144_143_2",10453,1,"2011-05-15 14:30:00",746,237,429874,"2011-05-15 14:13:00",477147,195,143,"That is one of the biggest problems for anyone who attacks someone who is far more powerful than you...you may break his nose..then he breaks your neck.
'properly taught' doesnt actually mean squat...the recipient of this ' properly taught knowledge must be able to do it under stress that you will not be able to reproduce in your garage or ' dojo'.
Even highly trained ' martial artists' can freeze outside thier comfort zone.
You may be able to' incapacitate' your friends in a dojo but incapacitating a man that has twice your strength and has just punched you in the face and is ripping your dress is another thing.
It takes years to learn to make up the difference of someone who has a significant strength and aggression advantage.
I have trained with many women who have a good martial arts background and I have only met one that could beat a strong young man...and a woman who was being mugged or raped would have to do that very very quickly before being overcome.",477146,2,10453,1,"What, they might get the guy mad?

I didn't say they were easily taught or remembered. I said if properly taught they are effective.

Strength is an asset to be sure but both genders posses the strength required to incapacitate anyone. Just not by flailing your limbs about trying to bruise the enemy into submission.","http://www.4forums.com/political/gun-control-debates/15322-what-do-women.html",429868,144
"1-10453_147_144_2",10453,1,"2011-05-15 14:53:00",237,746,429882,"2011-05-15 14:30:00",477150,125,144,"Properly taught includes dealing with stress and thinking clearly in a fight.

I won't argue against that, and even minimal training or past fighting experience on the aggressors side can counter-act that.

Most schools are not about real combat but some kind of meditative art that happens to be descended from a way of fighting. They teach kids as a soccer alternative and hand out belts like candy. I am talking about the mixed martial arts taught to military personal. (not to say that a pure martial art isn't 'good enough' but merely refering to the style of training, in which the stress and confusion of a real fight is trying to be simulated)",477147,2,10453,1,"That is one of the biggest problems for anyone who attacks someone who is far more powerful than you...you may break his nose..then he breaks your neck.
'properly taught' doesnt actually mean squat...the recipient of this ' properly taught knowledge must be able to do it under stress that you will not be able to reproduce in your garage or ' dojo'.
Even highly trained ' martial artists' can freeze outside thier comfort zone.
You may be able to' incapacitate' your friends in a dojo but incapacitating a man that has twice your strength and has just punched you in the face and is ripping your dress is another thing.
It takes years to learn to make up the difference of someone who has a significant strength and aggression advantage.
I have trained with many women who have a good martial arts background and I have only met one that could beat a strong young man...and a woman who was being mugged or raped would have to do that very very quickly before being overcome.","http://www.4forums.com/political/gun-control-debates/15322-what-do-women.html",429874,147
"1-10453_148_147_2",10453,1,"2011-05-15 14:59:00",746,237,429884,"2011-05-15 14:53:00",477151,44,147,"Ok. How is this stress and confusion replicated , bearing in mind that you cant just have the teacher put the pupil through a small amount of stress and controlled pain and expecting the experience to be of any advantage for long?",477150,2,10453,1,"Properly taught includes dealing with stress and thinking clearly in a fight.

I won't argue against that, and even minimal training or past fighting experience on the aggressors side can counter-act that.

Most schools are not about real combat but some kind of meditative art that happens to be descended from a way of fighting. They teach kids as a soccer alternative and hand out belts like candy. I am talking about the mixed martial arts taught to military personal. (not to say that a pure martial art isn't 'good enough' but merely refering to the style of training, in which the stress and confusion of a real fight is trying to be simulated)","http://www.4forums.com/political/gun-control-debates/15322-what-do-women.html",429882,148
"1-10453_149_148_2",10453,1,"2011-05-15 15:21:00",237,746,429888,"2011-05-15 14:59:00",477152,150,148,"The same way it is in military training, lots of yelling; many sparing sessions as opposed to punching bags. Doing some of the training in different locations so students don't associate their fighting skills only with the school. Doing exercises which emphasize unexpected attacks, and yes making sure people know what being punched feels like and training them to keep going even with that pain.
I don't agree that the advantage of this would 'wear off' so easily. I also realize it's a little intense which is why schools like this are rare and instructors are mostly in the military.
Remember I am not arguing it's easier than owning a gun or more effective. It is however (and unfortunately) the only choice for some who live where gun laws are too restrictive to allow much else.",477151,2,10453,1,"Ok. How is this stress and confusion replicated , bearing in mind that you cant just have the teacher put the pupil through a small amount of stress and controlled pain and expecting the experience to be of any advantage for long?","http://www.4forums.com/political/gun-control-debates/15322-what-do-women.html",429884,149
"1-10453_150_149_2",10453,1,"2011-05-15 15:36:00",746,237,429890,"2011-05-15 15:21:00",477153,191,149,"Sparring sessions do not even start to replicate the emotions that you have in a ' street' situation .
The other consideration is that there is never a good uptake of women for classes of this kind.
Look at it from another point of view..two men can fight full contact and reproduce a similar situation of a street fight( in fact letting a sparring session get out of hand is a good way of training serious students).
However this cannot be allowed to happen in a male female sparring session because the woman will get creamed in a stand up fight.
So a realistic session would be for a male student to attack a female student full on and the female student to strike a vital area to neutralise his attack..to be honest I would refuse to be kicked in the balls or gouged by a female student because she was incapable of stopping me in any other way.
The 'emotion' training wears off very quickly...in fact as quickly as the instinctual reaction to attack.",477152,2,10453,1,"The same way it is in military training, lots of yelling; many sparing sessions as opposed to punching bags. Doing some of the training in different locations so students don't associate their fighting skills only with the school. Doing exercises which emphasize unexpected attacks, and yes making sure people know what being punched feels like and training them to keep going even with that pain.
I don't agree that the advantage of this would 'wear off' so easily. I also realize it's a little intense which is why schools like this are rare and instructors are mostly in the military.
Remember I am not arguing it's easier than owning a gun or more effective. It is however (and unfortunately) the only choice for some who live where gun laws are too restrictive to allow much else.","http://www.4forums.com/political/gun-control-debates/15322-what-do-women.html",429888,150
"1-10453_41_40_3",10453,1,"2011-05-06 14:30:00",681,1450,429139,"2011-05-06 14:24:00",477044,33,40,"Well, it is plain you are not a poet either. You got any claims you can back up or you spreading umbrage from your safe spot in the rubber room?",477043,3,10453,1,"What are you now? In your late senile 80's? Kiss it.","http://www.4forums.com/political/gun-control-debates/15322-what-do-women.html",429137,41
"1-10453_42_41_3",10453,1,"2011-05-06 14:52:00",1450,681,429141,"2011-05-06 14:30:00",477045,35,41,"I'm an ex-cardiopulmonary tech (14 years). A published author. Musician, producer. Related to show biz royalty. Being considered for poet laureate of Houston. What you got?",477044,3,10453,1,"Well, it is plain you are not a poet either. You got any claims you can back up or you spreading umbrage from your safe spot in the rubber room?","http://www.4forums.com/political/gun-control-debates/15322-what-do-women.html",429139,42
"1-10453_43_42_3",10453,1,"2011-05-06 14:56:00",681,1450,429143,"2011-05-06 14:52:00",477046,7,42,"Top shrink: Leftists are mentally ill",477045,3,10453,1,"I'm an ex-cardiopulmonary tech (14 years). A published author. Musician, producer. Related to show biz royalty. Being considered for poet laureate of Houston. What you got?","http://www.4forums.com/political/gun-control-debates/15322-what-do-women.html",429141,43
"1-10453_44_43_3",10453,1,"2011-05-06 14:58:00",1450,681,429145,"2011-05-06 14:56:00",477047,37,43,"I'll see your link and raise you one. 
Conservatism: The Politics Of Ignorance and Self-Interest
Conservatism: The Politics of Ignorance And Self-Interest
I guess you didn't have nothing to offer. Old fart.",477046,3,10453,1,"Top shrink: Leftists are mentally ill","http://www.4forums.com/political/gun-control-debates/15322-what-do-women.html",429143,44
"1-10453_45_44_3",10453,1,"2011-05-06 15:09:00",681,1450,429147,"2011-05-06 14:58:00",477048,77,44,"I suppose that proves my point; that was what the good doc was talking about. Now we know where your silver elitist spoon is hidden. emoticonXAgree
You do understand this is a Republic and not a democracy without the Rule of Law which you would change if you couldemoticonXAgree
What, pray tell, gives you any authority over the Constitution nor the Civil Rights of the citizens of this Republic? hummmm?",477047,3,10453,1,"I'll see your link and raise you one. 
Conservatism: The Politics Of Ignorance and Self-Interest
Conservatism: The Politics of Ignorance And Self-Interest
I guess you didn't have nothing to offer. Old fart.","http://www.4forums.com/political/gun-control-debates/15322-what-do-women.html",429145,45
"1-10453_59_55_4",10453,1,"2011-05-07 00:22:00",681,1450,429170,"2011-05-06 22:09:00",477062,158,55,"I'll let you in on something creep. 
If, IF you were really what you claimed to be instead of a darn poor liar, you would know that you are 9 times more likely to die at the hands of the medical profession than by any firearm. That's right, MEDICAL MISTAKES are the #1 killer according to CDC.
If you had an education, IF, you would know that RIGHTS are not subject to majority opinion...nor even a vote. Rights are pre-existing and are not even subject to gov't approval and would exist even if they were not so protected and acknowledged in the Constitution.
Where is your outrage at gov't actors like the ATF and DOJ in this administration that intentionally broke their own smuggling laws?
You are a poor fraud and even a worse liar. Are you still stuck in the basement Raulito?",477058,4,10453,1,"Sorry, but your argument was hardly persuasive. If repeal of the 2nd amendment is up for vote, you best believe I'm voting in the affirmative. Bye bye guns. Bye bye jerks who love 'em.","http://www.4forums.com/political/gun-control-debates/15322-what-do-women.html",429164,59
"1-10453_64_59_4",10453,1,"2011-05-07 05:01:00",1450,681,429183,"2011-05-07 00:22:00",477067,89,59,"Creep? Now did I say anything about your family? No. You're an idiot, just like the rest of the XXXXXX here. 
If? If? You don't know me. Don't pretend that you do. You're another gun crazie, who thinks like Charleton Heston...the only way they'll get your gun is to pry it from your cold hands.
It's clear you're anti-government and pro-militia....the original intent of the 
2nd amendment.....not valid anymore. Fascist.",477062,4,10453,1,"I'll let you in on something creep. 
If, IF you were really what you claimed to be instead of a darn poor liar, you would know that you are 9 times more likely to die at the hands of the medical profession than by any firearm. That's right, MEDICAL MISTAKES are the #1 killer according to CDC.
If you had an education, IF, you would know that RIGHTS are not subject to majority opinion...nor even a vote. Rights are pre-existing and are not even subject to gov't approval and would exist even if they were not so protected and acknowledged in the Constitution.
Where is your outrage at gov't actors like the ATF and DOJ in this administration that intentionally broke their own smuggling laws?
You are a poor fraud and even a worse liar. Are you still stuck in the basement Raulito?","http://www.4forums.com/political/gun-control-debates/15322-what-do-women.html",429170,64
"1-10453_65_64_4",10453,1,"2011-05-07 05:27:00",681,1450,429184,"2011-05-07 05:01:00",477068,153,64,". 
Did I say anything about your family?

I don't want to know you and you are doing my job easier by your ad homs. My job is to hold the mirror up to nature and make you look as bad as you are :)

Have you seen your militia lately?
United States Code: Title 10,311. Militia: composition and classes | LII / Legal Information Institute

Are you doing your militia duty? The law of the land is that the militia is you...and me and every true citizen. That is pro government in this Republic.
Since when did it become invalid? Serving as a group is NOT a necessity to own firearms as the Supreme Court ruled in McDonald ruled it is a personal and FUNDAMENTAL RIGHT.
You really are out of your league aren't you pot licker? emoticonXClown",477067,4,10453,1,"Creep? Now did I say anything about your family? No. You're an idiot, just like the rest of the XXXXXX here. 
If? If? You don't know me. Don't pretend that you do. You're another gun crazie, who thinks like Charleton Heston...the only way they'll get your gun is to pry it from your cold hands.
It's clear you're anti-government and pro-militia....the original intent of the 
2nd amendment.....not valid anymore. Fascist.","http://www.4forums.com/political/gun-control-debates/15322-what-do-women.html",429183,65
"1-10453_66_65_4",10453,1,"2011-05-07 05:32:00",1450,681,429185,"2011-05-07 05:27:00",477069,133,65,"No. I simply despise violent types and those that lobby to get their ""violence"" on. Admit it. You simply like shooting and killing things, and undoubtedly, ""blowing up"" things. It's primeval. Man at his basest. You're the reason we have war....war is simply the mind's quest to be right at the expense of making others wrong at the global level. Some folks would rather die in their quest to be right...which makes no sense. 
You're preaching to the absolute ""wrongest"" one. I can't hear you, because I never drank that koolaid. Get ready to be thwarted and frustrated. Talk to the hand. You're on ignore. Bye.",477068,4,10453,1,". 
Did I say anything about your family?

I don't want to know you and you are doing my job easier by your ad homs. My job is to hold the mirror up to nature and make you look as bad as you are :)

Have you seen your militia lately?
United States Code: Title 10,311. Militia: composition and classes | LII / Legal Information Institute

Are you doing your militia duty? The law of the land is that the militia is you...and me and every true citizen. That is pro government in this Republic.
Since when did it become invalid? Serving as a group is NOT a necessity to own firearms as the Supreme Court ruled in McDonald ruled it is a personal and FUNDAMENTAL RIGHT.
You really are out of your league aren't you pot licker? emoticonXClown","http://www.4forums.com/political/gun-control-debates/15322-what-do-women.html",429184,66
"1-10453_67_66_4",10453,1,"2011-05-07 05:45:00",681,1450,429186,"2011-05-07 05:32:00",477070,120,66,"Read my posts and then read yours and see who is unstable and violent. I leave the question to the readers and lukers...I post not to thee :)

You mean the sledgehammer murders are much more desireable than shooting? Have you not heard if you live by the hammer you will die by the hammer? In your case, you will probably starve without nanny feeding you emoticonXClown 

There are two kinds of war, political and economic. Wars are a government action and has nothing to do with me nor any other gun owner.

Come back when you can and get your rump handed to you in your hat again. emoticonXSmilie",477069,4,10453,1,"No. I simply despise violent types and those that lobby to get their ""violence"" on. Admit it. You simply like shooting and killing things, and undoubtedly, ""blowing up"" things. It's primeval. Man at his basest. You're the reason we have war....war is simply the mind's quest to be right at the expense of making others wrong at the global level. Some folks would rather die in their quest to be right...which makes no sense. 
You're preaching to the absolute ""wrongest"" one. I can't hear you, because I never drank that koolaid. Get ready to be thwarted and frustrated. Talk to the hand. You're on ignore. Bye.","http://www.4forums.com/political/gun-control-debates/15322-what-do-women.html",429185,67
