"key","quote_source_post_discussion_id","posts_dataset_id","posts_timestamp","posts_author_id","quote_source_author_id","posts_native_post_id","quote_source_timestamp","post_text_id","Word_Count","quote_source_post_id","post_text","quote_source_text_id","Dialog_Turn","posts_discussion_id","quote_source_post_dataset_id","Fullquote_text","discussion_url","quote_source_native_post_id","posts_post_id"
"1-10662_280_278_1",10662,1,"2012-01-22 06:04:00",682,507,447942,"2012-01-21 23:08:00",487663,128,278,"And pray tell of what relevance is this to the discussion at hand concerning the open carry ban signed into law in the state of California.
You were the one who started this thread for the purpose of discussing this matter, not the credentials of those who would take part and disagree with you.
This is not a discussion that concerns you in any matter except for you being a participant. You are not the subject of the thread. If someone challenges your understanding of basic law that does not authorize you to derail the discussion that you started. If you become upset over what is said about your credibility and basic grasp of the facts that is simply too bad.",487661,1,10662,1,"Oh ye of little knowledge. Do you know anything about arbitration? If you do, please tell me what you think and arbitrator is? Only; when you write out the explanation, substitute the word “arbitrator” with the word “mediator” then tell me what a mediator is: and I’ll go head to head with you on it.
So, that’s a “put up or shut up” kind of challenge.
When you've done that, we can proceed; not until then.","http://www.4forums.com/political/gun-control-debates/15753-jerry-brown-signs-open-carry-ban.html",447927,280
"1-10662_285_280_1",10662,1,"2012-01-22 09:32:00",507,682,447967,"2012-01-22 06:04:00",487668,21,280,"You seemed to ake a big deal of it, now you turn to a different agument.
you're just nuts",487663,1,10662,1,"And pray tell of what relevance is this to the discussion at hand concerning the open carry ban signed into law in the state of California.
You were the one who started this thread for the purpose of discussing this matter, not the credentials of those who would take part and disagree with you.
This is not a discussion that concerns you in any matter except for you being a participant. You are not the subject of the thread. If someone challenges your understanding of basic law that does not authorize you to derail the discussion that you started. If you become upset over what is said about your credibility and basic grasp of the facts that is simply too bad.","http://www.4forums.com/political/gun-control-debates/15753-jerry-brown-signs-open-carry-ban.html",447942,285
"1-10662_286_285_1",10662,1,"2012-01-22 10:22:00",682,507,447969,"2012-01-22 09:32:00",487669,76,285,"It was you who chose to introduce your court mediator status long after it was established that the member Bryan is an attorney and knowledgeable about the law and how it is interpreted. It was a legitimate question to ask why the revelation was made at the point it was.
That is a matter different from calling into question a person's credentials and their understanding of a subject you were asked to explain.",487668,1,10662,1,"You seemed to ake a big deal of it, now you turn to a different agument.
you're just nuts","http://www.4forums.com/political/gun-control-debates/15753-jerry-brown-signs-open-carry-ban.html",447967,286
"1-10662_287_286_1",10662,1,"2012-01-22 11:38:00",507,682,447972,"2012-01-22 10:22:00",487670,21,286,"This is what you said: 

So I just asked you relevent questions about that statment. Now answer them.",487669,1,10662,1,"It was you who chose to introduce your court mediator status long after it was established that the member Bryan is an attorney and knowledgeable about the law and how it is interpreted. It was a legitimate question to ask why the revelation was made at the point it was.
That is a matter different from calling into question a person's credentials and their understanding of a subject you were asked to explain.","http://www.4forums.com/political/gun-control-debates/15753-jerry-brown-signs-open-carry-ban.html",447969,287
"1-10662_288_287_1",10662,1,"2012-01-22 12:14:00",682,507,447973,"2012-01-22 11:38:00",487671,189,287,"It was asked why you felt your status as a court mediator was of any relevance to the discussion, and why you felt it was relevant at the point it was introduced. If your status had any bearing on the matter why was it not introduced earlier on?
As to the matter of questioning the time of your statement. If you did not believe it was of some relevance to the discussion you would not have shared the fact with the member Bryan. Whether or not your status as a court mediator has some bearing on the discussion is a matter of debate. However one must question why you felt it was worth introducing only now. What has changed that made the fact of importance?
The simple fact that you are a court mediator and have some idea of what goes on when court is in session does not mean you are knowledgeable about the implementation and interpretation of the law itself. It does in no way make you an expert on whether or not a law is constitutional.",487670,1,10662,1,"This is what you said: 

So I just asked you relevent questions about that statment. Now answer them.","http://www.4forums.com/political/gun-control-debates/15753-jerry-brown-signs-open-carry-ban.html",447972,288
"1-10662_289_288_1",10662,1,"2012-01-22 12:31:00",507,682,447974,"2012-01-22 12:14:00",487672,140,288,"You of course missed it again . . . My informing Brayn of my experiences tells him that his tricks are easy to spot: he will ask the same question over and over again hoping to get a different answer. He will intentionally misrepresent a point of argument hoping to turn the relevent points in his direction.
He uses ad-hominem as bait, hoping to incite emotion and careless answers.
These are all lawyer tricks; I see through them: he thinks I don't. My direct experince however says that I do.
So whether I post that fact now, or at the beginning the thread, means nothing to the timing I choose: you seem to say however that the timing would have been better at the beginning: why?",487671,1,10662,1,"It was asked why you felt your status as a court mediator was of any relevance to the discussion, and why you felt it was relevant at the point it was introduced. If your status had any bearing on the matter why was it not introduced earlier on?
As to the matter of questioning the time of your statement. If you did not believe it was of some relevance to the discussion you would not have shared the fact with the member Bryan. Whether or not your status as a court mediator has some bearing on the discussion is a matter of debate. However one must question why you felt it was worth introducing only now. What has changed that made the fact of importance?
The simple fact that you are a court mediator and have some idea of what goes on when court is in session does not mean you are knowledgeable about the implementation and interpretation of the law itself. It does in no way make you an expert on whether or not a law is constitutional.","http://www.4forums.com/political/gun-control-debates/15753-jerry-brown-signs-open-carry-ban.html",447973,289
"1-10662_292_289_1",10662,1,"2012-01-22 13:10:00",682,507,447978,"2012-01-22 12:31:00",487675,127,289,"You have been in discussion with the member Bryan since page six of this thread. It was on that same page you were informed that he is an attorney. For thirteen pages you have been having a back and forth debate with Bryan and countless others, continually allowing Bryan to exercise his ""lawyer tricks"" in an uninterrupted manner. It was only on page nineteen that you chose to inform him that you are a court mediator and tell him that what you refer to as his ""tricks"" are of no use.
So one must wonder why you allowed thirteen pages worth of discussion to occur before finally revealing that you can see through whatever Bryan may present.",487672,1,10662,1,"You of course missed it again . . . My informing Brayn of my experiences tells him that his tricks are easy to spot: he will ask the same question over and over again hoping to get a different answer. He will intentionally misrepresent a point of argument hoping to turn the relevent points in his direction.
He uses ad-hominem as bait, hoping to incite emotion and careless answers.
These are all lawyer tricks; I see through them: he thinks I don't. My direct experince however says that I do.
So whether I post that fact now, or at the beginning the thread, means nothing to the timing I choose: you seem to say however that the timing would have been better at the beginning: why?","http://www.4forums.com/political/gun-control-debates/15753-jerry-brown-signs-open-carry-ban.html",447974,292
"1-10662_293_292_1",10662,1,"2012-01-22 13:33:00",507,682,447979,"2012-01-22 13:10:00",487676,210,292,"It's very simple: he decided that I had some sort of inability to interpret what he argues. I have every ability to seperate the wheat from the chaff, and most of what Bryan argues is chaff. I've pointed out exactly what the chaff is and how he uses it: that's for his benefit, because I don't like cirular argument which is what he's engaging in now.
For instance, rather than point out what problems that Article III posed to the courts with respect to the 2nd Amendment in years past; since the founding until just recently (that's his argument verbatim); he keeps throwing his inability to answer for his assertion back onto me as though I show some sort of ingnorance on Article III: that's lawyer's trick to keep the burden upon your oponent and it works for less capable observers. To that I say; he obviously then doesn't know what he's talking about.
Now, if you have nothing pertinent to add to this sub-text, then drop it so that I can wait for Bryan to answer the challenge that I have given him so that we may continue the discussion.",487675,1,10662,1,"You have been in discussion with the member Bryan since page six of this thread. It was on that same page you were informed that he is an attorney. For thirteen pages you have been having a back and forth debate with Bryan and countless others, continually allowing Bryan to exercise his ""lawyer tricks"" in an uninterrupted manner. It was only on page nineteen that you chose to inform him that you are a court mediator and tell him that what you refer to as his ""tricks"" are of no use.
So one must wonder why you allowed thirteen pages worth of discussion to occur before finally revealing that you can see through whatever Bryan may present.","http://www.4forums.com/political/gun-control-debates/15753-jerry-brown-signs-open-carry-ban.html",447978,293
"1-10662_318_317_2",10662,1,"2012-01-26 14:35:00",682,507,448190,"2012-01-26 13:48:00",487701,197,317,"]
Incorrect. Your misrepresentation of what was said in one sentence of the Heller ruling does not support the open carry prohibitions that the state of California has enacted. There is nothing in the Heller ruling to suggest that a total prohibition on the possession of firearms beyond one's home is constitutional or enforceable in nature. A constitutional right cannot exist in a limited nature within the confines of a person's home and cease to exist as soon as they set foot onto public property such as a street or sidewalk.
The Supreme Court has ruled that the core value of the second amendment is self defense. That is impossible under the prohibitions enacted by the state of California. They have effectively outlawed firearms in public under all circumstances. What they have done is unconstitutional.

The opinion of the District of Columbia is of no relevance. They were the party that lost in the ruling.

The only other member known to be from the state of California is Sinjin. It has yet to be seen if even he agrees with your position on this matter.",487700,2,10662,1,"Now, using your own citation I found an argument that refutes your position and validates mine; that open carry – as incarry – does possess limitations: this must be a source then for the California law.","http://www.4forums.com/political/gun-control-debates/15753-jerry-brown-signs-open-carry-ban.html",448188,318
"1-10662_320_318_2",10662,1,"2012-01-26 15:31:00",507,682,448194,"2012-01-26 14:35:00",487703,35,318,"I don't care what you think at all. I wonder why however you insist on dragging other people into this. It makes you a s**t disturber; you know that don't you.",487701,2,10662,1,"]
Incorrect. Your misrepresentation of what was said in one sentence of the Heller ruling does not support the open carry prohibitions that the state of California has enacted. There is nothing in the Heller ruling to suggest that a total prohibition on the possession of firearms beyond one's home is constitutional or enforceable in nature. A constitutional right cannot exist in a limited nature within the confines of a person's home and cease to exist as soon as they set foot onto public property such as a street or sidewalk.
The Supreme Court has ruled that the core value of the second amendment is self defense. That is impossible under the prohibitions enacted by the state of California. They have effectively outlawed firearms in public under all circumstances. What they have done is unconstitutional.

The opinion of the District of Columbia is of no relevance. They were the party that lost in the ruling.

The only other member known to be from the state of California is Sinjin. It has yet to be seen if even he agrees with your position on this matter.","http://www.4forums.com/political/gun-control-debates/15753-jerry-brown-signs-open-carry-ban.html",448190,320
"1-10662_321_320_2",10662,1,"2012-01-26 15:39:00",682,507,448196,"2012-01-26 15:31:00",487704,150,320,"No person has been dragged into anything. Rather it was merely pointed out that the only other member known to live in the state of California does not seem to share your views on this matter.
Worth mentioning is the fact that your argument of precedent is unfounded. Simply because the state of California has had a prohibition on the carrying of loaded firearms for the past 45 years does not mean any precedent for continuing the prohibition exists.
Under your logic the District of Columbia and the city of Chicago had precedent for continuing their complete and total prohibition on the ownership of handguns as these laws were in effect for decades. The Supreme Court rejected these arguments of precedent, as well as many other arguments; such as the request to limit the second amendment in favor of judicial interest balancing.",487703,2,10662,1,"I don't care what you think at all. I wonder why however you insist on dragging other people into this. It makes you a s**t disturber; you know that don't you.","http://www.4forums.com/political/gun-control-debates/15753-jerry-brown-signs-open-carry-ban.html",448194,321
"1-10662_322_321_2",10662,1,"2012-01-26 16:52:00",507,682,448198,"2012-01-26 15:39:00",487705,56,321,"Nooooo, you keep draggng other peoples names into this. Whether sinjin agrees with me or not, is not for you to point out; because you don't know.
And as far as DC and Chicago go with respect to my argument: you couldn't be more wrong if you got paid.",487704,2,10662,1,"No person has been dragged into anything. Rather it was merely pointed out that the only other member known to live in the state of California does not seem to share your views on this matter.
Worth mentioning is the fact that your argument of precedent is unfounded. Simply because the state of California has had a prohibition on the carrying of loaded firearms for the past 45 years does not mean any precedent for continuing the prohibition exists.
Under your logic the District of Columbia and the city of Chicago had precedent for continuing their complete and total prohibition on the ownership of handguns as these laws were in effect for decades. The Supreme Court rejected these arguments of precedent, as well as many other arguments; such as the request to limit the second amendment in favor of judicial interest balancing.","http://www.4forums.com/political/gun-control-debates/15753-jerry-brown-signs-open-carry-ban.html",448196,322
"1-10662_327_322_2",10662,1,"2012-01-26 17:34:00",682,507,448203,"2012-01-26 16:52:00",487710,63,322,"Simply because you say so is not good enough. It must be proven that the precedent argued by the District of Columbia and the city of Chicago is a different precedent compared to the state of California and has no bearing on the matter.
A law cannot continue to exist simply because it has existed up to a certain point.",487705,2,10662,1,"Nooooo, you keep draggng other peoples names into this. Whether sinjin agrees with me or not, is not for you to point out; because you don't know.
And as far as DC and Chicago go with respect to my argument: you couldn't be more wrong if you got paid.","http://www.4forums.com/political/gun-control-debates/15753-jerry-brown-signs-open-carry-ban.html",448198,327
"1-10662_328_327_2",10662,1,"2012-01-26 18:05:00",507,682,448204,"2012-01-26 17:34:00",487711,32,327,"Simply because you say so is not good enough either. Your last line there says more about your loyalties to the US than anything you've said so far . . .",487710,2,10662,1,"Simply because you say so is not good enough. It must be proven that the precedent argued by the District of Columbia and the city of Chicago is a different precedent compared to the state of California and has no bearing on the matter.
A law cannot continue to exist simply because it has existed up to a certain point.","http://www.4forums.com/political/gun-control-debates/15753-jerry-brown-signs-open-carry-ban.html",448203,328
"1-10662_329_328_2",10662,1,"2012-01-26 18:42:00",682,507,448207,"2012-01-26 18:05:00",487712,123,328,"You have argued that the precedent of the District of Columbia and the city of Chicago is somehow different than the state of California. You have failed to explain just how this is a matter of fact.

Of what are you referring? No claim of loyalty to anyone or anything has been made. What has been stated is the simple fact that a law cannot continue to exist simply because it has existed in the past. There is no precedent set forth by any court that would suggest once a law has been on the books unopposed for more than a certain length of time it is beyond legal challenge and must continue to remain as law.",487711,2,10662,1,"Simplybecause you say so is not good enough either.","http://www.4forums.com/political/gun-control-debates/15753-jerry-brown-signs-open-carry-ban.html",448204,329
"1-10662_330_329_2",10662,1,"2012-01-26 18:49:00",507,682,448208,"2012-01-26 18:42:00",487713,15,329,"I've never argued any such thing.

""too what are you referring?""",487712,2,10662,1,"You have argued that the precedent of the District of Columbia and the city of Chicago is somehow different than the state of California. You have failed to explain just how this is a matter of fact.

Of what are you referring? No claim of loyalty to anyone or anything has been made. What has been stated is the simple fact that a law cannot continue to exist simply because it has existed in the past. There is no precedent set forth by any court that would suggest once a law has been on the books unopposed for more than a certain length of time it is beyond legal challenge and must continue to remain as law.","http://www.4forums.com/political/gun-control-debates/15753-jerry-brown-signs-open-carry-ban.html",448207,330
"1-10662_331_330_2",10662,1,"2012-01-26 19:18:00",682,507,448209,"2012-01-26 18:49:00",487714,19,330,"Then it would be wise to elaborate on exactly what you meant when you made the following statement:

",487713,2,10662,1,"I've never argued any such thing.

""too what are you referring?""","http://www.4forums.com/political/gun-control-debates/15753-jerry-brown-signs-open-carry-ban.html",448208,331
"1-10662_344_331_2",10662,1,"2012-01-28 10:35:00",507,682,448287,"2012-01-26 19:18:00",487727,14,331,"Wise?? No; how'bout you go back and read what I said.",487714,2,10662,1,"Then it would be wise to elaborate on exactly what you meant when you made the following statement:

","http://www.4forums.com/political/gun-control-debates/15753-jerry-brown-signs-open-carry-ban.html",448209,344
"1-10662_52_1_3",10662,1,"2011-12-27 19:30:00",1223,507,446512,"2011-10-10 18:53:00",487435,42,1,"Just in time. He is also releasing 40,000 prisoners.
Unlike the false promise that anti gunners made when CCW was adopted that blood will fill the streets from CCW permit holder, prisoners for sure will be killing people.",487384,3,10662,1,"So, Jerry Brown signed the ""open carry"" ban this morning. So, what are your comments: I have mine . . .","http://www.4forums.com/political/gun-control-debates/15753-jerry-brown-signs-open-carry-ban.html",440519,52
"1-10662_54_52_3",10662,1,"2011-12-27 20:22:00",507,1223,446515,"2011-12-27 19:30:00",487437,124,52,"Supreme Court orders California to slash prison population by more than 30,000 - CSMonitor.com

And this of course was a court order back in May of this year. So, Jerry’s not doin’ it, the courts are ordering him to do it under the 8th Amendment.
So; you’re wrong.
Secondly, you should check your BS beofre you post. The thread is about teh banning of open carry: high time in my opinion. There are too many nutty right-wing gun idolizers that are dangerous. The last deomostrations of this ""open carry"" BS did enough to emblazon that point on everybody's minds.",487435,3,10662,1,"Just in time. He is also releasing 40,000 prisoners.
Unlike the false promise that anti gunners made when CCW was adopted that blood will fill the streets from CCW permit holder, prisoners for sure will be killing people.","http://www.4forums.com/political/gun-control-debates/15753-jerry-brown-signs-open-carry-ban.html",446512,54
"1-10662_57_54_3",10662,1,"2011-12-28 04:13:00",1223,507,446530,"2011-12-27 20:22:00",487440,53,54,"Stop saying crazy paranoid things. No one got hurt so what is so dangerous about open carry?
You know what I find funny? 'You don't need a gun to buy a cheeseburger', yet one of the worst mass murders took place in a California burger joint.",487437,3,10662,1,"Supreme Court orders California to slash prison population by more than 30,000 - CSMonitor.com

And this of course was a court order back in May of this year. So, Jerry’s not doin’ it, the courts are ordering him to do it under the 8th Amendment.
So; you’re wrong.
Secondly, you should check your BS beofre you post. The thread is about teh banning of open carry: high time in my opinion. There are too many nutty right-wing gun idolizers that are dangerous. The last deomostrations of this ""open carry"" BS did enough to emblazon that point on everybody's minds.","http://www.4forums.com/political/gun-control-debates/15753-jerry-brown-signs-open-carry-ban.html",446515,57
"1-10662_59_57_3",10662,1,"2011-12-28 14:17:00",507,1223,446582,"2011-12-28 04:13:00",487442,162,57,"There's nothing crazy or paranoid at all about what I said. There are too many right-wing loons in this country to even think about open carry laws in urban areas. ain't gonna happen.
And as for your cheeseburger note; as I said, check yourt BS at the door please.
Ya'know, it just amazes me (maybe it shouldn't) that you gun idolizers; with nothing whatsoever to verify your paranoia, are under some sort of drug induced state of mind that the 2nd Amendment is under some sort of threat.
All you guys prove is that you know nothing of either our Constitution or our history. Yet you persist with this ignorant nonsense as though someone with any ability to think, let alone someone with an education is going to give your views any credibility at all.
There's nothing there; so what's the point of the BS?",487440,3,10662,1,"Stop saying crazy paranoid things. No one got hurt so what is so dangerous about open carry?
You know what I find funny? 'You don't need a gun to buy a cheeseburger', yet one of the worst mass murders took place in a California burger joint.","http://www.4forums.com/political/gun-control-debates/15753-jerry-brown-signs-open-carry-ban.html",446530,59
"1-10662_83_59_3",10662,1,"2011-12-29 10:49:00",1223,507,446645,"2011-12-28 14:17:00",487466,76,59,"That's paranoid. There is no vast right wing conspiracy to carry guns on the street.
You remember the hamburger stand in San Ysidro? 22 dead while the police waited outside to make sure the area was 'secure'.
As Anthony Portantino keeps yamming. 'You don't need a gun to buy a cheeseburger'.
If you find this conspiracy, let me know. I want to join.",487442,3,10662,1,"There's nothing crazy or paranoid at all about what I said. There are too many right-wing loons in this country to even think about open carry laws in urban areas.ain't gonna happen.","http://www.4forums.com/political/gun-control-debates/15753-jerry-brown-signs-open-carry-ban.html",446582,83
"1-10662_148_146_4",10662,1,"2012-01-05 21:55:00",1223,507,447165,"2012-01-05 21:46:00",487531,33,146,"That right does not exist. Or I would like to use it so I can make You STFU.
You opinion violates my peace of mind.
What shall it be?",487529,4,10662,1,"What you guys are going to find out is that ""open carry"" violates a persons peace of mind; it violates their right to not feel threatened. That's what a lawyer will say; hell, ask Bryan.
You watch: it's going to go just like second hand smoke.","http://www.4forums.com/political/gun-control-debates/15753-jerry-brown-signs-open-carry-ban.html",447161,148
"1-10662_150_148_4",10662,1,"2012-01-05 22:06:00",507,1223,447170,"2012-01-05 21:55:00",487533,58,148,"Net yet it doesn't, that's my point. The right to protection from second hand smoke didn't exist either until someone invented it.
You watch . . . 
So, Hate_bs; do you like apples?
I don't care what you think of my opinion. How do ya like them apples?",487531,4,10662,1,"That right does not exist. Or I would like to use it so I can make You STFU.
You opinion violates my peace of mind.
What shall it be?","http://www.4forums.com/political/gun-control-debates/15753-jerry-brown-signs-open-carry-ban.html",447165,150
"1-10662_152_150_4",10662,1,"2012-01-05 22:10:00",1223,507,447173,"2012-01-05 22:06:00",487535,25,150,"You offend my peace of mind. Are you reading my mind to tell me I am not offended? Put down the doobie.",487533,4,10662,1,"Net yet it doesn't, that's my point. The right to protection from second hand smoke didn't exist either until someone invented it.
You watch . . . 
So, Hate_bs; do you like apples?
I don't care what you think of my opinion. How do ya like them apples?","http://www.4forums.com/political/gun-control-debates/15753-jerry-brown-signs-open-carry-ban.html",447170,152
"1-10662_153_152_4",10662,1,"2012-01-05 22:13:00",507,1223,447175,"2012-01-05 22:10:00",487536,10,152,"So, do you like apples? You do???",487535,4,10662,1,"You offend my peace of mind. Are you reading my mind to tell me I am not offended? Put down the doobie.","http://www.4forums.com/political/gun-control-debates/15753-jerry-brown-signs-open-carry-ban.html",447173,153
"1-10662_154_153_4",10662,1,"2012-01-05 22:17:00",1223,507,447176,"2012-01-05 22:13:00",487537,17,153,"What part of the Constitution is this 'right to protection' from second hand smoke?",487536,4,10662,1,"So, do you like apples? You do???","http://www.4forums.com/political/gun-control-debates/15753-jerry-brown-signs-open-carry-ban.html",447175,154
"1-10662_155_154_4",10662,1,"2012-01-05 22:26:00",507,1223,447177,"2012-01-05 22:17:00",487538,52,154,"Ya'know, I dunno, you'll have to ask the courts about that. But people got protection from it didn't they . . and they'll get protection for their ""peace of mind"" and ""fear from threats"" too.
You watch
Kepp eatin' them apples boy.",487537,4,10662,1,"What part of the Constitution is this 'right to protection' from second hand smoke?","http://www.4forums.com/political/gun-control-debates/15753-jerry-brown-signs-open-carry-ban.html",447176,155
"1-10662_160_155_4",10662,1,"2012-01-06 05:41:00",1223,507,447190,"2012-01-05 22:26:00",487543,35,155,"Wow.
You don't know where the right to no feel threatened or the right to peace of mind comes from?
Yet it is part of your proof?
Take your bs elsewhere.",487538,4,10662,1,"Ya'know, I dunno, you'll have to ask the courts about that. But people got protection from it didn't they . . and they'll get protection for their ""peace of mind"" and ""fear from threats"" too.
You watch
Kepp eatin' them apples boy.","http://www.4forums.com/political/gun-control-debates/15753-jerry-brown-signs-open-carry-ban.html",447177,160
"1-10662_166_160_4",10662,1,"2012-01-06 12:07:00",507,1223,447215,"2012-01-06 05:41:00",487549,36,160,"Dude, if you can't hack, then don't let the door hit you in the a$$ on you're way out. Do both yourself and me a favor; put me on ignore.",487543,4,10662,1,"Wow.
You don't know where the right to no feel threatened or the right to peace of mind comes from?
Yet it is part of your proof?
Take your bs elsewhere.","http://www.4forums.com/political/gun-control-debates/15753-jerry-brown-signs-open-carry-ban.html",447190,166
"1-10662_184_166_4",10662,1,"2012-01-08 18:34:00",1223,507,447324,"2012-01-06 12:07:00",487567,94,166,"No.
When I see BS I am going to call you on it.
So don't run away now. Where does these 'rights' come from?
If you can't answer the simple question of where does the right to no be threatened and the right to peace of mind comes from, then maybe you need to ask yourself 'why did I say BS like that'.
So why I'd you say BS like that? I think everyone here now knows you can't find the right.",487549,4,10662,1,"Dude, if you can't hack, then don't let the door hit you in the a$$ on you're way out. Do both yourself and me a favor; put me on ignore.","http://www.4forums.com/political/gun-control-debates/15753-jerry-brown-signs-open-carry-ban.html",447215,184
