"key","quote_source_post_discussion_id","posts_dataset_id","posts_timestamp","posts_author_id","quote_source_author_id","posts_native_post_id","quote_source_timestamp","post_text_id","Word_Count","quote_source_post_id","post_text","quote_source_text_id","Dialog_Turn","posts_discussion_id","quote_source_post_dataset_id","Fullquote_text","discussion_url","quote_source_native_post_id","posts_post_id"
"1-10713_41_1_1",10713,1,"2011-12-04 13:21:00",507,681,444186,"2011-11-03 14:21:00",489904,62,1,"The only problem that I have with your thesis is this ""class of people"" that you refer to. I'm familiar with Mcdonald vs Chicago, and there was similar move in San Francisco that was struck down as well. But the class of people and any inclusion in teh context of the 14th Amendmemt is real vague.",489864,1,10713,1,"Did incorporation create not only a protected right of the people to keep and bear arms but also create a protected class of people in their exercise of civil rights? Protecting them from discrimination, persecution and prosecution for exercising their LEGAL Constitutional Rights? Enforceable against all positive government...Federal, State and Local!
I maintain that this is the purpose of the XIVth Amendment and all included RIGHTS that have already been incorporated.","http://www.4forums.com/political/gun-control-debates/15854-incorporation-2a-into-xivth-amendment-civil-rights.html",442416,41
"1-10713_42_41_1",10713,1,"2011-12-04 15:46:00",681,507,444198,"2011-12-04 13:21:00",489905,67,41,"IOW, black folks are easier to identify....right?
Hard to soak in that the black folks rights were incorporated before your's isn't it? emoticonXSmilie
I am through correcting or drawing attention to your spelling mistakes. Just don't try to demean those I spell correctly because you have never seen or heard the word before nor the etomology of this cloned word.",489904,1,10713,1,"The only problem that I have with your thesis is this ""class of people"" that you refer to. I'm familiar with Mcdonald vs Chicago, and there was similar move in San Francisco that was struck down as well. But the class of people and any inclusion in teh context of the 14th Amendmemt is real vague.","http://www.4forums.com/political/gun-control-debates/15854-incorporation-2a-into-xivth-amendment-civil-rights.html",444186,42
"1-10713_44_42_1",10713,1,"2011-12-04 20:51:00",507,681,444231,"2011-12-04 15:46:00",489907,145,42,"What?? What does that mean? All people exercise their civil rights, so I have no idea what you're trying to say.

IOW?? Do you know anything about English grammer or how it works with respect to the written word? Black folk's rights incorporated before mine?
The 13th, 14th and 15th amendments are very clear: you are not.

You mean ""teh""? That and ""adn"" are my keyboard nemesis. ""m"" instead of ""n"" in amendment? so.
Is that all you got? You can't explain your point any better than that? You said you wanted to argue The Constitution; well - argue. Or are you just going to dodge again and cover up your obvious ignorance with more silly abuse?",489905,1,10713,1,"IOW, black folks are easier to identify....right?
Hard to soak in that the black folks rights were incorporated before your's isn't it? emoticonXSmilie
I am through correcting or drawing attention to your spelling mistakes. Just don't try to demean those I spell correctly because you have never seen or heard the word before nor the etomology of this cloned word.","http://www.4forums.com/political/gun-control-debates/15854-incorporation-2a-into-xivth-amendment-civil-rights.html",444198,44
"1-10713_45_44_1",10713,1,"2011-12-05 06:07:00",681,507,444247,"2011-12-04 20:51:00",489908,166,44,"So getting the Heller, McDonald decision incorporated into the XIVth Amendment was an exercise in futility? Do not the tag under ratings on the topic page. A backread of the thread will be useful to you instead of jumping into and extant discussion and attempting a coup. Stay on topic and do your homework instead of thinking the earth revolves around you instead of the sun. 

I have posted appropriate quotes from caselaw and the XIVth Amendment.
Go back and read the intent of the XIVth Amendment.

Playacting will get you nowhere. Follow the discussion rating by hovering your pointer over the tag and see appropriate responses. Your opinion and ten bucks will get you a cup of coffee at Starbucks...maybe.

Meaning you are off topic with your posts. Save that crud for a brady board.

Go back and read and stay on topic or get the hell off the board!!",489907,1,10713,1,"What?? What does that mean? All people exercise their civil rights, so I have no idea what you're trying to say.

IOW?? Do you know anything about English grammer or how it works with respect to the written word? Black folk's rights incorporated before mine?
The 13th, 14th and 15th amendments are very clear: you are not.

You mean ""teh""? That and ""adn"" are my keyboard nemesis. ""m"" instead of ""n"" in amendment? so.
Is that all you got? You can't explain your point any better than that? You said you wanted to argue The Constitution; well - argue. Or are you just going to dodge again and cover up your obvious ignorance with more silly abuse?","http://www.4forums.com/political/gun-control-debates/15854-incorporation-2a-into-xivth-amendment-civil-rights.html",444231,45
"1-10713_46_45_1",10713,1,"2011-12-05 10:44:00",507,681,444300,"2011-12-05 06:07:00",489909,100,45,"Look, I don't think that you know what the topic is. I've read the thread. You're concerned about gun laws not being incorporated into the 14th Amendment. I agree that incorporation does include gun rights. This line however:
one that I've mentioned before: a vague note to ""a class of people"" muddles your thesis. Are you saying that gun owners are now some sort of persecuted people? or what?
As for the rest of your post; it's just more off topic abuse that deserves no comment.",489908,1,10713,1,"So getting the Heller, McDonald decision incorporated into the XIVth Amendment was an exercise in futility? Do not the tag under ratings on the topic page. A backread of the thread will be useful to you instead of jumping into and extant discussion and attempting a coup. Stay on topic and do your homework instead of thinking the earth revolves around you instead of the sun. 

I have posted appropriate quotes from caselaw and the XIVth Amendment.
Go back and read the intent of the XIVth Amendment.

Playacting will get you nowhere. Follow the discussion rating by hovering your pointer over the tag and see appropriate responses. Your opinion and ten bucks will get you a cup of coffee at Starbucks...maybe.

Meaning you are off topic with your posts. Save that crud for a brady board.

Go back and read and stay on topic or get the hell off the board!!","http://www.4forums.com/political/gun-control-debates/15854-incorporation-2a-into-xivth-amendment-civil-rights.html",444247,46
"1-10713_47_46_1",10713,1,"2011-12-05 11:51:00",681,507,444313,"2011-12-05 10:44:00",489910,58,46,"Stay on topic!
Oh> did it protect the militia killing and robbing blacks in bloody Kansas?
Was the militia disarmed?
Gungrabbers have always maintained it only protected the militia. Since incorporation we know that it protects the people. Gun owners are a protected class of people and is a civil right.",489909,1,10713,1,"Look, I don't think that you know what the topic is. I've read the thread. You're concerned about gun laws not being incorporated into the 14th Amendment. I agree that incorporation does include gun rights. This line however:
one that I've mentioned before: a vague note to ""a class of people"" muddles your thesis. Are you saying that gun owners are now some sort of persecuted people? or what?
As for the rest of your post; it's just more off topic abuse that deserves no comment.","http://www.4forums.com/political/gun-control-debates/15854-incorporation-2a-into-xivth-amendment-civil-rights.html",444300,47
"1-10713_48_47_1",10713,1,"2011-12-05 12:37:00",507,681,444328,"2011-12-05 11:51:00",489911,45,47,"You don't have the slightest idea what the hell you're talking about or how to communicate an idea in the English language; much less make coherent statements.
Your sock on another thread has communicated the thesis very succinctly. I'm going there.",489910,1,10713,1,"Stay on topic!
Oh> did it protect the militia killing and robbing blacks in bloody Kansas?
Was the militia disarmed?
Gungrabbers have always maintained it only protected the militia. Since incorporation we know that it protects the people. Gun owners are a protected class of people and is a civil right.","http://www.4forums.com/political/gun-control-debates/15854-incorporation-2a-into-xivth-amendment-civil-rights.html",444313,48
"1-10713_49_48_1",10713,1,"2011-12-05 13:50:00",681,507,444352,"2011-12-05 12:37:00",489912,10,48,"Adios. First good sense you have shown yet...",489911,1,10713,1,"You don't have the slightest idea what the hell you're talking about or how to communicate an idea in the English language; much less make coherent staements.
Your sock on another thread has communicated the thesis very succinctly. I'm going there.","http://www.4forums.com/political/gun-control-debates/15854-incorporation-2a-into-xivth-amendment-civil-rights.html",444328,49
