"key","quote_source_post_discussion_id","posts_dataset_id","posts_timestamp","posts_author_id","quote_source_author_id","posts_native_post_id","quote_source_timestamp","post_text_id","Word_Count","quote_source_post_id","post_text","quote_source_text_id","Dialog_Turn","posts_discussion_id","quote_source_post_dataset_id","Fullquote_text","discussion_url","quote_source_native_post_id","posts_post_id"
"1-10996_14_10_1",10996,1,"2012-07-04 20:23:00",443,3351,458420,"2012-07-04 05:32:00",500649,11,10,"you have no examples of civilians shooting each other ?? :p",500645,1,10996,1,"Meanwhile this police officer was threatening the lives of everyone in the area when he was engaged in a shootout with his fellow officers. Anybody walking by for up to half a mile was at risk of being hit the way he was recklessly shooting with criminal disregard for anyone and everyone.
Enlighten us Aussie Dundee, since you apparently know so much more than everyone else on this board. When members of the military and the police go rogue and start killing people, including their own rank and file buddies, exactly what would you propose as the acceptable solution?
What does the enlightened nation of Australia propose as the answer? Because this New Jersey cop is just the most recent in a long, long line of police brutality and careless disregard for life and limb by a government official. We've got examples of them shooting family pets even when they pose no threat, we've got them carelessly discharging their service weapons and killing kids, we've even got examples of highly trained SWAT teams leaving their machine guns behind at crime scenes.","http://www.4forums.com/political/gun-control-debates/18807-only-police-should-have-guns.html",458374,14
"1-10996_17_14_1",10996,1,"2012-07-04 21:18:00",3351,443,458424,"2012-07-04 20:23:00",500652,51,14,"Stay on topic Aussie Dundee. If you and the rest of Australia have no answers for the problem of rogue police officers going about and murdering the people they're supposed to protect then just say so. You've been presented with the question so the ball's in your court.",500649,1,10996,1,"you have no examples of civilians shooting each other ?? :p","http://www.4forums.com/political/gun-control-debates/18807-only-police-should-have-guns.html",458420,17
"1-10996_19_17_1",10996,1,"2012-07-04 23:22:00",443,3351,458429,"2012-07-04 21:18:00",500654,215,17,"Well, we don't have rogue police officers going about etc..
But if we ever do have them, then of course we'll demand to have guns to defend ourselves from them and from us who will have guns to defend us from them. Sounds right to you?
Us being a socialist country we will demand to have the guns given freely to us at birth by the government and also to be trained in their use at public schools and a ration of ammunition supplied free of charge on a weekly basis.
We will also demand compensation and free medical care for life in case of any of us, being shot by any of us or rogue police officers, red cross volunteers .. 
Your posts and Doc's are sohhhhh instructive, I always wanted to know what gun nuts think if you can call their mental processes thought.
Oh! before I forget, thanks for the tip about cancer causing knives. If anyone lunges at me with a knife, I'll make sure to ask him if it is a cancer producing knife, for I don't mind being stabbed to death as long it is not with a cancer producing knife. :p :p",500652,1,10996,1,"Stay on topic Aussie Dundee. If you and the rest of Australia have no answers for the problem of rogue police officers going about and murdering the people they're supposed to protect then just say so. You've been presented with the question so the ball's in your court.","http://www.4forums.com/political/gun-control-debates/18807-only-police-should-have-guns.html",458424,19
"1-10996_22_19_1",10996,1,"2012-07-05 06:01:00",3351,443,458436,"2012-07-04 23:22:00",500657,101,19,"So put in simple terms you don't know what to do. Australia is basically unprepared should any police officer take their duty weapon and start another Port Arthur incident because the possibility of that happening just never occurred to you guys over there, right?
I guess you're just gonna try and flex your sarcasm and hope that it's enough to deflect bullets bought and paid for by the government for the purpose of keeping people like you from getting killed by non-government entities. Hope that works out for you over there, happy hunting Elmer Fudd.",500654,1,10996,1,"Well, we don't have rogue police officers going about etc..
But if we ever do have them, then of course we'll demand to have guns to defend ourselves from them and from us who will have guns to defend us from them. Sounds right to you?
Us being a socialist country we will demand to have the guns given freely to us at birth by the government and also to be trained in their use at public schools and a ration of ammunition supplied free of charge on a weekly basis.
We will also demand compensation and free medical care for life in case of any of us, being shot by any of us or rogue police officers, red cross volunteers .. 
Your posts and Doc's are sohhhhh instructive, I always wanted to know what gun nuts think if you can call their mental processes thought.
Oh! before I forget, thanks for the tip about cancer causing knives. If anyone lunges at me with a knife, I'll make sure to ask him if it is a cancer producing knife, for I don't mind being stabbed to death as long it is not with a cancer producing knife. :p :p","http://www.4forums.com/political/gun-control-debates/18807-only-police-should-have-guns.html",458429,22
"1-10996_25_22_1",10996,1,"2012-07-05 16:24:00",443,3351,458475,"2012-07-05 06:01:00",500660,105,22,"Well, mijita, another Port Arthur incident is not very probable and the first one was caused by a 'law abiding citizen' (until he started shooting) not by a member of the Rogue Police Force of Australia
Yes, we are extremely unprepared, should little green men from Mars decide to land in Port Arthur and start lasering us, we would have no defence against them and don't even think of big green men from Mars or a bunch of gun crazy Mexican-Americans.
You are right we have a lot to learn from you guys. emoticonXRolleyes",500657,1,10996,1,"So put in simple terms you don't know what to do. Australia is basically unprepared should any police officer take their duty weapon and start another Port Arthur incident because the possibility of that happening just never occurred to you guys over there, right?
I guess you're just gonna try and flex your sarcasm and hope that it's enough to deflect bullets bought and paid for by the government for the purpose of keeping people like you from getting killed by non-government entities. Hope that works out for you over there, happy hunting Elmer Fudd.","http://www.4forums.com/political/gun-control-debates/18807-only-police-should-have-guns.html",458436,25
"1-10996_27_25_1",10996,1,"2012-07-05 17:09:00",3351,443,458483,"2012-07-05 16:24:00",500662,214,25,"Actions by members of the everyday citizenry aren't the subject of discussion here, rather it's the actions of cops and the military; the kinds of people that people like you say should be the only ones with sole access to guns because supposedly only they can be trusted. Well that argument is all well and good until stuff like this cops vs. cops shooting takes place and illustrates the fact of just how f***ed this idea is. Then once the truth comes to light that government officials are no more trustworthy than anybody else then that whole argument goes up in smoke and you're left with nothing.
You just can't beat the murderer out of somebody no matter how many rules and regulations and training you propose or mandate, and this shooting illustrates that fact perfectly. So it's back to square one and we inevitably return to you Aussie Dundee and ask what Australia's game plan is in case an incident like this occurs over there. Since you don't seem to have a plan for what to do when the public's trust in government is shattered I'd normally suggest you start praying hard, but since you're an atheist you probably wouldn't do that either.",500660,1,10996,1,"Well, mijita, another Port Arthur incident is not very probable and the first one was caused by a 'law abiding citizen' (until he started shooting) not by a member of the Rogue Police Force of Australia
Yes, we are extremely unprepared, should little green men from Mars decide to land in Port Arthur and start lasering us, we would have no defence against them and don't even think of big green men from Mars or a bunch of gun crazy Mexican-Americans.
You are right we have a lot to learn from you guys. emoticonXRolleyes","http://www.4forums.com/political/gun-control-debates/18807-only-police-should-have-guns.html",458475,27
"1-10996_28_27_1",10996,1,"2012-07-05 18:00:00",443,3351,458485,"2012-07-05 17:09:00",500663,56,27,"I told you, mijita, we are totally completely unprepared. All that stand between us, unarmed civilians and a member of the Rogue Police of Australia is the power of prayer for those who believe in God and for those who don't, NOTHING, NADA. Estamos jodidos, manito. :p",500662,1,10996,1,"Actions by members of the everyday citizenry aren't the subject of discussion here, rather it's the actions of cops and the military; the kinds of people that people like you say should be the only ones with sole access to guns because supposedly only they can be trusted. Well that argument is all well and good until stuff like this cops vs. cops shooting takes place and illustrates the fact of just how f***ed this idea is. Then once the truth comes to light that government officials are no more trustworthy than anybody else then that whole argument goes up in smoke and you're left with nothing.
You just can't beat the murderer out of somebody no matter how many rules and regulations and training you propose or mandate, and this shooting illustrates that fact perfectly. So it's back to square one and we inevitably return to you Aussie Dundee and ask what Australia's game plan is in case an incident like this occurs over there. Since you don't seem to have a plan for what to do when the public's trust in government is shattered I'd normally suggest you start praying hard, but since you're an atheist you probably wouldn't do that either.","http://www.4forums.com/political/gun-control-debates/18807-only-police-should-have-guns.html",458483,28
"1-10996_38_37_2",10996,1,"2012-07-06 16:23:00",443,3351,458539,"2012-07-06 05:48:00",500673,35,37,"I showed to you why is stupid to arm every man, woman and dog, it also compounds the problem. You still don't get it and I doubt you ever will.
emoticonXBye",500672,2,10996,1,"Guess what Aussie Dundee, I didn't create this thread just to address you and your foolishness, I made it for pointing out yet another reason of just how stupid it is for anyone to propose that only the military and police should have sole access to guns. And the fact that this was a cops vs. cops shooting that took place it's a prime example of just how foolish that argument is. Those who advocate a police state lack the common sense necessary to properly respond to examples of police abuse and their reckless disregard for human life.
Even now when faced with examples of the police going on murder sprees and other reckless activity you just sit there, surrounded by the sounds of crickets chirping, all the while spouting sarcasm because you can't say anything else. Where are your friends and allies like Brady and his ilk? Where are the concerned voices of the gun control movement coming to address this shooting? The simple truth is they have no answers to justify their positions so they choose to remain silent and hang back because they'd discredit their position if they tried to provide a counter argument or an excuse for the officer's actions. That's a can of worms they don't wanna open.","http://www.4forums.com/political/gun-control-debates/18807-only-police-should-have-guns.html",458507,38
"1-10996_39_38_2",10996,1,"2012-07-06 17:29:00",3351,443,458544,"2012-07-06 16:23:00",500674,155,38,"The only person who's actually talking about arming everyone is you! I haven't advocated it, Jonesy hasn't advocated it, Gansao hasn't advocated it and Zsu hasn't advocated it, it's only you. I pointed out an impossible to ignore example of why it'd be a very bad idea to let the police have exclusive access to guns and nobody has been able to the contrary about that point.
We've got a police officer who opened fire on his fellow officers and innocent bystanders in the general area, and we've got people who think it'd somehow be in everybody's best interest if people like this cop were the only ones who could legally own guns.
I don't care if you don't get it Aussie Dundee you're nothing more than small potatoes in this matter. There are much bigger fish to fry and you just amount to bait.",500673,2,10996,1,"I showed to you why is stupid to arm every man, woman and dog, it also compounds the problem. You still don't get it and I doubt you ever will.
emoticonXBye","http://www.4forums.com/political/gun-control-debates/18807-only-police-should-have-guns.html",458539,39
"1-10996_40_39_2",10996,1,"2012-07-06 20:54:00",443,3351,458552,"2012-07-06 17:29:00",500675,17,39,"so who else apart from the police should have access to guns, according to you ?",500674,2,10996,1,"The only person who's actually talking about arming everyone isyou! I haven't advocated it, Jonesy hasn't advocated it, Gansao hasn't advocated it and Zsu hasn't advocated it, it's only you. I pointed out an impossible to ignore example of why it'd be a very bad idea to let the police have exclusive access to guns and nobody has been able to the contrary about that point.
","http://www.4forums.com/political/gun-control-debates/18807-only-police-should-have-guns.html",458544,40
"1-10996_41_40_2",10996,1,"2012-07-06 21:33:00",3351,443,458555,"2012-07-06 20:54:00",500676,94,40,"Don't try and change the subject just because you can't address the questions and issues presented. You've been shown examples of why the police can't be trusted with the guns they already have access to, nevermind the foolish notion that they deserve access to all guns period. Any officer who would shoot at innocent bystanders for no reason, or leaves a machine gun behind at a crime scene can't be trusted by the people and should be removed from the force for being a danger to everyone around them.",500675,2,10996,1,"so who else apart from the police should have access to guns, according to you ?","http://www.4forums.com/political/gun-control-debates/18807-only-police-should-have-guns.html",458552,41
"1-10996_43_41_2",10996,1,"2012-07-06 23:08:00",443,3351,458560,"2012-07-06 21:33:00",500678,8,41,"Wow! I never thought of that emoticonXRolleyes",500676,2,10996,1,"Don't try and change the subject just because you can't address the questions and issues presented. You've been shown examples of why the police can't be trusted with the guns they already have access to, nevermind the foolish notion that they deserve access to all guns period. Any officer who would shoot at innocent bystanders for no reason, or leaves a machine gun behind at a crime scene can't be trusted by the people and should be removed from the force for being a danger to everyone around them.","http://www.4forums.com/political/gun-control-debates/18807-only-police-should-have-guns.html",458555,43
