"key","quote_source_post_discussion_id","posts_dataset_id","posts_timestamp","posts_author_id","quote_source_author_id","posts_native_post_id","quote_source_timestamp","post_text_id","Word_Count","quote_source_post_id","post_text","quote_source_text_id","Dialog_Turn","posts_discussion_id","quote_source_post_dataset_id","Fullquote_text","discussion_url","quote_source_native_post_id","posts_post_id"
"1-11028_85_82_1",11028,1,"2012-07-27 05:30:00",51,680,460047,"2012-07-26 21:49:00",501876,114,82,"Actually, the establishment has a responsibility to their customers whether it is a gun free zone or not. This is why the lawsuits filed reference the unlocked back door and saying this was negligent. In our overly sensitive, lawsuit happy society this will probably win no matter how ridiculous the argument is. Doc's point is that the theater should get sued for violating the 2nd amendment. This is not possible nor it is true.

It's not a moot point; it's the point every lawsuit it using. If they allowed guns into the theater they would still be getting sued and for the same reasons.",501873,1,11028,1,"If I disarm to go into a gun free zone than that establishment has the responsibility to protect me.Apparently the door in question had no alarm but it's a moot point.They are afraid someone might legally carry a weapon they overlook the ones being carried illegal.Concealed is just that concealed what they don't know won't hurt you.Disarm my a**.","http://www.4forums.com/political/gun-control-debates/19065-colorado-shooting.html",460034,85
"1-11028_89_85_1",11028,1,"2012-07-27 13:15:00",680,51,460086,"2012-07-27 05:30:00",501880,123,85,"And Doc is right.They failed in that responsibility.If places like that(gun free)are going to insist on no guns, no matter how legal they may be than maybe they will take more steps(not gun control)to try and see if they can avert a replay. 
Perhaps moot point is wrong,but had the door had an alarm things mighthave been different.Might.Maybe had they allowed guns into the theater in capable hands i.e. ccw holders things would have been different.We can bandy it back and forth all day on the what ifs and everything else but if we had hindsight wouldn't it be great.",501876,1,11028,1,"It's not a moot point; it's the point every lawsuit it using. If they allowed guns into the theater they would still be getting sued and for the same reasons. ","http://www.4forums.com/political/gun-control-debates/19065-colorado-shooting.html",460047,89
"1-11028_91_89_1",11028,1,"2012-07-27 13:38:00",51,680,460088,"2012-07-27 13:15:00",501882,35,89,"No, Doc is wrong. You can't be sued for violating the 2nd amendment by prohibiting guns in a private establishment. That was his original argument, not the one you discussed.",501880,1,11028,1,"And Doc is right.They failed in that responsibility.If places like that(gun free)are going to insist on no guns, no matter how legal they may be than maybe they will take more steps(not gun control)to try and see if they can avert a replay. 
Perhaps moot point is wrong,but had the door had an alarm things mighthave been different.Might.Maybe had they allowed guns into the theater in capable hands i.e. ccw holders things would have been different.We can bandy it back and forth all day on the what ifs and everything else but if we had hindsight wouldn't it be great.","http://www.4forums.com/political/gun-control-debates/19065-colorado-shooting.html",460086,91
"1-11028_92_91_1",11028,1,"2012-07-27 14:08:00",680,51,460090,"2012-07-27 13:38:00",501883,19,91,"Then maybe one good lawsuit will make the other""safe havens"" for shooters take notice.emoticonXIdea",501882,1,11028,1,"No, Doc is wrong. You can't be sued for violating the 2nd amendment by prohibiting guns in a private establishment. That was his original argument, not the one you discussed.","http://www.4forums.com/political/gun-control-debates/19065-colorado-shooting.html",460088,92
"1-11028_96_92_1",11028,1,"2012-07-27 19:54:00",51,680,460106,"2012-07-27 14:08:00",501887,27,92,"Well no one is suing because of the sign in this case.
In any event, Doc was wrong...why can't anyone admit this?",501883,1,11028,1,"Then maybe one good lawsuit will make the other""safe havens"" for shooters take notice.emoticonXIdea","http://www.4forums.com/political/gun-control-debates/19065-colorado-shooting.html",460090,96
"1-11028_157_136_2",11028,1,"2012-07-31 18:51:00",680,51,460376,"2012-07-30 17:50:00",501948,125,136,"I think that's a question that may be ask to the victims or the families of the victims that were killed.Because apparently the theaters no weapons ban,rule what ever you want to call it didn't stop someone from bringing firearms in,however had people even one or two had them things could have been different.That's my evidence that it violates it.
One of our most basic laws is the 2nd. Our educational system(Government ran) undermines the general public with an underlying fear of guns and the evil they do.Hence ""GUN FREE ZONES""

See above. Talk to the people of Aurora not the people the MSM talked to.",501927,2,11028,1,"Just to be clear, Doc thinks a private company not allowing guns into their establishment violates the 2nd amendment. He provides no evidence for this and it makes no sense whatsoever. If anything, it shows a huge problem with our educational system and general public understanding of our most basic laws. 
I encourage anyone that agrees with Doc to come post and explain to me why a private business can't have rules for their own place of business. Further, please explain why Doc could sue the owner of 4forums for violating the 1st amendment if they ban him from talking about guns. 
Xenamnes is absolutely right.","http://www.4forums.com/political/gun-control-debates/19065-colorado-shooting.html",460295,157
"1-11028_162_157_2",11028,1,"2012-07-31 19:46:00",51,680,460382,"2012-07-31 18:51:00",501953,162,157,"Seriously? You think the question needs to be asked about whether the 2nd amendment applies to government or to private citizens? Can I ask you the same question I asked Doc? If the owner of 4forums bans you from talking about gun rights on this forum can you successfully sue the owner for breaching your first amendment rights?
It is silly to think a private business can't post a sign saying no guns. Doc offers absolutely no proof showing that the 2nd amendment applies to private citizens yet ALL evidence points to the bill of rights being restrictions on federal power (and with the 14th, state and local power). It would be embarrassing if this was common thought here on this forum. They can post a sign saying ""no talking about politics"" and be fine as well. They just ask you to leave if you do so.",501948,2,11028,1,"I think that's a question that may be ask to the victims or the families of the victims that were killed.Because apparently the theaters no weapons ban,rule what ever you want to call it didn't stop someone from bringing firearms in,however had people even one or two had them things could have been different.That's my evidence that it violates it.
One of our most basic laws is the 2nd. Our educational system(Government ran) undermines the general public with an underlying fear of guns and the evil they do.Hence ""GUN FREE ZONES""

See above. Talk to the people of Aurora not the people the MSM talked to.","http://www.4forums.com/political/gun-control-debates/19065-colorado-shooting.html",460376,162
"1-11028_164_162_2",11028,1,"2012-07-31 22:21:00",680,51,460386,"2012-07-31 19:46:00",501955,206,162,"WE THE PEOPLE give the power to the government. Maybe the question should be the other way around.Or WE THE PEOPLE used to.

I know where this is going,but to answer your question...If I had absolutely not crossed any lines about talking of gun rights. Then yes(as there would be records).
Now had I walked into that theater and was told I had to leave my weapon or not enter,and assuming I was a nice little sheep and did and was shot or someone with me was because I was disarmed then they would have the moral responsibility to compensate me with other than a few free passes. But then again what they don't know won't hurt them, maybe save me though.

Private businesses can post all the sign's they want,someone like Holmes apparently don't care much in fact it makes it easy pickens don't it. Good thing you don't live in Egypt,Libya or currently Syria huh. I don't claim lawyer status or nothing else but that is why the 2nd is there to help keep a standing army in check.",501953,2,11028,1,"Seriously? You think the question needs to be asked about whether the 2nd amendment applies to government or to private citizens? Can I ask you the same question I asked Doc? If the owner of 4forums bans you from talking about gun rights on this forum can you successfully sue the owner for breaching your first amendment rights?
It is silly to think a private business can't post a sign saying no guns. Doc offers absolutely no proof showing that the 2nd amendment applies to private citizens yet ALL evidence points to the bill of rights being restrictions on federal power (and with the 14th, state and local power). It would be embarrassing if this was common thought here on this forum. They can post a sign saying ""no talking about politics"" and be fine as well. They just ask you to leave if you do so.","http://www.4forums.com/political/gun-control-debates/19065-colorado-shooting.html",460382,164
"1-11028_193_164_2",11028,1,"2012-08-03 06:34:00",51,680,460525,"2012-07-31 22:21:00",501984,162,164,"Well, you are wrong and there is no other way to put it. You can't sue 4forums for any constitutional violations of the 1st amendment, no matter what. The admin could ban you this very minute and you'd have no recourse. Honestly, it's a little embarrassing that people don't know what the constitution guarantees. Perhaps you should stop listening to someone that doesn't know the difference between the 14th amendment and the Civil Rights Act. 
More scary than that is that you are seemingly ok with this. The constitution was supposed to limit government power and yet you seem to want them to have unlimited power. You seem to think the government can dictate what people can and cannot do with their OWN property. This is anti-freedom. This is how we get legislators telling us what we can or cannot eat, what we can or cannot say.",501955,2,11028,1,"WE THE PEOPLE give the power to the government. Maybe the question should be the other way around.Or WE THE PEOPLE used to.
I know where this is going,but to answer your question...If I had absolutely not crossed any lines about talking of gun rights. Then yes(as there would be records).","http://www.4forums.com/political/gun-control-debates/19065-colorado-shooting.html",460386,193
"1-11028_203_193_2",11028,1,"2012-08-03 12:10:00",680,51,460555,"2012-08-03 06:34:00",501994,49,193,"Had a big a*& reply and lost the whole thing, FU%% IT.
Crux being how the government is into everything we do,and no I don't support them or at least this current regime. Got a problem saying BAA,BAA BAA.",501984,2,11028,1,"Well, you are wrong and there is no other way to put it. You can't sue 4forums for any constitutional violations of the 1st amendment, no matter what. The admin could ban you this very minute and you'd have no recourse. Honestly, it's a little embarrassing that people don't know what the constitution guarantees. Perhaps you should stop listening to someone that doesn't know the difference between the 14th amendment and the Civil Rights Act. 
More scary than that is that you are seemingly ok with this. The constitution was supposed to limit government power and yet you seem to want them to have unlimited power. You seem to think the government can dictate what people can and cannot do with their OWN property. This is anti-freedom. This is how we get legislators telling us what we can or cannot eat, what we can or cannot say.","http://www.4forums.com/political/gun-control-debates/19065-colorado-shooting.html",460525,203
"1-11028_206_203_2",11028,1,"2012-08-03 12:56:00",51,680,460558,"2012-08-03 12:10:00",501997,92,203,"Yeah, I hate when that happens. It does auto save now..just fyi.
Doesn't matter. An amendment that starts ""Congress shall make no law"" doesn't actually mean ""a business shall make no rule for their own business"". If you don't like the way government is run I suggest you understand how is was originally supposed to run. Our constitution was brilliant and worth learning about. People like Doc want to ruin it and we should all run from them.",501994,2,11028,1,"Had a big a*& reply and lost the whole thing, FU%% IT.
Crux being how the government is into everything we do,and no I don't support them or at least this current regime. Got a problem saying BAA,BAA BAA.","http://www.4forums.com/political/gun-control-debates/19065-colorado-shooting.html",460555,206
"1-11028_211_206_2",11028,1,"2012-08-03 20:59:00",680,51,460570,"2012-08-03 12:56:00",502002,67,206,"I agree it was(was being the operative word)and it seems to be falling apart,as fast as a new law can be signed to circumvent an existing one.Is Doc in the federal government? Is he taking it upon himself to sign new bills,some thousands of pages( but we'll find out what's in them later.)",501997,2,11028,1,"Yeah, I hate when that happens. It does auto save now..just fyi.
Doesn't matter. An amendment that starts ""Congress shall make no law"" doesn't actually mean ""a business shall make no rule for their own business"". If you don't like the way government is run I suggest you understand how is was originally supposed to run. Our constitution was brilliant and worth learning about. People like Doc want to ruin it and we should all run from them.","http://www.4forums.com/political/gun-control-debates/19065-colorado-shooting.html",460558,211
"1-11028_154_148_3",11028,1,"2012-07-31 15:03:00",51,681,460360,"2012-07-31 11:34:00",501945,29,148,"Title II of the Civil Rights Act of 1964 is titled INJUNCTIVE RELIEF AGAINST DISCRIMINATION IN PLACES OF PUBLIC ACCOMMODATION. The word census is not mentioned once.",501939,3,11028,1,"...and likewise, there is no constitutional protection for the neighbors when they are acting on their own behalf.
Already did and quoted Heller. Are you immune to Due Process or the Equal Protection clauses? The incorporation was through the Due Process Clause and mentioned exactly what is quoted below.
http://www.4forums.com/political/gun...tml#post460126
And actually Steeeeeeve, Title II applies mainly to the census.","http://www.4forums.com/political/gun-control-debates/19065-colorado-shooting.html",460345,154
"1-11028_167_154_3",11028,1,"2012-08-01 04:28:00",681,51,460392,"2012-07-31 15:03:00",501958,35,154,"Article 1, section 2 if the XIV provides for a census every 10 years, The Constitution of the United States: Amendments 11-27
It is otherwise codified in 13 USC,",501945,3,11028,1,"Title II of the Civil Rights Act of 1964 is titled INJUNCTIVE RELIEF AGAINST DISCRIMINATION IN PLACES OF PUBLIC ACCOMMODATION. The word census is not mentioned once.","http://www.4forums.com/political/gun-control-debates/19065-colorado-shooting.html",460360,167
"1-11028_188_167_3",11028,1,"2012-08-03 05:37:00",51,681,460514,"2012-08-01 04:28:00",501979,97,167,"Let's recap. You say the constitution forbids businesses from not letting black patrons. I retort it was title 2 of the civil rights act of 1964. You then claim title 2 refers to the census. I say no and post you title 2 of the civil rights act. You retort with section 2 of the 14th amendment. I can only hope you realize the 14th amendment and the civil rights act are not the same thing. So were you just seriously misreading my posts or are you that stupid?",501958,3,11028,1,"Article 1, section 2 if the XIV provides for a census every 10 years, The Constitution of the United States: Amendments 11-27
It is otherwise codified in 13 USC,","http://www.4forums.com/political/gun-control-debates/19065-colorado-shooting.html",460392,188
"1-11028_190_188_3",11028,1,"2012-08-03 06:15:00",681,51,460518,"2012-08-03 05:37:00",501981,129,188,"1964 action was merely federal enforcement of the XIVth amendment which you might consult Alabama or George Wallace or President Kennedy about since you apparently channel the dead.
So what you are saying is that the census didn't exist until 1964 nor all citizenship rights for Blacks. Good thinking columbo. 
If you are attempting to say the 14th Amendment didn't recognize equal rights and protection through the 14th Amendment re-read the intent posted in partial and link included.
You create your own confusion, the rights for blacks existed long before 1964 and were expressed in the XIVth Amendment and so did the census. Looks like we are going to have to demand enforcement of the whole, entire BOR the same way.",501979,3,11028,1,"Let's recap.You say the constitution forbids businesses from not letting black patrons.(sic) I retort it was title 2 of the civil rights act of 1964. You then claim title 2 refers to the census. I say no and post you title 2 of the civil rights act. You retort with section 2 of the 14th amendment. I can only hope you realize the 14th amendment and the civil rights act are not the same thing. So were you just seriously misreading my posts or are you that stupid?","http://www.4forums.com/political/gun-control-debates/19065-colorado-shooting.html",460514,190
"1-11028_191_190_3",11028,1,"2012-08-03 06:25:00",51,681,460521,"2012-08-03 06:15:00",501982,77,190,"Ok, so you are that stupid. Title II of the CIVIL RIGHTS ACT of 1964 has nothing to do with the census. It just doesn't. You can read it yourself. 
I can't believe you try to tell me what the 2nd amendment says and you don't even know the difference between an amendment and the civil rights act. Ha, I thought Texas had a better educational system than that.",501981,3,11028,1,"1964 action was merely federal enforcement of the XIVth amendment which you might consult Alabama or George Wallace or President Kennedy about since you apparently channel the dead.
So what you are saying is that the census didn't exist until 1964 nor all citizenship rights for Blacks. Good thinking columbo. 
If you are attempting to say the 14th Amendment didn't recognize equal rights and protection through the 14th Amendment re-read the intent posted in partial and link included.
You create your own confusion, the rights for blacks existed long before 1964 and were expressed in the XIVth Amendment and so did the census. Looks like we are going to have to demand enforcement of the whole, entire BOR the same way.","http://www.4forums.com/political/gun-control-debates/19065-colorado-shooting.html",460518,191
"1-11028_194_191_3",11028,1,"2012-08-03 06:34:00",681,51,460526,"2012-08-03 06:25:00",501985,19,191,"I don't have to ... SCOTUS DID. SEEMS MOST OF YOU WERE ASLEEP AT THE WHEEL AGAIN.",501982,3,11028,1,"Ok, so you are that stupid. Title II of the CIVIL RIGHTS ACT of 1964 has nothing to do with the census. It just doesn't. You can read it yourself. 
I can't believe you try to tell me what the 2nd amendment says and you don't even know the difference between an amendment and the civil rights act. Ha, I thought Texas had a better educational system than that.","http://www.4forums.com/political/gun-control-debates/19065-colorado-shooting.html",460521,194
"1-11028_199_194_3",11028,1,"2012-08-03 06:51:00",51,681,460531,"2012-08-03 06:34:00",501990,29,194,"Please show me where in Title II of the Civil Rights Act of 1964 the word Census is. The entire section was posted a few posts up.",501985,3,11028,1,"I don't have to ... SCOTUS DID. SEEMS MOST OF YOU WERE ASLEEP AT THE WHEEL AGAIN.","http://www.4forums.com/political/gun-control-debates/19065-colorado-shooting.html",460526,199
"1-11028_261_260_4",11028,1,"2012-08-11 07:04:00",681,51,460885,"2012-08-11 06:29:00",502052,196,260,"Answered at least 4 times, do try to keep up.That is your claim and not mine. It is explained in Heller and McDonald which you know nothing about and refuse to read the parts of the case that deal with the topic.

You might ask Chick-Fil-A? Interesting answer on Volkh.com this morning. Do try to keep up.

You might ask the superior judge that got robbed in gun free D.C. last night...article on Reuters.
Me? I don't think, I know and you have had the opportunity to read the statistics about 25 times. You have yet to show a gun control law has had any effect on CRIME. You, OTOH, have been shown that even though the number of guns is at the highest levels ever, crime is at at over 30 year low. tHE STATS HAVE BEEN POSTED NUMEROUS TIMES. Disprove it if you can.
All of the above are obvious and have been shown to steeeeve on numerous occasions. He is either THAT ignorant or simply a liar. [SIC]",502051,4,11028,1,"I've missed the last few days. Does Doc Jones still think the Civil Rights Act of 1964 is the same as the 14th amendment? Does he still think a private company can be sued for violation of the 1st and 2nd amendment? Does he still think more guns equal less crime? All of the above are obvious and have been shown to Doc on several occasions. He is either THAT ignorant or simply a liar.","http://www.4forums.com/political/gun-control-debates/19065-colorado-shooting.html",460881,261
"1-11028_264_261_4",11028,1,"2012-08-11 08:27:00",51,681,460890,"2012-08-11 07:04:00",502055,101,261,"The Civil Rights Act of 1964 was explained in Heller? Umm, no.

Chick Fil A was sued for violation of the 1st or 2nd amendment? Wrong again.

No, I'll just look at the numerous studies showing no relationship. 

More than that and turns out I'm right! More Guns does NOT equal less or more crime. 
Let me know when you figure out that the Civil Rights Act of 1964 is not the same thing as the 14th amendment.
There is a reason no one takes you seriously on this forum.",502052,4,11028,1,"Answered at least 4 times, do try to keep up.That is your claim and not mine. It is explained in Heller and McDonald which you know nothing about and refuse to read the parts of the case that deal with the topic.

You might ask Chick-Fil-A? Interesting answer on Volkh.com this morning. Do try to keep up.

You might ask the superior judge that got robbed in gun free D.C. last night...article on Reuters.
Me? I don't think, I know and you have had the opportunity to read the statistics about 25 times. You have yet to show a gun control law has had any effect on CRIME. You, OTOH, have been shown that even though the number of guns is at the highest levels ever, crime is at at over 30 year low. tHE STATS HAVE BEEN POSTED NUMEROUS TIMES. Disprove it if you can.
All of the above are obvious and have been shown to steeeeve on numerous occasions. He is either THAT ignorant or simply a liar. [SIC]","http://www.4forums.com/political/gun-control-debates/19065-colorado-shooting.html",460885,264
"1-11028_265_264_4",11028,1,"2012-08-11 10:29:00",681,51,460893,"2012-08-11 08:27:00",502056,99,264,"Let's just cut to the chase on your spurious claim. When was the XIVth Amendment passed.?
Here is the enforcement provisions of the act of 1964: https://en.wikipedia.org/wiki/Civil_Rights_Act_of_1964
Heller ruled that the 2A was about more than 'discrimination on gun laws' in that as long as the 'discrimination was equal it would be legal according to the plaintiffs and muncipalities'. That was ruled out and dismissed by SCOTUS.
You are building a strawman trying to imply I said your words. You are a poor liar. ad absurdum!",502055,4,11028,1,"The Civil Rights Act of 1964 was explained in Heller? Umm, no.
Let me know when you figure out that the Civil Rights Act of 1964 is not the same thing as the 14th amendment.","http://www.4forums.com/political/gun-control-debates/19065-colorado-shooting.html",460890,265
"1-11028_267_265_4",11028,1,"2012-08-11 12:26:00",51,681,460899,"2012-08-11 10:29:00",502058,133,265,"1868

Actually, that is a link to the Wikipedia article on the act. Once again, the 14th amendment and the Civil Rights Act of 1964 are not the same thing. More importantly, a store saying ""no blacks allowed"" is not violating the 14th, they violate the Civil Rights Act of 1964. Furthermore, a store saying ""no guns allowed"" is not violated the 2nd amendment. 
Time for you to read up on the constitution Doc, you might find some good things in there. I'm a little surprised you don't vote democrat given your thoughts. Then again, not much difference between a given democrat and your Texas ""republicans"" (see W Bush and Rick Perry)",502056,4,11028,1,"Let's just cut to the chase on your spurious claim. When was the XIVth Amendment passed.?
Here is the enforcement provisions of the act of 1964: https://en.wikipedia.org/wiki/Civil_Rights_Act_of_1964
Heller ruled that the 2A was about more than 'discrimination on gun laws' in that as long as the 'discrimination was equal it would be legal according to the plaintiffs and muncipalities'. That was ruled out and dismissed by SCOTUS.
You are building a strawman trying to imply I said your words. You are a poor liar. ad absurdum!","http://www.4forums.com/political/gun-control-debates/19065-colorado-shooting.html",460893,267
"1-11028_268_267_4",11028,1,"2012-08-11 14:09:00",681,51,460901,"2012-08-11 12:26:00",502059,36,267,"Here ya go Cathy Whitmire:
D.C. v Heller

__________________________________________________ ______________________________________________
McDonald Incorporation

CONTINUED:

Continued:

see anything in there about your 1964 claim? I thought not...keep tilting at windmills though.",502058,4,11028,1,"1868

Actually, that is a link to the Wikipedia article on the act. Once again, the 14th amendment and the Civil Rights Act of 1964 are not the same thing. More importantly, a store saying ""no blacks allowed"" is not violating the 14th, they violate the Civil Rights Act of 1964. Furthermore, a store saying ""no guns allowed"" is not violated the 2nd amendment. 
Time for you to read up on the constitution Doc, you might find some good things in there. I'm a little surprised you don't vote democrat given your thoughts. Then again, not much difference between a given democrat and your Texas ""republicans"" (see W Bush and Rick Perry)","http://www.4forums.com/political/gun-control-debates/19065-colorado-shooting.html",460899,268
"1-11028_269_268_4",11028,1,"2012-08-11 19:46:00",51,681,460906,"2012-08-11 14:09:00",502060,49,268,"ha, you are too dumb to know what you said earlier. YOU are the one who thinks the 14th amendment is the same as the Civil Rights Act of 64. Who the hell knows what you are arguing now. 
Get those eyes checked out.",502059,4,11028,1,"Here ya go Cathy Whitmire:
D.C. v Heller

__________________________________________________ ______________________________________________
McDonald Incorporation

CONTINUED:

Continued:

see anything in there about your 1964 claim? I thought not...keep tilting at windmills though.","http://www.4forums.com/political/gun-control-debates/19065-colorado-shooting.html",460901,269
"1-11028_270_269_4",11028,1,"2012-08-12 05:35:00",681,51,460908,"2012-08-11 19:46:00",502061,180,269,"I proved my point that YOU had chosen as a strawman for only the Lord knows the reason, to claim that I made that statement you keep claiming. You have not quoted me on such a comment since you drew that one out of your foot. 

I get them checked regularly, I do have eye problems, thanks for asking. I also know exactly what happened in 64 and I also got gifted a hat like LBJ wore from the man himself and still have it. Where were you at the time? MIA as usual?
I have quoted the significant sections of the Heller and McDonald CASES. That is the topic here in relation to the thread title. I also posted the Wiki link for your edification.
Now I await your posting of signs on your business saying NO BLACKS ALLOWED and to take up the municipal arguements that were overturned in the two gun cases of those listed above. Pur your money where your mouth is,",502060,4,11028,1,"ha, you are too dumb to know what you said earlier. YOU are the one who thinks the 14th amendment is the same as the Civil Rights Act of 64. Who the hell knows what you are arguing now. 
Get those eyes checked out.","http://www.4forums.com/political/gun-control-debates/19065-colorado-shooting.html",460906,270
"1-11028_295_294_5",11028,1,"2012-08-14 12:06:00",51,681,461031,"2012-08-14 11:11:00",502086,45,294,"The first amendment is part of the Bill of Rights. 

Apparently you can't read law. Try again.
You lose, Doc. I dare you to respond to my post. There is no way around it....YOU ARE WRONG.",502085,5,11028,1,"J will get you both with one shot.
AOL was a first amendment case dealing with SPAM, not guns nor the BOR.
THE BOR are individual rights belonging to the people. Your strawmen do not even come close to fitting the defininition of the right bolded and sized in the Heller/McDonald decisions.
Nope, neither of you met the burden of proof. Wanna try again? If any individual decided you didn't have the right, it wouldn't be a right now would it.
Since all but one of the mass shootings happened in posted gun free zones it appears to be a liability. Jean Assam(e) in the Colorado church shootings had a gun and saved 100 lives.
STATE ACTION - Colorado has ccw laws and even carry on college campus. Is there any 'state law' that prohibits general carry? I though not...","http://www.4forums.com/political/gun-control-debates/19065-colorado-shooting.html",461030,295
"1-11028_299_295_5",11028,1,"2012-08-14 13:21:00",681,51,461040,"2012-08-14 12:06:00",502090,73,295,"It was off topic and had nothing to do with the subject matter nor the 2A. You can't read. You also quoted the 13th amendment. Desperate?
What's the matter? Can't come up with evidence to support your claim? LOL You will have to prove my challenge or run away coward. You made the claim Do keep trying, hyperbole doesn't flatter you at all.",502086,5,11028,1,"The first amendment is part of the Bill of Rights. 

Apparently you can't read law. Try again.
You lose, Doc. I dare you to respond to my post. There is no way around it....YOU ARE WRONG.","http://www.4forums.com/political/gun-control-debates/19065-colorado-shooting.html",461031,299
"1-11028_302_299_5",11028,1,"2012-08-14 17:24:00",51,681,461051,"2012-08-14 13:21:00",502093,79,299,"So several sources showing you how the amendments apply to GOVERNMENT and NOT PRIVATE INDIVIDUALS is off topic? I think not, it is exactly what we are debating. 

Other than the blatant evidence showing you are a complete dumba$$? 

Very well. Let's have a formal debate on it. You can pick the judges. 
Resolved: The 2nd amendment does not apply to private individuals.
I'll start the thread.
http://www.4forums.com/political/deb...tml#post461052",502090,5,11028,1,"It was off topic and had nothing to do with the subject matter nor the 2A. You can't read. You also quoted the 13th amendment. Desperate?
What's the matter? Can't come up with evidence to support your claim? LOL You will have to prove my challenge or run away coward. You made the claim Do keep trying, hyperbole doesn't flatter you at all.","http://www.4forums.com/political/gun-control-debates/19065-colorado-shooting.html",461040,302
"1-11028_304_302_5",11028,1,"2012-08-15 09:37:00",681,51,461097,"2012-08-14 17:24:00",502095,174,302,"iN THAT CASE YOU MAY AS WELL CONCEED, YOU HAVE LOST BEFORE YOU BEGAN. 
You flatter yourself thinking it will be better somewhere else. You could not have framed any discussion in a more senseless way that goes against the SCOTUS RULINGS and all evidence to the contrary. You have embarassed yourself enough and you still aren't satisfied?
I take no pleasure in pointing out your indiscrepancies and ignorant statements, the body of proof is here already on this board so you want to redo the entire thing based on an innacurate and flawed statement? The decision of the SCOTUS is final...you might argue with them but you will not with me. A simple reading of the syllabus and discussion and the fact that it is incorporated into the XIVth and you want to 'debate' the point? If it wasn't so sad it would be funny. I make it a point to avoid gun fights with an unarmed man....",502093,5,11028,1,"So several sources showing you how the amendments apply to GOVERNMENT and NOT PRIVATE INDIVIDUALS is off topic? I think not, it is exactly what we are debating. 

Other than the blatant evidence showing you are a complete dumba$$? 

Very well. Let's have a formal debate on it. You can pick the judges. 
Resolved: The 2nd amendment does not apply to private individuals.
I'll start the thread.
http://www.4forums.com/political/deb...tml#post461052","http://www.4forums.com/political/gun-control-debates/19065-colorado-shooting.html",461051,304
"1-11028_305_304_5",11028,1,"2012-08-15 09:48:00",51,681,461098,"2012-08-15 09:37:00",502096,122,304,"Three people are telling you that you are wrong, you have no one saying you are right...including law schools, the constitution, the supreme court, and common sense. 
I'm giving you a chance to be embarrassed officially. 

Good thing you've never had to do it!
So please join me in the formal debate. YOU can pick the judges. Don't worry, I'm well armed and you will look like the fool you are. But if you are so confident than there shouldn't be a problem. 
You already chickened out on the last debate request because you knew you were wrong, will you do it again? Probably.
http://www.4forums.com/political/deb...tml#post461052",502095,5,11028,1,"iN THAT CASE YOU MAY AS WELL CONCEED, YOU HAVE LOST BEFORE YOU BEGAN. 
You flatter yourself thinking it will be better somewhere else. You could not have framed any discussion in a more senseless way that goes against the SCOTUS RULINGS and all evidence to the contrary. You have embarassed yourself enough and you still aren't satisfied?
I take no pleasure in pointing out your indiscrepancies and ignorant statements, the body of proof is here already on this board so you want to redo the entire thing based on an innacurate and flawed statement? The decision of the SCOTUS is final...you might argue with them but you will not with me. A simple reading of the syllabus and discussion and the fact that it is incorporated into the XIVth and you want to 'debate' the point? If it wasn't so sad it would be funny. I make it a point to avoid gun fights with an unarmed man....","http://www.4forums.com/political/gun-control-debates/19065-colorado-shooting.html",461097,305
"1-11028_236_229_6",11028,1,"2012-08-07 13:31:00",680,237,460731,"2012-08-05 15:57:00",502027,45,229,"Freedom: I don't understand either got the wrong link,there were two, and I sure as hell grabbed the wrong one.
The O'Reilly Factor - Bill O'Reilly - Fox News
This is a little better.Sorry for the confusion.",502020,6,11028,1,"If the facility checks everyone for guns it can indeed make security better. Two less valid but probably more common reasons are:
1. Establishment is worried about freaking out customers who aren't used to seeing guns.
2. Establishment is itself afraid of guns.","http://www.4forums.com/political/gun-control-debates/19065-colorado-shooting.html",460637,236
"1-11028_239_236_6",11028,1,"2012-08-08 18:47:00",237,680,460794,"2012-08-07 13:31:00",502030,59,236,"You don't think it's weird to stockpile 60k rounds? How long would it take to shoot that many? In any case it was a typically case of talking past each other. People who want to make new laws in hopes that the new laws will be enforced better than old ones are always suspicious.",502027,6,11028,1,"Freedom: I don't understand either got the wrong link,there were two, and I sure as hell grabbed the wrong one.
The O'Reilly Factor - Bill O'Reilly - Fox News
This is a little better.Sorry for the confusion.","http://www.4forums.com/political/gun-control-debates/19065-colorado-shooting.html",460731,239
"1-11028_240_239_6",11028,1,"2012-08-08 19:49:00",680,237,460796,"2012-08-08 18:47:00",502031,66,239,"For a lot of people 60k+ is normal and no cause for alarm. For instance if Joe XXXX down the street has 100k and decides one morning to go on a shooting spree he won't go through no 100k not even close.
Will if an old law won't be enforced what are the chances a new one will be?",502030,6,11028,1,"You don't think it's weird to stockpile 60k rounds? How long would it take to shoot that many? In any case it was a typically case of talking past each other. People who want to make new laws in hopes that the new laws will be enforced better than old ones are always suspicious.","http://www.4forums.com/political/gun-control-debates/19065-colorado-shooting.html",460794,240
"1-11028_241_240_6",11028,1,"2012-08-08 19:58:00",237,680,460797,"2012-08-08 19:49:00",502032,22,240,"Other than preparing to fend off the harbingers of the apocalypse I can't think of any reason to buy 60,000 bullets.",502031,6,11028,1,"For a lot of people 60k+ is normal and no cause for alarm. For instance if Joe XXXX down the street has 100k and decides one morning to go on a shooting spree he won't go through no 100k not even close.
Will if an old law won't be enforced what are the chances a new one will be?","http://www.4forums.com/political/gun-control-debates/19065-colorado-shooting.html",460796,241
"1-11028_242_241_6",11028,1,"2012-08-08 20:23:00",680,237,460798,"2012-08-08 19:58:00",502033,134,241,"Such as economic collapse?I recall not all that long ago that ammo was hard to come by,and I do like to stay up on the program as do a lot of people(tactical shot placement). When prices are down and there's plenty available you buy up. 20 here 50 there and so on,sometimes more.
Personally I don't by it online as it almost twice as much after shipping,but to have 1000 7.62x39 and 7-800 9mm is not unusual and beaucoup .22. Just because someone stocks up don't mean nothing.
Like I said just because you may have 60k and decide to go whacko you will still have 59,0900 left at least.",502032,6,11028,1,"Other than preparing to fend off the harbingers of the apocalypse I can't think of any reason to buy 60,000 bullets.","http://www.4forums.com/political/gun-control-debates/19065-colorado-shooting.html",460797,242
"1-11028_5_3_7",11028,1,"2012-07-20 16:29:00",443,682,459575,"2012-07-20 10:01:00",501796,45,3,"the law abiding responsible gun owner who gunned them down did so respectfully, right ? emoticonXFrazzled
You gun crazies are the only ones with a sick political agenda, you ought to be all sent to a loony bin and given water pistols.",501794,7,11028,1,"It is entirely premature to be discussing this matter for the purpose of promoting political positions and beliefs. It is also disrespectful to those that died and their families to try and capitalize on their pain for a political agenda. No relevant details have been discovered or released yet meaning all that can be had is pure speculation and hyperbole.
The simple fact that authorities were able to apprehend the individual before he could commit suicide places us as a whole in a unique situation.","http://www.4forums.com/political/gun-control-debates/19065-colorado-shooting.html",459547,5
"1-11028_9_5_7",11028,1,"2012-07-20 17:11:00",682,443,459581,"2012-07-20 16:29:00",501800,60,5,"Who will hold up the twelve dead and 38 injured victims as an example of why a new law should be passed? Who will proclaim that a new law will prevent future tragedies from happening again? Who will suggest the best way to honor the dead is to enact new legislation and attach their names to it?",501796,7,11028,1,"the law abiding responsible gun owner who gunned them down did so respectfully, right ? emoticonXFrazzled
You gun crazies are the only ones with a sick political agenda, you ought to be all sent to a loony bin and given water pistols.","http://www.4forums.com/political/gun-control-debates/19065-colorado-shooting.html",459575,9
"1-11028_13_9_7",11028,1,"2012-07-20 20:27:00",443,682,459598,"2012-07-20 17:11:00",501804,67,9,"could he have killed those people without a gun????
Of course not, so the solution is simple. Ban all guns and send the gun crazies to psychiatric hospitals to cure their gun withdrawls symptoms.
But, this solution is impossible to enact in gun crazy America, where gun dealers are politically powerful. So this mass killing won't be the last emoticonXFrazzled",501800,7,11028,1,"Who will hold up the twelve dead and 38 injured victims as an example of why a new law should be passed? Who will proclaim that a new law will prevent future tragedies from happening again? Who will suggest the best way to honor the dead is to enact new legislation and attach their names to it?","http://www.4forums.com/political/gun-control-debates/19065-colorado-shooting.html",459581,13
"1-11028_15_13_7",11028,1,"2012-07-20 21:03:00",682,443,459601,"2012-07-20 20:27:00",501806,191,13,"Incorrect. The suspect in this matter constructed what have been referred to as sophisticated explosive devices for the purpose of booby trapping his apartment in both incendiary and chemical form. Had firearms not been available there is no reason to believe he would not have constructed more devices for the purpose of lobbing them into the crowded aisles and killed many more patrons either through explosion or toxic substance dispersal.
http://news.yahoo.com/blogs/lookout/...232932177.html

The courts have forbidden what you propose. It is no longer an acceptable answer and deserves no consideration. Your proposal is an example of what is no legally recognized as backwards thinking. Furthermore the suspect in question was of significant intelligence and would likely be able to pass for sane regardless of whatever psychiatric evaluation was held.

America is not an island like Australia. It would be physically and legally impossible to do what you propose. Private property rights are much stronger here in the states than they are in Australia. The government would be legally unable to pull off the confiscation and buyback program that your nation tried.",501804,7,11028,1,"could he have killed those people without a gun????
Of course not, so the solution is simple. Ban all guns and send the gun crazies to psychiatric hospitals to cure their gun withdrawls symptoms.
But, this solution is impossible to enact in gun crazy America, where gun dealers are politically powerful. So this mass killing won't be the last emoticonXFrazzled","http://www.4forums.com/political/gun-control-debates/19065-colorado-shooting.html",459598,15
"1-11028_16_15_7",11028,1,"2012-07-20 22:29:00",443,682,459608,"2012-07-20 21:03:00",501807,79,15,"Thanks God!!! he only shot those people instead of using explosives. Of course, and thanks God also that you only have mass shootings and not mass murder using explosives.
as long as there are mass shootings and not killings using explosives all is OK :)
But if everybody had been packing a gun, and the former law abiding gun owner had used explosives, their guns who have saved their lives, right ?",501806,7,11028,1,"Incorrect. The suspect in this matter constructed what have been referred to as sophisticated explosive devices for the purpose of booby trapping his apartment in both incendiary and chemical form. Had firearms not been available there is no reason to believe he would not have constructed more devices for the purpose of lobbing them into the crowded aisles and killed many more patrons either through explosion or toxic substance dispersal.
Movie theater gunman had been stockpiling arsenal | The Lookout - Yahoo! News
The courts have forbidden what you propose. It is no longer an acceptable answer and deserves no consideration. Your proposal is an example of what is no legally recognized as backwards thinking. Furthermore the suspect in question was of significant intelligence and would likely be able to pass for sane regardless of whatever psychiatric evaluation was held.
America is not an island like Australia. It would be physically and legally impossible to do what you propose. Private property rights are much stronger here in the states than they are in Australia. The government would be legally unable to pull off the confiscation and buyback program that your nation tried.","http://www.4forums.com/political/gun-control-debates/19065-colorado-shooting.html",459601,16
"1-11028_148_140_8",11028,1,"2012-07-31 11:34:00",681,682,460345,"2012-07-31 05:57:00",501939,68,140,"...and likewise, there is no constitutional protection for the neighbors when they are acting on their own behalf.
Already did and quoted Heller. Are you immune to Due Process or the Equal Protection clauses? The incorporation was through the Due Process Clause and mentioned exactly what is quoted below.
http://www.4forums.com/political/gun...tml#post460126
And actually Steeeeeeve, Title II applies mainly to the census.",501931,8,11028,1,"Unless you can cite a supreme court case that ruled the bill of rights restricts the actions of private individuals just as it restricts the actions of government there is nothing further to discuss on this matter. The fact that you have cited no case means no such precedent exists and the bill of rights exists only to protect the people from the government and not from each other. There is no constitutional protection against the actions of your neighbors when they are acting on their own behalf.","http://www.4forums.com/political/gun-control-debates/19065-colorado-shooting.html",460311,148
"1-11028_150_148_8",11028,1,"2012-07-31 13:17:00",682,681,460352,"2012-07-31 11:34:00",501941,109,148,"With regard to George Zimmerman he has already been condemned and found guilty in the court of public opinion on the grounds that Trayvon Martin was black and he was not. If the court of public opinion carried any weight he would now be sitting on death row awaiting his sentence by the Black Panther organization. Where is the constitutional protection of due process for George Zimmerman in this matter? He was provided with no lawyer or option to defend himself but rather was deemed guilty in the public mind as soon as his picture and Trayvon Martin's junior photo were released to the airwaves.",501939,8,11028,1,"...and likewise, there is no constitutional protection for the neighbors when they are acting on their own behalf.
Already did and quoted Heller. Are you immune to Due Process or the Equal Protection clauses? The incorporation was through the Due Process Clause and mentioned exactly what is quoted below.
http://www.4forums.com/political/gun...tml#post460126
And actually Steeeeeeve, Title II applies mainly to the census.","http://www.4forums.com/political/gun-control-debates/19065-colorado-shooting.html",460345,150
"1-11028_151_150_8",11028,1,"2012-07-31 13:23:00",681,682,460353,"2012-07-31 13:17:00",501942,50,150,"...and here you are defending the same principles in another instance. Is that ""logical and calculating""? Or, is it your contentions two wrongs make a right?
You are going to get sore straddling that fence. This is not the GZ thread.",501941,8,11028,1,"With regard to George Zimmerman he has already been condemned and found guilty in the court of public opinion on the grounds that Trayvon Martin was black and he was not. If the court of public opinion carried any weight he would now be sitting on death row awaiting his sentence by the Black Panther organization. Where is the constitutional protection of due process for George Zimmerman in this matter? He was provided with no lawyer or option to defend himself but rather was deemed guilty in the public mind as soon as his picture and Trayvon Martin's junior photo were released to the airwaves.","http://www.4forums.com/political/gun-control-debates/19065-colorado-shooting.html",460352,151
"1-11028_152_151_8",11028,1,"2012-07-31 14:08:00",682,681,460357,"2012-07-31 13:23:00",501943,114,151,"Again incorrect. Rather it is a matter of apply your theory to another matter and showing the shortcomings of what you are arguing. George Zimmerman received no due process in the court of public opinion. Does he have the legal option to sue the public for condemning him before all the facts were in?
Should the member Bryan see fit to participate in this discussion and explain whether or not the bill of rights is to protect private individuals against actions committed against other private individuals the matter will be dropped. Until that point you are arguing from an unrecognized and unsupported position that is without historical precedent.",501942,8,11028,1,"...and here you are defending the same principles in another instance. Is that ""logical and calculating""? Or, is it your contentions two wrongs make a right?
You are going to get sore straddling that fence. This is not the GZ thread.","http://www.4forums.com/political/gun-control-debates/19065-colorado-shooting.html",460353,152
"1-11028_153_152_8",11028,1,"2012-07-31 14:47:00",681,682,460359,"2012-07-31 14:08:00",501944,122,152,"It is? Probably due to your reluctance to discuss and examine Heller

Your diversion to another subject where you insist 'condemned' had the same meaning as 'convicted' is spurious. Until you come up with some actual facts and cases you are lost. It is you appealing to the court of public opinion, we already have the SCOTUS rulings.
He cannot be ""convicted"" in such a public display and there is no basis for an existance provided in the Constitution for such a court.
Being a Nation of Laws, they must be followed, no interest balancing test and rights are not subject to a vote nor majority opinion.",501943,8,11028,1,"Again incorrect. Rather it is a matter of apply your theory to another matter and showing the shortcomings of what you are arguing. George Zimmerman received no due process in the court of public opinion. Does he have the legal option to sue the public for condemning him before all the facts were in?
Should the member Bryan see fit to participate in this discussion and explain whether or not the bill of rights is to protect private individuals against actions committed against other private individuals the matter will be dropped. Until that point you are arguing from an unrecognized and unsupported position that is without historical precedent.","http://www.4forums.com/political/gun-control-debates/19065-colorado-shooting.html",460357,153
"1-11028_224_219_9",11028,1,"2012-08-05 05:53:00",681,682,460610,"2012-08-04 09:34:00",502015,225,219,"I will address this part. What gives the brady bunch the latitude to set any standards on definitions considering their utter displays of constant lies and propaganda? Are you adopting their criteria and if so why? Even though an armed CCW INSTRUCTOR stopped the carnage and forced the shooter to flee and was later shot by troopers you diminish armed resistance and quote the brady platform as an excuse and propaganda purposes.
I have a good reason and explanation and absolute proof worthy of consideration, let's consider the toll of their anti gun war on rights deceit and propaganda. Their claim is ""crossfire or resistance makes matters worse"".  Let's look at the evidence, something they would want to AVOID;

Wasn't it Stalin who stated, ""one death is a trajedy, a million is a statistic"".
You might put into your little red book there is no mention of FAST AND FURIOUS lawbreaking by the government nor the mass murders contributed to that planned operation and they are defenders of such actions. Now why would that be?
No mention of unarmed people slaughtered by their own governments through genocide/democide. Inconvenient facts?
GUNS SAVE LIVES! MORE GUNS = LESS CRIME
Got your sign yet?",502010,9,11028,1,"You are now claiming to have been present for the Bell Tower incident and were an active participant in the aiding of police officers? For what purpose have you not testified to this in the past to show how an armed populace can aid the police and deter an active shooter in the course of their mayhem?

Perhaps that is why James Holmes chose not to open fire on a college campus.

A glioblastoma compounding the matters of a prior court martial, the divorce of his parents and his personal abuse of amphetamines, all believed to have come together to inspire his actions.
Under the criteria set by the Brady Campaign for an incident to qualify as a mass shooting there must be at least four dead. Under that standard the Tyler Courthouse Shooting does not qualify as only three people were left dead. However it is a far more recent example of an individual opening fire in a location that is not considered a ""gun free zone"" by law. Rather it was an incident that took place in the public streets in the state of Texas.","http://www.4forums.com/political/gun-control-debates/19065-colorado-shooting.html",460593,224
"1-11028_225_224_9",11028,1,"2012-08-05 06:56:00",682,681,460616,"2012-08-05 05:53:00",502016,243,224,"It would appear that a correction is needed on my part. The data is not attributed to the Brady Campaign but rather the Violence Policy Center. Furthermore of the ten reported mass shootings that they mention the lowest number of dead listed is as five. Of interest is the fact that three of the shootings happened between 1994 and 2004 and made use of magazines that were supposedly prohibited at the time. Coincidentally the recognized mass shooting with the fewest dead took place in 1989.

It is questionable what criteria the Violence Policy Center used in making their determination other than the magazines that were used at the time.

Some reports indicate the shooter turned to engage the instructor and killed him in response to being fired upon.

It is likely because they are not capable of blaming those that they have championed as heroes as it would harm them in the future if they called for legislation to further strengthen the bureau.

The slaughtering of innocent individuals in locations such as Africa and Uganda cannot be used to support their calls for tighter restrictions on access to civilian firearms. This is especially true when one genocidal act or another is carried out with implements such as machetes. It would open them up to criticism for citing deaths that can be tied to government hiring mercenaries and killers for committing such acts.",502015,9,11028,1,"I will address this part. What gives the brady bunch the latitude to set any standards on definitions considering their utter displays of constant lies and propaganda? Are you adopting their criteria and if so why? Even though an armed CCW INSTRUCTOR stopped the carnage and forced the shooter to flee and was later shot by troopers you diminish armed resistance and quote the brady platform as an excuse and propaganda purposes.
I have a good reason and explanation and absolute proof worthy of consideration, let's consider the toll of their anti gun war on rights deceit and propaganda. Their claim is ""crossfire or resistance makes matters worse"".  Let's look at the evidence, something they would want to AVOID;

Wasn't it Stalin who stated, ""one death is a trajedy, a million is a statistic"".
You might put into your little red book there is no mention of FAST AND FURIOUS lawbreaking by the government nor the mass murders contributed to that planned operation and they are defenders of such actions. Now why would that be?
No mention of unarmed people slaughtered by their own governments through genocide/democide. Inconvenient facts?
GUNS SAVE LIVES! MORE GUNS = LESS CRIME
Got your sign yet?","http://www.4forums.com/political/gun-control-debates/19065-colorado-shooting.html",460610,225
"1-11028_226_225_9",11028,1,"2012-08-05 07:06:00",681,682,460617,"2012-08-05 06:56:00",502017,238,225,"Coincidently, the largest mass murder of citizens, not counting military abuse, took place at a rock concert in an upstairs building with a few bottles of gasoline and a match.
That CCW instructor was known to me and an excellent shot and he made good hits on the shooter. Problem was a .45 didn't penetrate the armor and two deputies were hiding behind cars and not engaging the shooter. The shooter had already shot his wife and boy who had a severe leg wound. The CCW INSTUCTOR did prevent his imminent shooting a second time by distracting him. Bullet impact is still felt even through body armor and can be incapacitating. Ever hear of 'back crater'? No need to try to diminish a heroic act by a citizen doing his public duty...unless you want to volunteer for the sake of science and proof of effect that is...
Full capacity mags were not illegal, no retroactive law you understand. Comp""anies made jillions of them before the deadline, all perfectly legal. The Laughtenberg act was worthless and crime was never an issue with full capacity magazines, what the SCOTUS RULED IN HELLER which is exactly the type of arms spoken of for ""those in common use at the time""...
MORE GUNS = LESS CRIME",502016,9,11028,1,"It would appear that a correction is needed on my part. The data is not attributed to the Brady Campaign but rather the Violence Policy Center. Furthermore of the ten reported mass shootings that they mention the lowest number of dead listed is as five. Of interest is the fact that three of the shootings happened between 1994 and 2004 and made use of magazines that were supposedly prohibited at the time. Coincidentally the recognized mass shooting with the fewest dead took place in 1989.

It is questionable what criteria the Violence Policy Center used in making their determination other than the magazines that were used at the time.

Some reports indicate the shooter turned to engage the instructor and killed him in response to being fired upon.

It is likely because they are not capable of blaming those that they have championed as heroes as it would harm them in the future if they called for legislation to further strengthen the bureau.

The slaughtering of innocent individuals in locations such as Africa and Uganda cannot be used to support their calls for tighter restrictions on access to civilian firearms. This is especially true when one genocidal act or another is carried out with implements such as machetes. It would open them up to criticism for citing deaths that can be tied to government hiring mercenaries and killers for committing such acts.","http://www.4forums.com/political/gun-control-debates/19065-colorado-shooting.html",460616,226
"1-11028_227_226_9",11028,1,"2012-08-05 07:17:00",682,681,460618,"2012-08-05 07:06:00",502018,21,226,"Another incident neither the Brady Campaign nor the Violence Policy Center can cite as it would undercut their lobbying position.",502017,9,11028,1,"Coincidently, the largest mass murder of citizens, not counting military abuse, took place at a rock concert in an upstairs building with a few bottles of gasoline and a match.
That CCW instructor was known to me and an excellent shot and he made good hits on the shooter. Problem was a .45 didn't penetrate the armor and two deputies were hiding behind cars and not engaging the shooter. The shooter had already shot his wife and boy who had a severe leg wound. The CCW INSTUCTOR did prevent his imminent shooting a second time by distracting him. Bullet impact is still felt even through body armor and can be incapacitating. Ever hear of 'back crater'? No need to try to diminish a heroic act by a citizen doing his public duty...unless you want to volunteer for the sake of science and proof of effect that is...
Full capacity mags were not illegal, no retroactive law you understand. Comp""anies made jillions of them before the deadline, all perfectly legal. The Laughtenberg act was worthless and crime was never an issue with full capacity magazines, what the SCOTUS RULED IN HELLER which is exactly the type of arms spoken of for ""those in common use at the time""...
MORE GUNS = LESS CRIME","http://www.4forums.com/political/gun-control-debates/19065-colorado-shooting.html",460617,227
"1-11028_228_227_9",11028,1,"2012-08-05 07:31:00",681,682,460619,"2012-08-05 07:17:00",502019,24,227,"Yes, and I read at least a dozen more such incidents each day through casual reading. It doesn't fit their agenda.",502018,9,11028,1,"Another incident neither the Brady Campaign nor the Violence Policy Center can cite as it would undercut their lobbying position.","http://www.4forums.com/political/gun-control-debates/19065-colorado-shooting.html",460618,228
