"key","quote_source_post_discussion_id","posts_dataset_id","posts_timestamp","posts_author_id","quote_source_author_id","posts_native_post_id","quote_source_timestamp","post_text_id","Word_Count","quote_source_post_id","post_text","quote_source_text_id","Dialog_Turn","posts_discussion_id","quote_source_post_dataset_id","Fullquote_text","discussion_url","quote_source_native_post_id","posts_post_id"
"1-1103_28_27_1",1103,1,"2004-03-02 09:34:00",803,56,37455,"2004-03-02 08:34:00",46401,44,27,"Please produce any documentation you have to support your claim that a criminal has a right to commit a crime against a law-abiding citizen.
Criminals disregard laws, not law-abiding citizens. This is why gun control laws do not affect criminals.",46400,1,1103,1,"Owning a gun even for self defense shows that you have no problem for violating someones right to life (by far the most important of any human given right), you can't say that criminal's lose this right by attempting to take your property or even your life- otherwise you are supporting the idea that society gives rights and can take them away when it wishs (i.e in support of other rights), at which point your rights are no longer fixed in stone but at merely an indulgence of the society you live in.","http://www.4forums.com/political/gun-control-debates/1824-disregarding-laws-we-oppose.html",37437,28
"1-1103_29_28_1",1103,1,"2004-03-02 09:44:00",56,803,37459,"2004-03-02 09:34:00",46402,122,28,"There is no need, it would be purely documentation, one produced by a society that has as much power to remove those rights as it sees fit. You have NO fundamental rights whatsoever, certain practices may be supported or repressed by a large number of people with the ability to threaten anyone acting contrary to it, but other than this there is nothing.

So all laws do not affect criminals, or is it only gun control ones that they disregard? Why have any at all then if all they do is prevent people who wouldn't commit them from doing these acts. Gun control laws affect Criminals as much as murder ones do.",46401,1,1103,1,"Please produce any documentation you have to support your claim that a criminal has a right to commit a crime against a law-abiding citizen.
Criminals disregard laws, not law-abiding citizens. This is why gun control laws do not affect criminals.","http://www.4forums.com/political/gun-control-debates/1824-disregarding-laws-we-oppose.html",37455,29
"1-1103_30_29_1",1103,1,"2004-03-02 09:52:00",803,56,37462,"2004-03-02 09:44:00",46403,74,29,"No answer on this question, typical reaction from people that want to take rights away from other people!

Laws against murder do not affect law-abiding citizens. Laws against murder affect a person only when a person commits murder. Gun control laws do affect law-abiding citizens and not criminals. Gun control laws do not stop criminals from getting guns. Gun control laws stop law-abiding citizens from having guns.",46402,1,1103,1,"There is no need, it would be purely documentation, one produced by a society that has as much power to remove those rights as it sees fit. You have NO fundamental rights whatsoever, certain practices may be supported or repressed by a large number of people with the ability to threaten anyone acting contrary to it, but other than this there is nothing.

So all laws do not affect criminals, or is it only gun control ones that they disregard? Why have any at all then if all they do is prevent people who wouldn't commit them from doing these acts. Gun control laws affect Criminals as much as murder ones do.","http://www.4forums.com/political/gun-control-debates/1824-disregarding-laws-we-oppose.html",37459,30
"1-1103_31_30_1",1103,1,"2004-03-02 10:01:00",56,803,37463,"2004-03-02 09:52:00",46404,58,30,"Of course there is no answer, did you even read my post? Show me eveidence that you have a right to have guns, other than something your government has made up.

Murder laws do not stop criminals from commiting murder. Murder laws stop law-abiding citizens from commiting murder. 
THERE IS NO DIFFERENCE",46403,1,1103,1,"No answer on this question, typical reaction from people that want to take rights away from other people!

Laws against murder do not affect law-abiding citizens. Laws against murder affect a person only when a person commits murder. Gun control laws do affect law-abiding citizens and not criminals. Gun control laws do not stop criminals from getting guns. Gun control laws stop law-abiding citizens from having guns.","http://www.4forums.com/political/gun-control-debates/1824-disregarding-laws-we-oppose.html",37462,31
"1-1103_32_31_1",1103,1,"2004-03-02 10:07:00",803,56,37465,"2004-03-02 10:01:00",46405,90,31,"The original intent and purpose of the Second Amendment was to preserve and guarantee, not grant the pre-existing right of individuals, to keep and bear arms. Although the amendment emphasizes the need for a militia, membership in any militia let alone a well regulated one, is not required to exercise the right to keep and bear arms. 
Maybe this part is what you cannot comprehend ""pre-existing right""

Law-abiding citizens do not commit murder, criminals do! That makes the difference!",46404,1,1103,1,"Of course there is no answer, did you even read my post? Show me eveidence that you have a right to have guns, other than something your government has made up.

Murder laws do not stop criminals from commiting murder. Murder laws stop law-abiding citizens from commiting murder. 
THERE IS NO DIFFERENCE","http://www.4forums.com/political/gun-control-debates/1824-disregarding-laws-we-oppose.html",37463,32
"1-1103_33_32_1",1103,1,"2004-03-02 10:43:00",56,803,37477,"2004-03-02 10:07:00",46406,86,32,"Essentially, the 'right' can be said to come from here (or wherever the pre existing right came from), but it is nothing that society can not change if opinion goes against it. 

So you beleive that laws against murder do nothing to reduce the number of murders that would happen? If not, why is there a difference from gun control laws? 
Criminals do not break either law, they become criminals after they broke them.",46405,1,1103,1,"The original intent and purpose of the Second Amendment was to preserve and guarantee, not grant the pre-existing right of individuals, to keep and bear arms. Although the amendment emphasizes the need for a militia, membership in any militia let alone a well regulated one, is not required to exercise the right to keep and bear arms.
Maybe this part is what you cannot comprehend ""pre-existing right""","http://www.4forums.com/political/gun-control-debates/1824-disregarding-laws-we-oppose.html",37465,33
"1-1103_34_33_1",1103,1,"2004-03-02 11:07:00",803,56,37484,"2004-03-02 10:43:00",46407,80,33,"The UK does not have a right like the 2nd amend. 

Laws against murder, rape, robbery, forgery, theft, and libel do nothing to stop these crimes. These laws provide for punishment when a criminal commits these crimes.
Gun control laws do not affect criminals because criminals do not obey these laws. Law-abiding citizens are affected by gun control laws because they are the only ones that obey gun control laws.",46406,1,1103,1,"Essentially, the 'right' can be said to come from here (or wherever the pre existing right came from), but it is nothing that society can not change if opinion goes against it. 

So you beleive that laws against murder do nothing to reduce the number of murders that would happen? If not, why is there a difference from gun control laws? 
Criminals do not break either law, they become criminals after they broke them.","http://www.4forums.com/political/gun-control-debates/1824-disregarding-laws-we-oppose.html",37477,34
