"key","quote_source_post_discussion_id","posts_dataset_id","posts_timestamp","posts_author_id","quote_source_author_id","posts_native_post_id","quote_source_timestamp","post_text_id","Word_Count","quote_source_post_id","post_text","quote_source_text_id","Dialog_Turn","posts_discussion_id","quote_source_post_dataset_id","Fullquote_text","discussion_url","quote_source_native_post_id","posts_post_id"
"1-3320_45_44_1",3320,1,"2005-05-21 14:11:00",320,50,126211,"2005-05-20 23:14:00",136232,37,44,"Wrong. There is NO requirement to attempt flight. Bad advice; Strike 1

Wrong again. Bad advice; Strike 2

Wrong once more. Bad advice, Strike 3. YOU'RE OUT!!! emoticonXRolleyes",136231,1,3320,1,"Good luck using that as a defense in court.
From re-reaing the thread, this is about as specific as I've been able to get on the nitty-gritty of it:

My point is that there is a difference between being required to retreat in order to succesfully make a self defense plea, and the definition of self defense. If, for any reason, you are a willing participant of the altercation, it isn't self defense.
You can't flee if there is an immediate threat to your safety. You won't have the time. 
You would have a very hard time justifying the use of lethal force if there wasn't an immediate threat to your safety or life, or the life or safety of another. If that threat goes away (your attacker fumbles, stumbles, or is otherwise incapacitated) and you still use lethal force, you are in a power load of trouble.
What this law does is recognise that in a situation where the use of lethal force is likely to be required, fleeing simply isn't an option. Removing a statute forcing you to flee is simply acknowledging reality.
The only advice I've given, be it good or bad is to seek the advice of a qualified legal professional.","http://www.4forums.com/political/gun-control-debates/5106-florida-gun-law-passed.html",125922,45
"1-3320_46_45_1",3320,1,"2005-05-21 17:40:00",50,320,126346,"2005-05-21 14:11:00",136233,139,45,"I never said there was. I said, if you refuse to take a perfectly safe opportunity to flee at a moment when there is no immediate danger, and instead you decide to use lethal force, then that is not self defense. How is that incorrect?

My only 'advice' in that paragraph was to be clear on the lines and distinctions between self defense, manslaughter and murder. I fail to see how this can possibly be bad advice.

Hey, don't take my word for it. Talk to a lawyer. If you could have safely fled, and instead gave the perp two in the chest and one in the head, then good luck in court my friend, you are going to need it.",136232,1,3320,1,"Wrong. There is NO requirement to attempt flight. Bad advice; Strike 1

Wrong again. Bad advice; Strike 2

Wrong once more. Bad advice, Strike 3. YOU'RE OUT!!! emoticonXRolleyes","http://www.4forums.com/political/gun-control-debates/5106-florida-gun-law-passed.html",126211,46
"1-3320_47_46_1",3320,1,"2005-05-21 20:11:00",320,50,126398,"2005-05-21 17:40:00",136234,71,46,"There is NO requirement to attempt flight. What part of the law are you unclear about? emoticonXConfused 

Now you're spinning your bad advice. I suggest that you reread what you actually wrote. emoticonXRolleyes 

All you have to demonstrate is that you were threatened with great bodily harm. You don't have to prove that you couldn't have outrun the perp in the 100 yard dash. emoticonXRolleyes",136233,1,3320,1,"I never said there was. I said, if you refuse to take a perfectly safe opportunity to flee at a moment when there is no immediate danger, and instead you decide to use lethal force, then that is not self defense. How is that incorrect?

My only 'advice' in that paragraph was to be clear on the lines and distinctions between self defense, manslaughter and murder. I fail to see how this can possibly be bad advice.

Hey, don't take my word for it. Talk to a lawyer. If you could have safely fled, and instead gave the perp two in the chest and one in the head, then good luck in court my friend, you are going to need it.","http://www.4forums.com/political/gun-control-debates/5106-florida-gun-law-passed.html",126346,47
"1-3320_48_47_1",3320,1,"2005-05-21 22:06:00",50,320,126446,"2005-05-21 20:11:00",136235,207,47,"Indeed. I never said there was. All I said was that you will have a very hard time justifying your use of lethal force in court if there was an opportunity to retreat, and you didn't take it.

Not at all. If you fail to take an opportunity to retreat, and as a result of that choice a person dies, then it will be very difficult to make a succesful self defense plea.
Please note this is very different from requiring an attempt to flee. Before, you had to be able to demonstrate that you made an attempt to flee. Now you just have to demonstrate that such an attempt was extremely dangerous. If a safe opportunity to retreat arises, and you do not choose to take it, and as a result of that choice you must use lethal force, then when the cops get there you are going to be in trouble.

emoticonXRolleyes
Good luck using that as your only defense in court. If anyone in Florida is reading this, don't take either or our words for it. Go and speak to a qualified legal profesional.",136234,1,3320,1,"There is NO requirement to attempt flight. What part of the law are you unclear about? emoticonXConfused 

Now you're spinning your bad advice. I suggest that you reread what you actually wrote. emoticonXRolleyes 

All you have to demonstrate is that you were threatened with great bodily harm. You don't have to prove that you couldn't have outrun the perp in the 100 yard dash. emoticonXRolleyes","http://www.4forums.com/political/gun-control-debates/5106-florida-gun-law-passed.html",126398,48
"1-3320_49_48_1",3320,1,"2005-05-22 06:08:00",320,50,126529,"2005-05-21 22:06:00",136236,90,48,"You still insist on beating a dead horse. The law says that you don't have to attempt to retreat. In reality, if you're in an alley with a dead perp who has a wepon in his hand, there's not a worry in the world on your part. 

Yeah, while you're standing there and a perp is in front of you holding a knife, pull out your cell phone instead of a gun and make sure your lawyer is on speed dial. emoticonXRolleyes",136235,1,3320,1,"Indeed. I never said there was. All I said was that you will have a very hard time justifying your use of lethal force in court if there was an opportunity to retreat, and you didn't take it
Not at all. If you fail to take an opportunity to retreat, and as a result of that choice a person dies, then it will be very difficult to make a succesful self defense plea.
Please note this is very different from requiring an attempt to flee. Before, you had to be able to demonstrate that you made an attempt to flee. Now you just have to demonstrate that such an attempt was extremely dangerous. If a safe opportunity to retreat arises, and you do not choose to take it, and as a result of that choice you must use lethal force, then when the cops get there you are going to be in trouble.
.","http://www.4forums.com/political/gun-control-debates/5106-florida-gun-law-passed.html",126446,49
"1-3320_10_9_2",3320,1,"2005-05-09 05:36:00",134,105,119118,"2005-05-08 23:29:00",136197,34,9,"That report is 10-years old. 
And the number of revocations for crimes commited by concealed carry licensees was 14, in a state with a population of 15-million.",136196,2,3320,1,"who can carry guns in public in Florida? 
whoa. 
That's disturbing.
http://www.vpc.org/studies/cccrimst.htm","http://www.4forums.com/political/gun-control-debates/5106-florida-gun-law-passed.html",119074,10
"1-3320_14_10_2",3320,1,"2005-05-09 13:42:00",105,134,119481,"2005-05-09 05:36:00",136201,19,10,"True, staistically the number is insignificent. However, that doesn't mean it that it is acceptable.",136197,2,3320,1,"That report is 10-years old. 
And the number of revocations for crimes commited by concealed carry licensees was 14, in a state with a population of 15-million.","http://www.4forums.com/political/gun-control-debates/5106-florida-gun-law-passed.html",119118,14
"1-3320_15_14_2",3320,1,"2005-05-09 14:55:00",134,105,119536,"2005-05-09 13:42:00",136202,13,14,"Any statistic that low is not considered material and therefore very acceptable.",136201,2,3320,1,"True, staistically the number is insignificent. However, that doesn't mean it that it is acceptable.","http://www.4forums.com/political/gun-control-debates/5106-florida-gun-law-passed.html",119481,15
"1-3320_16_15_2",3320,1,"2005-05-09 15:04:00",105,134,119547,"2005-05-09 14:55:00",136203,25,15,"C'mon. The fact that felons who haven't had their rights returned are able to get concealed fire arms? 
Doesn't that disturb you?",136202,2,3320,1,"Any statistic that low is not considered material and therefore very acceptable.","http://www.4forums.com/political/gun-control-debates/5106-florida-gun-law-passed.html",119536,16
"1-3320_19_16_2",3320,1,"2005-05-09 16:24:00",134,105,119619,"2005-05-09 15:04:00",136206,96,16,"Not particularly. If someone wants to carry a weapon, felon or otherwise, they often do so with or without legitimacy. I'd rather anyone be allowed to carry a weapon, like Vermont's law. Much lower crime rates when not just the bad guys are armed. We live in a violent society and to deny that and/or attempt fruitless legislation that puts the honest citizen at a disadvantage to the criminal element is a much larger concern. Law enforcement is a reporting, not preventive social function.",136203,2,3320,1,"C'mon. The fact that felons who haven't had their rights returned are able to get concealed fire arms? 
Doesn't that disturb you?","http://www.4forums.com/political/gun-control-debates/5106-florida-gun-law-passed.html",119547,19
