"key","quote_source_post_discussion_id","posts_dataset_id","posts_timestamp","posts_author_id","quote_source_author_id","posts_native_post_id","quote_source_timestamp","post_text_id","Word_Count","quote_source_post_id","post_text","quote_source_text_id","Dialog_Turn","posts_discussion_id","quote_source_post_dataset_id","Fullquote_text","discussion_url","quote_source_native_post_id","posts_post_id"
"1-534_32_31_1",534,1,"2003-08-31 14:31:00",416,3,13959,"2003-08-31 09:22:00",20895,47,31,"Since I work in the security business you don't know how far from the truth your comment is. There are ways to get guns aboard that are rather simple and hard to prevent. A hijacker WILL get one aboard if they really want too.",20894,1,534,1,"Kelvin, if the NRA thinks your position is ridiculous, then believe me... it is. The NRA is the largest pro-gun association in the world.

Ummmmmm yeah there is.... security has tightened up incredibly in airports. Its virtually impossible for someone to bring a gun on board. Why make it easier????????
I'm in favor of pilots being allowed to use handguns, thats enough.","http://www.4forums.com/political/gun-control-debates/901-scare-tactics-guncontrol-few-laughs.html",13949,32
"1-534_33_32_1",534,1,"2003-08-31 15:05:00",3,416,13961,"2003-08-31 14:31:00",20896,35,32,"give me an example of how they could get one aboard
and if it really was so easy to bring a gun aboard, then how come the hijackers in 9/11 didnt have guns?",20895,1,534,1,"Since I work in the security business you don't know how far from the truth your comment is. There are ways to get guns aboard that are rather simple and hard to prevent. A hijacker WILL get one aboard if they really want too.","http://www.4forums.com/political/gun-control-debates/901-scare-tactics-guncontrol-few-laughs.html",13959,33
"1-534_35_33_1",534,1,"2003-08-31 15:22:00",416,3,13965,"2003-08-31 15:05:00",20898,154,33,"Without going into much detail....a simple ""inside job"" is all it takes.
They realized they didn't NEED them as the passengers were ALL UNARMED. They knew that airline policy is to do whatever the hijackers want...diplomacy will sort out the problem once the hijackers have given thier demands. DO NOT RESIST was the SOP for hijackings.
Also since they weren't US citizens they couldn't ""legally"" purchase a firearm here. They probably didn't want to run the risk of getting busted buying one somewhere else.
Boxcutters would be all they needed and the threat of a bomb would keep the passengers docile enough until they could crash the plane.
The passengers of the 4th plane heard what happened and took matters into thier own hands.
However airline policy has changed and we will no longer negotiate with hijackers.",20896,1,534,1,"give me an example of how they could get one aboard
and if it really was so easy to bring a gun aboard, then how come the hijackers in 9/11 didnt have guns?","http://www.4forums.com/political/gun-control-debates/901-scare-tactics-guncontrol-few-laughs.html",13961,35
"1-534_36_35_1",534,1,"2003-08-31 16:55:00",3,416,13967,"2003-08-31 15:22:00",20899,180,35,"Excuse me? When did I ever say that I support or believe in the NRA??? I hate the NRA. I was just saying that even a pro-gun group doesnt support your position on guns in planes. 

Actually, I would like some more detail. A simple inside job? Hmmmm, somehow I think that it is highly highly unlikely. I'm sure they do a bunch of background tests on the security guards and such. They search all onboard luggage and have you go through metal detectors. I cant see someone able to get through with a gun.

Most airline passengers would be unarmed regardless of whether or not there is a law against carrying a deadly weapon on board a plane. Only a fraction of the population even owns a gun, and only a small fraction of those people would bother to bring it on a plane. 
Personally, I would rather have the terrorist armed with a paper knife or boxcutter... not a gun.",20898,1,534,1,"Without going into much detail....a simple ""inside job"" is all it takes.
They realized they didn't NEED them as the passengers were ALL UNARMED. They knew that airline policy is to do whatever the hijackers want...diplomacy will sort out the problem once the hijackers have given thier demands. DO NOT RESIST was the SOP for hijackings.
Also since they weren't US citizens they couldn't ""legally"" purchase a firearm here. They probably didn't want to run the risk of getting busted buying one somewhere else.
Boxcutters would be all they needed and the threat of a bomb would keep the passengers docile enough until they could crash the plane.
The passengers of the 4th plane heard what happened and took matters into thier own hands.
However airline policy has changed and we will no longer negotiate with hijackers.","http://www.4forums.com/political/gun-control-debates/901-scare-tactics-guncontrol-few-laughs.html",13965,36
"1-534_37_36_1",534,1,"2003-08-31 17:20:00",416,3,13972,"2003-08-31 16:55:00",20900,102,36,"Since you aren't familiar with the behind the scene areas of the airport I'm not going into further detail. But it's suffice to say there are ways to get guns in. 

You need to check your numbers....
there are approx. 280million Amereicans...there are approx. 80 million gun owners. That's like 1 in 3.5 Americans have a firearm.
If the passengers could carry weapons there wouldn't be any terroists as this would no longer be a ""soft"" target. They would know they couldn't succede and move onto another target.",20899,1,534,1,"Excuse me? When did I ever say that I support or believe in the NRA??? I hate the NRA. I was just saying that even a pro-gun group doesnt support your position on guns in planes. 

Actually, I would like some more detail. A simple inside job? Hmmmm, somehow I think that it is highly highly unlikely. I'm sure they do a bunch of background tests on the security guards and such. They search all onboard luggage and have you go through metal detectors. I cant see someone able to get through with a gun.

Most airline passengers would be unarmed regardless of whether or not there is a law against carrying a deadly weapon on board a plane. Only a fraction of the population even owns a gun, and only a small fraction of those people would bother to bring it on a plane. 
Personally, I would rather have the terrorist armed with a paper knife or boxcutter... not a gun.","http://www.4forums.com/political/gun-control-debates/901-scare-tactics-guncontrol-few-laughs.html",13967,37
"1-534_38_37_1",534,1,"2003-08-31 17:54:00",3,416,13975,"2003-08-31 17:20:00",20901,98,37,"In other words, you are copping out. Its ok though, it just makes your other arguments less convincing.

So roughly 28% of Americans own a firearm. I think it would be safe to say that only 10% of those people would even bother to bring it with them on the plane. So that means that on a plane of 100 passengers, only about 2 or 3 would have a gun with them. That isnt enough people to stop a terrorist (or even multiple terrorists) from hijacking a plane",20900,1,534,1,"Since you aren't familiar with the behind the scene areas of the airport I'm not going into further detail. But it's suffice to say there are ways to get guns in. 

You need to check your numbers....
there are approx. 280million Amereicans...there are approx. 80 million gun owners. That's like 1 in 3.5 Americans have a firearm.
If the passengers could carry weapons there wouldn't be any terroists as this would no longer be a ""soft"" target. They would know they couldn't succede and move onto another target.","http://www.4forums.com/political/gun-control-debates/901-scare-tactics-guncontrol-few-laughs.html",13972,38
"1-534_39_38_1",534,1,"2003-08-31 18:08:00",416,3,13978,"2003-08-31 17:54:00",20902,57,38,"""lame""

This is all your opinion with no proof to support it. Go back and read my previous post about how the airline with armed passengers would no longer be a soft target and thus not targeted by hijackers when they know they will likely fail due to the presence of armed passengers.",20901,1,534,1,"In other words, you are copping out. Its ok though, it just makes your other arguments less convincing.

So roughly 28% of Americans own a firearm. I think it would be safe to say that only 10% of those people would even bother to bring it with them on the plane. So that means that on a plane of 100 passengers, only about 2 or 3 would have a gun with them. That isnt enough people to stop a terrorist (or even multiple terrorists) from hijacking a plane","http://www.4forums.com/political/gun-control-debates/901-scare-tactics-guncontrol-few-laughs.html",13975,39
"1-534_40_39_1",534,1,"2003-08-31 18:40:00",3,416,13982,"2003-08-31 18:08:00",20903,117,39,"Say what you want, but its true. If you refuse to back up your arguments, then why are you even wasting your time on this debate site?

If 28% of Americans own a firearm, then AT BEST, a quarter of the plane will be armed. But there is no way on Earth that every single passenger that owns a gun will bring it on board... the highest percentage would probably be about 20% of those on board. 
About 2 or 3 percent of passengers will have a gun on board... the funny thing is that I used your statistics to prove my point. Thank you :)",20902,1,534,1,"""lame""

This is all your opinion with no proof to support it. Go back and read my previous post about how the airline with armed passengers would no longer be a soft target and thus not targeted by hijackers when they know they will likely fail due to the presence of armed passengers.","http://www.4forums.com/political/gun-control-debates/901-scare-tactics-guncontrol-few-laughs.html",13978,40
"1-534_41_40_1",534,1,"2003-08-31 18:52:00",416,3,13985,"2003-08-31 18:40:00",20904,175,40,"Ahh I see the failings of the American education system are alive and well.
What are you talking about? You have donenothing but throw your own OPINION into how many people will really carry firearms onboard. Are you dense????
It's not about ""how many"" it's about the fact the airline pasenegers will no longer be UNARMED!
By merely making it public knowledge that citizens can carry lawfully you have now made the airplane a ""hard"" target. The terrorist will not take the chance as they know they will most likely fail as compared to a plane (like on 9/11) where NO ONE had weapons.
(gee, I feel like I'm repeating myself)
How come there are no robberies at gunshows?? BECAUSE THE CRIMINALS KNOW THERE ARE GUN CARRYING CITIZENS THERE THAT WILL KILL THEM IF THEY ATTEMPT IT.
Why do hijackers attack unarmed planes? Because they can with absolutley no worries of any one stopping them.",20903,1,534,1,"Say what you want, but its true. If you refuse to back up your arguments, then why are you even wasting your time on this debate site?

If 28% of Americans own a firearm, then AT BEST, a quarter of the plane will be armed. But there is no way on Earth that every single passenger that owns a gun will bring it on board... the highest percentage would probably be about 20% of those on board. 
About 2 or 3 percent of passengers will have a gun on board... the funny thing is that I used your statistics to prove my point. Thank you :)","http://www.4forums.com/political/gun-control-debates/901-scare-tactics-guncontrol-few-laughs.html",13982,41
