"key","quote_source_post_discussion_id","posts_dataset_id","posts_timestamp","posts_author_id","quote_source_author_id","posts_native_post_id","quote_source_timestamp","post_text_id","Word_Count","quote_source_post_id","post_text","quote_source_text_id","Dialog_Turn","posts_discussion_id","quote_source_post_dataset_id","Fullquote_text","discussion_url","quote_source_native_post_id","posts_post_id"
"1-623_87_86_1",623,1,"2003-10-07 07:08:00",419,29,18468,"2003-10-07 06:10:00",25508,58,86,"Simple... The one gun a month law has not been passed therefore there are no statistics.
See in debate I make this claim and it is your job to disprove it if you can. Can you find a case of gang warefare by bayonett charge? If so lets see it otherwise move on.",25507,1,623,1,"I could just as easily answer 1,000 for each of these questions and no one would be able to prove that I am wrong. Isn't it great throwing out questions for which there is no proven answer and then announcing that you know the answer!
Instead of just stating this how about I ask for you to prove that the new one gun a month law hasn't saved any lives! lol, lets see what you got emoticonXClown","http://www.4forums.com/political/gun-control-debates/1018-why-do-americans-want-so-many-guns.html",18463,87
"1-623_88_87_1",623,1,"2003-10-07 07:58:00",29,419,18472,"2003-10-07 07:08:00",25509,158,87,"lol, no wonder 0 is the answer then. Fine, then prove that in theory that a one gun a month law couldn't have saved 1,000 lives. Or prove that 1,000 isn't the answer to one of the valid questions.

lol, there is no way to disprove what you are stating. It would be like me asking you to prove that nuclear weapons have actually cost us more lives than they have saved. In theory it has saved lives but that cannot be shown. It is obvious that nuclear weapons use on Japan ended the war with less deaths than would have occurred without nuclear weapons but how exactly can we prove this? It is just theoretical just like the responses to your questions are. So I'll be the first to admit that I cannot disprove anything that you have said as it pertains to those questions.",25508,1,623,1,"Simple... The one gun a month law has not been passed therefore there are no statistics.
See in debate I make this claim and it is your job to disprove it if you can. Can you find a case of gang warefare by bayonett charge? If so lets see it otherwise move on.","http://www.4forums.com/political/gun-control-debates/1018-why-do-americans-want-so-many-guns.html",18468,88
"1-623_89_88_1",623,1,"2003-10-07 08:06:00",419,29,18474,"2003-10-07 07:58:00",25510,40,88,"Actually there is.. They have statistics on the web that show from police reports that what I say is true. You are free to find it yourself.
Can I add LOL into every sentence like you?",25509,1,623,1,"lol, no wonder 0 is the answer then. Fine, then prove that in theory that a one gun a month law couldn't have saved 1,000 lives. Or prove that 1,000 isn't the answer to one of the valid questions.

lol, there is no way to disprove what you are stating. It would be like me asking you to prove that nuclear weapons have actually cost us more lives than they have saved. In theory it has saved lives but that cannot be shown. It is obvious that nuclear weapons use on Japan ended the war with less deaths than would have occurred without nuclear weapons but how exactly can we prove this? It is just theoretical just like the responses to your questions are. So I'll be the first to admit that I cannot disprove anything that you have said as it pertains to those questions.","http://www.4forums.com/political/gun-control-debates/1018-why-do-americans-want-so-many-guns.html",18472,89
"1-623_90_89_1",623,1,"2003-10-07 08:09:00",29,419,18475,"2003-10-07 08:06:00",25511,137,89,"""How many lives did this ban save?""
Now how can this be proven? Lets say that this ban occurred in 1980 or whatever. Lets then say that had it no been in place in 1984 then 3 lives would have been lost because of it. How could you prove that this would have happened if the ban had not been put into place? You can only theoretically say that lives have or have not been saved because of this ban. It is the same with nuclear weapons. It is only theoretical.
As for the lol's, I'm just in a laughing mood for some reason. I feel the need to write lol if something makes me smile :) You can join along if you wish.",25510,1,623,1,"Actually there is.. They have statistics on the web that show from police reports that what I say is true. You are free to find it yourself.
Can I add LOL into every sentence like you?","http://www.4forums.com/political/gun-control-debates/1018-why-do-americans-want-so-many-guns.html",18474,90
"1-623_91_90_1",623,1,"2003-10-07 08:14:00",419,29,18478,"2003-10-07 08:09:00",25512,158,90,"You want to get caught up in this as a tactic NOT to be proven wrong. When there are clear statisitic on all cept the one a month ban lets turn our focus on:
What is ""common sense"" about banning bayonett lugs?
What is ""common sense"" about banning flash suppressors?
What is ""common sense"" about limiting guns to 10 rounds?
What is ""common sense"" about banning folding stocks?
What is ""common sense"" about these new one gun a month laws?
What is ""common sense"" about banning imported ammo?
What is ""common sense"" about banning foriegn made rifles?
What is ""common sense"" about banning pistol grips?
As you are one who brings up ""conventional logic"" please explain this ""logic to me"" Also tell me how it helps you?",25511,1,623,1,"""How many lives did this ban save?""
Now how can this be proven? Lets say that this ban occurred in 1980 or whatever. Lets then say that had it no been in place in 1984 then 3 lives would have been lost because of it. How could you prove that this would have happened if the ban had not been put into place? You can only theoretically say that lives have or have not been saved because of this ban. It is the same with nuclear weapons. It is only theoretical.
As for the lol's, I'm just in a laughing mood for some reason. I feel the need to write lol if something makes me smile :) You can join along if you wish.","http://www.4forums.com/political/gun-control-debates/1018-why-do-americans-want-so-many-guns.html",18475,91
"1-623_92_91_1",623,1,"2003-10-07 08:30:00",29,419,18483,"2003-10-07 08:14:00",25513,179,91,"Let me get this straight. I had a logical answer to your original questions and now without giving me credit for providing logical insite into those questions you simply change what the question is.
Even these questions are simply a matter of what you believe makes sense and what you believe doesn't make sense. Because of your mindset you may never believe that any of these make sense based on theoretical data and even proven data. To try and answer these for you will only result in you saying the responses are all wrong based on some other theoretical data that can then be disputed again by the other side. It is just a circle.
Let us test my theory:
""What is ""common sense"" about limiting guns to 10 rounds?""
It will allow you 10 shots therefore making the gun less deadly for attacks than one with 20, 50, or a billion shots.
Now you put down your first piece of the circle.",25512,1,623,1,"You want to get caught up in this as a tactic NOT to be proven wrong. When there are clear statisitic on all cept the one a month ban lets turn our focus on:
What is ""common sense"" about banning bayonett lugs?
What is ""common sense"" about banning flash suppressors?
What is ""common sense"" about limiting guns to 10 rounds?
What is ""common sense"" about banning folding stocks?
What is ""common sense"" about these new one gun a month laws?
What is ""common sense"" about banning imported ammo?
What is ""common sense"" about banning foriegn made rifles?
What is ""common sense"" about banning pistol grips?
As you are one who brings up ""conventional logic"" please explain this ""logic to me"" Also tell me how it helps you?","http://www.4forums.com/political/gun-control-debates/1018-why-do-americans-want-so-many-guns.html",18478,92
