"key","quote_source_post_discussion_id","posts_dataset_id","posts_timestamp","posts_author_id","quote_source_author_id","posts_native_post_id","quote_source_timestamp","post_text_id","Word_Count","quote_source_post_id","post_text","quote_source_text_id","Dialog_Turn","posts_discussion_id","quote_source_post_dataset_id","Fullquote_text","discussion_url","quote_source_native_post_id","posts_post_id"
"1-6335_5_2_1",6335,1,"2006-11-24 09:43:00",176,142,240899,"2006-11-24 04:29:00",265596,80,2,"I agree.

Then how would you explain the statistics? One can only speculate that the ban made crime skyrocket.

The reason they own guns is completely irrelevant.
[quote ]Fourthly Not sure what doctors have to do with this anyway unless you wish to confie stats to gunshot wounds or the occasions when a doctor shoots their patient![/QUOTE]
What? Im saying that doctors are more dangerous than guns.",265593,1,6335,1,"Firstly handguns held by criminals are illegal in UK so the fact that homicides have increased is irrelevant to the handgun ban. One could argue that without the handgun ban the accidental death rate would have increased. Personally believe that the UK handgun ban was too much hysterical overreaction but there.
Secondly the ownership or not of handguns has no known connection to the increase of any crime whether in Uk, Australia or USA. 
Thirdly the ownership of guns in Switzerland relates to their military service requirements as Israel.
Fourthly Not sure what doctors have to do with this anyway unless you wish to confie stats to gunshot wounds or the occasions when a doctor shoots their patient!","http://www.4forums.com/political/gun-control-debates/9222-facts-remain-ignored.html",240871,5
"1-6335_7_5_1",6335,1,"2006-11-27 00:23:00",142,176,241113,"2006-11-24 09:43:00",265598,104,5,"What? Im saying that doctors are more dangerous than guns.[/QUOTE]
Crime seems to be related to social deprivation and nothing to do with guns.
No the reason for owning a gun is very relevant in the case of switzerland and Israel. All males are in the army reserve and must have their weapons to hand.
So you would prefer to face a person pointing a gun at you rather than when you are feeling sick see your Doctor ? Well I suppose the man with the gun will put you out of your misery.",265596,1,6335,1,"I agree.
Then how would you explain the statistics? One can only speculate that the ban made crime skyrocket.
The reason they own guns is completely irrelevant.
[quote ]Fourthly Not sure what doctors have to do with this anyway unless you wish to confie stats to gunshot wounds or the occasions when a doctor shoots their patient!","http://www.4forums.com/political/gun-control-debates/9222-facts-remain-ignored.html",240899,7
"1-6335_9_7_1",6335,1,"2006-11-27 17:29:00",176,142,241206,"2006-11-27 00:23:00",265600,72,7,"Its all pure speculation. You have your opinions, I have mine.

And what does it matter if they're in the army reserve, or a lawyer, a teacher, a doctor?

That makes no sense. I'm saying its much safer to own a gun then to see a doctor. I never said anything about pointing guns at people or feeling sick. Strawman :).",265598,1,6335,1,"What? Im saying that doctors are more dangerous than guns.[/QUOTE]
Crime seems to be related to social deprivation and nothing to do with guns.
No the reason for owning a gun is very relevant in the case of switzerland and Israel. All males are in the army reserve and must have their weapons to hand.
So you would prefer to face a person pointing a gun at you rather than when you are feeling sick see your Doctor ? Well I suppose the man with the gun will put you out of your misery.","http://www.4forums.com/political/gun-control-debates/9222-facts-remain-ignored.html",241113,9
"1-6335_15_9_1",6335,1,"2006-11-28 00:19:00",142,176,241239,"2006-11-27 17:29:00",265606,73,9,"Agree speculation, but most research indicates social deprivation as being main causes of crime coupled nowadays with drugs
re Israel & Switzerland require BY LAW that they have a gun which isn't actually theirs as it belongs to the Swiss/Israeli military
Presumably you only see a Doctor if you are sick. There is a chance he will cure you. Can't do much with the gun except kill someone",265600,1,6335,1,"Its all pure speculation. You have your opinions, I have mine.

And what does it matter if they're in the army reserve, or a lawyer, a teacher, a doctor?

That makes no sense. I'm saying its much safer to own a gun then to see a doctor. I never said anything about pointing guns at people or feeling sick. Strawman :).","http://www.4forums.com/political/gun-control-debates/9222-facts-remain-ignored.html",241206,15
"1-6335_23_15_1",6335,1,"2006-11-28 19:15:00",176,142,241334,"2006-11-28 00:19:00",265614,102,15,"Then why is there a need for gun control? If you're going to deprive us for one of our main liberties, then you'd better have a damn good reason. 

Doesnt matter, the point is, they have it.

You can use it for target practice and recreation, you can use it for hunting, you can use it at the range, there are plenty of legitimate reasons. So, you really should've said ""Doctors don't do much except kill people"" since they are more dangerous and more likely to kill you.",265606,1,6335,1,"Agree speculation, but most research indicates social deprivation as being main causes of crime coupled nowadays with drugs
re Israel & Switzerland require BY LAW that they have a gun which isn't actually theirs as it belongs to the Swiss/Israeli military
Presumably you only see a Doctor if you are sick. There is a chance he will cure you. Can't do much with the gun except kill someone","http://www.4forums.com/political/gun-control-debates/9222-facts-remain-ignored.html",241239,23
