"key","quote_source_post_discussion_id","posts_dataset_id","posts_timestamp","posts_author_id","quote_source_author_id","posts_native_post_id","quote_source_timestamp","post_text_id","Word_Count","quote_source_post_id","post_text","quote_source_text_id","Dialog_Turn","posts_discussion_id","quote_source_post_dataset_id","Fullquote_text","discussion_url","quote_source_native_post_id","posts_post_id"
"1-662_9_6_1",662,1,"2003-10-06 19:53:00",444,283,18427,"2003-10-06 16:48:00",26885,126,6,"Hey here is the definition of infringement
1 : the act of infringing 
2 : an encroachment or trespass on a right or privilege 
So tell me how you are pro right to bear arms if you want 
limits on that right? 
Nice now that gun hater pilot is finally saying gun hater pilot now wants tougher penalties! Interesting how gun hater pilot a person defending limiting or banning the right to bear arms has not said this until it was pointed out by a person defending the right to bear arms. A person defending a right is not doing one of these , or an encroachment or trespass on a right or privilege on the to the right to bear arms!",26882,1,662,1,"Well then, yes, I support the right to own guns. I support the right to carry guns in most places. I support the right to use them in self defense. I support background checks. I do not support the idea of anyone other than law enforcement to have a gun in schools or on airplanes.
I do believe in tougher penalties for criminals who use guns in the commision of crime.","http://www.4forums.com/political/gun-control-debates/1073-gun-control-yes-no.html",18399,9
"1-662_10_9_1",662,1,"2003-10-06 19:59:00",283,444,18429,"2003-10-06 19:53:00",26886,25,9,"I find your use of the phrase ""gun hater pilot"" to be offensive, as both a gun owner and a pilot.",26885,1,662,1,"Hey here is the definition of infringement
1 : the act of infringing 
2 : an encroachment or trespass on a right or privilege 
So tell me how you are pro right to bear arms if you want 
limits on that right? 
Nice now that gun hater pilot is finally saying gun hater pilot now wants tougher penalties! Interesting how gun hater pilot a person defending limiting or banning the right to bear arms has not said this until it was pointed out by a person defending the right to bear arms. A person defending a right is not doing one of these , or an encroachment or trespass on a right or privilege on the to the right to bear arms!","http://www.4forums.com/political/gun-control-debates/1073-gun-control-yes-no.html",18427,10
"1-662_11_10_1",662,1,"2003-10-07 04:53:00",444,283,18460,"2003-10-06 19:59:00",26887,24,10,"Was that the question? Or was the question how are you not infringing on a right?
Typical gun hater pilot tactics!",26886,1,662,1,"I find your use of the phrase ""gun hater pilot"" to be offensive, as both a gun owner and a pilot.","http://www.4forums.com/political/gun-control-debates/1073-gun-control-yes-no.html",18429,11
"1-662_13_11_1",662,1,"2003-10-07 09:50:00",283,444,18496,"2003-10-07 04:53:00",26889,31,11,"Please discontinue the use of the phrase ""gun hater pilot"".
And since when have you answered the questions asked of you, don't have a double standard.",26887,1,662,1,"Was that the question? Or was the question how are you not infringing on a right?
Typical gun hater pilot tactics!","http://www.4forums.com/political/gun-control-debates/1073-gun-control-yes-no.html",18460,13
"1-662_14_13_1",662,1,"2003-10-07 10:12:00",444,283,18497,"2003-10-07 09:50:00",26890,92,13,"A gun hater is a person that wants gun control laws that infringe on the right to bear arms. You have stated you want gun control laws that infringe on a persons right to bear arms! This puts you in the hate group of gun haters!
Hey here is the definition of infringement
1 : the act of infringing 
2 : an encroachment or trespass on a right or privilege 
So tell me how you are pro right to bear arms if you want 
limits on that right?",26889,1,662,1,"Please discontinue the use of the phrase ""gun hater pilot"".
And since when have you answered the questions asked of you, don't have a double standard.","http://www.4forums.com/political/gun-control-debates/1073-gun-control-yes-no.html",18496,14
"1-662_15_14_1",662,1,"2003-10-07 10:37:00",283,444,18504,"2003-10-07 10:12:00",26891,16,14,"You are still labeling me as a gun hater...I really find that offensive.",26890,1,662,1,"A gun hater is a person that wants gun control laws that infringe on the right to bear arms. You have stated you want gun control laws that infringe on a persons right to bear arms! This puts you in the hate group of gun haters!
Hey here is the definition of infringement
1 : the act of infringing 
2 : an encroachment or trespass on a right or privilege 
So tell me how you are pro right to bear arms if you want 
limits on that right?","http://www.4forums.com/political/gun-control-debates/1073-gun-control-yes-no.html",18497,15
