"key","quote_source_post_discussion_id","posts_dataset_id","posts_timestamp","posts_author_id","quote_source_author_id","posts_native_post_id","quote_source_timestamp","post_text_id","Word_Count","quote_source_post_id","post_text","quote_source_text_id","Dialog_Turn","posts_discussion_id","quote_source_post_dataset_id","Fullquote_text","discussion_url","quote_source_native_post_id","posts_post_id"
"1-670_7_6_1",670,1,"2003-11-01 09:19:00",27,18,21061,"2003-10-30 17:05:00",27145,152,6,"Aren't you being a bit paranoid? ""The vast majority of gun control legislation being proposed in this country has nothing to do with banning guns of any kind. Gun control opponents contrived this lie to manufacture a 'They're coming to take our guns away!' hysteria. Did licensing of drivers and registration of cars lead to a ban on automobiles? Did licensing of dogs lead to a ban on pet ownership? Like myself, the vast majority of people who support gun control oppose an outright ban on all guns....Israel and Switzerland, to name just 2 examples, are countries that have had very strict gun control laws for several years and yet also have high rates of gun ownership.""
http://rush_awards.tripod.com/truthaboutguns.html
Gun-control in Israel and Switzerland hasn't led to gun banning. Neither has Canada's strict gun-control laws.",27144,1,670,1,"That is EXACTLY the logic that was used in the UK to start CONFISCATING guns. That logic that was used for incrementally tougher and tighter laws, until they had a TOTAL ban. 
Is that your goal?","http://www.4forums.com/political/gun-control-debates/1087-cdc-review-cant-prove-gun-control-laws-effective.html",20966,7
"1-670_8_7_1",670,1,"2003-11-01 12:04:00",18,27,21064,"2003-11-01 09:19:00",27146,127,7,"Your link has nothing about Isreal or the Swiss in it. The Isreali are armed to the teeth. 
""As previously reported in this column, Israel has issued 60,000 new gun permits to civilians, raising the number of guns in civilian hands by 25 percent. 
""There's no question that weapons in the hands of the public have prevented acts of terror or stopped them while they were in progress,"" stated Police Inspector-General Shlomo Aharonisky. 
Former Police Inspector-General Assaf Hefetz seconds the motion. ""A gun owner who can get within effective range of the terrorist while keeping under cover can prevent many casualties,"" he wrote in the Israeli paper Yediot Aharonot. "" - http://www.newsmax.com/commentarchiv...02/3/22/114216",27145,1,670,1,"Aren't you being a bit paranoid? ""The vast majority of gun control legislation being proposed in this country has nothing to do with banning guns of any kind. Gun control opponents contrived this lie to manufacture a 'They're coming to take our guns away!' hysteria. Did licensing of drivers and registration of cars lead to a ban on automobiles? Did licensing of dogs lead to a ban on pet ownership? Like myself, the vast majority of people who support gun control oppose an outright ban on all guns....Israel and Switzerland, to name just 2 examples, are countries that have had very strict gun control laws for several years and yet also have high rates of gun ownership.""
http://rush_awards.tripod.com/truthaboutguns.html
Gun-control in Israel and Switzerland hasn't led to gun banning. Neither has Canada's strict gun-control laws.","http://www.4forums.com/political/gun-control-debates/1087-cdc-review-cant-prove-gun-control-laws-effective.html",21061,8
"1-670_9_8_1",670,1,"2003-11-01 23:54:00",27,18,21090,"2003-11-01 12:04:00",27147,51,8,"Yes, it does. Read it all. Also go to this link where an Israeli citizen talks about guns and gun-control in Israel. 
http://www.counsel.net/chatboards/2n....02.36.24.html
Sounds like Israel has strict gun-control laws but also lots of guns. Gun-control has not led to gun confiscation in that nation.",27146,1,670,1,"Your link has nothing about Isreal or the Swiss in it. The Isreali are armed to the teeth. 
""As previously reported in this column, Israel has issued 60,000 new gun permits to civilians, raising the number of guns in civilian hands by 25 percent. 
""There's no question that weapons in the hands of the public have prevented acts of terror or stopped them while they were in progress,"" stated Police Inspector-General Shlomo Aharonisky. 
Former Police Inspector-General Assaf Hefetz seconds the motion. ""A gun owner who can get within effective range of the terrorist while keeping under cover can prevent many casualties,"" he wrote in the Israeli paper Yediot Aharonot. "" - http://www.newsmax.com/commentarchiv...02/3/22/114216","http://www.4forums.com/political/gun-control-debates/1087-cdc-review-cant-prove-gun-control-laws-effective.html",21064,9
"1-670_11_9_1",670,1,"2003-11-02 06:54:00",18,27,21108,"2003-11-01 23:54:00",27149,186,9,"That is not the same link.
You finally admitted that there are lots of guns in Israel. If you dig some more you will find the Swiss are armed to the teeth too.
Yes there is gun control in BOTH countires. You have finally put it together. You and I have talked about this many other times. Like an idiot I keep believing that eventually you would put it together yourslef. I was starting to give up. I should have just said it myself just like in the above post.
The next step:
How do you recoginze that these people are armed to the teeth and do not kill each other with guns? 
The lack of violent assaults and the prolific arms in those countries says something about that society. Remember root cause? 
Yes those countries have strict gun control. The governments in those countires are also giving away full automatic machine guns to thier citizens From those countires shows, it is possible to trust people with very destructive weapons.",27147,1,670,1,"Yes, it does. Read it all. Also go to this link where an Israeli citizen talks about guns and gun-control in Israel. 
http://www.counsel.net/chatboards/2n....02.36.24.html
Sounds like Israel has strict gun-control laws but also lots of guns. Gun-control has not led to gun confiscation in that nation.","http://www.4forums.com/political/gun-control-debates/1087-cdc-review-cant-prove-gun-control-laws-effective.html",21090,11
"1-670_14_11_1",670,1,"2003-11-08 07:32:00",27,18,21963,"2003-11-02 06:54:00",27152,65,11,"I'm confused. When did I ever say that Switzerland and Israel don't have guns? How do you define armed to the teeth? The Swiss have a gun ownership rate of about 27% according the International Crime Victim Survey. Less than the US. 
Anyway, gun-control hasn't led to gun confiscation in Israel or Switzerland which refutes your original point.",27149,1,670,1,"That is not the same link.
You finally admitted that there are lots of guns in Israel. If you dig some more you will find the Swiss are armed to the teeth too.
Yes there is gun control in BOTH countires. You have finally put it together. You and I have talked about this many other times. Like an idiot I keep believing that eventually you would put it together yourslef. I was starting to give up. I should have just said it myself just like in the above post.
The next step:
How do you recoginze that these people are armed to the teeth and do not kill each other with guns? 
The lack of violent assaults and the prolific arms in those countries says something about that society. Remember root cause? 
Yes those countries have strict gun control. The governments in those countires are also giving away full automatic machine guns to thier citizens From those countires shows, it is possible to trust people with very destructive weapons.","http://www.4forums.com/political/gun-control-debates/1087-cdc-review-cant-prove-gun-control-laws-effective.html",21108,14
