"key","quote_source_post_discussion_id","posts_dataset_id","posts_timestamp","posts_author_id","quote_source_author_id","posts_native_post_id","quote_source_timestamp","post_text_id","Word_Count","quote_source_post_id","post_text","quote_source_text_id","Dialog_Turn","posts_discussion_id","quote_source_post_dataset_id","Fullquote_text","discussion_url","quote_source_native_post_id","posts_post_id"
"1-7992_26_25_1",7992,1,"2008-07-28 13:29:00",413,44,318030,"2008-07-28 13:28:00",351435,29,25,"The armed military is in the name of defending the country. The armed individual is in the name of defending himself and his loved ones from harm.",351434,1,7992,1,"Don't we have a military for the same reason as you have a gun?","http://www.4forums.com/political/gun-control-debates/11411-challenge.html",318029,26
"1-7992_27_26_1",7992,1,"2008-07-28 13:32:00",44,413,318031,"2008-07-28 13:29:00",351436,36,26,"Then you agree with me. Unless you don't love your country. 
I see the need for everyone to consider arming themselves in order to feel safe as a similar ""human failure"".",351435,1,7992,1,"The armed military is in the name of defending the country. The armed individual is in the name of defending himself and his loved ones from harm.","http://www.4forums.com/political/gun-control-debates/11411-challenge.html",318030,27
"1-7992_30_27_1",7992,1,"2008-07-28 15:10:00",413,44,318038,"2008-07-28 13:32:00",351439,72,27,"Agree with you? Like hell.

More like a failure on the part of the government being wholly unable to keep the people of the nation safe from harm on the localized level. It's a fact of life that law enforcement is vastly outnumbered by the criminal element and entirely unable to provide security to everybody, so it's up to the individual people to take care of themselves.",351436,1,7992,1,"Then you agree with me. Unless you don't love your country. 
I see the need for everyone to consider arming themselves in order to feel safe as a similar ""human failure"".","http://www.4forums.com/political/gun-control-debates/11411-challenge.html",318031,30
"1-7992_31_30_1",7992,1,"2008-07-28 15:17:00",44,413,318040,"2008-07-28 15:10:00",351440,48,30,"You don't love your country? Doesn't the military defend you and your loved ones from harm by extension?

Criminals outnumber law-enforcement in every nation. How is it other nations have much lower levels of violence than we? Successful government? I'm afraid not.",351439,1,7992,1,"Agree with you? Like hell.

More like a failure on the part of the government being wholly unable to keep the people of the nation safe from harm on the localized level. It's a fact of life that law enforcement is vastly outnumbered by the criminal element and entirely unable to provide security to everybody, so it's up to the individual people to take care of themselves.","http://www.4forums.com/political/gun-control-debates/11411-challenge.html",318038,31
"1-7992_42_31_1",7992,1,"2008-07-28 16:16:00",413,44,318058,"2008-07-28 15:17:00",351451,84,31,"The military is to protect us against foreign threats. It's not their task to keep anybody safe from lowlife criminals.

Maybe the fact that many other nations are tyrannical compared to us? Less human rights to get in the way, allowing the government far broader discretion in carrying out movements to target ""crime"". Japan for instance tends to use torture to get a suspect to confess to a crime, whether they committed one or not.",351440,1,7992,1,"You don't love your country? Doesn't the military defend you and your loved ones from harm by extension?

Criminals outnumber law-enforcement in every nation. How is it other nations have much lower levels of violence than we? Successful government? I'm afraid not.","http://www.4forums.com/political/gun-control-debates/11411-challenge.html",318040,42
"1-7992_23_22_2",7992,1,"2008-07-28 13:22:00",1063,44,318027,"2008-07-28 13:02:00",351432,14,22,"Once again, I said ""anti-gun"", not ""anti-war"".",351431,2,7992,1,"""The guns and bombs, the rockets and the warships, all are symbols of human failure."" - 
-- Lyndon B. Johnson","http://www.4forums.com/political/gun-control-debates/11411-challenge.html",318022,23
"1-7992_25_23_2",7992,1,"2008-07-28 13:28:00",44,1063,318029,"2008-07-28 13:22:00",351434,15,23,"Don't we have a military for the same reason as you have a gun?",351432,2,7992,1,"Once again, I said ""anti-gun"", not ""anti-war"".","http://www.4forums.com/political/gun-control-debates/11411-challenge.html",318027,25
"1-7992_28_25_2",7992,1,"2008-07-28 14:18:00",1063,44,318036,"2008-07-28 13:28:00",351437,28,25,"This is irrelevant. By implying this, you might as well set up a ""Should the military be able to use guns?"" forum.",351434,2,7992,1,"Don't we have a military for the same reason as you have a gun?","http://www.4forums.com/political/gun-control-debates/11411-challenge.html",318029,28
"1-7992_29_28_2",7992,1,"2008-07-28 14:32:00",44,1063,318037,"2008-07-28 14:18:00",351438,47,28,"Weren't you just chastizing someone for suggesting what you were ""implying""? 
The military is ""armed to the teeth"" just in case. Aren't you likewise? 
Seems relevant to me. We don't need a buckaroo in war or at home.",351437,2,7992,1,"This is irrelevant. By implying this, you might as well set up a ""Should the military be able to use guns?"" forum.","http://www.4forums.com/political/gun-control-debates/11411-challenge.html",318036,29
"1-7992_33_29_2",7992,1,"2008-07-28 15:29:00",1063,44,318043,"2008-07-28 14:32:00",351442,25,29,"I own a (singular, not ""some"", just ""a"") gun. Could I act as a military?",351438,2,7992,1,"Weren't you just chastizing someone for suggesting what you were ""implying""?
The military is ""armed to the teeth"" just in case. Aren't you likewise? 
Seems relevant to me. We don't need buckaroo in war or at home.","http://www.4forums.com/political/gun-control-debates/11411-challenge.html",318037,33
"1-7992_34_33_2",7992,1,"2008-07-28 15:33:00",44,1063,318046,"2008-07-28 15:29:00",351443,12,33,"The military presumes the enemy isn't singular. Now you're irrelevant.",351442,2,7992,1,"I own a (singular, not ""some"", just ""a"") gun. Could I act as a military?","http://www.4forums.com/political/gun-control-debates/11411-challenge.html",318043,34
"1-7992_36_34_2",7992,1,"2008-07-28 15:37:00",1063,44,318048,"2008-07-28 15:33:00",351445,41,34,"Actually, your argument is irrelevant unless you can prove to me that civilians can act as an organized military. And none of your arguments ever provide a quote, and we have a name for that: evasion.",351443,2,7992,1,"The military presumes the enemy isn't singular. Now you're irrelevant.","http://www.4forums.com/political/gun-control-debates/11411-challenge.html",318046,36
"1-7992_37_36_2",7992,1,"2008-07-28 15:40:00",44,1063,318049,"2008-07-28 15:37:00",351446,17,36,"You mean like a ""well regulated militia""? You better quit while you're behind.",351445,2,7992,1,"Actually, your argument is irrelevant unless you can prove to me that civilians can act as an organized military. And none of your arguments ever provide a quote, and we have a name for that: evasion.","http://www.4forums.com/political/gun-control-debates/11411-challenge.html",318048,37
"1-7992_39_37_2",7992,1,"2008-07-28 15:59:00",1063,44,318053,"2008-07-28 15:40:00",351448,18,37,"What? Do you think there's supposed to be some kind of official militia group or something?",351446,2,7992,1,"You mean like a ""well regulated militia""? You better quit while you're behind.","http://www.4forums.com/political/gun-control-debates/11411-challenge.html",318049,39
