"key","quote_source_post_discussion_id","posts_dataset_id","posts_timestamp","posts_author_id","quote_source_author_id","posts_native_post_id","quote_source_timestamp","post_text_id","Word_Count","quote_source_post_id","post_text","quote_source_text_id","Dialog_Turn","posts_discussion_id","quote_source_post_dataset_id","Fullquote_text","discussion_url","quote_source_native_post_id","posts_post_id"
"1-8004_3_2_1",8004,1,"2008-07-31 16:50:00",1063,1069,318444,"2008-07-31 16:37:00",353501,128,2,"If the 2nd is out of date, then lets do away with free speech, fair trials, and rights against cruel and unusual punishment. After all, these are all out of date after over 230 years. Or are you saying ""I only want to ban the amendments that I don't like""? Your argument lacks some logic.



1. I wouln't call it ""self defence"" so much as I would call it ""hiding and letting crooks trample all over you.""

What kind of ""gun crime"" are you refering to?

Correction: they need not fear a citizens militia as long as they don't pass unjust laws.

Better safe than sorry.",353500,1,8004,1,"Largely, out of date. To paraphrase myself from earlier, the differences between 'then' and 'now' are as follows:


1. Increased availability and proficiency of viable alternatives for self-defence.
2. Increased availability and improved variety/design of handguns.
3. Different type of 'gun crime' - it is now largely opportunistic.
4. Today's government need not fear almost any citizens militia, unless absolutely overwhelming.
5. Today's government is less in need of a (potential) extra army to defend against foreign assault.
I may have missed some...","http://www.4forums.com/political/gun-control-debates/11430-why-doesnt-2nd-apply.html",318443,3
"1-8004_4_3_1",8004,1,"2008-07-31 17:04:00",1069,1063,318446,"2008-07-31 16:50:00",353502,189,3,"No, hiding as an option has not changed since the days of old, with the slight difference that it used to be easier to get out of range. I'm talking about mace, stun guns, tazers, home security (double glazed windows, rhino locks, burglar alarms, CCTV/fake CCTV, panic rooms) and so on.
Although you are quite right to point out that hiding is an option. Non-confrontation for the win.

Highwaymen? At the time of the Constitution there weren't exactly vast suburbs that could be prowled by thieves looking for an open window. Burglary today is more... casual than it used to be, largely thanks to the wonders of home insurance.

No, unjust laws are still passed. If a group of people decide otherwise they become 'terrorists' and are treated as such. Might may not make right, but it does make legal, and the US government has a lot of might.

If only widespread gun ownership was 'safe'...",353501,1,8004,1,"If the 2nd is out of date, then lets do away with free speech, fair trials, and rights against cruel and unusual punishment. After all, these are all out of date after over 230 years. Or are you saying ""I only want to ban the amendments that I don't like""? Your argument lacks some logic.



1. I wouln't call it ""self defence"" so much as I would call it ""hiding and letting crooks trample all over you.""

What kind of ""gun crime"" are you refering to?

Correction: they need not fear a citizens militia as long as they don't pass unjust laws.

Better safe than sorry.","http://www.4forums.com/political/gun-control-debates/11430-why-doesnt-2nd-apply.html",318444,4
"1-8004_5_4_1",8004,1,"2008-07-31 17:18:00",1063,1069,318451,"2008-07-31 17:04:00",353503,198,4,"First of all, mace, stun guns, tazers, and the like are all painful, but will they stop a criminal at thirty feet? And burglar alarms... heh... they don't help at all. By the time the police get off their asses and lift a finger to help, the criminal will have taken what they wanted and be long gone.

And in the meantime they steal all your items. What if you have an item that is no longer made? Good luck replacing it! emoticonXGood 

This argument might have some validity if you can give me a percentage of burglaries where a firearm is involved, and a source... since we're talking about the US, your source has to be for the US.

Are you saying we should tolerate tyranny? We should let ourselves become subject to the rape of a corrupt government? I knew you anti-gun people would say anything to get your way.

And I see you refuse to address my point. This argument might have some relevance and validity if you would back it up.",353502,1,8004,1,"No, hiding as an option has not changed since the days of old, with the slight difference that it used to be easier to get out of range. I'm talking about mace, stun guns, tazers, home security (double glazed windows, rhino locks, burglar alarms, CCTV/fake CCTV, panic rooms) and so on.
Although you are quite right to point out that hiding is an option. Non-confrontation for the win.

Highwaymen? At the time of the Constitution there weren't exactly vast suburbs that could be prowled by thieves looking for an open window. Burglary today is more... casual than it used to be, largely thanks to the wonders of home insurance.

No, unjust laws are still passed. If a group of people decide otherwise they become 'terrorists' and are treated as such. Might may not make right, but it does make legal, and the US government has a lot of might.

If only widespread gun ownership was 'safe'...","http://www.4forums.com/political/gun-control-debates/11430-why-doesnt-2nd-apply.html",318446,5
"1-8004_6_5_1",8004,1,"2008-07-31 17:36:00",1069,1063,318455,"2008-07-31 17:18:00",353504,191,5,"From 15 feet, if you want more then I suggest that your house is enormous.
As for burglar alarms and the like, the purpose is intimidation - just as you've previously argued that guns are intimidating.
And home security - keeping your home secure in the first place - is still much improved.

What if you confront a burglar and die? Good luck coming back to life!

This table shows that firearms are used in under half of all robberies, although I think you've missed my point a little...

I'm saying, to a certain extent, you already have.
Mainly however, I'm saying that if the US government passed a 'tyrannical' law, it would take something more than the local militia to get them to change their minds.

The effects of widespread gun ownership.
How is it ignoring your point? I say that a militia is no longer needed for defence, you say it's still a benefit, I say that it's not a 'benefit' unless it is safe.",353503,1,8004,1,"First of all, mace, stun guns, tazers, and the like are all painful, but will they stop a criminal at thirty feet? And burglar alarms... heh... they don't help at all. By the time the police get off their asses and lift a finger to help, the criminal will have taken what they wanted and be long gone.

And in the meantime they steal all your items. What if you have an item that is no longer made? Good luck replacing it! emoticonXGood 

This argument might have some validity if you can give me a percentage of burglaries where a firearm is involved, and a source... since we're talking about the US, your source has to be for the US.

Are you saying we should tolerate tyranny? We should let ourselves become subject to the rape of a corrupt government? I knew you anti-gun people would say anything to get your way.

And I see you refuse to address my point. This argument might have some relevance and validity if you would back it up.","http://www.4forums.com/political/gun-control-debates/11430-why-doesnt-2nd-apply.html",318451,6
"1-8004_7_6_1",8004,1,"2008-07-31 18:09:00",1063,1069,318464,"2008-07-31 17:36:00",353505,214,6,"A healthy criminal could close in on you from fifteen feet in less than a second. You'd have to raise the taser pretty quick, and if you miss, you have no second chance.

They're meant for intimidation. But this is not relevant to my point, which is the fact that it could be an hour or more before the cops bother to show up.

Yeah. Too bad a system that actually works is not affordable.

What if you kill them before they kill you? Good luck arguing to that one! emoticonXGood

And most other robberies are commited with the ""strong arm"". Should we cut everyones arms off and give them prosthetics?

To what extent?

And all the world leaders would be staring at the president like ""What kind of jackass is this guy?"" when they realized he's a dictator. Would you like this publicity?

And how many people per capita own guns in each of the areas in your table?

The original comment didn't help you, and your source won't help you unless you can show me a correlation between percentage of people who own guns in these four areas.",353504,1,8004,1,"From 15 feet, if you want more then I suggest that your house is enormous.
As for burglar alarms and the like, the purpose is intimidation - just as you've previously argued that guns are intimidating.
And home security - keeping your home secure in the first place - is still much improved.

What if you confront a burglar and die? Good luck coming back to life!

This table shows that firearms are used in under half of all robberies, although I think you've missed my point a little...

I'm saying, to a certain extent, you already have.
Mainly however, I'm saying that if the US government passed a 'tyrannical' law, it would take something more than the local militia to get them to change their minds.

The effects of widespread gun ownership.
How is it ignoring your point? I say that a militia is no longer needed for defence, you say it's still a benefit, I say that it's not a 'benefit' unless it is safe.","http://www.4forums.com/political/gun-control-debates/11430-why-doesnt-2nd-apply.html",318455,7
