"key","quote_source_post_discussion_id","posts_dataset_id","posts_timestamp","posts_author_id","quote_source_author_id","posts_native_post_id","quote_source_timestamp","post_text_id","Word_Count","quote_source_post_id","post_text","quote_source_text_id","Dialog_Turn","posts_discussion_id","quote_source_post_dataset_id","Fullquote_text","discussion_url","quote_source_native_post_id","posts_post_id"
"1-8143_42_37_1",8143,1,"2008-10-02 08:58:00",502,435,325999,"2008-10-01 18:35:00",360600,82,37,"Its far better to judge all based on the same standards than to have two sets. 
It stands to reason that gun-owners will not be huge advocates for gun control. My experience supports this conclusion. Therefore I can choose between my life experience telling me one thing, or an online poll stating the opposite. 
While the poll may actually be honest, it also may not. Therefore I shall not derive any conclusions from it.",360595,1,8143,1,"Logic dictates nothing of the kind, but it suggests that you are judging others by your own standards. That answers do not fit your preconceptions, indicates not that the answers are lies, but that your preconceptions are sub-optimal.","http://www.4forums.com/political/gun-control-debates/11645-how-many-anti-gun-people-have-ever-touched-gun.html",325950,42
"1-8143_45_42_1",8143,1,"2008-10-02 14:36:00",435,502,326051,"2008-10-02 08:58:00",360603,57,42,"Then your standard needs to match that of the rest of us. To imply that those who responded to your biased poll are lying, based on the fact that their responses do not coincide with your life experience, suggests that it is your life experience that is lacking, and not their veracity.",360600,1,8143,1,"Its far better to judge all based on the same standards than to have two sets. 
It stands to reason that gun-owners will not be huge advocates for gun control. My experience supports this conclusion. Therefore I can choose between my life experience telling me one thing, or an online poll stating the opposite. 
While the poll may actually be honest, it also may not. Therefore I shall not derive any conclusions from it.","http://www.4forums.com/political/gun-control-debates/11645-how-many-anti-gun-people-have-ever-touched-gun.html",325999,45
"1-8143_50_45_1",8143,1,"2008-10-03 08:03:00",502,435,326164,"2008-10-02 14:36:00",360608,48,45,"How is my poll biased? I have a wide range of options. 
When logic tells me something different from a poll, it means the accuracy of the poll may be questionable. That's all I'm saying. I apologize if you are somehow offended.",360603,1,8143,1,"Then your standard needs to match that of the rest of us. To imply that those who responded to your biased poll are lying, based on the fact that their responses do not coincide with your life experience, suggests that it is your life experience that is lacking, and not their veracity.","http://www.4forums.com/political/gun-control-debates/11645-how-many-anti-gun-people-have-ever-touched-gun.html",326051,50
"1-8143_55_50_1",8143,1,"2008-10-03 11:32:00",435,502,326214,"2008-10-03 08:03:00",360613,32,50,"No bias to be seen here, obviously.....emoticonXRolleyes

The fact that your poll produced a result 100% opposite to your hypothesis is evidence that your hypothesis is flat wrong.",360608,1,8143,1,"How is my poll biased? I have a wide range of options. 
When logic tells me something different from a poll, it means the accuracy of the poll may be questionable. That's all I'm saying. I apologize if you are somehow offended.","http://www.4forums.com/political/gun-control-debates/11645-how-many-anti-gun-people-have-ever-touched-gun.html",326164,55
"1-8143_56_55_1",8143,1,"2008-10-03 11:37:00",502,435,326216,"2008-10-03 11:32:00",360614,27,55,"This is the realm of theory. An online poll cannot be definitive. Go ahead and be a smartass, you mean nothing to me.",360613,1,8143,1,"No bias to be seen here, obviously.....emoticonXRolleyes

The fact that your poll produced a result 100% opposite to your hypothesis is evidence that your hypothesis is flat wrong.","http://www.4forums.com/political/gun-control-debates/11645-how-many-anti-gun-people-have-ever-touched-gun.html",326214,56
