"key","quote_source_post_discussion_id","posts_dataset_id","posts_timestamp","posts_author_id","quote_source_author_id","posts_native_post_id","quote_source_timestamp","post_text_id","Word_Count","quote_source_post_id","post_text","quote_source_text_id","Dialog_Turn","posts_discussion_id","quote_source_post_dataset_id","Fullquote_text","discussion_url","quote_source_native_post_id","posts_post_id"
"1-8391_7_6_1",8391,1,"2008-11-20 12:27:00",153,435,333590,"2008-11-20 12:16:00",370471,42,6,"Spoken like one of Kellerman's loyal lackeys.
How about offering up something with more substance and not just misguided opinion? Especially when the opinion is attached to the name of someone known for being so vehemently anti-gun in nature.",370470,1,8391,1,"..Two thirds of all US homicides are gun related.
""...... Analyses that controlled for several measures of resource deprivation, urbanization, aggravated assault, robbery, unemployment, and alcohol consumption found that states with higher rates of household firearm ownership had significantly higher homicide victimization rates for children, and for women and men. In these analyses, states within the highest quartile of firearm prevalence had firearm homicide rates 114% higher than states within the lowest quartile of firearm prevalence. Overall homicide rates were 60% higher. The association between firearm prevalence and homicide was driven by gun-related homicide rates; non-gun-related homicide rates were not significantly associated with rates of firearm ownership. 
These results suggest that it is easier for potential homicide perpetrators to obtain a gun in states where guns are more prevalent. “Our findings suggest that in the United States, household firearms may be an important source of guns used to kill children, women and men, both on the street and in their homes,” said Miller. .... "" 
States With Higher Levels of Gun Ownership Have Higher Homicide Rates - January 11, 2007 -2007 Releases - Press Releases - Harvard School of Public Health
Keep a gun in your house, kill your wife or child...or your neighbours'!","http://www.4forums.com/political/gun-control-debates/11999-how-would-gun-make-user-less-safe.html",333588,7
"1-8391_11_7_1",8391,1,"2008-11-20 13:06:00",435,153,333599,"2008-11-20 12:27:00",370475,12,7,"Typical patellar response. Read the link, and learn something.",370471,1,8391,1,"Spoken like one of Kellerman's loyal lackeys.
How about offering up something with more substance and not just misguided opinion? Especially when the opinion is attached to the name of someone known for being so vehemently anti-gun in nature.","http://www.4forums.com/political/gun-control-debates/11999-how-would-gun-make-user-less-safe.html",333590,11
"1-8391_16_11_1",8391,1,"2008-11-20 14:41:00",153,435,333617,"2008-11-20 13:06:00",370480,71,11,"Patellar? That's the front of the knee, what's that got to do with this argument.
I've read the link, and just because it came out of Harvard doesn't mean that it's official or that it's of any measure of validity. It looks fancy but that doesn't mean it's truthful. So maybe you'd like to try again; with something not so biased next time.",370475,1,8391,1,"Typical patellar response. Read the link, and learn something.","http://www.4forums.com/political/gun-control-debates/11999-how-would-gun-make-user-less-safe.html",333599,16
"1-8391_19_16_1",8391,1,"2008-11-20 15:33:00",435,153,333631,"2008-11-20 14:41:00",370483,26,16,"You can take a horse to water. I provided evidence to support my assertion. You provided ............ ""Oh no it isn't!""",370480,1,8391,1,"Patellar? That's the front of the knee, what's that got to do with this argument.
I've read the link, and just because it came out of Harvard doesn't mean that it's official or that it's of any measure of validity. It looks fancy but that doesn't mean it's truthful. So maybe you'd like to try again; with something not so biased next time.","http://www.4forums.com/political/gun-control-debates/11999-how-would-gun-make-user-less-safe.html",333617,19
"1-8391_21_19_1",8391,1,"2008-11-20 16:07:00",153,435,333636,"2008-11-20 15:33:00",370485,86,19,"How do you expect me to respond? You provide nothing more than one man's theory, a man who has a record of being notorious in his anti-gun stance, and expect me to take it seriously and treat it as factual and in depth?
Where's the study? Where's the data? I see nothing on the page that would support what he's saying. If you're going to pick a fight with me then you could at least come better armed.",370483,1,8391,1,"You can take a horse to water. I provided evidence to support my assertion. You provided ............ ""Oh no it isn't!""","http://www.4forums.com/political/gun-control-debates/11999-how-would-gun-make-user-less-safe.html",333631,21
"1-8391_22_21_1",8391,1,"2008-11-20 16:17:00",435,153,333637,"2008-11-20 16:07:00",370486,39,21,"Who are you talking about? The study in the link was conducted by three people. The biggest ever telephone survey by the CDC is not sufficient for you. Fine.
There are none so blind...............",370485,1,8391,1,"How do you expect me to respond? You provide nothing more than one man's theory, a man who has a record of being notorious in his anti-gun stance, and expect me to take it seriously and treat it as factual and in depth?
Where's the study? Where's the data? I see nothing on the page that would support what he's saying. If you're going to pick a fight with me then you could at least come better armed.","http://www.4forums.com/political/gun-control-debates/11999-how-would-gun-make-user-less-safe.html",333636,22
