"key","quote_source_post_discussion_id","posts_dataset_id","posts_timestamp","posts_author_id","quote_source_author_id","posts_native_post_id","quote_source_timestamp","post_text_id","Word_Count","quote_source_post_id","post_text","quote_source_text_id","Dialog_Turn","posts_discussion_id","quote_source_post_dataset_id","Fullquote_text","discussion_url","quote_source_native_post_id","posts_post_id"
"1-8490_55_54_1",8490,1,"2009-01-03 16:41:00",153,236,338829,"2009-01-03 16:06:00",376843,13,54,"Woman in critical condition after 'random' supermarket stabbing - Times Online",376842,1,8490,1,"""Hey there, you left your knife on the countahhhhgggg!""
It's not so easy to apologise for mistaking someone's intent when thy're dead.","http://www.4forums.com/political/gun-control-debates/12154-never-push-gun-nuts-button.html",338822,55
"1-8490_56_55_1",8490,1,"2009-01-03 16:45:00",236,153,338831,"2009-01-03 16:41:00",376844,22,55,"And if the attacker had had a gun, it would have been ""7 dead in supermarket shooting spree"".",376843,1,8490,1,"Woman in critical condition after 'random' supermarket stabbing - Times Online","http://www.4forums.com/political/gun-control-debates/12154-never-push-gun-nuts-button.html",338829,56
"1-8490_57_56_1",8490,1,"2009-01-03 16:48:00",153,236,338832,"2009-01-03 16:45:00",376845,16,56,"I can top that. 7 Killed in Tokyo Stabbing Spree - World news | Newser",376844,1,8490,1,"And if the attacker had had a gun, it would have been ""7 dead in supermarket shooting spree"".","http://www.4forums.com/political/gun-control-debates/12154-never-push-gun-nuts-button.html",338831,57
"1-8490_58_57_1",8490,1,"2009-01-03 16:51:00",236,153,338833,"2009-01-03 16:48:00",376846,12,57,"Seeing it's just anecdote city, does Columbine ring a bell.",376845,1,8490,1,"I can top that. 7 Killed in Tokyo Stabbing Spree - World news | Newser","http://www.4forums.com/political/gun-control-debates/12154-never-push-gun-nuts-button.html",338832,58
"1-8490_63_58_1",8490,1,"2009-01-03 17:02:00",153,236,338839,"2009-01-03 16:51:00",376851,62,58,"How is that even relevant? It was a massacre carried out by two crazed individuals who got their guns through illegal channels, took them to an area specifically labeled as being off limit to guns, and killed people with no regard.
Columbine is a HUGE difference from somebody wishing to carry a gun for their personal defense.",376846,1,8490,1,"Seeing it's just anecdote city, does Columbine ring a bell.","http://www.4forums.com/political/gun-control-debates/12154-never-push-gun-nuts-button.html",338833,63
