"key","quote_source_post_discussion_id","posts_dataset_id","posts_timestamp","posts_author_id","quote_source_author_id","posts_native_post_id","quote_source_timestamp","post_text_id","Word_Count","quote_source_post_id","post_text","quote_source_text_id","Dialog_Turn","posts_discussion_id","quote_source_post_dataset_id","Fullquote_text","discussion_url","quote_source_native_post_id","posts_post_id"
"1-8557_11_4_1",8557,1,"2009-01-22 18:29:00",1063,44,341358,"2009-01-22 13:18:00",381940,5,4,"How is this relevant?",381933,1,8557,1,"I don't know. Got a transcript or link? I don't see him saying he will now. Do you?
And how about you. Live in a city or in the country?","http://www.4forums.com/political/gun-control-debates/12254-obama-almost-silent-so-far-protecting-gun-rights.html",341311,11
"1-8557_16_11_1",8557,1,"2009-01-23 07:54:00",44,1063,341411,"2009-01-22 18:29:00",381945,25,11,"I think the problem of gun violence is viewed differently depending on one's proximity to the centers of gun violence. 
Care to disclose?",381940,1,8557,1,"How is this relevant?","http://www.4forums.com/political/gun-control-debates/12254-obama-almost-silent-so-far-protecting-gun-rights.html",341358,16
"1-8557_17_16_1",8557,1,"2009-01-23 08:23:00",1063,44,341421,"2009-01-23 07:54:00",381946,32,16,"Well why don't you try to find how many anti-gun people live in centers of gun violence, such as DC or Hollywood? My guess is: quite a few.",381945,1,8557,1,"I think the problem of gun violence is viewed differently depending on one's proximity to the centers of gun violence. 
Care to disclose?","http://www.4forums.com/political/gun-control-debates/12254-obama-almost-silent-so-far-protecting-gun-rights.html",341411,17
"1-8557_18_17_1",8557,1,"2009-01-23 08:43:00",44,1063,341425,"2009-01-23 08:23:00",381947,47,17,"Thank you for making my point. Maybe you'd be open to gun control if you routinely heard gunfire outside your children's bedroom window.
So you yourself come from a place with less than 100,000 people. 
Do you live in a rural setting today?",381946,1,8557,1,"Well why don't you try to find how many anti-gun people live in centers of gun violence, such as DC or Hollywood? My guess is: quite a few.","http://www.4forums.com/political/gun-control-debates/12254-obama-almost-silent-so-far-protecting-gun-rights.html",341421,18
"1-8557_19_18_1",8557,1,"2009-01-23 08:47:00",1063,44,341426,"2009-01-23 08:43:00",381948,27,18,"Yeah, in a place like DC, Hollywood, or New York City where gun laws are tight. Thank you for making my point.",381947,1,8557,1,"Thank you for making my point. Maybe you'd be open to gun control if you routinely heard gunfire outside your children's bedroom window.
So you yourself come from a place with less than 100,000 people. 
Do you live in a rural setting today?","http://www.4forums.com/political/gun-control-debates/12254-obama-almost-silent-so-far-protecting-gun-rights.html",341425,19
"1-8557_20_19_1",8557,1,"2009-01-23 08:51:00",44,1063,341428,"2009-01-23 08:47:00",381949,20,19,"Yes, I'm familiar with the, ""people still speed so speed limits are pointless"", argument.",381948,1,8557,1,"Yeah, in a place like DC, Hollywood, or New York City where gun laws are tight. Thank you for making my point.","http://www.4forums.com/political/gun-control-debates/12254-obama-almost-silent-so-far-protecting-gun-rights.html",341426,20
"1-8557_28_20_1",8557,1,"2009-01-25 00:07:00",1063,44,341627,"2009-01-23 08:51:00",381957,22,20,"And I'm familiar with this strawman. It's not that laws don't work, it's that some people don't follow them.",381949,1,8557,1,"Yes, I'm familiar with the, ""people still speed so speed limits are pointless"", argument.","http://www.4forums.com/political/gun-control-debates/12254-obama-almost-silent-so-far-protecting-gun-rights.html",341428,28
"1-8557_37_36_2",8557,1,"2009-01-27 08:06:00",153,164,342009,"2009-01-27 06:41:00",381966,84,36,"If our access is unlimited, how come this country can't import anything that the ATF declares to be ""non-sporting"" in nature? Anything that isn't large enough, or has certain cosmetic features that play no part in its overall functionality, have been banned from coming into this country.
If our access is unlimited, why do we have a list of people who're prohibited from purchasing, ownership and general position?
So how's that unlimited access?",381965,2,8557,1,"Let's see the illogic here.
First you say that the Wild West is a myth.
Then you say that ""Those that usually shoot others are for the most part gang related.""
Sure sounds like the Wild West to me.
Perhaps you would care to clean up the contradiction.
Hint: You don't have to be in Cheyenne for it to be the Wild West. All it takes is unlimited access to firearms.","http://www.4forums.com/political/gun-control-debates/12254-obama-almost-silent-so-far-protecting-gun-rights.html",342003,37
"1-8557_38_37_2",8557,1,"2009-01-27 08:22:00",164,153,342012,"2009-01-27 08:06:00",381967,43,37,"Nice try at sidestepping the issue of the original post.
Sorry, but trying to switch the terms of the debate doesn't make it with me.
Due to the ready availability of firearms, our cities resemble the Wild West.",381966,2,8557,1,"If our access is unlimited, how come this country can't import anything that the ATF declares to be ""non-sporting"" in nature? Anything that isn't large enough, or has certain cosmetic features that play no part in its overall functionality, have been banned from coming into this country.
If our access is unlimited, why do we have a list of people who're prohibited from purchasing, ownership and general position?
So how's that unlimited access?","http://www.4forums.com/political/gun-control-debates/12254-obama-almost-silent-so-far-protecting-gun-rights.html",342009,38
"1-8557_40_38_2",8557,1,"2009-01-27 08:46:00",153,164,342015,"2009-01-27 08:22:00",381969,91,38,"Oh? We've got people running around with Colt Single Action Army revolvers and Winchester 1873 rifles just like it's portrayed in the movies?
We have case after case of somebody walking into a bar, shooting someone in cold blood, and then going up and order a drink while everybody else doesn't react to what just happened?
There's no such thing as the ""wild west"" as portrayed in movies. It simply doesn't happen the way you want everything to think that it does.",381967,2,8557,1,"Nice try at sidestepping the issue of the original post.
Sorry, but trying to switch the terms of the debate doesn't make it with me.
Due to the ready availability of firearms, our cities resemble the Wild West.","http://www.4forums.com/political/gun-control-debates/12254-obama-almost-silent-so-far-protecting-gun-rights.html",342012,40
"1-8557_43_40_2",8557,1,"2009-01-27 18:50:00",164,153,342113,"2009-01-27 08:46:00",381972,67,40,"Still trying to shift the goalposts, aren't you?
The fact is that there are parts of many US cities that are free fire zones - just as in the Wild West.
Changing the type of guns doesn't change the mentality, or the results, silly.emoticonXBanghead
The fact that you raise these inane points simply indicates the bankruptcy of your POV.",381969,2,8557,1,"Oh? We've got people running around with Colt Single Action Army revolvers and Winchester 1873 rifles just like it's portrayed in the movies?
We have case after case of somebody walking into a bar, shooting someone in cold blood, and then going up and order a drink while everybody else doesn't react to what just happened?
There's no such thing as the ""wild west"" as portrayed in movies. It simply doesn't happen the way you want everything to think that it does.","http://www.4forums.com/political/gun-control-debates/12254-obama-almost-silent-so-far-protecting-gun-rights.html",342015,43
"1-8557_45_43_2",8557,1,"2009-01-27 19:31:00",153,164,342117,"2009-01-27 18:50:00",381974,206,43,"I don't see how. You made the ""wild west"" claim, so I started pointing out facts that're usually associated with western cowboy movies and dime novels to prove you wrong.
No matter how you try and say that I'm wrong, you're the one who's wrong with your ""wild west"" position. We're not forming lynch mobs and hauling prisoners out of the local jail and hanging them from trees. We're not engaging in main street duels at high noon from opposite ends of the block after a long and slow walk up the ends of the street. We're not seeing who can draw quickest and shoot first. We're not shooting people over drinks in saloons while everyone just looks on and not afraid of getting hit by a flying bullet, etc.
If you like I can go on with this, shooting down one cowboy western stereotype after another to prove how America isn't the ""wild west"".

Free fire zones, what's that?

Claiming that we're like old B movies doesn't prove your point either.

So pointing out the fallacies of your argument is bankruptcy on my point?",381972,2,8557,1,"Still trying to shift the goalposts, aren't you?
The fact is that there are parts of many US cities that are free fire zones - just as in the Wild West.
Changing the type of guns doesn't change the mentality, or the results, silly.emoticonXBanghead
The fact that you raise these inane points simply indicates the bankruptcy of your POV.","http://www.4forums.com/political/gun-control-debates/12254-obama-almost-silent-so-far-protecting-gun-rights.html",342113,45
