"key","quote_source_post_discussion_id","posts_dataset_id","posts_timestamp","posts_author_id","quote_source_author_id","posts_native_post_id","quote_source_timestamp","post_text_id","Word_Count","quote_source_post_id","post_text","quote_source_text_id","Dialog_Turn","posts_discussion_id","quote_source_post_dataset_id","Fullquote_text","discussion_url","quote_source_native_post_id","posts_post_id"
"1-8711_57_55_1",8711,1,"2009-03-19 11:05:00",153,44,347505,"2009-03-19 10:47:00",388172,213,55,"It's a little hard to stop when you continue to support ideas that don't work, and have proven unconstitutional and thus illegal.
Who exactly are the people responsible for most of the shootings that take place in America? I would suggest trying to find out anything about their backgrounds, see what records they have with the police. Are these shooters individuals with records of criminal actions, felony arrests, parole violations, drug dependency, etc? Or are the people responsible for the shootings everyday individuals who have clean records and absolutely no indication that something might be wrong.
We already have the link showing that 80% of America's crimes are directly connected to gang members with criminal records. To me that suggests something, it suggests that the ones who're doing the most killing are the ones who are breaking the laws and paying no heed to the various rules and regulations that you demand we follow.
So unless you have conclusive evidence that the vast majority of shootings in the USA are directly the fault of the law-abiding gun owners, all your suggestions amount to saying that you need more laws to deal with those who break the laws.",388170,1,8711,1,"To reduce the numer of shootings associated with crime of course. Your strident claim that ""Gun Control is Not Crime Control!"" is specious. Countries with few guns still have crime. Whoever argued differently? My argument is more like ""gun control is shooting control"". Guess what? Countries with fewer guns, especially handguns, have fewer people shot. Short of banning, how can we reduce the number of shootings we have every year? That's my interest. I'm not looking to rewrite the Constitution or disarm law-abiding citizens. Stop mischaracterizing my motives.","http://www.4forums.com/political/gun-control-debates/12459-drug-cartels-new-weaponry-means-war.html",347500,57
"1-8711_59_57_1",8711,1,"2009-03-19 11:24:00",44,153,347509,"2009-03-19 11:05:00",388174,106,57,"Your high school diploma doesn't qualify you as a legal scholar. Assuming you completed high school. 

I'm in no position to make demands. And yes, laws only affect those that abide by them. Gun laws, traffic laws, theft laws. Laws do give society a way to punish the transgressors if they can be identified and apprehended. This whole argument that gun laws only affect the law-abiding is stupidity itself IMO. 

Maybe just better laws, but the idea of more laws seems to work with lots of other societal problems. Ask a deadbeat dad.",388172,1,8711,1,"It's a little hard to stop when you continue to support ideas that don't work, and have proven unconstitutional and thus illegal.
Who exactly are the people responsible for most of the shootings that take place in America? I would suggest trying to find out anything about their backgrounds, see what records they have with the police. Are these shooters individuals with records of criminal actions, felony arrests, parole violations, drug dependency, etc? Or are the people responsible for the shootings everyday individuals who have clean records and absolutely no indication that something might be wrong.
We already have the link showing that 80% of America's crimes are directly connected to gang members with criminal records. To me that suggests something, it suggests that the ones who're doing the most killing are the ones who are breaking the laws and paying no heed to the various rules and regulations that you demand we follow.
So unless you have conclusive evidence that the vast majority of shootings in the USA are directly the fault of the law-abiding gun owners, all your suggestions amount to saying that you need more laws to deal with those who break the laws.","http://www.4forums.com/political/gun-control-debates/12459-drug-cartels-new-weaponry-means-war.html",347505,59
"1-8711_64_59_1",8711,1,"2009-03-19 12:52:00",153,44,347529,"2009-03-19 11:24:00",388179,202,59,"The only time I've ever heard of firearms charges actually sticking and being used at a trial is when the ATF is charging someone with an offense, and only when it's something major, like possession of an unregistered short barreled shotgun, or illegal transfer of a ""machine gun"". Not once have I seen or heard of a trial taking place, where firearms charges remained in place against the defendant when the crime was robbery or rape or murder.
Since the laws we have already aren't being enforced, I refuse to believe new ones will be enforced.

And Obama said that what works for Illinois won't necessarily work for the rest of America. This is beyond the point though. The very notion that more gun control is needed, is to say that all 30,000 of the laws we currently have, just aren't enough. It's suggestive of the idea that hundreds of thousands of laws are needed to even approach an issue.
A practical application question: what's the point of passing a law that requires the passage of ten other laws for it to actually work?",388174,1,8711,1,"Your high school diploma doesn't qualify you as a legal scholar. Assuming you completed high school. 

I'm in no position to make demands. And yes, laws only affect those that abide by them. Gun laws, traffic laws, theft laws. Laws do give society a way to punish the transgressors if they can be identified and apprehended. This whole argument that gun laws only affect the law-abiding is stupidity itself IMO. 

Maybe just better laws, but the idea of more laws seems to work with lots of other societal problems. Ask a deadbeat dad.","http://www.4forums.com/political/gun-control-debates/12459-drug-cartels-new-weaponry-means-war.html",347509,64
"1-8711_66_64_1",8711,1,"2009-03-19 13:27:00",44,153,347533,"2009-03-19 12:52:00",388181,22,64,"So will you be providing backup for your claims about plea bargains being common in weapons cases? I haven't forgotten.",388179,1,8711,1,"The only time I've ever heard of firearms charges actually sticking and being used at a trial is when the ATF is charging someone with an offense, and only when it's something major, like possession of an unregistered short barreled shotgun, or illegal transfer of a ""machine gun"". Not once have I seen or heard of a trial taking place, where firearms charges remained in place against the defendant when the crime was robbery or rape or murder.
Since the laws we have already aren't being enforced, I refuse to believe new ones will be enforced.

And Obama said that what works for Illinois won't necessarily work for the rest of America. This is beyond the point though. The very notion that more gun control is needed, is to say that all 30,000 of the laws we currently have, just aren't enough. It's suggestive of the idea that hundreds of thousands of laws are needed to even approach an issue.
A practical application question: what's the point of passing a law that requires the passage of ten other laws for it to actually work?","http://www.4forums.com/political/gun-control-debates/12459-drug-cartels-new-weaponry-means-war.html",347529,66
"1-8711_69_66_1",8711,1,"2009-03-19 15:06:00",153,44,347553,"2009-03-19 13:27:00",388184,13,66,"Not about weapons cases, plea bargains are common with ALL cases.",388181,1,8711,1,"So will you be providing backup for your claims about plea bargains being common in weapons cases? I haven't forgotten.","http://www.4forums.com/political/gun-control-debates/12459-drug-cartels-new-weaponry-means-war.html",347533,69
"1-8711_71_69_1",8711,1,"2009-03-19 15:26:00",44,153,347558,"2009-03-19 15:06:00",388186,33,69,"This in response to my post about 56 convictions nationwide for ""straw purchasers"" in all of 1998.
So you don't have anything but your own intuitive opinion, yes?",388184,1,8711,1,"Not about weapons cases, plea bargains are common with ALL cases.","http://www.4forums.com/political/gun-control-debates/12459-drug-cartels-new-weaponry-means-war.html",347553,71
"1-8711_67_65_2",8711,1,"2009-03-19 13:39:00",2104,44,347536,"2009-03-19 13:07:00",388182,74,65,"Sinjin Dude, I just came across this. I think that this was totally uncalled for!


Right back at ya! :)
I guess we know exactly where each other stands and what they Really think! :)
You will have to take every bit of gun control you want! 
Who was it who said, I have not yet begun to fight? John Paul Jones I think. :)",388180,2,8711,1,"All handguns certainly and a database accessible to law enforcement nationwide.

Let's not. I said photographing and fingerprinting for handgun ""point of sale"". Nothing about licenses. That's unconstitutional.

When your not home. When most of the 200,000 guns stolen annually are stolen. While unsecured in most cases without a doubt. 

Yes, to prevent a theft/loss claim by an abettor when the gun turns up at a crime scene later.

I have not taken a position on that issue. 

And I think you should stop insinuating I support bans.

Stuff your supposition, pal. 

Not absolute but nice try. I support your right to own weapons for you and your family's protection as well as for sporting pursuits. That does not require an absolute, unlimited right. 

Which of course is impossible except through due process.","http://www.4forums.com/political/gun-control-debates/12459-drug-cartels-new-weaponry-means-war.html",347531,67
"1-8711_68_67_2",8711,1,"2009-03-19 14:00:00",44,2104,347542,"2009-03-19 13:39:00",388183,109,67,"Old dude, I don't care if you think I'm too hard on him. He's had the limitations of the Heller decision explained to him repeatedly and still repeats the same untruth about all safe storage laws being unconstitutional as a result of the Heller ruling. Even Bryan has said as much and he's pro-gun. How many uncalled for things has NATO said to me? How many have you? You both can bite me at this point. 

I doubt that based on the way you paint me. 

It's not up to you or me but all the people. 

Brave words.",388182,2,8711,1,"Sinjin Dude, I just came across this. I think that this was totally uncalled for!


Right back at ya! :)
I guess we know exactly where each other stands and what they Really think! :)
You will have to take every bit of gun control you want! 
Who was it who said, I have not yet begun to fight? John Paul Jones I think. :)","http://www.4forums.com/political/gun-control-debates/12459-drug-cartels-new-weaponry-means-war.html",347536,68
"1-8711_70_68_2",8711,1,"2009-03-19 15:25:00",2104,44,347557,"2009-03-19 14:00:00",388185,244,68,"So I am guessing that this part is true then. Ill-tempered but colorful :)

What? 
  The Story of John Paul Jones 
We are talking about the 2nd Amendment, our Founding Documents and all, and I thought that this quote from a Founding Elder would be funny, although appropriate! 
So let me ask you. Lets say Obama and his successor were to be able to appoint enough Supreme Court Justices that think like Ginsburg and Bryer, and they rule that Heller was wrong, and we absolutely have no Right to Keep and Bear at all, would you still support our Right to Keep and Bear Arms? Or is that conditional on the fact that the Supreme Court says we have that Right? 
By the way, I have been told time and time again by Anti-gun people that they believe in the 2nd Amendment too. When pressed, one said that he believed that there was an amendment between one and three called the 2nd Amendment. Another said that she believed in the 2nd amendment that said that States have a Right to keep a Militia. So don't hate me just because I am skeptical of what people tell me. (See my signature line) Hate me because I am Pro-gun and believe that guns save lives! :) Otherwise, LEO's wouldn't want to carry them!",388183,2,8711,1,"Old dude, I don't care if you think I'm too hard on him. He's had the limitations of the Heller decision explained to him repeatedly and still repeats the same untruth about all safe storage laws being unconstitutional as a result of the Heller ruling. Even Bryan has said as much and he's pro-gun. How many uncalled for things has NATO said to me? How many have you? You both can bite me at this point. 

I doubt that based on the way you paint me. 

It's not up to you or me but all the people. 

Brave words.","http://www.4forums.com/political/gun-control-debates/12459-drug-cartels-new-weaponry-means-war.html",347542,70
"1-8711_72_70_2",8711,1,"2009-03-19 15:32:00",44,2104,347559,"2009-03-19 15:25:00",388187,29,70,"Yes. I never lie. Try it.

I would but we both would have to respect the decision. 

Why would I hate you at all?",388185,2,8711,1,"So I am guessing that this part is true then. Ill-tempered but colorful.","http://www.4forums.com/political/gun-control-debates/12459-drug-cartels-new-weaponry-means-war.html",347557,72
"1-8711_73_72_2",8711,1,"2009-03-19 15:50:00",2104,44,347564,"2009-03-19 15:32:00",388188,23,72,"Well, I think I am going to have to go along with you on this one where you eloquently quipped! 
:)",388187,2,8711,1,"Yes. I never lie. Try it.

I would but we both would have to respect the decision. 

Why would I hate you at all?","http://www.4forums.com/political/gun-control-debates/12459-drug-cartels-new-weaponry-means-war.html",347559,73
"1-8711_74_73_2",8711,1,"2009-03-19 17:21:00",44,2104,347579,"2009-03-19 15:50:00",388189,12,73,"Precisely why I haven't an ounce of hatred for you.emoticonXKillemoticonXGoodemoticonXHoho",388188,2,8711,1,"Well, I think I am going to have to go along with you on this one where you eloquently quipped! 
:)","http://www.4forums.com/political/gun-control-debates/12459-drug-cartels-new-weaponry-means-war.html",347564,74
"1-8711_88_86_3",8711,1,"2009-03-20 17:18:00",153,435,347671,"2009-03-20 15:28:00",388203,103,86,"Canada also has a dramatically lower population level than America. Canada only has about 31,600,000 people, America has well over 300 million people, and more coming here every single day. We have more than nine times the population size than Canada, and a much larger population density.
As Trigger has said, Canada also doesn't have the violent gang problem that America does. Unlike most other countries we're unfortunately plagued by over a million violent gang members, and they're responsible for 80% of ALL the crime that happens in America each and every year.",388201,3,8711,1,"Canada also has dramatically lower levels of gun violence too....no coincidence.","http://www.4forums.com/political/gun-control-debates/12459-drug-cartels-new-weaponry-means-war.html",347668,88
"1-8711_90_88_3",8711,1,"2009-03-20 18:06:00",435,153,347675,"2009-03-20 17:18:00",388205,30,88,"Pro rata, Canadian gun ownership levels are similar to that of the US, but their gun crime is significantly lower, and their society is less dysfunctional.",388203,3,8711,1,"Canada also has a dramatically lower population level than America. Canada only has about 31,600,000 people, America has well over 300 million people, and more coming here every single day. We have more than nine times the population size than Canada, and a much larger population density.
As Trigger has said, Canada also doesn't have the violent gang problem that America does. Unlike most other countries we're unfortunately plagued by over a million violent gang members, and they're responsible for 80% of ALL the crime that happens in America each and every year.","http://www.4forums.com/political/gun-control-debates/12459-drug-cartels-new-weaponry-means-war.html",347671,90
"1-8711_91_90_3",8711,1,"2009-03-20 18:14:00",153,435,347676,"2009-03-20 18:06:00",388206,44,90,"And so is their population size and density. This is beyond the point, however. Unless you're comparing two countries that're the same in exactly every detail EXCEPT for gun control laws, your comparison is intellectually dishonest at the best.",388205,3,8711,1,"Pro rata, Canadian gun ownership levels are similar to that of the US, but their gun crime is significantly lower, and their society is less dysfunctional.","http://www.4forums.com/political/gun-control-debates/12459-drug-cartels-new-weaponry-means-war.html",347675,91
"1-8711_101_91_3",8711,1,"2009-03-21 04:57:00",435,153,347696,"2009-03-20 18:14:00",388216,51,91,"The response above is either a perfect example of what passes for intellectual dishonesty on your part, or incredible stupidity. You must be aware that you have just dismissed out of hand an entire branch of mathematics, especially the specious variety used to justify your monomaniacal position.",388206,3,8711,1,"And so is their population size and density. This is beyond the point, however. Unless you're comparing two countries that're the same in exactly every detail EXCEPT for gun control laws, your comparison is intellectually dishonest at the best.","http://www.4forums.com/political/gun-control-debates/12459-drug-cartels-new-weaponry-means-war.html",347676,101
"1-8711_107_101_3",8711,1,"2009-03-21 07:05:00",153,435,347708,"2009-03-21 04:57:00",388222,97,101,"No it's not, America and Canada are far too different for an accurate compare and contrast to be done.
Population size, population density, economic stability, type of government, position regarding human rights, attitude of the people, attitudes toward the people, the number of criminals, justice system setup, etc. all of these factors are entirely different for each country, none of them will allow for an accurate compare and contrast.
Comparing Canada and America crime rates is liking comparing motor oil and sea water.",388216,3,8711,1,"The response above is either a perfect example of what passes for intellectual dishonesty on your part, or incredible stupidity. You must be aware that you have just dismissed out of hand an entire branch of mathematics, especially the specious variety used to justify your monomaniacal position.","http://www.4forums.com/political/gun-control-debates/12459-drug-cartels-new-weaponry-means-war.html",347696,107
