"key","quote_source_post_discussion_id","posts_dataset_id","posts_timestamp","posts_author_id","quote_source_author_id","posts_native_post_id","quote_source_timestamp","post_text_id","Word_Count","quote_source_post_id","post_text","quote_source_text_id","Dialog_Turn","posts_discussion_id","quote_source_post_dataset_id","Fullquote_text","discussion_url","quote_source_native_post_id","posts_post_id"
"1-8833_40_39_1",8833,1,"2009-05-01 13:26:00",758,44,352048,"2009-05-01 12:13:00",393444,66,39,"You should heed your own advice. We should be in agreement that the Obama administration lied. Continues to lie. Will never stop with the lies. 
The other thing we need to be in agreement with is the need to seal the border. Whether its to stop drugs and law breakers coming in or money and guns going out matters not. ",393443,1,8833,1,"So you acknowledge that we don't have any idea what percentage of the 29,000 are of non-US manufacture beyond ""some""? Then we agree.
You type as slowly as you need to. 
Read even more slowly, please.","http://www.4forums.com/political/gun-control-debates/12636-why-lies-about-guns-going-mexico.html",352040,40
"1-8833_41_40_1",8833,1,"2009-05-01 13:35:00",44,758,352051,"2009-05-01 13:26:00",393445,51,40,"Lies, damn lies and statistics. I believe The President's use of the word ""recovered"" was misleading. Not intentionally so and therefore not a ""lie"" as I would define it.

I'm afraid we cannot as I would take down all border controls entirely.",393444,1,8833,1,"You should heed your own advice. We should be in agreement that the Obama administration lied. Continues to lie. Will never stop with the lies. 
The other thing we need to be in agreement with is the need to seal the border. Whether its to stop drugs and law breakers coming in or money and guns going out matters not. ","http://www.4forums.com/political/gun-control-debates/12636-why-lies-about-guns-going-mexico.html",352048,41
"1-8833_42_41_1",8833,1,"2009-05-01 13:41:00",758,44,352055,"2009-05-01 13:35:00",393446,31,41,"Depends on what the meaning of the word is is.
However I doubt you would make that distinction if it were Bush.
And I'm the logic challenged one. 
",393445,1,8833,1,"Lies, damn lies and statistics. I believe The President's use of the word ""recovered"" was misleading. Not intentionally so and therefore not a ""lie"" as I would define it.

I'm afraid we cannot as I would take down all border controls entirely.","http://www.4forums.com/political/gun-control-debates/12636-why-lies-about-guns-going-mexico.html",352051,42
"1-8833_43_42_1",8833,1,"2009-05-01 13:49:00",44,758,352059,"2009-05-01 13:41:00",393447,53,42,"Someone can misspeak without intending to mislead.

You don't know that. I'll tell you that I never disrespect the office by disrespecting the man, unlike yourself. 
He's our CiC. One would think a former soldier would show some respect even in dissent.

Ethically too, apparently.",393446,1,8833,1,"Depends on what the meaning of the word is is.
However I doubt you would make that distinction if it were Bush.
And I'm the logic challenged one. 
","http://www.4forums.com/political/gun-control-debates/12636-why-lies-about-guns-going-mexico.html",352055,43
"1-8833_44_43_1",8833,1,"2009-05-01 14:03:00",758,44,352065,"2009-05-01 13:49:00",393448,154,43,"See there you go again. I warned you to take your own advice of read slowly. Which you chose not to do. ""You should heed your own advice. We should be in agreement that the Obama administration lied. Continues to lie. Will never stop with the lies."" You are saying the BATFE did not lie? Either they lied with 90% or they lied with 17%. Either way they lied. And the members of the Obamanation ie his administration lied, continue to lie and never will stop. 
With that being said I don't believe I disrespected the office. Read the black part only. I even show you some respect in dissent. So you can take the ethic part print it out on heavy card stock, roll it up and shove it where the sun don't shine.
",393447,1,8833,1,"Someone can misspeak without intending to mislead.

You don't know that. I'll tell you that I never disrespect the office by disrespecting the man, unlike yourself. 
He's our CiC. One would think a former soldier would show some respect even in dissent.

Ethically too, apparently.","http://www.4forums.com/political/gun-control-debates/12636-why-lies-about-guns-going-mexico.html",352059,44
"1-8833_45_44_1",8833,1,"2009-05-01 15:39:00",44,758,352074,"2009-05-01 14:03:00",393449,133,44,"I don't see it.
""Without A ""Trace""
In a joint statement presented to the Senate Judiciary Committee's Subcommittee on Crimes and Drugs, ATF Assistant Director for Field Operations William Hoover and Anthony Placido, assistant administrator of intelligence with the Drug Enforcement Administration, clarified that the 90 percent figure is true of guns that were submitted and could be traced:
Hoover and Placido, March 17, 2009: Firearms are routinely being transported from the U.S. into Mexico in violation of both U.S. and Mexican law. In fact, according to ATF’s National Tracing Center, 90 percent of the weapons that could be traced were determined to have originated from various sources within the U.S. 

Case in point?",393448,1,8833,1,"See there you go again. I warned you to take your own advice of read slowly. Which you chose not to do. ""You should heed your own advice. We should be in agreement that the Obama administration lied. Continues to lie. Will never stop with the lies."" You are saying the BATFE did not lie? Either they lied with 90% or they lied with 17%. Either way they lied. And the members of the Obamanation ie his administration lied, continue to lie and never will stop. 
With that being said I don't believe I disrespected the office. Read the black part only. I even show you some respect in dissent. So you can take the ethic part print it out on heavy card stock, roll it up and shove it where the sun don't shine.
","http://www.4forums.com/political/gun-control-debates/12636-why-lies-about-guns-going-mexico.html",352065,45
