"key","quote_source_post_discussion_id","posts_dataset_id","posts_timestamp","posts_author_id","quote_source_author_id","posts_native_post_id","quote_source_timestamp","post_text_id","Word_Count","quote_source_post_id","post_text","quote_source_text_id","Dialog_Turn","posts_discussion_id","quote_source_post_dataset_id","Fullquote_text","discussion_url","quote_source_native_post_id","posts_post_id"
"1-8858_9_8_1",8858,1,"2009-05-07 15:42:00",758,44,352846,"2009-05-07 15:38:00",394333,9,8,"What purpose does that serve with NCIS checks?",394332,1,8858,1,"Since that would be me let's go over my position and you tell me which parts aren't reasonable and why:
1. I've advocated registration of all handguns but not all guns. Leads to confiscation.
2. I've advocated mandatory secure storage for unattended firearms, like when you're not home. Enforcement problem.
3. I've advocated photographing and fingerprinting for all handgun purchases.","http://www.4forums.com/political/gun-control-debates/12674-continual-appearance-slippery-slope-fallacy.html",352845,9
"1-8858_14_9_1",8858,1,"2009-05-07 17:00:00",44,758,352861,"2009-05-07 15:42:00",394338,91,9,"Registration leading to confiscation has not been demonstrated. If you care to give an example of a country where constitutionally protected firearm ownership was violated by confiscation, we could discuss it.
Safe storage does present enforcement problems but that isn't reason enough to abandon the idea. Thefts and accidents will be enough to call attention to violators, although you guys generally do not want to have to report thefts. Why's that?
What identification is the buyer required to furnish for a NCIS check?",394333,1,8858,1,"What purpose does that serve with NCIS checks?","http://www.4forums.com/political/gun-control-debates/12674-continual-appearance-slippery-slope-fallacy.html",352846,14
"1-8858_15_14_1",8858,1,"2009-05-07 17:05:00",758,44,352863,"2009-05-07 17:00:00",394339,12,14,"Well a photo ID plus your SSN but you knew that.",394338,1,8858,1,"Registration leading to confiscation has not been demonstrated. If you care to give an example of a country where constitutionally protected firearm ownership was violated by confiscation, we could discuss it.
How about NY and CA not to mention New Orleans. Did you miss them?
Safe storage does present enforcement problems but that isn't reason enough to abandon the idea. Thefts and accidents will be enough to call attention to violators, although you guys generally do not want to have to report thefts. Why's that?
Who said so?
What identification is the buyer required to furnish for a NCIS check?","http://www.4forums.com/political/gun-control-debates/12674-continual-appearance-slippery-slope-fallacy.html",352861,15
"1-8858_16_15_1",8858,1,"2009-05-07 17:16:00",44,758,352869,"2009-05-07 17:05:00",394340,70,15,"I didn't know that as I have never purchased a firearm. You do understand that driver's licenses can easily be conterfieted, yes? Any as far as using someone else's SSN, it's common as dirt. So that's why fingerprints and photos. Do the cops take you word for it or your ID's when they arrest you? Or do they fingerprint and photograph you?",394339,1,8858,1,"Well a photo ID plus your SSN but you knew that.","http://www.4forums.com/political/gun-control-debates/12674-continual-appearance-slippery-slope-fallacy.html",352863,16
"1-8858_17_16_1",8858,1,"2009-05-07 17:24:00",758,44,352871,"2009-05-07 17:16:00",394341,47,16,"At a traffic stop they do. Only when the book me for a crime but you knew that too. And until there is a crime of some sort the fingerprints are useless. Has everyone in America been fingerprinted? No its a strawman. ",394340,1,8858,1,"I didn't know that as I have never purchased a firearm. You do understand that driver's licenses can easily be conterfieted, yes? Any as far as using someone else's SSN, it's common as dirt. So that's why fingerprints and photos. Do the cops take you word for it or your ID's when they arrest you? Or do they fingerprint and photograph you?","http://www.4forums.com/political/gun-control-debates/12674-continual-appearance-slippery-slope-fallacy.html",352869,17
"1-8858_19_17_1",8858,1,"2009-05-07 17:30:00",44,758,352874,"2009-05-07 17:24:00",394343,28,17,"Has everyone with a felony criminal record in America been fingerprinted? A traffic stop is most often not a felony arrest. The strawman is yours.",394341,1,8858,1,"At a traffic stop they do. Only when the book me for a crime but you knew that too. And until there is a crime of some sort the fingerprints are useless. Has everyone in America been fingerprinted? No its a strawman. ","http://www.4forums.com/political/gun-control-debates/12674-continual-appearance-slippery-slope-fallacy.html",352871,19
"1-8858_22_19_1",8858,1,"2009-05-07 18:08:00",758,44,352880,"2009-05-07 17:30:00",394346,87,19,"I gave you an example of when the LEO accepts your ID. Sorry Charlie the strawman on fire is yours. Did anyone say only felon? Otherwise your proposal is useless. You get the innocent being fingerprinted to go where? Into some database pool of potential criminals? Not to mention the question of technology involed at the gun shop. Or is it you need some sort of license or permit from the BATFE, FBI, Sheriff or other LEO?",394343,1,8858,1,"Has everyone with a felony criminal record in America been fingerprinted? A traffic stop is most often not a felony arrest. The strawman is yours.","http://www.4forums.com/political/gun-control-debates/12674-continual-appearance-slippery-slope-fallacy.html",352874,22
"1-8858_47_43_2",8858,1,"2009-05-08 10:47:00",758,44,352971,"2009-05-08 09:24:00",394371,13,43,"And what case would that be with a link if you please.",394367,2,8858,1,"Let's see some of these countries' constitutional language protecting the RKBA.

GB has what is known as an unwritten constitution so I'm dying to see your evidence.

One style of weapon with specific a feature. Has it been challenged and overturned in the Supreme Court? Otherwise it would be referred to as ""Constitutional"".

The exercise of every right must be viewed in the light of the rights of others as well. 

Challenges to enforcement are not necessarily challenges to prosecutions for violators.

And I believe to knowingly have put a gun in a felon's hand and withhold that fact from the rest of us should be a crime.

But someone who has given the weapon they purchased to a criminal would have good reason to want to hide that fact. We need a way to prevent them from simply claiming it was lost/stolen later when the gun turns up at a crime scene.","http://www.4forums.com/political/gun-control-debates/12674-continual-appearance-slippery-slope-fallacy.html",352954,47
"1-8858_48_47_2",8858,1,"2009-05-08 10:50:00",44,758,352972,"2009-05-08 10:47:00",394372,25,47,"I can't link a case that hasn't been filed. Has the ban affecting the SKS with detachable magazine been challenged in the CASC?",394371,2,8858,1,"And what case would that be with a link if you please.","http://www.4forums.com/political/gun-control-debates/12674-continual-appearance-slippery-slope-fallacy.html",352971,48
"1-8858_49_48_2",8858,1,"2009-05-08 11:10:00",758,44,352979,"2009-05-08 10:50:00",394373,46,48,"Not that I know of. Then again it was a case of register then change the definition to illegal. Which then led to confiscate. Can you guarantee this would not happen if we the people were stupid enough to let registration occur?",394372,2,8858,1,"I can't link a case that hasn't been filed. Has the ban affecting the SKS with detachable magazine been challenged in the CASC?","http://www.4forums.com/political/gun-control-debates/12674-continual-appearance-slippery-slope-fallacy.html",352972,49
"1-8858_52_49_2",8858,1,"2009-05-08 11:36:00",44,758,352984,"2009-05-08 11:10:00",394376,27,49,"All firearms? Yes, unless you can show that doing away with Constitutional Amendments is easily done. When was the last time and why?",394373,2,8858,1,"Not that I know of. Then again it was a case of register then change the definition to illegal. Which then led to confiscate. Can you guarantee this would not happen if we the people were stupid enough to let registration occur?","http://www.4forums.com/political/gun-control-debates/12674-continual-appearance-slippery-slope-fallacy.html",352979,52
"1-8858_70_52_2",8858,1,"2009-05-09 04:02:00",758,44,353076,"2009-05-08 11:36:00",394394,65,52,"The burden of proof is on you my man. Hugo Wittgenstein would say that your utterence was nonsence speak. I would remind you of the recipe of how to cook a frog. Place in cold water then slowly turn the heat up. You could look at DC and explain how that was allowed to go on for 30 some years. ",394376,2,8858,1,"All firearms? Yes, unless you can show that doing away with Constitutional Amendments is easily done. When was the last time and why?","http://www.4forums.com/political/gun-control-debates/12674-continual-appearance-slippery-slope-fallacy.html",352984,70
"1-8858_118_14_3",8858,1,"2009-05-13 13:04:00",758,44,353634,"2009-05-07 17:00:00",394442,27,14,"In addition to the data on the 4473 form itself a photo ID to back up said data. But we have gone over this before. ",394338,3,8858,1,"Registration leading to confiscation has not been demonstrated. If you care to give an example of a country where constitutionally protected firearm ownership was violated by confiscation, we could discuss it.
I'm not sure why you are in denial of what happened here in the USA in CA NY and NO. Care to enlighten?
Safe storage does present enforcement problems but that isn't reason enough to abandon the idea. Thefts and accidents will be enough to call attention to violators, although you guys generally do not want to have to report thefts. Why's that?
Its not been demonstrated that this old soldier does not want to report thefts of any thing let alone firearms. You guys is a non starter. The rub lies in the enforcement problems which you fail to demonstrate how to go about. Normal people would do so for insurance purposes also. I don't keep my fire extinguisher locked up either even when I'm not about. 
What identification is the buyer required to furnish for a NCIS check?","http://www.4forums.com/political/gun-control-debates/12674-continual-appearance-slippery-slope-fallacy.html",352861,118
"1-8858_119_118_3",8858,1,"2009-05-13 13:18:00",44,758,353635,"2009-05-13 13:04:00",394443,231,118,"I'm not familiar with the NY situation. I think NATO brought it up before. Something about re-registrationn every so many years or else? In CA it was one type of weapon with one specific feature. In CA people stll have plenty of firearms. No general confiscation of firearms. No confiscation of ""registered"" handguns as has been predicted. We already discussed the illegal actions of the New Orleans police chief. Registration had no part in the round up of firearms post-Katrina as far as I can find. 
I like the idea of getting the insurance industry to do the heavy lifting with regards to safe storage. 
You may be onto something there.
With respect to the 4473, which btw I don't remember discussing specifically in the past, it appears a phoney driver's license and a willingness to lie would pretty much be all that would be necessary to get around the background check. Fingerprinting could make the system harder to beat.
Please learn how to quote properly so I don't have to work so hard to address your points.
All it takes is [ Q U O T E ] at the beginning and [ / Q U O T E ] at the end. Without the spaces of course. Thanks.",394442,3,8858,1,"In addition to the data on the 4473 form itself a photo ID to back up said data. But we have gone over this before. ","http://www.4forums.com/political/gun-control-debates/12674-continual-appearance-slippery-slope-fallacy.html",353634,119
"1-8858_120_119_3",8858,1,"2009-05-13 13:29:00",758,44,353637,"2009-05-13 13:18:00",394444,119,119,"So in other words a little bit of confiscation in the form of one particular weapon is nothing to worry about. To disprove your contention I need only provide one instance which I have done.
The technolgy exists to defeat your fingerprint scheme so? The data on the 4473 along with the photo ID is enough to catch most with NCIS system. The key word in there is ""could"" which remains to be seen. Are you willing to pony up the cash to implement it in the form of a special tax on non firearm owners? 
You should be able to pick out my reply since they are in bold. ",394443,3,8858,1,"I'm not familiar with the NY situation. In CA it was one type of weapon with one specific feature. In CA people stll have plenty of firearms. No general confiscation of firearms. No confiscation of ""registered"" handguns as has been predicted. We already discussed the illegal actions of the New Orleans police chief. Registration had no part in the round up of firearms post-Katrina as far as I can find.
With respect to the 4473, which btw I don't remember discussing specifically in the past, it appears a phoney driver's license and a willingness to lie would pretty much be all that would be necessary to get around the background check. Fingerprinting could make the system harder to beat.
Please learn how to quote properly so I don't have to work so hard to address your points.","http://www.4forums.com/political/gun-control-debates/12674-continual-appearance-slippery-slope-fallacy.html",353635,120
"1-8858_121_120_3",8858,1,"2009-05-13 13:43:00",44,758,353639,"2009-05-13 13:29:00",394445,158,120,"IOW your RKBA is not unlimited.

You still haven't shown that registration led to confiscation, it simply preceeded it in this one instance. You'd have to show intent to confiscate pior to requiring registration to prove your point. Handguns have been registered for years in CA with no move to confiscate. And wasn't everyone compensated for turning in the weapons in question?

Bring it. What sort of technology? False fingertips? No system is perfect. 

Show me statistics on the ""misses"". How do we know what most is in this case genius?

Let's try.

Pay to play my friend. Exercising your rights isn't guaranteed to be free. 

But the quote button won't pick them up as they are embedded in your quoting me. It finally dawned on me why you're bolding. Try doing it like everyone else. Okay?",394444,3,8858,1,"[B]So in other words a little bit of confiscation in the form of one particular weapon is nothing to worry about.","http://www.4forums.com/political/gun-control-debates/12674-continual-appearance-slippery-slope-fallacy.html",353637,121
"1-8858_122_121_3",8858,1,"2009-05-13 14:07:00",758,44,353641,"2009-05-13 13:43:00",394446,8,121,"Yet here you are doing the same. ",394445,3,8858,1,"IOW your RKBA is not unlimited.
Strawman nobody claimed it wasn't. The issue is registration leading to confiscation. Your claim of a constitution protecting us is shown to be flawed. Deal with it. 
You still haven't shown that registration led to confiscation, it simply preceeded it in this case.
Well duh it always does. 
Bring it. What sort of technology? False fingertips? No system is perfect. 
Show me statistics on the ""misses"". How do we know what most is in this case genius?
And when do you run claiming ""toxic environment? Thats your job to provide stats showing NCIS is broken. Keep it civil genius.
Let's try.
Pay to play my friend. Exercising your rights isn't guaranteed to be free.
Strawman, I asked a specific question, try answering it.
But the quote button won't pick them up as they are embedded in your quoting me. It finally dawned on me why you're bolding. Try doing it like everyone else. Okay?
","http://www.4forums.com/political/gun-control-debates/12674-continual-appearance-slippery-slope-fallacy.html",353639,122
"1-8858_126_122_3",8858,1,"2009-05-14 08:38:00",44,758,353747,"2009-05-13 14:07:00",394450,165,122,"Having slept on this I think you've convinced me that we have an example of registration being one step in what ultimately was a case of confiscation. I'm not sure we have established that registration necessarily leads to confiscation since we have other registered CA weapons that have not been confiscated. Can we agree that in light of Heller, the likelihood of such a ban on say handguns, and their subsequent confiscation, is unlikely; unConstitutional? The only thing that remains is whether the CA confiscation was in fact Constitutional. Has there been a challenge? 

You claimed the system catches most who are trying to beat the system. How can we know that? I'm not saying NCIS broken, only relatively easily defeated. And I apologize for the crack. It was unnecessary. 

I am fully prepared to pay my share for a comprehensive system. I shouldn't have to pay yours.",394446,3,8858,1,"Strawman nobody claimed it wasn't. The issue is registration leading to confiscation. Your claim of a constitution protecting us is shown to be flawed. Deal with it.","http://www.4forums.com/political/gun-control-debates/12674-continual-appearance-slippery-slope-fallacy.html",353641,126
"1-8858_143_126_3",8858,1,"2009-05-14 13:38:00",758,44,353795,"2009-05-14 08:38:00",394467,220,126,"Well given the historical precedent all over the world and here it makes one uneasy to say the least. Whether or not it is defined by the supreme court is a dicey matter. It took 30 some years to get the DC ban heard. Why take a chance on losing some thing. Registration does not prevent any crimes. If it did this would be all over the media. Neither does it solve any crimes. Canada has had pistol registration since 1934 and no prevention nor solves. What other excuse is there for registration? Given the vehemence of the Brady bunch and the VPC and others, the very real danger exists that a handgun ban is a real goal. Yes there was a challenge that went to the CA supreme court. The US supreme court declined to hear the case. 
So are most firearm laws. Full auto firearms are relatively cheap in the UK from browsing some of the news articles. We have some thing that works if enforced that both sides can live with. 
The reason I asked that question was to see if you were in fact willing to step up rather than saddle firearms owners with the burden.
Apology accepted.",394450,3,8858,1,"Having slept on this I think you've convinced me that we have an example of registration being one step in what ultimately was a case of confiscation. I'm not sure we have established that registration necessarily leads to confiscation since we have other registered CA weapons that have not been confiscated. Can we agree that in light of Heller, the likelihood of such a ban on say handguns, and their subsequent confiscation, is unlikely; unConstitutional? The only thing that remains is whether the CA confiscation was in fact Constitutional. Has there been a challenge? 

You claimed the system catches most who are trying to beat the system. How can we know that? I'm not saying NCIS broken, only relatively easily defeated. And I apologize for the crack. It was unnecessary. 

I am fully prepared to pay my share for a comprehensive system. I shouldn't have to pay yours.","http://www.4forums.com/political/gun-control-debates/12674-continual-appearance-slippery-slope-fallacy.html",353747,143
"1-8858_125_119_4",8858,1,"2009-05-13 15:26:00",758,44,353651,"2009-05-13 13:18:00",394449,129,119,"By the way, there is a bit more involved with the 4473. The Form 4473 contains the name, address, driver license information, NICS background check transaction number, serial number and model of the firearm, and a short federal affidavit stating that the purchaser is eligible to purchase firearms under federal law. Lying on this form is a felony and can be punished by up to five years in prison in addition to fines, even if the transaction is denied by the National Instant Criminal Background Check System (NICS) So if those caught are prosecuted there are some teeth there. But according to you we need fingerprints to fix some thing that remains to shown as broken.
",394443,4,8858,1,"I'm not familiar with the NY situation. I think NATO brought it up before. Something about re-registrationn every so many years or else? In CA it was one type of weapon with one specific feature. In CA people stll have plenty of firearms. No general confiscation of firearms. No confiscation of ""registered"" handguns as has been predicted. We already discussed the illegal actions of the New Orleans police chief. Registration had no part in the round up of firearms post-Katrina as far as I can find. 
I like the idea of getting the insurance industry to do the heavy lifting with regards to safe storage. 
You may be onto something there.
With respect to the 4473, which btw I don't remember discussing specifically in the past, it appears a phoney driver's license and a willingness to lie would pretty much be all that would be necessary to get around the background check. Fingerprinting could make the system harder to beat.
Please learn how to quote properly so I don't have to work so hard to address your points.
All it takes is [ Q U O T E ] at the beginning and [ / Q U O T E ] at the end. Without the spaces of course. Thanks.","http://www.4forums.com/political/gun-control-debates/12674-continual-appearance-slippery-slope-fallacy.html",353635,125
"1-8858_127_125_4",8858,1,"2009-05-14 08:41:00",44,758,353748,"2009-05-13 15:26:00",394451,34,125,"I actually looked it up so yes, I know what all is on the form. How can we subsequently identify the liars? The ones with the first class fake ID's?",394449,4,8858,1,"By the way, there is a bit more involved with the 4473. The Form 4473 contains the name, address, driver license information, NICS background check transaction number, serial number and model of the firearm, and a short federal affidavit stating that the purchaser is eligible to purchase firearms under federal law. Lying on this form is a felony and can be punished by up to five years in prison in addition to fines, even if the transaction is denied by the National Instant Criminal Background Check System (NICS) So if those caught are prosecuted there are some teeth there. But according to you we need fingerprints to fix some thing that remains to shown as broken.
","http://www.4forums.com/political/gun-control-debates/12674-continual-appearance-slippery-slope-fallacy.html",353651,127
"1-8858_144_127_4",8858,1,"2009-05-14 13:43:00",758,44,353796,"2009-05-14 08:41:00",394468,64,127,"That I am not sure of. I did notice one was caught with multiple drivers licenses. With the age of computers I would suggest that each issue be monitored and a 2nd issue prior to expiration would set off a flag. Then investigative work set in motion. Stiffer penalties for ID fraud or theft would be in order also. ",394451,4,8858,1,"I actually looked it up so yes, I know what all is on the form. How can we subsequently identify the liars? The ones with the first class fake ID's?","http://www.4forums.com/political/gun-control-debates/12674-continual-appearance-slippery-slope-fallacy.html",353748,144
"1-8858_146_144_4",8858,1,"2009-05-14 14:06:00",44,758,353801,"2009-05-14 13:43:00",394470,11,144,"Could you explain further? I'm not understanding your suggestion.",394468,4,8858,1,"That I am not sure of. I did notice one was caught with multiple drivers licenses. With the age of computers I would suggest that each issue be monitored and a 2nd issue prior to expiration would set off a flag. Then investigative work set in motion. Stiffer penalties for ID fraud or theft would be in order also. ","http://www.4forums.com/political/gun-control-debates/12674-continual-appearance-slippery-slope-fallacy.html",353796,146
"1-8858_148_146_4",8858,1,"2009-05-14 14:34:00",758,44,353806,"2009-05-14 14:06:00",394472,100,146,"If it is a case of identy theft, then one has to obtain the hard copy of the drivers license true? If the identity that has been stolen already has a license then the 2nd issue would set off the flag. Then LEO should check each addressee to see which one is fake. I doubt the thief would be dumb enough to use the stolen address to get the hard copy in the mail so would have to have a different address. Multiple licenses to the same address should also set off a flag. 
",394470,4,8858,1,"Could you explain further? I'm not understanding your suggestion.","http://www.4forums.com/political/gun-control-debates/12674-continual-appearance-slippery-slope-fallacy.html",353801,148
"1-8858_150_148_4",8858,1,"2009-05-14 14:54:00",44,758,353808,"2009-05-14 14:34:00",394474,68,148,"I get you now. But without elaborating, there are much better ways to create a false identity and get the appropriate documents like ID, credit cards, whatever. Trying to get a driver license under the name of someone who already has a license would be a mistake. Unless it was created without the help of the DMV. Also quite easy.",394472,4,8858,1,"If it is a case of identy theft, then one has to obtain the hard copy of the drivers license true? If the identity that has been stolen already has a license then the 2nd issue would set off the flag. Then LEO should check each addressee to see which one is fake. I doubt the thief would be dumb enough to use the stolen address to get the hard copy in the mail so would have to have a different address. Multiple licenses to the same address should also set off a flag. 
","http://www.4forums.com/political/gun-control-debates/12674-continual-appearance-slippery-slope-fallacy.html",353806,150
"1-8858_82_81_5",8858,1,"2009-05-12 17:34:00",2104,44,353514,"2009-05-12 13:05:00",394406,6,81,"Dido for the Anti-gun side!",394405,5,8858,1,"Indeed I do. As always you are as gracious as you are eloquent. 
Alas, many of your brethren fall far short of the ideal you embody.","http://www.4forums.com/political/gun-control-debates/12674-continual-appearance-slippery-slope-fallacy.html",353484,82
"1-8858_83_82_5",8858,1,"2009-05-12 17:55:00",44,2104,353515,"2009-05-12 17:34:00",394407,36,82,"That's ""ditto"" but I still agree.
Btw did you notice one of your links today included a conversation by posters calling for the assassination of President Obama? 
Real class there Tither.",394406,5,8858,1,"Dido for the Anti-gun side!","http://www.4forums.com/political/gun-control-debates/12674-continual-appearance-slippery-slope-fallacy.html",353514,83
"1-8858_87_83_5",8858,1,"2009-05-12 19:45:00",2104,44,353538,"2009-05-12 17:55:00",394411,247,83,"No Sinjin. Actually I did not know that. Sometimes that is what you get in a Google search. 
I assume it was the one where I could reference the 21 States that are declaring sovereignty? That is what I referenced? What I actually quoted?
I did a Google search looking for something that says 21 states declaring sovereignty. That is the story I wanted to post. 
By the way, do you remember you asked me to humor you. I did everything possible NOT to do that subject again because, you went off on me last time we did that subject, and I knew it would lead to this again! And low and behold,you did it again! 
And, come to think of it, the way you are acting towards me now, picking nits and general sniping, is exactly what you did to Nato after that debate too. Come to grips with the fact that you are not a nice person to be on the other side of an issue. Was it Really necessary to correct a fat finger typing mistake? Unfortunately, this is just part of your M.O. 
So tell me Sinjin. Are you happy Now! Are you humored? 
I feel like I have got slime all over me again! I just hope you think it was worth it.",394407,5,8858,1,"That's ""ditto"" but I still agree.
Btw did you notice one of your links today included a conversation by posters calling for the assassination of President Obama? 
Real class there Tither.","http://www.4forums.com/political/gun-control-debates/12674-continual-appearance-slippery-slope-fallacy.html",353515,87
"1-8858_89_87_5",8858,1,"2009-05-13 08:00:00",44,2104,353582,"2009-05-12 19:45:00",394413,56,87,"Worth what? You link the sorts of pukes you've gone to lately and think I'm slimey? 
And it wasn't your fat fingers I was picking at. More the matching head. 
Was there something else or can I go back to awaiting Bryan's return so that we might continue a civil discourse?",394411,5,8858,1,"No Sinjin. Actually I did not know that. Sometimes that is what you get in a Google search. 
I assume it was the one where I could reference the 21 States that are declaring sovereignty? That is what I referenced? What I actually quoted?
I did a Google search looking for something that says 21 states declaring sovereignty. That is the story I wanted to post. 
By the way, do you remember you asked me to humor you. I did everything possible NOT to do that subject again because, you went off on me last time we did that subject, and I knew it would lead to this again! And low and behold,you did it again! 
And, come to think of it, the way you are acting towards me now, picking nits and general sniping, is exactly what you did to Nato after that debate too. Come to grips with the fact that you are not a nice person to be on the other side of an issue. Was it Really necessary to correct a fat finger typing mistake? Unfortunately, this is just part of your M.O. 
So tell me Sinjin. Are you happy Now! Are you humored? 
I feel like I have got slime all over me again! I just hope you think it was worth it.","http://www.4forums.com/political/gun-control-debates/12674-continual-appearance-slippery-slope-fallacy.html",353538,89
"1-8858_90_89_5",8858,1,"2009-05-13 08:16:00",2104,44,353585,"2009-05-13 08:00:00",394414,77,89,"No Sir! With respect. There is nothing else! 
I am through trying to get you to see the other side. 
We are eternally locked into opposing views. From now on, just consider any references to you post, as me talking those who pass by or have not made up their minds yet, and not you specifically. I will give you that same courtesy. 
Go with God.",394413,5,8858,1,"Worth what? You link the sorts of pukes you've gone to lately and think I'm slimey?
And it wasn't your fat fingers I was picking at. More the matching head. 
Was there something else","http://www.4forums.com/political/gun-control-debates/12674-continual-appearance-slippery-slope-fallacy.html",353582,90
"1-8858_94_90_5",8858,1,"2009-05-13 08:54:00",44,2104,353592,"2009-05-13 08:16:00",394418,170,90,"I see very well, thank you. 

That would be your characterization alone. 

The courtesy I'd like to be shown is to not have my opinions and motives assigned to me, by you or anyone else, in an effort to make them more assailable with standard pro-gun website talking points. You need to stop implying that what I really want is ""this"" or what I'll really do next is ""that"". 

Don't think I don't find this impasse a shame. I thought and still think you're a stand-up guy. It's too bad you felt the need to make me the poster boy for some insiduous plot simply because I was one of the only ones with the stomach for all the #### you guys dispense. I was trying tio deal with all that in an effort to bring the dialogue to some basics we might all agree on. But you guys aren't really interested in that.",394414,5,8858,1,"No Sir! With respect. There is nothing else! 
I am through trying to get you to see the other side. 
We are eternally locked into opposing views. From now on, just consider any references to you post, as me talking those who pass by or have not made up their minds yet, and not you specifically. I will give you that same courtesy. 
Go with God.","http://www.4forums.com/political/gun-control-debates/12674-continual-appearance-slippery-slope-fallacy.html",353585,94
