"key","quote_source_post_discussion_id","posts_dataset_id","posts_timestamp","posts_author_id","quote_source_author_id","posts_native_post_id","quote_source_timestamp","post_text_id","Word_Count","quote_source_post_id","post_text","quote_source_text_id","Dialog_Turn","posts_discussion_id","quote_source_post_dataset_id","Fullquote_text","discussion_url","quote_source_native_post_id","posts_post_id"
"1-8970_4_3_1",8970,1,"2009-06-21 10:07:00",153,435,358158,"2009-06-21 09:44:00",400237,57,3,"I'm calling you out. Exactly what is the street price for an AK-47 in Miami?
Obviously you have the answer to this question, along with evidence that your answer is correct and factual, or you're just trolling and trying to derail a serious discussion, proving that you have nothing to contribute.",400236,1,8970,1,"That would be Miami, where a playstation costs more on the street than an AK47........... emoticonXRolleyes","http://www.4forums.com/political/gun-control-debates/12902-good-bad.html",358157,4
"1-8970_8_4_1",8970,1,"2009-06-21 13:12:00",435,153,358180,"2009-06-21 10:07:00",400241,13,4,"Less than a playstation, of course!

Yes, I do.",400237,1,8970,1,"I'm calling you out. Exactly whatis the street price for an AK-47 in Miami?","http://www.4forums.com/political/gun-control-debates/12902-good-bad.html",358158,8
"1-8970_9_8_1",8970,1,"2009-06-21 13:26:00",153,435,358183,"2009-06-21 13:12:00",400242,69,8,"You made a claim, and now you're doing nothing to back it up and prove it as accurate. That's lying. Give me the exact dollar amount of the street price of an AK-47, or your entire statement is going to be proven false and you're going to be seen as nothing but a lying troll.

Well then present it and stop being stupid.",400241,1,8970,1,"Less than a playstation, of course!

Yes, I do.","http://www.4forums.com/political/gun-control-debates/12902-good-bad.html",358180,9
"1-8970_12_9_1",8970,1,"2009-06-21 22:07:00",435,153,358242,"2009-06-21 13:26:00",400245,81,9,"Your mischaracterisation of my assertion as lying is illogical and erroneous. A lie is a deliberate false statement. My statement is not false, and is not proven to be so by the lack of compliance with your ludicrously specific demands.
The rush to characterise anyone or any assertion which disagrees with the ""party line"" as lying is a sad reflection of the decline of basic civil discourse, both here and in wider society.",400242,1,8970,1,"You made a claim, and now you're doing nothing to back it up and prove it as accurate. That's lying. Give me the exact dollar amount of the street price of an AK-47, or your entire statement is going to be proven false and you're going to be seen as nothing but a lying troll.

Well then present it and stop being stupid.","http://www.4forums.com/political/gun-control-debates/12902-good-bad.html",358183,12
"1-8970_15_12_1",8970,1,"2009-06-22 08:58:00",153,435,358289,"2009-06-21 22:07:00",400248,29,12,"Playstation prices:
Playstation 1: $5
Playsation 2: $50
Playstation 3: $300
Cheapest AK-47 made: $500
Your statement is bogus, you're a liar.",400245,1,8970,1,"Your mischaracterisation of my assertion as lying is illogical and erroneous. A lie is a deliberate false statement. My statement is not false, and is not proven to be so by the lack of compliance with your ludicrously specific demands.
The rush to characterise anyone or any assertion which disagrees with the ""party line"" as lying is a sad reflection of the decline of basic civil discourse, both here and in wider society.","http://www.4forums.com/political/gun-control-debates/12902-good-bad.html",358242,15
"1-8970_16_15_1",8970,1,"2009-06-24 09:42:00",435,153,358518,"2009-06-22 08:58:00",400249,30,15,"You lie. Prove that those are the current prices available on the Miami streets.
With links and affidavits.
Do you see what I did then? emoticonXRolleyes",400248,1,8970,1,"Playstation prices:
Playstation 1: $5
Playsation 2: $50
Playstation 3: $300
$500
Your statement is bogus, you're a liar.","http://www.4forums.com/political/gun-control-debates/12902-good-bad.html",358289,16
"1-8970_17_16_1",8970,1,"2009-06-24 10:10:00",153,435,358521,"2009-06-24 09:42:00",400250,186,16,"I don't need to prove that your statement is wrong, you need to prove that your statement is right. You made the claim that in Miami an AK-47 is selling for less than a playstation game console. You said you have proof of this, yet you present nothing to show that you're correct.
Meanwhile I actually presented the prices of various game consoles and weapons to show how exactly you're wrong. I've made my serve in this game of tennis, it's your turn to return the ball with links that show AK-47s are selling for much less than the standard market price.
Go ahead, show which FFL dealers are selling AK-47s for less than half of what they have to pay to get them in stock. I'll wait.

Yes I saw what you did, you tried to claim that even though you've presented nothing to support your position, you're still correct even though what I've presented proves you wrong. What you did was basically elevate yourself to the position of God.",400249,1,8970,1,"You lie. Prove that those are the current prices available on the Miami streets.
With links and affidavits.
Do you see what I did then? emoticonXRolleyes","http://www.4forums.com/political/gun-control-debates/12902-good-bad.html",358518,17
