"key","quote_source_post_discussion_id","posts_dataset_id","posts_timestamp","posts_author_id","quote_source_author_id","posts_native_post_id","quote_source_timestamp","post_text_id","Word_Count","quote_source_post_id","post_text","quote_source_text_id","Dialog_Turn","posts_discussion_id","quote_source_post_dataset_id","Fullquote_text","discussion_url","quote_source_native_post_id","posts_post_id"
"1-8977_23_22_1",8977,1,"2009-06-28 02:18:00",435,758,358899,"2009-06-27 15:10:00",400651,18,22,"Please explain what you think that means, and how it is relevant to the present debate?",400650,1,8977,1,"Render unto Caeser...","http://www.4forums.com/political/gun-control-debates/12909-california-churches-favor-concealed-carry.html",358855,23
"1-8977_24_23_1",8977,1,"2009-06-28 03:32:00",758,435,358900,"2009-06-28 02:18:00",400652,5,23,"It should be obvious. ",400651,1,8977,1,"Please explain what you think that means, and how it is relevant to the present debate?","http://www.4forums.com/political/gun-control-debates/12909-california-churches-favor-concealed-carry.html",358899,24
"1-8977_27_24_1",8977,1,"2009-06-28 09:05:00",435,758,358933,"2009-06-28 03:32:00",400655,56,24,"We'll try again, since it obviously isn't. We have no way of knowing the inner workings of your thought processes without your informing us. What do you find significant in what you said, ""Render unto Caeser[sic]"" and how does that relate to the topic in hand?",400652,1,8977,1,"It should be obvious. ","http://www.4forums.com/political/gun-control-debates/12909-california-churches-favor-concealed-carry.html",358900,27
"1-8977_28_27_1",8977,1,"2009-06-28 09:36:00",758,435,358938,"2009-06-28 09:05:00",400656,62,27,"Oh but it is to even the most unenlightened. Scripture was brought into the thread. Do you follow now? You make a series of quotes of it. I merely took another admonition from scripture that if you were truely a student of it you should recognize. Render unto Caeser the things which belong to Caeser... emoticonXHoho",400655,1,8977,1,"We'll try again, since it obviously isn't. We have no way of knowing the inner workings of your thought processes without your informing us. What do you find significant in what you said, ""Render unto Caeser[sic]"" and how does that relate to the topic in hand?","http://www.4forums.com/political/gun-control-debates/12909-california-churches-favor-concealed-carry.html",358933,28
"1-8977_29_28_1",8977,1,"2009-06-28 10:48:00",435,758,358941,"2009-06-28 09:36:00",400657,61,28,"I am well aware of the full Caesar quotation, its proper spelling, and the backstory. An admonition to obey the civil law, that spiritual demands might supersede but not abolish earthly ones. Now to the second part. How do you relate that to the context of the discussion, since it supports my position?",400656,1,8977,1,"Oh but it is to even the most unenlightened. Scripture was brought into the thread. Do you follow now? You make a series of quotes of it. I merely took another admonition from scripture that if you were truely a student of it you should recognize. Render unto Caeser the things which belong to Caeser... emoticonXHoho","http://www.4forums.com/political/gun-control-debates/12909-california-churches-favor-concealed-carry.html",358938,29
"1-8977_32_29_1",8977,1,"2009-06-29 05:37:00",758,435,359036,"2009-06-28 10:48:00",400660,27,29,"Perhaps unknowingly you answered your own question. An admonition to obey the civil law, that spiritual demands might supersede but not abolish earthly ones.",400657,1,8977,1,"I am well aware of the full Caesar quotation, its proper spelling, and the backstory. An admonition to obey the civil law, that spiritual demands might supersede but not abolish earthly ones. Now to the second part. How do you relate that to the context of the discussion, since it supports my position?","http://www.4forums.com/political/gun-control-debates/12909-california-churches-favor-concealed-carry.html",358941,32
"1-8977_33_32_1",8977,1,"2009-06-29 14:31:00",435,758,359075,"2009-06-29 05:37:00",400661,39,32,"You seem to imagine this proves some point or other. The statement was a masterclass in avoiding the issue, being just vague and meaningless enough to be interpreted to mean whatever the hearer thought it did.",400660,1,8977,1,"Perhaps unknowingly you answered your own question. An admonition to obey the civil law, that spiritual demands might supersede but not abolish earthly ones.","http://www.4forums.com/political/gun-control-debates/12909-california-churches-favor-concealed-carry.html",359036,33
"1-8977_34_33_1",8977,1,"2009-06-29 17:27:00",758,435,359088,"2009-06-29 14:31:00",400662,9,33,"And you being the hearer it sure did. ",400661,1,8977,1,"You seem to imagine this proves some point or other. The statement was a masterclass in avoiding the issue, being just vague and meaningless enough to be interpreted to mean whatever the hearer thought it did.","http://www.4forums.com/political/gun-control-debates/12909-california-churches-favor-concealed-carry.html",359075,34
