"key","quote_source_post_discussion_id","posts_dataset_id","posts_timestamp","posts_author_id","quote_source_author_id","posts_native_post_id","quote_source_timestamp","post_text_id","Word_Count","quote_source_post_id","post_text","quote_source_text_id","Dialog_Turn","posts_discussion_id","quote_source_post_dataset_id","Fullquote_text","discussion_url","quote_source_native_post_id","posts_post_id"
"1-9002_30_29_1",9002,1,"2009-07-16 12:41:00",697,681,360860,"2009-07-16 12:00:00",401709,50,29,"Wait, are you actually claiming that the American armed forces, the most technologically advanced, most well funded, and a well [I]trained[I] fighting force, made up of career soldiers is a volunteer fighting force, because they weren't drafted?",401708,1,9002,1,"Abso(deleted by author)lutely amazing. Today we fight with a volunteer army. The militia who joined voluntarily. That is the ""standing army"" we have today made up of volunteers from each State National Guard and others who enlisted also voluntarily.
Still waiting for an answer to that two part question star gazer. You dodge answers to questions more than the ""wise latina"". No dignity at all so I can guess at your answers emoticonXSmilie","http://www.4forums.com/political/gun-control-debates/12948-happy-4th-july-all.html",360855,30
"1-9002_33_30_1",9002,1,"2009-07-17 05:11:00",681,697,360958,"2009-07-16 12:41:00",401712,110,30,"Yep! The first DRAFT RIOTS were under the administration of ....ta da...Abe Lincoln. Just type in the key words and do a search on Lincoln draft riots.
How do y'all do it in Kanada? Ever get that junk submarine towed back after it caught fire? emoticonXWow Still renting planes and such to get Canadian forces out of Canada? Renting planes to deliver aid to countries like those caught in the tidal wave like Indonesia while our Navy ships produced millions of gallons of water and provided meals from ship stock? How is that standing army working out for you?",401709,1,9002,1,"Wait, are you actually claiming that the American armed forces, the most technologically advanced, most well funded, and a well [I]trained[I] fighting force, made up of career soldiers is a volunteer fighting force, because they weren't drafted?","http://www.4forums.com/political/gun-control-debates/12948-happy-4th-july-all.html",360860,33
"1-9002_34_33_1",9002,1,"2009-07-17 05:30:00",697,681,360960,"2009-07-17 05:11:00",401713,16,33,"What a shock. None of this has anything to do with what I wrote.",401712,1,9002,1,"Yep! The first DRAFT RIOTS were under the administration of ....ta da...Abe Lincoln. Just type in the key words and do a search on Lincoln draft riots.
How do y'all do it in Kanada? Ever get that junk submarine towed back after it caught fire? emoticonXWow Still renting planes and such to get Canadian forces out of Canada? Renting planes to deliver aid to countries like those caught in the tidal wave like Indonesia while our Navy ships produced millions of gallons of water and provided meals from ship stock? How is that standing army working out for you?","http://www.4forums.com/political/gun-control-debates/12948-happy-4th-july-all.html",360958,34
"1-9002_36_34_1",9002,1,"2009-07-17 05:46:00",681,697,360962,"2009-07-17 05:30:00",401715,47,34,"Ignore it then TROLL. Your comment had nothing to do with the topic nor the current discussion which has been derailed. Read and learn and quit trying to bitch and criticize the U.S. people and military when you got a log in both eyes.",401713,1,9002,1,"What a shock. None of this has anything to do with what I wrote.","http://www.4forums.com/political/gun-control-debates/12948-happy-4th-july-all.html",360960,36
"1-9002_37_36_1",9002,1,"2009-07-17 06:23:00",697,681,360967,"2009-07-17 05:46:00",401716,73,36,"So, I address your post, and I'm trolling. You attempt to belittle my country (using extremely poor English), and you're staying on topic?

""the American armed forces, the most technologically advanced, most well funded, and a well trained fighting force""
Yeah, my criticism was pretty low, wasn't it. I really hit below the belt on that one...",401715,1,9002,1,"Ignore it then TROLL. Your comment had nothing to do with the topic nor the current discussion which has been derailed. Read and learn and quit trying to bitch and criticize the U.S. people and military when you got a log in both eyes.","http://www.4forums.com/political/gun-control-debates/12948-happy-4th-july-all.html",360962,37
