"key","quote_source_post_discussion_id","posts_dataset_id","posts_timestamp","posts_author_id","quote_source_author_id","posts_native_post_id","quote_source_timestamp","post_text_id","Word_Count","quote_source_post_id","post_text","quote_source_text_id","Dialog_Turn","posts_discussion_id","quote_source_post_dataset_id","Fullquote_text","discussion_url","quote_source_native_post_id","posts_post_id"
"1-9014_23_21_1",9014,1,"2009-07-09 14:39:00",153,44,360075,"2009-07-09 14:26:00",402407,117,21,"Again with the position that somebody's claiming the Second Amendment is unlimited in scope. Nobody has made such a claim, nobody. If you have proof that somebody did make such a statement, show it.
And no, you have no say over how we exercise our rights in places under our control, such as our own homes. To believe otherwise is to support government intrusion into all aspects of everyone's lives and completely eliminate the Fourth Amendment. I bet your gay constituents in California would just love that position of yours since their bedroom practices would become public knowledge, subject to the punishment of various sodomy laws.",402405,1,9014,1,"Sure it is. Mine and that of every voter. What happened to your unlimited right to bear anytime, anywhere?","http://www.4forums.com/political/gun-control-debates/12966-chilling-resemblance-between-north-korean-indoctrination-eddie-eagle-program.html",360071,23
"1-9014_24_23_1",9014,1,"2009-07-09 14:44:00",44,153,360077,"2009-07-09 14:39:00",402408,29,23,"This is known as moving the goalposts.

This known as a strawman. Btw there are no sodomy laws in CA that apply to adult sexual practices.",402407,1,9014,1,"Again with the position that somebody's claiming the Second Amendment is unlimited in scope. Nobody has made such a claim, nobody. If you have proof that somebody did make such a statement, show it.
And no, you have no say over how we exercise our rights in places under our control, such as our own homes. To believe otherwise is to support government intrusion into all aspects of everyone's lives and completely eliminate the Fourth Amendment. I bet your gay constituents in California would just love that position of yours since their bedroom practices would become public knowledge, subject to the punishment of various sodomy laws.","http://www.4forums.com/political/gun-control-debates/12966-chilling-resemblance-between-north-korean-indoctrination-eddie-eagle-program.html",360075,24
"1-9014_26_24_1",9014,1,"2009-07-09 14:49:00",153,44,360079,"2009-07-09 14:44:00",402410,137,24,"No, this is known as fleshing out the debate. You keep talking about mandatory storage laws, but such laws interfere with our privacy and what we do in our own homes.

I remember in a past debate you informed me that you weren't familiar with any of the gun laws that were in effect in California. But now you're telling me you know for sure that there are no sodomy laws in California? Why would you have any reason to be aware of that information?
You told us you didn't care about knowing California's gun laws because they didn't apply to you. So one can only guess that you have a dog in this fight when it comes to regulations on homosexual sodomy. Very, very interesting...",402408,1,9014,1,"This is known as moving the goalposts.

This known as a strawman. Btw there are no sodomy laws in CA that apply to adult sexual practices.","http://www.4forums.com/political/gun-control-debates/12966-chilling-resemblance-between-north-korean-indoctrination-eddie-eagle-program.html",360077,26
"1-9014_27_26_1",9014,1,"2009-07-09 15:16:00",44,153,360082,"2009-07-09 14:49:00",402411,115,26,"So do laws concerning the storage of explosives and fuels in your garage.

I'm more interested in equal rights for all Americans than firearms?

I didn't say I didn't care to know, I said I didn't know since I don't keep guns. 

Are you hoping to insult me here? Won't work. You see there's no shame in being gay my bigoted little friend. None at all. Likewise there's no shame in being straight and perfectly comfortable with homosexuality as I happen to be. I'd gladly party at the the ""Gay Pride Parade"" but you won't catch me hanging with the ""Teabaggers"".",402410,1,9014,1,"No, this is known as fleshing out the debate. You keep talking about mandatory storage laws, but such laws interfere with our privacy and what we do in our own homes.

I remember in a past debate you informed me that you weren't familiar with any of the gun laws that were in effect in California. But now you're telling me you know for sure that there are no sodomy laws in California? Why would you have any reason to be aware of that information?
You told us you didn't care about knowing California's gun laws because they didn't apply to you. So one can only guess that you have a dog in this fight when it comes to regulations on homosexual sodomy. Very, very interesting...","http://www.4forums.com/political/gun-control-debates/12966-chilling-resemblance-between-north-korean-indoctrination-eddie-eagle-program.html",360079,27
"1-9014_28_27_1",9014,1,"2009-07-09 16:07:00",153,44,360084,"2009-07-09 15:16:00",402412,78,27,"The difference being that gun ownership is a right, and constitutionally protected.

So you're more interested in gay people being able to experience everything to the same extent as straight people...yet you're in favor of gun owners being limited in the freedoms they can partake in and attaching various limits to said freedoms? That's quiet hypocritical of you, ""equal rights to all, except those who exercise their rights.""",402411,1,9014,1,"So do laws concerning the storage of explosives and fuels in your garage.

I'm more interested in equal rights for all Americans than firearms?

I didn't say I didn't care to know, I said I didn't know since I don't keep guns. 

Are you hoping to insult me here? Won't work. You see there's no shame in being gay my bigoted little friend. None at all. Likewise there's no shame in being straight and perfectly comfortable with homosexuality as I happen to be. I'd gladly party at the the ""Gay Pride Parade"" but you won't catch me hanging with the ""Teabaggers"".","http://www.4forums.com/political/gun-control-debates/12966-chilling-resemblance-between-north-korean-indoctrination-eddie-eagle-program.html",360082,28
