"key","quote_source_post_discussion_id","posts_dataset_id","posts_timestamp","posts_author_id","quote_source_author_id","posts_native_post_id","quote_source_timestamp","post_text_id","Word_Count","quote_source_post_id","post_text","quote_source_text_id","Dialog_Turn","posts_discussion_id","quote_source_post_dataset_id","Fullquote_text","discussion_url","quote_source_native_post_id","posts_post_id"
"1-9067_10_9_1",9067,1,"2009-08-01 15:46:00",680,435,363347,"2009-08-01 15:06:00",406199,74,9,"Right off I don't know anyone who doe's believe it,any more so than a society 
that is mandatorily armed (good idea to). 
Well anyhow Comrade I had you figured to be jumping up and down.Its all nonsense right down to encoded ammo,however ifs do make a good topic.http://www.4forums.com/political/ima.../xbanghead.gif
emoticonXBanghead
http://www.4forums.com/political/ima...lies/xkill.gif
emoticonXKill
P.S.plenty of firepower though,probably like most of us.",406198,1,9067,1,"Yes he is. Correct. 
Which leaves anyone believing that nonsense in the OP looking rather foolish Best rush out and buy an extra gun or two in case it might be true. ;)","http://www.4forums.com/political/gun-control-debates/13053-scenario-anti-gunners-get-total-gun-ban.html",363341,10
"1-9067_11_10_1",9067,1,"2009-08-01 16:33:00",435,680,363352,"2009-08-01 15:46:00",406200,33,10,"I wonder why anyone would post a stupid article which is patently false, (though it did have a lot of cretins reaching for their guns) other than to troll.",406199,1,9067,1,"Right off I don't know anyone who doe's believe it,any more so than a society 
that is mandatorily armed (good idea to). 
Well anyhow Comrade I had you figured to be jumping up and down.Its all nonsense right down to encoded ammo,however ifs do make a good topic.http://www.4forums.com/political/ima.../xbanghead.gif
emoticonXBanghead
http://www.4forums.com/political/ima...lies/xkill.gif
emoticonXKill
P.S.plenty of firepower though,probably like most of us.","http://www.4forums.com/political/gun-control-debates/13053-scenario-anti-gunners-get-total-gun-ban.html",363347,11
"1-9067_15_11_1",9067,1,"2009-08-01 21:49:00",680,435,363407,"2009-08-01 16:33:00",406204,75,11,"Well Comrade I have often wondered the same of you.Hey do you really think it had them going for their guns?
Hey look at the positive side my little comrade,since your across the big water
and probably don't have a gun(since I know you would never do the black market thing),guess that means your not a cretin huh.emoticonXIc
P.S.they are not cretins",406200,1,9067,1,"I wonder why anyone would post a stupid article which is patently false, (though it did have a lot of cretins reaching for their guns) other than to troll.","http://www.4forums.com/political/gun-control-debates/13053-scenario-anti-gunners-get-total-gun-ban.html",363352,15
"1-9067_17_15_1",9067,1,"2009-08-02 02:34:00",435,680,363428,"2009-08-01 21:49:00",406206,85,15,"""Look out, Ethel! That there black man with the moozlum name is gonna steal our guns! Better get us some spares to fight him off!"" Fear is a great motivator, and the hate filled American right knows precisely which buttons to push, in sure and certain knowledge that their internet mind-slaves will repeat the same endless garbage until it becomes ""common"" knowledge.
Gun sales soar amid fears of Barack Obama weapons ban - Telegraph",406204,1,9067,1,"Well Comrade I have often wondered the same of you.Hey do you really think it had them going for their guns?
Hey look at the positive side my little comrade,since your across the big water
and probably don't have a gun(since I know you would never do the black market thing),guess that means your not a cretin huh.emoticonXIc
P.S.they are not cretins","http://www.4forums.com/political/gun-control-debates/13053-scenario-anti-gunners-get-total-gun-ban.html",363407,17
"1-9067_21_17_1",9067,1,"2009-08-02 12:59:00",680,435,363546,"2009-08-02 02:34:00",406210,39,17,"[QUOTE=OldSarge;363543][QUOTE=zsu2357;363541]
Answer:Probably still thinking of a come back,so I guess that in its self could be comic relief.
emoticonXKill.",406206,1,9067,1,"""Look out, Ethel! That there black man with the moozlum name is gonna steal our guns! Better get us some spares to fight him off!"" Fear is a great motivator, and the hate filled American right knows precisely which buttons to push, in sure and certain knowledge that their internet mind-slaves will repeat the same endless garbage until it becomes ""common"" knowledge.
Gun sales soar amid fears of Barack Obama weapons ban - Telegraph[
[U]
Question: if a pinhead Troll posted and no one replied, would the Troll know it is comic relief?","http://www.4forums.com/political/gun-control-debates/13053-scenario-anti-gunners-get-total-gun-ban.html",363428,21
