"key","quote_source_post_discussion_id","posts_dataset_id","posts_timestamp","posts_author_id","quote_source_author_id","posts_native_post_id","quote_source_timestamp","post_text_id","Word_Count","quote_source_post_id","post_text","quote_source_text_id","Dialog_Turn","posts_discussion_id","quote_source_post_dataset_id","Fullquote_text","discussion_url","quote_source_native_post_id","posts_post_id"
"1-9183_54_16_1",9183,1,"2009-09-11 08:18:00",320,44,369204,"2009-09-10 11:15:00",412381,54,16,"Another drive-by troll....

That's because you live in a state full of pantywaistes, fruits and nuts. Here in the Midwest, we don't fear law-abiding citizens carrying guns. Silly me, but I feel safer knowing that there are law-abiding citizens packing heat and not just criminals doing so.",412343,1,9183,1,"I worry about armed people with such poor judgement. People willing to frighten people to make a point. People who stand where the President will pass wearing a sidearm and making veiled threats of assassination. 

In California we ask that you leave your gun at home when taking the kiddies to the movies. Silly us.","http://www.4forums.com/political/gun-control-debates/13254-federal-judge-rules-police-cannot-detain-people-openly-carrying-guns.html",369039,54
"1-9183_56_54_1",9183,1,"2009-09-11 08:30:00",44,320,369208,"2009-09-11 08:18:00",412383,27,54,"Be that as it may...
We've got much better chicks. 
And weather.

Apparently some New Mexico theater operators do not share your sentiments.",412381,1,9183,1,"Another drive-by troll....

That's because you live in a state full of pantywaistes, fruits and nuts. Here in the Midwest, we don't fear law-abiding citizens carrying guns. Silly me, but I feel safer knowing that there are law-abiding citizens packing heat and not just criminals doing so.","http://www.4forums.com/political/gun-control-debates/13254-federal-judge-rules-police-cannot-detain-people-openly-carrying-guns.html",369204,56
"1-9183_60_56_1",9183,1,"2009-09-11 09:36:00",320,44,369219,"2009-09-11 08:30:00",412387,65,56,"Fake tits, droughts, forest fires. And if you've ever ridden a farmer's daughter, you'd know that CA chicks got no staying power. Once their nails are dry, you have to get off. ;)

Maybe they fear too many illegals will be openly carrying in their theaters? You border states can't seem to do anything right. ;)",412383,1,9183,1,"Be that as it may...
We've got much better chicks. 
And weather.

Apparently some New Mexico theater operators do not share your sentiments.","http://www.4forums.com/political/gun-control-debates/13254-federal-judge-rules-police-cannot-detain-people-openly-carrying-guns.html",369208,60
"1-9183_64_60_1",9183,1,"2009-09-11 10:11:00",44,320,369230,"2009-09-11 09:36:00",412391,15,60,"God bless you JP. 
We need more people like you need more snow.",412387,1,9183,1,"Fake tits, droughts, forest fires. And if you've ever ridden a farmer's daughter, you'd know that CA chicks got no staying power. Once their nails are dry, you have to get off. ;)

Maybe they fear too many illegals will be openly carrying in their theaters? You border states can't seem to do anything right. ;)","http://www.4forums.com/political/gun-control-debates/13254-federal-judge-rules-police-cannot-detain-people-openly-carrying-guns.html",369219,64
"1-9183_83_64_1",9183,1,"2009-09-12 14:46:00",320,44,369396,"2009-09-11 10:11:00",412410,44,64,"No worry about me ever moving to Kalifornia. I hate fake worlds. Hell, you go into a bar in LALALand and you don't know if the chick next to you is sporting a sausage between ""her"" legs. ;)",412391,1,9183,1,"God bless you JP. 
We need more people like you need more snow.","http://www.4forums.com/political/gun-control-debates/13254-federal-judge-rules-police-cannot-detain-people-openly-carrying-guns.html",369230,83
"1-9183_17_16_2",9183,1,"2009-09-10 11:59:00",681,44,369048,"2009-09-10 11:15:00",412344,88,16,"Are you ashamed of your other rights enshrined in the BOR also? No worry about blowing up your free speech rights by claiming ""wearing a sidearm and making veiled threats of assassination"". I believe the conspiracy will be exposed before long and your fears for the dear great leader will no longer exist.
http://canadafreepress.com/index.php/article/14583
In kalifornia? Here is your sign :)
BTW, you still getting to work a couple of days a week in that liberal bastion of no freedoms?",412343,2,9183,1,"I worry about armed people with such poor judgement. People willing to frighten people to make a point. People who stand where the President will pass wearing a sidearm and making veiled threats of assassination. 

In California we ask that you leave your gun at home when taking the kiddies to the movies. Silly us.","http://www.4forums.com/political/gun-control-debates/13254-federal-judge-rules-police-cannot-detain-people-openly-carrying-guns.html",369039,17
"1-9183_24_17_2",9183,1,"2009-09-10 13:09:00",44,681,369058,"2009-09-10 11:59:00",412351,14,17,"You're a ""Birther"" too Doc? Why am I not surprised.",412344,2,9183,1,"Are you ashamed of your other rights enshrined in the BOR also? No worry about blowing up your free speech rights by claiming ""wearing a sidearm and making veiled threats of assassination"". I believe the conspiracy will be exposed before long and your fears for the dear great leader will no longer exist.
http://canadafreepress.com/index.php/article/14583
In kalifornia? Here is your sign :)
BTW, you still getting to work a couple of days a week in that liberal bastion of no freedoms?","http://www.4forums.com/political/gun-control-debates/13254-federal-judge-rules-police-cannot-detain-people-openly-carrying-guns.html",369048,24
"1-9183_26_24_2",9183,1,"2009-09-10 13:19:00",681,44,369060,"2009-09-10 13:09:00",412353,31,24,"Heck, I got more documentation on my goats than he does. You astroturfers might be in for a bit more than you bargained for? Got milk?emoticonXGood",412351,2,9183,1,"You're a ""Birther"" too Doc? Why am I not surprised.","http://www.4forums.com/political/gun-control-debates/13254-federal-judge-rules-police-cannot-detain-people-openly-carrying-guns.html",369058,26
"1-9183_32_26_2",9183,1,"2009-09-10 13:38:00",44,681,369067,"2009-09-10 13:19:00",412359,22,26,"Like this no doubt:
World Net Daily, Free Republic Post Forged Obama Birth Certificate From Kenya | Crooks and Liars",412353,2,9183,1,"Heck, I got more documentation on my goats than he does. You astroturfers might be in for a bit more than you bargained for? Got milk?emoticonXGood","http://www.4forums.com/political/gun-control-debates/13254-federal-judge-rules-police-cannot-detain-people-openly-carrying-guns.html",369060,32
"1-9183_36_32_2",9183,1,"2009-09-10 13:51:00",681,44,369074,"2009-09-10 13:38:00",412363,48,32,"I checked the properties and it is from your prime reading class assignment as an Acorn member. world-nut-daily ...LOL I wonder if old Van is going to work there now? :)
We got more czars now than the Romonov dynasty. Et Tu Brute?",412359,2,9183,1,"Like this no doubt:
World Net Daily, Free Republic Post Forged Obama Birth Certificate From Kenya | Crooks and Liars","http://www.4forums.com/political/gun-control-debates/13254-federal-judge-rules-police-cannot-detain-people-openly-carrying-guns.html",369067,36
"1-9183_40_36_2",9183,1,"2009-09-10 14:05:00",44,681,369078,"2009-09-10 13:51:00",412367,5,36,"Acorn member? Me?",412363,2,9183,1,"I checked the properties and it is from your prime reading class assignment as an Acorn member. world-nut-daily ...LOL I wonder if old Van is going to work there now? :)
We got more czars now than the Romonov dynasty. Et Tu Brute?","http://www.4forums.com/political/gun-control-debates/13254-federal-judge-rules-police-cannot-detain-people-openly-carrying-guns.html",369074,40
"1-9183_23_21_3",9183,1,"2009-09-10 13:07:00",44,681,369057,"2009-09-10 12:45:00",412350,39,21,"Will you put a sign on your lawn saying ""I have thousands in guns stored unsecured inside""?
I never said I feared people with guns on their hips Durward, only that they worry me.",412348,3,9183,1,"He could solve all his problems if people like him would accept my simple compromise. Then he wouldn't have to admit his childish fears to his wife and children. It would be a Utopia for his type. Gee, they could go hand in hand together and maybe even round up enough to take every seat in a movie theater so they could watch without p**** their pants. It must get old to have your 10 yr. old ask, ""Daddy, did you mess your pants again?"" emoticonXGood","http://www.4forums.com/political/gun-control-debates/13254-federal-judge-rules-police-cannot-detain-people-openly-carrying-guns.html",369055,23
"1-9183_25_23_3",9183,1,"2009-09-10 13:16:00",681,44,369059,"2009-09-10 13:07:00",412352,126,23,"You said: Quote:
Originally Posted by sinjin 
I worry about armed people with such poor judgement. People willing to frighten people to make a point. People who stand where the President will pass wearing a sidearm and making veiled threats of assassination. 
Slipped in your own slime there bubba! Frighten isn't fear in kalifornia?
Nope, no signs for me! You people are the believers and all problems will be solved when you post the signs that you have no firearms and don't believe in violence. Why the criminals will just pass you by and go to the next house where they know they can score a cheap .38 or better. No worries mate.",412350,3,9183,1,"Will you put a sign on your lawn saying ""I have thousands in guns stored unsecured inside""?
I never said I feared people with guns on their hips Durward, only that they worry me.","http://www.4forums.com/political/gun-control-debates/13254-federal-judge-rules-police-cannot-detain-people-openly-carrying-guns.html",369057,25
"1-9183_28_25_3",9183,1,"2009-09-10 13:24:00",44,681,369062,"2009-09-10 13:16:00",412355,17,25,"Those who might be frightened need not include myself.

I'm a big fan of violence.",412352,3,9183,1,"You said: Quote:
Originally Posted by sinjin 
I worry about armed people with such poor judgement. People willing to frighten people to make a point. People who stand where the President will pass wearing a sidearm and making veiled threats of assassination. 
Slipped in your own slime there bubba! Frighten isn't fear in kalifornia?
Nope, no signs for me! You people are the believers and all problems will be solved when you post the signs that you have no firearms and don't believe in violence. Why the criminals will just pass you by and go to the next house where they know they can score a cheap .38 or better. No worries mate.","http://www.4forums.com/political/gun-control-debates/13254-federal-judge-rules-police-cannot-detain-people-openly-carrying-guns.html",369059,28
"1-9183_31_28_3",9183,1,"2009-09-10 13:35:00",681,44,369066,"2009-09-10 13:24:00",412358,92,28,"You write about it so much and now admit it is all propaganda? You make statements for others on their behalf too which is known as (wait for it) a lie!
[QUOTEI'm a big fan of violence.[/QUOTE]
I have found most people that are violent and want disarmed victims are inclined toward illegal acts and tyranny. That is the way it always is and has been in the past. Maybe NATO can put your quote in right below BRADY?",412355,3,9183,1,"Those who might be frightened need not include myself.

I'm a big fan of violence.","http://www.4forums.com/political/gun-control-debates/13254-federal-judge-rules-police-cannot-detain-people-openly-carrying-guns.html",369062,31
"1-9183_34_31_3",9183,1,"2009-09-10 13:46:00",44,681,369071,"2009-09-10 13:35:00",412361,52,31,"About what? I've never said guns scare me. They don't as a matter of fact. Now people that think like you are another matter.

Actually it's not. It's called advocacy.

I have found most armchair patriots to be maladjusted loners and cowards with persecution complexes.",412358,3,9183,1,"You write about it so much and now admit it is all propaganda? You make statements for others on their behalf too which is known as (wait for it) a lie!
[QUOTEI'm a big fan of violence.[/QUOTE]
I have found most people that are violent and want disarmed victims are inclined toward illegal acts and tyranny. That is the way it always is and has been in the past. Maybe NATO can put your quote in right below BRADY?","http://www.4forums.com/political/gun-control-debates/13254-federal-judge-rules-police-cannot-detain-people-openly-carrying-guns.html",369066,34
"1-9183_57_56_4",9183,1,"2009-09-11 08:47:00",681,44,369209,"2009-09-11 08:30:00",412384,52,56,"Apparently they haven't gotten the message that we don't have to ride in the back of the bus anymore nor use the exit for an entrance. What part of a civil right are you struggling with?
Still mad because you didn't get your 40 acres and a mule? emoticonXClown",412383,4,9183,1,"Be that as it may...
We've got much better chicks. 
And weather.

Apparently some New Mexico theater operators do not share your sentiments.","http://www.4forums.com/political/gun-control-debates/13254-federal-judge-rules-police-cannot-detain-people-openly-carrying-guns.html",369208,57
"1-9183_61_57_4",9183,1,"2009-09-11 10:03:00",44,681,369227,"2009-09-11 08:47:00",412388,53,57,"None really. Seems a hassle to me to have to constantly be putting my sidearm in the trunk every time I want to enter a private establishment that asks that I not bring a pistol inside. You do as you wish.

I'm not sure I qualified for that one.",412384,4,9183,1,"Apparently they haven't gotten the message that we don't have to ride in the back of the bus anymore nor use the exit for an entrance. What part of a civil right are you struggling with?
Still mad because you didn't get your 40 acres and a mule? emoticonXClown","http://www.4forums.com/political/gun-control-debates/13254-federal-judge-rules-police-cannot-detain-people-openly-carrying-guns.html",369209,61
"1-9183_63_61_4",9183,1,"2009-09-11 10:10:00",681,44,369229,"2009-09-11 10:03:00",412390,23,61,"You would be more happy if everyone wore a sheet with eyeholes in it?
A civil right is a civil right!",412388,4,9183,1,"None really. Seems a hassle to me to have to constantly be putting my sidearm in the trunk every time I want to enter a private establishment that asks that I not bring a pistol inside. You do as you wish.

I'm not sure I qualified for that one.","http://www.4forums.com/political/gun-control-debates/13254-federal-judge-rules-police-cannot-detain-people-openly-carrying-guns.html",369227,63
"1-9183_66_63_4",9183,1,"2009-09-11 10:18:00",44,681,369234,"2009-09-11 10:10:00",412393,20,63,"I seem to be able to pick them out even when they're out of uniform. Thanks anyway.emoticonXClown",412390,4,9183,1,"You would be more happy if everyone wore a sheet with eyeholes in it?
A civil right is a civil right!","http://www.4forums.com/political/gun-control-debates/13254-federal-judge-rules-police-cannot-detain-people-openly-carrying-guns.html",369229,66
"1-9183_68_66_4",9183,1,"2009-09-11 10:27:00",681,44,369237,"2009-09-11 10:18:00",412395,33,66,"I am certain you can! Thanks for the admission but it was plain without it. You can't deny it is a civil right any longer. Keep on keeping on emoticonXClown",412393,4,9183,1,"I seem to be able to pick them out even when they're out of uniform. Thanks anyway.emoticonXClown","http://www.4forums.com/political/gun-control-debates/13254-federal-judge-rules-police-cannot-detain-people-openly-carrying-guns.html",369234,68
"1-9183_98_97_5",9183,1,"2009-10-05 10:48:00",681,44,372761,"2009-10-05 08:18:00",412425,96,97,"Amen! After 7 pages of fear mongering and foot stomping you have a lot of crow to eat. Enjoy emoticonXSmilie
Don't suppose you will be traveling through NM and Texas or even Nevada with your family now huh? Pretty soon I suppose you will be looking for a refuge somewhere in kalifornia, the first failed State. With the current crop of politicians it probably won't be alone when the economy is sorted out and we may finally get less government which is a good thing from my point of view.",412424,5,9183,1,"Looks like he made out. Seems a stand up guy. Good for him.","http://www.4forums.com/political/gun-control-debates/13254-federal-judge-rules-police-cannot-detain-people-openly-carrying-guns.html",372725,98
"1-9183_99_98_5",9183,1,"2009-10-05 11:09:00",44,681,372768,"2009-10-05 10:48:00",412426,69,98,"Was that what I was doing? Notice how Mr. St. John avoids certain restaurants because they prefer their diners unarmed. 
The theatre's policy is perfectly legal. Mr. St. John didn't break any laws.

Why not? I plan on seeing Zion Nat'l Park next summer with the family. 
I don't expect any of my fellow Park visitors to be sportin' hog legs.",412425,5,9183,1,"Amen! After 7 pages of fear mongering and foot stomping you have a lot of crow to eat. Enjoy emoticonXSmilie
Don't suppose you will be traveling through NM and Texas or even Nevada with your family now huh? Pretty soon I suppose you will be looking for a refuge somewhere in kalifornia, the first failed State. With the current crop of politicians it probably won't be alone when the economy is sorted out and we may finally get less government which is a good thing from my point of view.","http://www.4forums.com/political/gun-control-debates/13254-federal-judge-rules-police-cannot-detain-people-openly-carrying-guns.html",372761,99
"1-9183_101_99_5",9183,1,"2009-10-05 11:15:00",681,44,372771,"2009-10-05 11:09:00",412428,32,99,"You going to be eating that crow with your gun on or off. emoticonXGood

Don't bet on it :) If they are, you going to hightail it to where?",412426,5,9183,1,"Was that what I was doing? Notice how Mr. St. John avoids certain restaurants because they prefer their diners unarmed.
The theatre's policy is perfectly legal. Mr. St. John didn't break any laws.","http://www.4forums.com/political/gun-control-debates/13254-federal-judge-rules-police-cannot-detain-people-openly-carrying-guns.html",372768,101
"1-9183_102_101_5",9183,1,"2009-10-05 11:28:00",44,681,372776,"2009-10-05 11:15:00",412429,3,101,"The saloon.",412428,5,9183,1,"You going to be eating that crow with your gun on or off. emoticonXGood

Don't bet on it :) If they are, you going to hightail it to where?","http://www.4forums.com/political/gun-control-debates/13254-federal-judge-rules-police-cannot-detain-people-openly-carrying-guns.html",372771,102
"1-9183_103_102_5",9183,1,"2009-10-05 11:35:00",681,44,372779,"2009-10-05 11:28:00",412430,21,102,"Not hardly a proper place for children? You going to abandon them amoung all those guns while you drink?",412429,5,9183,1,"The saloon.","http://www.4forums.com/political/gun-control-debates/13254-federal-judge-rules-police-cannot-detain-people-openly-carrying-guns.html",372776,103
"1-9183_104_103_5",9183,1,"2009-10-05 11:41:00",44,681,372782,"2009-10-05 11:35:00",412431,35,103,"I'll send them to the hotel pool. You guys don't open carry while swimming, do you? 
Sounds risky. What if you're assaulted just when someone splashes water in your eyes?",412430,5,9183,1,"Not hardly a proper place for children? You going to abandon them amoung all those guns while you drink?","http://www.4forums.com/political/gun-control-debates/13254-federal-judge-rules-police-cannot-detain-people-openly-carrying-guns.html",372779,104
"1-9183_105_104_6",9183,1,"2009-10-05 11:44:00",758,44,372784,"2009-10-05 11:41:00",412432,17,104,"Yea some libtard is going to splash you while you have a hogleg in the pool!",412431,6,9183,1,"I'll send them to the hotel pool. You guys don't open carry while swimming, do you? 
Sounds risky. What if you're assaulted just when someone splashes water in your eyes?","http://www.4forums.com/political/gun-control-debates/13254-federal-judge-rules-police-cannot-detain-people-openly-carrying-guns.html",372782,105
"1-9183_107_105_6",9183,1,"2009-10-05 13:01:00",44,758,372805,"2009-10-05 11:44:00",412434,15,105,"Not me. I'll catch you later in the bar when you're sans pistola.",412432,6,9183,1,"Yea some libtard is going to splash you while you have a hogleg in the pool!","http://www.4forums.com/political/gun-control-debates/13254-federal-judge-rules-police-cannot-detain-people-openly-carrying-guns.html",372784,107
"1-9183_108_107_6",9183,1,"2009-10-05 13:03:00",758,44,372806,"2009-10-05 13:01:00",412435,12,107,"And receive a lesson in the fine art of I cheat.",412434,6,9183,1,"Not me. I catch you later in the bar when you're sans pistola.","http://www.4forums.com/political/gun-control-debates/13254-federal-judge-rules-police-cannot-detain-people-openly-carrying-guns.html",372805,108
"1-9183_109_108_6",9183,1,"2009-10-05 14:00:00",44,758,372824,"2009-10-05 13:03:00",412436,6,108,"Guess you ain't law-abiding afterall.",412435,6,9183,1,"And receive a lesson in the fine art of I cheat.","http://www.4forums.com/political/gun-control-debates/13254-federal-judge-rules-police-cannot-detain-people-openly-carrying-guns.html",372806,109
"1-9183_112_109_6",9183,1,"2009-10-05 14:36:00",758,44,372835,"2009-10-05 14:00:00",412439,22,109,"Nope just said I cheat when aggressed upon. 30 years of playing grunt taught me a lot of nasty tricks. ",412436,6,9183,1,"Guess you ain't law-abiding afterall.","http://www.4forums.com/political/gun-control-debates/13254-federal-judge-rules-police-cannot-detain-people-openly-carrying-guns.html",372824,112
"1-9183_12_11_7",9183,1,"2009-09-10 10:50:00",2104,44,369030,"2009-09-10 10:45:00",412339,72,11,"Not really necessary. I'll bet a ton of Police departments all over this country are informing their dispatchers on the law because of this case! 
If you are an business owner, and you don't like Open Carry, you can ask someone to leave or post. But that could be a risky decision since dollar bills are walking out of your store, with the request! emoticonXSmilie",412338,7,9183,1,"One should call ahead to make sure you can carry. Bet those calls would be fun to take.","http://www.4forums.com/political/gun-control-debates/13254-federal-judge-rules-police-cannot-detain-people-openly-carrying-guns.html",369028,12
"1-9183_13_12_7",9183,1,"2009-09-10 10:56:00",44,2104,369032,"2009-09-10 10:50:00",412340,41,12,"How many patrons would get up and walk out if they noticed the man sitting next to them was strapped? 
If I was there with my kids I might. 
What's with them gunslinger at the mall fantasy anyway?",412339,7,9183,1,"Not really necessary. I'll bet a ton of Police departments all over this country are informing their dispatchers on the law because of this case! 
If you are an business owner, and you don't like Open Carry, you can ask someone to leave or post. But that could be a risky decision since dollar bills are walking out of your store, with the request! emoticonXSmilie","http://www.4forums.com/political/gun-control-debates/13254-federal-judge-rules-police-cannot-detain-people-openly-carrying-guns.html",369030,13
"1-9183_15_13_7",9183,1,"2009-09-10 11:04:00",2104,44,369036,"2009-09-10 10:56:00",412342,81,13,"Sinjin, it is really simple as far as I am concerned. All we are asking is for everyone to obey the law. You are welcome to do what you wish, but why do fear law abiding citizens being armed, and acting in an extremely lawful way? 
My advice is, If you don't like the laws, try and get your laws changed, otherwise, please obey them! That is my thoughts.",412340,7,9183,1,"How many patrons would get up and walk out if they noticed the man sitting next to them was strapped? 
If I was there with my kids I might. 
What's with them gunslinger at the mall fantasy anyway?","http://www.4forums.com/political/gun-control-debates/13254-federal-judge-rules-police-cannot-detain-people-openly-carrying-guns.html",369032,15
"1-9183_16_15_7",9183,1,"2009-09-10 11:15:00",44,2104,369039,"2009-09-10 11:04:00",412343,60,15,"I worry about armed people with such poor judgement. People willing to frighten people to make a point. People who stand where the President will pass wearing a sidearm and making veiled threats of assassination. 

In California we ask that you leave your gun at home when taking the kiddies to the movies. Silly us.",412342,7,9183,1,"...but why do fear law abiding citizens being armed, and acting in an extremely lawful way?","http://www.4forums.com/political/gun-control-debates/13254-federal-judge-rules-police-cannot-detain-people-openly-carrying-guns.html",369036,16
"1-9183_20_16_7",9183,1,"2009-09-10 12:37:00",2104,44,369054,"2009-09-10 11:15:00",412347,114,16,"All right! Now THAT is the way to do it! Make a law! 
Now That's Legal!
You just don't put someone down on the ground and point your guns at someone because you don't like the law, even though what the perp. is perpatrating is, in fact, 100% legal, and in some states like Ohio, a Constitutional Right!
Where is anyone's wold is that Fair? 
OK Sinjin, we don't like your Computer use! Up against the Wall Matha Freeka! 
But its my Right! 
Not today Scum Bag! emoticonXSmilie
Sorry. Too many old cop shows! emoticonXSmilie",412343,7,9183,1,"I worry about armed people with such poor judgement. People willing to frighten people to make a point. People who stand where the President will pass wearing a sidearm and making veiled threats of assassination. 

In California we ask that you leave your gun at home when taking the kiddies to the movies. Silly us.","http://www.4forums.com/political/gun-control-debates/13254-federal-judge-rules-police-cannot-detain-people-openly-carrying-guns.html",369039,20
"1-9183_43_20_7",9183,1,"2009-09-10 14:37:00",44,2104,369086,"2009-09-10 12:37:00",412370,18,20,"So you are not of the opinion that all gun regulations are infringement of your Constitutional rights?",412347,7,9183,1,"All right! Now THAT is the way to do it! Make a law!
Now That's Legal!","http://www.4forums.com/political/gun-control-debates/13254-federal-judge-rules-police-cannot-detain-people-openly-carrying-guns.html",369054,43
"1-9183_51_43_7",9183,1,"2009-09-11 07:13:00",2104,44,369198,"2009-09-10 14:37:00",412378,203,43,"You misunderstand, and probably on purpose. At least if it is a law prohibiting such, one does not go out expecting to be treated like the law-abiding citizen that they are! 
When one has a Ohio Supreme Court decision, Klein v. Leis, which was incidentally referenced by the Supreme Court in Heller, plus the Ohio AG's memo going to every police station in the state stating that Open Carry is a Right of Ohioans recognized by our Constitution, that is PROOF Positive that one is absolutely in the Right. And now we have a Federal Court decision stating the obvious. 
No one should be made to feel shame for following both our laws, and Ohio's Constitution. When they do, something must be wrong that needs to be fixed. This Federal Court decision, tells us exactly who the wrong are! And it ain't us! emoticonXSmilie 
All we ask is for everyone to obey the laws and our Constitutions! Tarry stops are illegal. 
  Color of Law 
All we ask is for everyone to obey the laws and our Constitutions! Otherwise we have anarchy!",412370,7,9183,1,"So you are not of the opinion that all gun regulations are infringement of your Constitutional rights?","http://www.4forums.com/political/gun-control-debates/13254-federal-judge-rules-police-cannot-detain-people-openly-carrying-guns.html",369086,51
