"key","quote_source_post_discussion_id","posts_dataset_id","posts_timestamp","posts_author_id","quote_source_author_id","posts_native_post_id","quote_source_timestamp","post_text_id","Word_Count","quote_source_post_id","post_text","quote_source_text_id","Dialog_Turn","posts_discussion_id","quote_source_post_dataset_id","Fullquote_text","discussion_url","quote_source_native_post_id","posts_post_id"
"1-9394_224_216_1",9394,1,"2009-11-15 07:26:00",23,153,378399,"2009-11-14 14:00:00",421654,16,216,"LOL, false dilemma there. Because bomb crime exists we can't address gun crime.",421646,1,9394,1,"Suicide car bomb in Pakistan kills 11 - CNN.com

So a suicide bomber killed and injured just about as many people as Hasan did, even though he didn't have access to the ""high-powered semi-automatic FN 5.7 pistol"".
Friday it was 17 people killed in a bombing. Yeah, keeping guns out of the hands of terrorists will make everyone a lot safer.","http://www.4forums.com/political/gun-control-debates/13541-do-you-think-there-will-cry-more-gun-control-over.html",378326,224
"1-9394_225_224_1",9394,1,"2009-11-15 08:44:00",153,23,378410,"2009-11-15 07:26:00",421655,244,224,"No we can't address the issue of ""gun crime"" because people like you, Tim, are always pushing for more and more and more things to be made into crimes when a gun is involved.
People like you just don't like the fact that we have a great deal of freedoms without government interference. And people like you, you absolutely hate that fact. So what do you do? You start screaming and stamping your feet until something else is made into a crime.
Buying ammunition online, buying more than a certain amount of ammunition at one time, buying more than one handgun at a time, owning a gun without a government permit, owning a gun without government approved safety training, keeping a gun at home without locking it up in an inaccessible manner, keeping a gun in your car while you travel, carrying more than a certain amount of ammunition in a magazine, owning a gun inside a city, etc. you want them all to be classified as crimes and severely curtailed by the government.
We're not going to address the issue of ""gun crimes"" because it's an issue that doesn't exist, it's something you simply made up. You're not interested in going after outstanding criminals who terrorize and harm others, you want to make criminals out of us.",421654,1,9394,1,"LOL, false dilemma there. Because bomb crime exists we can't address gun crime.","http://www.4forums.com/political/gun-control-debates/13541-do-you-think-there-will-cry-more-gun-control-over.html",378399,225
"1-9394_226_225_1",9394,1,"2009-11-15 11:41:00",23,153,378430,"2009-11-15 08:44:00",421656,27,225,"LOL, another false dilemma here. We don't have to choose between total regulation of guns or total denial of the problem of gun crime.",421655,1,9394,1,"No we can't address the issue of ""gun crime"" because people like you, Tim, are always pushing for more and more and more things to be made into crimes when a gun is involved.
People like you just don't like the fact that we have a great deal of freedoms without government interference. And people like you, you absolutely hate that fact. So what do you do? You start screaming and stamping your feet until something else is made into a crime.
Buying ammunition online, buying more than a certain amount of ammunition at one time, buying more than one handgun at a time, owning a gun without a government permit, owning a gun without government approved safety training, keeping a gun at home without locking it up in an inaccessible manner, keeping a gun in your car while you travel, carrying more than a certain amount of ammunition in a magazine, owning a gun inside a city, etc. you want them all to be classified as crimes and severely curtailed by the government.
We're not going to address the issue of ""gun crimes"" because it's an issue that doesn't exist, it's something you simply made up. You're not interested in going after outstanding criminals who terrorize and harm others, you want to make criminals out of us.","http://www.4forums.com/political/gun-control-debates/13541-do-you-think-there-will-cry-more-gun-control-over.html",378410,226
"1-9394_228_226_1",9394,1,"2009-11-15 12:38:00",153,23,378439,"2009-11-15 11:41:00",421658,222,226,"We're not discussing matters of totality. We're discussing how people like you, Tim, keep pushing for more things to be reclassified as crimes because you simply don't like them.
The reason there's so much ""gun crime"" is because people like you, Tim, keep trying to get so many things classified as criminal offenses. Things as simple as storing ammunition next to your gun inside your own house, is considered a crime in a number of liberal states. Handguns with a two-tone finish aren't allowed to be owned, even though a single tone finish of the same model is. In other states you have to get permission from the chief of police before you can legally purchase a gun. Some adoption agencies are making the decision that you can either be a gun owner, or an adoptive parent, but not both.
Your continue push to categorize more and more things as ""gun crimes"" is why we refuse to discuss the matter with you. Instead of seeking to increase the prison sentences for gun traffickers and convenience store robbers, you'd rather try and make it harder for people like myself or my neighbor to own a gun for our own legal uses.",421656,1,9394,1,"LOL, another false dilemma here. We don't have to choose between total regulation of guns or total denial of the problem of gun crime.","http://www.4forums.com/political/gun-control-debates/13541-do-you-think-there-will-cry-more-gun-control-over.html",378430,228
"1-9394_229_228_1",9394,1,"2009-11-15 12:51:00",23,153,378444,"2009-11-15 12:38:00",421659,40,228,"Yet another false dilemma. It is not simply a choice between having more gun control than you're comfortable with or sticking your head in the sand in denial of an existing problem. You don't have an argument.",421658,1,9394,1,"We're not discussing matters of totality. We're discussing how people like you, Tim, keep pushing for more things to be reclassified as crimes because you simply don't like them.
The reason there's so much ""gun crime"" is because people like you, Tim, keep trying to get so many things classified as criminal offenses. Things as simple as storing ammunition next to your gun inside your own house, is considered a crime in a number of liberal states. Handguns with a two-tone finish aren't allowed to be owned, even though a single tone finish of the same model is. In other states you have to get permission from the chief of police before you can legally purchase a gun. Some adoption agencies are making the decision that you can either be a gun owner, or an adoptive parent, but not both.
Your continue push to categorize more and more things as ""gun crimes"" is why we refuse to discuss the matter with you. Instead of seeking to increase the prison sentences for gun traffickers and convenience store robbers, you'd rather try and make it harder for people like myself or my neighbor to own a gun for our own legal uses.","http://www.4forums.com/political/gun-control-debates/13541-do-you-think-there-will-cry-more-gun-control-over.html",378439,229
"1-9394_232_229_1",9394,1,"2009-11-15 12:59:00",153,23,378448,"2009-11-15 12:51:00",421662,198,229,"Actually I have an argument, you just don't have the intelligence to see it.
People like you, Tim, you love to talk about the ""epidemic"" of what you call ""gun crimes"". But you offer no examples of just what sort of ""gun crimes"" you're talking about. Nor do you offer any support for tougher punishment of violent offenders like muggers and rapists and gang members.
You never bring up the suggestion of lengthier prison sentences, terminating the option of plea bargains, or eliminating the practice of early parole for good behavior. Instead all you can do is yell how we need more registration, or we need to reduce the number of guns a person can buy at one time, or we need to adopt the laws that another state has, or how we need to implement a permit application process.
I don't see how ""gun crimes"" can be tackled with more paperwork, when those that violate the laws and the rights of others don't apply for paperwork in the first place.
Do you?",421659,1,9394,1,"Yet another false dilemma. It is not simply a choice between having more gun control than you're comfortable with or sticking your head in the sand in denial of an existing problem. You don't have an argument.","http://www.4forums.com/political/gun-control-debates/13541-do-you-think-there-will-cry-more-gun-control-over.html",378444,232
"1-9394_236_232_1",9394,1,"2009-11-15 13:27:00",23,153,378454,"2009-11-15 12:59:00",421666,51,232,"LOL, I don't see where I said all that. Just another one your smokescreens. A person who supports gun control could never, ever support something like longer prison sentences. It just doesn't happen at least not in the sand that Nato buries his head in.",421662,1,9394,1,"Actually I have an argument, you just don't have the intelligence to see it.
People like you, Tim, you love to talk about the ""epidemic"" of what you call ""gun crimes"". But you offer no examples of just what sort of ""gun crimes"" you're talking about. Nor do you offer any support for tougher punishment of violent offenders like muggers and rapists and gang members.
You never bring up the suggestion of lengthier prison sentences, terminating the option of plea bargains, or eliminating the practice of early parole for good behavior. Instead all you can do is yell how we need more registration, or we need to reduce the number of guns a person can buy at one time, or we need to adopt the laws that another state has, or how we need to implement a permit application process.
I don't see how ""gun crimes"" can be tackled with more paperwork, when those that violate the laws and the rights of others don't apply for paperwork in the first place.
Do you?","http://www.4forums.com/political/gun-control-debates/13541-do-you-think-there-will-cry-more-gun-control-over.html",378448,236
"1-9394_249_236_1",9394,1,"2009-11-15 14:23:00",153,23,378477,"2009-11-15 13:27:00",421679,116,236,"So instead of locking up known gun traffickers and keeping them off the streets and away from their clients for periods of 120 years, you'd rather set a law into place that would seek to simply put them out of business by limiting bulk purchases, and in the process allow them to remain free by preventing the authorities from catching them?
Is that how the mind of a gun control supporter works? The individual criminal is of no importance so long as you can restrict firearms access itself? You'd rather keep the criminal element supposedly unarmed and free in public, instead of putting them where they can't victimize anyone?",421666,1,9394,1,"LOL, I don't see where I said all that. Just another one your smokescreens. A person who supports gun control could never, ever support something like longer prison sentences. It just doesn't happen at least not in the sand that Nato buries his head in.","http://www.4forums.com/political/gun-control-debates/13541-do-you-think-there-will-cry-more-gun-control-over.html",378454,249
"1-9394_254_249_1",9394,1,"2009-11-15 14:51:00",23,153,378484,"2009-11-15 14:23:00",421684,38,249,"I only answer for myself: No, no, no, no. Your continual false dilemmas and dishonest efforts to stereotype what your opponents don't explain why you can't address the issue of gun crime.",421679,1,9394,1,"So instead of locking up known gun traffickers and keeping them off the streets and away from their clients for periods of 120 years, you'd rather set a law into place that would seek to simply put them out of business by limiting bulk purchases, and in the process allow them to remain free by preventing the authorities from catching them?
Is that how the mind of a gun control supporter works? The individual criminal is of no importance so long as you can restrict firearms access itself? You'd rather keep the criminal element supposedly unarmed and free in public, instead of putting them where they can't victimize anyone?","http://www.4forums.com/political/gun-control-debates/13541-do-you-think-there-will-cry-more-gun-control-over.html",378477,254
"1-9394_255_254_1",9394,1,"2009-11-15 15:07:00",153,23,378487,"2009-11-15 14:51:00",421685,168,254,"We can't address it because you don't give a definition of what ""gun crime"" you're talking about. Are you simply referring to owning an unregistered firearm? Or are you talking about the shooting death of various innocent people by someone who should've been locked up at the time?

I'm not the one misleading people. I'm not throwing around the term ""gun crime"" and trying to scare people into surrendering their rights in the name of ""protecting the children from harm"". But people like you, Tim, are constantly pushing for more and more laws that will restrict our rights, while at the same time doing nothing to lock up the likes of gang bangers, cop killers and armed home invaders.
When was the last time you ever supported a law that would double the mandatory prison sentence of a criminal found in possession of a firearm during the commission of a robbery?",421684,1,9394,1,"I only answer for myself: No, no, no, no. Your continual false dilemmas and dishonest efforts to stereotype what your opponents don't explain why you can't address the issue of gun crime.","http://www.4forums.com/political/gun-control-debates/13541-do-you-think-there-will-cry-more-gun-control-over.html",378484,255
"1-9394_256_255_1",9394,1,"2009-11-15 15:30:00",23,153,378488,"2009-11-15 15:07:00",421686,53,255,"LOL, you didn't suddenly develop amnesia did you? Go back and read or consider the topic of this thread as a hint about the gun crime we were discussing! 

Why answer since you obviously ignored my answers to your previous questions and you continue with your dishonest stereotyping.?",421685,1,9394,1,"We can't address it because you don't give a definition of what ""gun crime"" you're talking about. Are you simply referring to owning an unregistered firearm? Or are you talking about the shooting death of various innocent people by someone who should've been locked up at the time?

I'm not the one misleading people. I'm not throwing around the term ""gun crime"" and trying to scare people into surrendering their rights in the name of ""protecting the children from harm"". But people like you, Tim, are constantly pushing for more and more laws that will restrict our rights, while at the same time doing nothing to lock up the likes of gang bangers, cop killers and armed home invaders.
When was the last time you ever supported a law that would double the mandatory prison sentence of a criminal found in possession of a firearm during the commission of a robbery?","http://www.4forums.com/political/gun-control-debates/13541-do-you-think-there-will-cry-more-gun-control-over.html",378487,256
"1-9394_260_256_1",9394,1,"2009-11-15 16:53:00",153,23,378506,"2009-11-15 15:30:00",421690,138,256,"No I didn't develop amnesia, I just know that internet trolls such as yourself love to derail topics of discussion by interjecting pointless matter that has no bearing on the original topic. Why should I have believed you were any different?
And for that matter you still haven't answered the question.

Because as the gun control supporter you're behind the 8 ball, in a country with a strong tradition of widespread gun ownership. It's your duty and obligation to answer the questions presented to you.

Because you never gave any answers, you just ""lol"" and post a one line piece of nonsense that has no bearing on the subject.

There's nothing dishonest with what I do. Your practices on the other hand are highly questionable.",421686,1,9394,1,"LOL, you didn't suddenly develop amnesia did you? Go back and read or consider the topic of this thread as a hint about the gun crime we were discussing! 

Why answer since you obviously ignored my answers to your previous questions and you continue with your dishonest stereotyping.?","http://www.4forums.com/political/gun-control-debates/13541-do-you-think-there-will-cry-more-gun-control-over.html",378488,260
"1-9394_262_260_1",9394,1,"2009-11-15 18:35:00",23,153,378512,"2009-11-15 16:53:00",421692,88,260,"LOL, no wonder your ""intelligence"" continues to go unrecognized. The gun crime that we started out discussing was the one that happened at Fort Hood. If you can't even remember what the original topic was then how would you know if someone is trying to derail the topic?

Amnesia again?
http://www.4forums.com/political/gun...tml#post378484

You'd fail an ethics test for sure if you can't recognize anything wrong about your shameless attempts to obfuscate the issue and put arguments into your opponents' mouths.",421690,1,9394,1,"No I didn't develop amnesia, I just know that internet trolls such as yourself love to derail topics of discussion by interjecting pointless matter that has no bearing on the original topic. Why should I have believed you were any different?
And for that matter you still haven't answered the question.

Because as the gun control supporter you're behind the 8 ball, in a country with a strong tradition of widespread gun ownership. It's your duty and obligation to answer the questions presented to you.

Because you never gave any answers, you just ""lol"" and post a one line piece of nonsense that has no bearing on the subject.

There's nothing dishonest with what I do. Your practices on the other hand are highly questionable.","http://www.4forums.com/political/gun-control-debates/13541-do-you-think-there-will-cry-more-gun-control-over.html",378506,262
"1-9394_263_262_1",9394,1,"2009-11-15 19:01:00",153,23,378516,"2009-11-15 18:35:00",421693,198,262,"The incident at Fort Hood wasn't an example of ""gun crime"". What happened was a decorated soldier, a government-funded employee, decided to murder innocent people in cold blood.

You still haven't answered any of my questions, or anyone else's questions. We ask the hard questions that need to be addressed, and you never answer them. We point out the shortcomings of various agendas, and you XXXX them off like we're fruitcakes preaching the end of the world.
Either address the raised points in a clear and concise manner, or stop posting your lol-laced nonsense.

Obfuscate? No I'm not confusing the issue, I'm pointing out the shortcomings in the thinking process people like you tend to exercise. All you have is soundbytes, things that would sound good in a news release. But you don't have a single thing with substance or meaning. You've got nothing that can be applied in a practical manner, in a real world setting. Hell you can't even give a proper definition of what you consider ""gun crime"" to be.",421692,1,9394,1,"LOL, no wonder your ""intelligence"" continues to go unrecognized. The gun crime that we started out discussing was the one that happened at Fort Hood. If you can't even remember what the original topic was then how would you know if someone is trying to derail the topic?

Amnesia again?
http://www.4forums.com/political/gun...tml#post378484

You'd fail an ethics test for sure if you can't recognize anything wrong about your shameless attempts to obfuscate the issue and put arguments into your opponents' mouths.","http://www.4forums.com/political/gun-control-debates/13541-do-you-think-there-will-cry-more-gun-control-over.html",378512,263
"1-9394_264_263_1",9394,1,"2009-11-15 19:26:00",23,153,378517,"2009-11-15 19:01:00",421694,99,263,"Look up ""gun"" and ""crime"" in the dictionary. Gun crime is obviously crime committed with a gun. Such as the incident that happened at Fort Hood. I linked to the four questions that I answered in the last post. The four answers that you ignored and pretended that I hadn't answered while continuing to try to obfuscate the issue. You're desperately trying to distract attention from the glaring shortcomings in your own thinking process. Still no adequate explanation of why you can't address the issue of gun crime.",421693,1,9394,1,"The incident at Fort Hood wasn't an example of ""gun crime"". What happened was a decorated soldier, a government-funded employee, decided to murder innocent people in cold blood.

You still haven't answered any of my questions, or anyone else's questions. We ask the hard questions that need to be addressed, and you never answer them. We point out the shortcomings of various agendas, and you XXXX them off like we're fruitcakes preaching the end of the world.
Either address the raised points in a clear and concise manner, or stop posting your lol-laced nonsense.

Obfuscate? No I'm not confusing the issue, I'm pointing out the shortcomings in the thinking process people like you tend to exercise. All you have is soundbytes, things that would sound good in a news release. But you don't have a single thing with substance or meaning. You've got nothing that can be applied in a practical manner, in a real world setting. Hell you can't even give a proper definition of what you consider ""gun crime"" to be.","http://www.4forums.com/political/gun-control-debates/13541-do-you-think-there-will-cry-more-gun-control-over.html",378516,264
"1-9394_330_329_2",9394,1,"2009-11-18 13:57:00",44,681,379041,"2009-11-18 13:38:00",421760,105,329,"Not quite correct:
""...the statutory definition of 'misdemeanor crime of domestic violence' limits the applicability of § 922(g)(9)’s firearms disability to those who actually used or attempted to use physical force or threatened the use of a deadly weapon in a domestic disturbance. . . . The statute thus targets a specific class of violent offender; only those who have already used or attempted to use force or have threatened the use of a deadly weapon against a domestic victim are banned from possessing firearms.""",421759,2,9394,1,"Meanwhile, back at the 7th Circuit Court of Appeals, the Court upheld Second Amendment rights of a convicted person to possess firearms as a fundamental right and quotedHeller remanding the case to the District Court to rule: Accordingly, we vacate Skoien’s conviction and remand to the district court for further proceedings consistent with this opinion.
U.S.Code 922(g)9 bit the dust :)","http://www.4forums.com/political/gun-control-debates/13541-do-you-think-there-will-cry-more-gun-control-over.html",379037,330
"1-9394_331_330_2",9394,1,"2009-11-18 14:03:00",681,44,379045,"2009-11-18 13:57:00",421761,31,330,"Uh, Yeah? He was on parole at the time for that. The Court mentioned, although he had not raised it, the right to self-defense also.",421760,2,9394,1,"Not quite correct:
""...the statutory definition of 'misdemeanor crime of domestic violence' limits the applicability of § 922(g)(9)’s firearms disability to those who actually used or attempted to use physical force or threatened the use of a deadly weapon in a domestic disturbance. . . . The statute thus targets a specific class of violent offender; only those who have already used or attempted to use force or have threatened the use of a deadly weapon against a domestic victim are banned from possessing firearms.""","http://www.4forums.com/political/gun-control-debates/13541-do-you-think-there-will-cry-more-gun-control-over.html",379041,331
"1-9394_332_331_2",9394,1,"2009-11-18 14:10:00",44,681,379051,"2009-11-18 14:03:00",421762,11,331,"The law itself didn't bite the dust as you stated.",421761,2,9394,1,"Uh, Yeah? He was on parole at the time for that. The Court mentioned, although he had not raised it, the right to self-defense also.","http://www.4forums.com/political/gun-control-debates/13541-do-you-think-there-will-cry-more-gun-control-over.html",379045,332
"1-9394_333_332_2",9394,1,"2009-11-18 14:22:00",681,44,379059,"2009-11-18 14:10:00",421763,44,332,"It did in this case, that is what the State was basing it's prosecution on. The Appeals Court applied intemediate scrutiny. They vacated his conviction and remanded it.
Think the District Court can save face at this point? :)",421762,2,9394,1,"The law itself didn't bite the dust as you stated.","http://www.4forums.com/political/gun-control-debates/13541-do-you-think-there-will-cry-more-gun-control-over.html",379051,333
"1-9394_334_333_2",9394,1,"2009-11-18 14:31:00",44,681,379063,"2009-11-18 14:22:00",421764,29,333,"Will future misdemeanants that did use physical force or threaten to use a firearm on their victims be denied the RKBA under this law? 
Yes they will.",421763,2,9394,1,"It did in this case, that is what the State was basing it's prosecution on. The Appeals Court applied intemediate scrutiny. They vacated his conviction and remanded it.
Think the District Court can save face at this point? :)","http://www.4forums.com/political/gun-control-debates/13541-do-you-think-there-will-cry-more-gun-control-over.html",379059,334
"1-9394_335_334_2",9394,1,"2009-11-18 14:36:00",681,44,379068,"2009-11-18 14:31:00",421765,55,334,"Think they can find ""a compelling government interest"" in each and every case? That is a huge leap. Notice the mention of ""an individual right""? It ends the ""presumptive Constitutionality of felon dispossesion laws"". How many past cases you reckon that will affect slim?",421764,2,9394,1,"Will future misdemeanants that did use physical force or threaten to use a firearm on their victims be denied the RKBA under this law? 
Yes they will.","http://www.4forums.com/political/gun-control-debates/13541-do-you-think-there-will-cry-more-gun-control-over.html",379063,335
"1-9394_336_335_2",9394,1,"2009-11-18 14:59:00",44,681,379081,"2009-11-18 14:36:00",421766,7,335,"You're against felons being denied firearms?",421765,2,9394,1,"Think they can find ""a compelling government interest"" in each and every case? That is a huge leap. Notice the mention of ""an individual right""? It ends the ""presumptive Constitutionality of felon dispossesion laws"". How many past cases you reckon that will affect slim?","http://www.4forums.com/political/gun-control-debates/13541-do-you-think-there-will-cry-more-gun-control-over.html",379068,336
"1-9394_337_336_2",9394,1,"2009-11-18 15:04:00",681,44,379087,"2009-11-18 14:59:00",421767,53,336,"You have some new law that will work on that do ya? Funny the NAS, CDC and others could find no law that was effective.
You forgot the Emerson case and Rothgery v. Gillipie County in the 5th Circuit? The 7th ruling is pretty plain ain't it?",421766,2,9394,1,"You're against felons being denied firearms?","http://www.4forums.com/political/gun-control-debates/13541-do-you-think-there-will-cry-more-gun-control-over.html",379081,337
"1-9394_338_337_2",9394,1,"2009-11-18 15:13:00",44,681,379092,"2009-11-18 15:04:00",421768,26,337,"I'd prefer they weren't allowed to legally purchase them.

It's plain that a misdemeanor conviction for non-violent domestic abuse won't deny you 2A rights.",421767,2,9394,1,"You have some new law that will work on that do ya? Funny the NAS, CDC and others could find no law that was effective.
You forgot the Emerson case and Rothgery v. Gillipie County in the 5th Circuit? The 7th ruling is pretty plain ain't it?","http://www.4forums.com/political/gun-control-debates/13541-do-you-think-there-will-cry-more-gun-control-over.html",379087,338
"1-9394_339_338_2",9394,1,"2009-11-18 15:17:00",681,44,379096,"2009-11-18 15:13:00",421769,43,338,"Well, let me put it to you this way: if you yelled ""fire"" in a crowded theater, would you permanently lose your right to speak? Would you never be allowed to go to the theater again?",421768,2,9394,1,"I'd prefer they weren't allowed to legally purchase them.

It's plain that a misdemeanor conviction for non-violent domestic abuse won't deny you 2A rights.","http://www.4forums.com/political/gun-control-debates/13541-do-you-think-there-will-cry-more-gun-control-over.html",379092,339
"1-9394_340_339_2",9394,1,"2009-11-18 15:19:00",44,681,379097,"2009-11-18 15:17:00",421770,5,339,"Is that a felony?",421769,2,9394,1,"Well, let me put it to you this way: if you yelled ""fire"" in a crowded theater, would you permanently lose your right to speak? Would you never be allowed to go to the theater again?","http://www.4forums.com/political/gun-control-debates/13541-do-you-think-there-will-cry-more-gun-control-over.html",379096,340
"1-9394_342_340_2",9394,1,"2009-11-18 15:21:00",681,44,379099,"2009-11-18 15:19:00",421772,17,340,"Sure could be. Why is that different from ""presumed acts"" with a gun?",421770,2,9394,1,"Is that a felony?","http://www.4forums.com/political/gun-control-debates/13541-do-you-think-there-will-cry-more-gun-control-over.html",379097,342
"1-9394_127_126_3",9394,1,"2009-11-10 10:29:00",1063,44,377633,"2009-11-10 10:15:00",421557,16,126,"By making asinine, troll comments like these, you're not impressing anyone but yourself.",421556,3,9394,1,"Why not just place loaded weapons everywhere in glass cases like fire extinguishers? 
""In case of mass murderer, break glass"". 
I'm for concealed carry at nudist colonies. 
They have rights too!emoticonXKill","http://www.4forums.com/political/gun-control-debates/13541-do-you-think-there-will-cry-more-gun-control-over.html",377631,127
"1-9394_128_127_3",9394,1,"2009-11-10 10:50:00",44,1063,377636,"2009-11-10 10:29:00",421558,27,127,"The notion that we'll never be truly safe until every one of us is carrying a handgun at all times is the epitome of asinine IMO.",421557,3,9394,1,"By making asinine, troll comments like these, you're not impressing anyone but yourself.","http://www.4forums.com/political/gun-control-debates/13541-do-you-think-there-will-cry-more-gun-control-over.html",377633,128
"1-9394_129_128_3",9394,1,"2009-11-10 10:57:00",1063,44,377640,"2009-11-10 10:50:00",421559,27,128,"Agreed. I never really liked this phrase, but back in middle school my teachers always said ""Two wrongs don't make a right.""",421558,3,9394,1,"The notion that we'll never be truly safe until every one of us is carrying a handgun at all times is the epitome of asinine IMO.","http://www.4forums.com/political/gun-control-debates/13541-do-you-think-there-will-cry-more-gun-control-over.html",377636,129
"1-9394_130_129_3",9394,1,"2009-11-10 11:15:00",44,1063,377644,"2009-11-10 10:57:00",421560,17,129,"So to encourage folks to concealed carry everywhere at all times is ""wrong"" IYO?",421559,3,9394,1,"Agreed. I never really liked this phrase, but back in middle school my teachers always said ""Two wrongs don't make a right.""","http://www.4forums.com/political/gun-control-debates/13541-do-you-think-there-will-cry-more-gun-control-over.html",377640,130
"1-9394_131_130_3",9394,1,"2009-11-10 11:21:00",1063,44,377645,"2009-11-10 11:15:00",421561,53,130,"I see more asinine comments down this path.
I don't have a problem with people carrying wherever they go. I don't do it personally, but I have no problem with it. But there are some people who just can't be trusted with firearms, as they have proven.",421560,3,9394,1,"So to encourage folks to concealed carry everywhere at all times is ""wrong"" IYO?","http://www.4forums.com/political/gun-control-debates/13541-do-you-think-there-will-cry-more-gun-control-over.html",377644,131
