"key","quote_source_post_discussion_id","posts_dataset_id","posts_timestamp","posts_author_id","quote_source_author_id","posts_native_post_id","quote_source_timestamp","post_text_id","Word_Count","quote_source_post_id","post_text","quote_source_text_id","Dialog_Turn","posts_discussion_id","quote_source_post_dataset_id","Fullquote_text","discussion_url","quote_source_native_post_id","posts_post_id"
"1-9443_54_46_1",9443,1,"2009-11-26 08:50:00",153,3229,380271,"2009-11-26 08:27:00",423778,6,46,"Only after disarming them previously.",423770,1,9443,1,"You just proved how ridiculous the argument is that we need arms to defend ourselves from the government.
You just don't get it, do you?.
If, as you say the military will stand with the populace, then they will protect us and the argument that we need arms to defend ourselves from the government does not hold water...
You seem to be the one ignorant of history. Many times countries have turned it's own military against it's citizens.","http://www.4forums.com/political/gun-control-debates/13603-brief-history-right-self-defense.html",380263,54
"1-9443_56_54_1",9443,1,"2009-11-26 09:04:00",3229,153,380273,"2009-11-26 08:50:00",423780,124,54,"Yeah, right. 
So you believe they want to disarm the citizens so they can take over? I have news for you. Those that want gun control are pacifists that just want to reduce the carnage from guns in this country. That is their motivation.
Here is your argument. We need arms to protect us from a tyrannical government. Right? Then you say the military would stand by it's citizens. Right? 
So we need arms to defend against who? The police? ATF? FBI? Who? Your argument does not hold water.
It's funny how some can throw out insults, but when I defend myself they start crying.",423778,1,9443,1,"Only after disarming them previously.","http://www.4forums.com/political/gun-control-debates/13603-brief-history-right-self-defense.html",380271,56
"1-9443_62_56_1",9443,1,"2009-11-26 09:56:00",153,3229,380283,"2009-11-26 09:04:00",423786,139,56,"Actually it's the politicians that seek this. Those in government, in a position to control through force.

Aha, now we know what side of the debate you're on, Callahan. You're in the gun control camp. Nobody on the gun rights side of the debate would ever use such a stupid statement. There's no such thing as ""carnage from guns"", it's the violent offenders that produce the carnage, not their tools of choice.

Yes. Any government.

Some of it would, some wouldn't. But those that would adhere to their oath won't be detectable until it comes down to it. And we can't rely on them to do all the work in fighting a tyrannical dictator that used to be their boss.",423780,1,9443,1,"Yeah, right. 
So you believe they want to disarm the citizens so they can take over? I have news for you. Those that want gun control are pacifists that just want to reduce the carnage from guns in this country. That is their motivation.
Here is your argument. We need arms to protect us from a tyrannical government. Right? Then you say the military would stand by it's citizens. Right? 
So we need arms to defend against who? The police? ATF? FBI? Who? Your argument does not hold water.
It's funny how some can throw out insults, but when I defend myself they start crying.","http://www.4forums.com/political/gun-control-debates/13603-brief-history-right-self-defense.html",380273,62
"1-9443_66_62_1",9443,1,"2009-11-26 10:20:00",3229,153,380290,"2009-11-26 09:56:00",423790,20,62,"The problem is the extreme people on both sides of the gun issue are out of touch with reality.",423786,1,9443,1,"Actually it's the politicians that seek this. Those in government, in a position to control through force.
Just a little paranoid?
Aha, now we know what side of the debate you're on, Callahan. You're in the gun control camp. Nobody on the gun rights side of the debate would ever use such a stupid statement. There's no such thing as ""carnage from guns"", it's the violent offenders that produce the carnage, not their tools of choice.
Right. How many people do you think would have been killed at Fort Hood had the perp only a knife?
Yes. Any government.
Some of it would, some wouldn't. But those that would adhere to their oath won't be detectable until it comes down to it. And we can't rely on them to do all the work in fighting a tyrannical dictator that used to be their boss. And who decides when a government is tyrannical?","http://www.4forums.com/political/gun-control-debates/13603-brief-history-right-self-defense.html",380283,66
"1-9443_73_66_1",9443,1,"2009-11-26 10:41:00",153,3229,380298,"2009-11-26 10:20:00",423797,169,66,"Over in the Philippines a mayor is being charged with the kidnapping and murder of 57 people.
Since this is an example of a government official being directly responsible for the killing of innocent people, I think that shatters your little ""paranoia"" argument.

How many people would have been killed if the rest of the soldiers had been armed at the time?
Or better yet. How many people do you think Hasan would've killed if he decided to emulate his muslim brothers and simply go suicide bomber?

We the people do.

More so with the side pushing control by the government, than those that seek to expand on the concept of individual rights.
Do people like you honestly believe the bull**** your party shovels? Do you actually think terrorists are coming to America to acquire inferior weapons when they could get superior grade stuff from China, Korea, Russia, Colombia and other such nations?",423790,1,9443,1,"Just a little paranoid?","http://www.4forums.com/political/gun-control-debates/13603-brief-history-right-self-defense.html",380290,73
"1-9443_31_28_2",9443,1,"2009-11-25 15:55:00",681,3229,380204,"2009-11-25 14:50:00",423755,58,28,"Exactly what makes you think the armed forces would abandon their oath ""to uphold and defend this Constitution from all enemies domestic or foreign""?
You are kinda long on immagination and short on realistic situational awareness!
Quite a few here posting are either service members or ex service members and most are Officers.",423752,2,9443,1,"I just thought this quote was a little ridiculous.
""I am an American citizen and that's my right,"" he explained. ""If someone fights for my gun, that's what happens.""
You don't see the problem with a drunk and a gun and does his rights to bear arms still apply? In your mind did he have the right to kill his friend?
If they are not sucessful they are not defending themselves from the US Armed Forces. Trying isn't defending.","http://www.4forums.com/political/gun-control-debates/13603-brief-history-right-self-defense.html",380200,31
"1-9443_40_31_2",9443,1,"2009-11-26 07:40:00",3229,681,380254,"2009-11-25 15:55:00",423764,126,31,"Ok. If the military would not abandon their oath to defend the constitution why do we need arms to defend ourselves from them? One of the main arguments for the right to bear arms is to protect ourself from a tyrannical government. Yet you believe it would never happen. It does not take any imagination to believe a government could turn on it's own people.
There are examples throughout history where tyrannical leaders get control of their countries military and turn it on those that oppose them. Do you think the Germans could have ever committed the atrocities had Hitler not come along? And do you really believe had the Jews been armed they could have stopped him?",423755,2,9443,1,"Exactly what makes you think the armed forces would abandon their oath ""to uphold and defend this Constitution from all enemies domestic or foreign""?
You are kinda long on immagination and short on realistic situational awareness!
Quite a few here posting are either service members or ex service members and most are Officers.","http://www.4forums.com/political/gun-control-debates/13603-brief-history-right-self-defense.html",380204,40
"1-9443_42_40_2",9443,1,"2009-11-26 08:03:00",681,3229,380259,"2009-11-26 07:40:00",423766,149,40,"Tyrannical governments does not necessasarily include the military because they often dispose tyrants by military coup. Now if you are talking about private government forces under the guise of neccesity by trying to strong arm the populace with corrupt agents and dirty cops that is something else and yes, that is why we have the 2A. The government is good about making criminals to eliminate their risks of an armed revolt. Perhaps you should read The Gulag Archipelago by Aleksandr I. Solzhenitsyn? Pay particular attention to footnote 5 in the first of 3 volumes.
I never said ""it couldn't happen"". I said this Republic is loaded with well trained ex soldiers and Officers which would be a match for any modern day army and what arms they didn't have could easily be acquired and the command structure already exists.",423764,2,9443,1,"Ok. If the military would not abandon their oath to defend the constitution why do we need arms to defend ourselves from them? One of the main arguments for the right to bear arms is to protect ourself from a tyrannical government. Yet you believe it would never happen. It does not take any imagination to believe a government could turn on it's own people.
There are examples throughout history where tyrannical leaders get control of their countries military and turn it on those that oppose them. Do you think the Germans could have ever committed the atrocities had Hitler not come along? And do you really believe had the Jews been armed they could have stopped him?","http://www.4forums.com/political/gun-control-debates/13603-brief-history-right-self-defense.html",380254,42
"1-9443_44_42_2",9443,1,"2009-11-26 08:22:00",3229,681,380261,"2009-11-26 08:03:00",423768,117,42,"So who do we need arms to defend ourselves from if not the military? The FBI? The police? The sheriff? ATF? All I am trying to show is how ridiculous the argument is that we need arms to defend ourselves from our government.
Are you serious about US citizens being a match for the US Military? That is ridiculous. Are you familiar with weapons systems posessesd by the military? If there was a total economic collapse followed by anarchy, those that controlled the military would control the country. The threat of the use of chemical or biological weapons would be enough to control the masses.",423766,2,9443,1,"Tyrannical governments does not necessasarily include the military because they often dispose tyrants by military coup. Now if you are talking about private government forces under the guise of neccesity by trying to strong arm the populace with corrupt agents and dirty cops that is something else and yes, that is why we have the 2A. The government is good about making criminals to eliminate their risks of an armed revolt. Perhaps you should read The Gulag Archipelago by Aleksandr I. Solzhenitsyn? Pay particular attention to footnote 5 in the first of 3 volumes.
I never said ""it couldn't happen"". I said this Republic is loaded with well trained ex soldiers and Officers which would be a match for any modern day army and what arms they didn't have could easily be acquired and the command structure already exists.","http://www.4forums.com/political/gun-control-debates/13603-brief-history-right-self-defense.html",380259,44
"1-9443_49_44_2",9443,1,"2009-11-26 08:33:00",681,3229,380266,"2009-11-26 08:22:00",423773,119,44,"First part: Sure, from anyone who tries to be Above the Law.
Second Part: Yes, I am serious as a heart attack. What ex soldier is not? You also overlook the fact there are 50 States involved and each has access and training on all weapon features. There are two armed bodies in each State, the State Guards and the National Guards made up of citizens within the States. They come under the power of the Governors of each State and the leaders and officers are appointed by the Governor.
Do you want to continue on with your fantasy or are you beginning to get the picture?",423768,2,9443,1,"So who do we need arms to defend ourselves from if not the military? The FBI? The police? The sheriff? ATF? All I am trying to show is how ridiculous the argument is that we need arms to defend ourselves from our government.
Are you serious about US citizens being a match for the US Military? That is ridiculous. Are you familiar with weapons systems posessesd by the military? If there was a total economic collapse followed by anarchy, those that controlled the military would control the country. The threat of the use of chemical or biological weapons would be enough to control the masses.","http://www.4forums.com/political/gun-control-debates/13603-brief-history-right-self-defense.html",380261,49
