"key","quote_source_post_discussion_id","posts_dataset_id","posts_timestamp","posts_author_id","quote_source_author_id","posts_native_post_id","quote_source_timestamp","post_text_id","Word_Count","quote_source_post_id","post_text","quote_source_text_id","Dialog_Turn","posts_discussion_id","quote_source_post_dataset_id","Fullquote_text","discussion_url","quote_source_native_post_id","posts_post_id"
"1-9474_47_37_1",9474,1,"2009-11-30 04:16:00",758,435,380833,"2009-11-29 17:38:00",424854,8,37,"Brownbagging it in the basement today eh!",424844,1,9474,1,"It seems even open carry and a badge won't help if a gun nut or two wants to shoot you.
As for complaints of mocking the dead from someone fond of slandering them when they were living, where's the sick-bag?","http://www.4forums.com/political/gun-control-debates/13643-why-some-people-so-nuts-about-guns.html",380771,47
"1-9474_49_47_1",9474,1,"2009-11-30 09:24:00",435,758,380862,"2009-11-30 04:16:00",424856,8,47,"Do you ever slither out of it?",424854,1,9474,1,"Brownbagging it in the basement today eh!","http://www.4forums.com/political/gun-control-debates/13643-why-some-people-so-nuts-about-guns.html",380833,49
"1-9474_51_49_1",9474,1,"2009-11-30 11:25:00",758,435,380895,"2009-11-30 09:24:00",424858,33,49,"Try to be original comic relief will ya. It must be an awesome sight a 30 stone jelly roll with a head so small a thimble fits as a steel helmet.",424856,1,9474,1,"Do you ever slither out of it?","http://www.4forums.com/political/gun-control-debates/13643-why-some-people-so-nuts-about-guns.html",380862,51
"1-9474_56_51_1",9474,1,"2009-11-30 12:38:00",435,758,380917,"2009-11-30 11:25:00",424863,21,51,"The Atkins diet and gastric banding might get you down to such a size, but don't buy any mirrors.",424858,1,9474,1,"Try to be original comic relief will ya. It must be an awesome sight a 30 stone jelly roll with a head so small a thimble fits as a steel helmet.","http://www.4forums.com/political/gun-control-debates/13643-why-some-people-so-nuts-about-guns.html",380895,56
"1-9474_60_56_1",9474,1,"2009-11-30 13:14:00",758,435,380924,"2009-11-30 12:38:00",424867,22,56,"Good luck with your diet and binding. Shame you can't look in mirrors but then you're Lana Turner's brother Stomach.",424863,1,9474,1,"The Atkins diet and gastric banding might get you down to such a size, but don't buy any mirrors.","http://www.4forums.com/political/gun-control-debates/13643-why-some-people-so-nuts-about-guns.html",380917,60
