"key","quote_source_post_discussion_id","posts_dataset_id","posts_timestamp","posts_author_id","quote_source_author_id","posts_native_post_id","quote_source_timestamp","post_text_id","Word_Count","quote_source_post_id","post_text","quote_source_text_id","Dialog_Turn","posts_discussion_id","quote_source_post_dataset_id","Fullquote_text","discussion_url","quote_source_native_post_id","posts_post_id"
"1-9554_11_9_1",9554,1,"2010-01-04 10:33:00",153,44,384559,"2010-01-04 10:16:00",428333,48,9,"And you still haven't proven that this is a genuine problem that needs to be addressed.

So you admit straw purchasers are able to defeat various gun control laws. You've just eviscerated your side's argument for why we should have gun rationing and registration laws.",428331,1,9554,1,"In most states a ""law-abiding"" citizen can sell their firearms to anyone, no questions asked.

They just send their girlfriends or buy second hand from private parties.","http://www.4forums.com/political/gun-control-debates/13749-more-guns-equal-more-crime.html",384556,11
"1-9554_12_11_1",9554,1,"2010-01-04 10:41:00",44,153,384560,"2010-01-04 10:33:00",428334,28,11,"Turned out to be for Steve McNair.

But no straw purchaser is needed to buy second hand in most states. One problem at a time.",428333,1,9554,1,"And you still haven't proven that this is a genuine problem that needs to be addressed.

So you admit straw purchasers are able to defeat various gun control laws. You've just eviscerated your side's argument for why we should have gun rationing and registration laws.","http://www.4forums.com/political/gun-control-debates/13749-more-guns-equal-more-crime.html",384559,12
"1-9554_13_12_1",9554,1,"2010-01-04 11:12:00",153,44,384563,"2010-01-04 10:41:00",428335,82,12,"Always a case that slips through the cracks...

Well how about we focus on the genuine problem instead of making something else into a problem. Instead of playing the game ""what new law can we pass now"" let's do something to focus on the one million dangerous gang members we've got running around free. They've been linked to 80% of the crimes committed in the country, there's no justified excuse for not going after them.",428334,1,9554,1,"Turned out to be for Steve McNair.

But no straw purchaser is needed to buy second hand in most states. One problem at a time.","http://www.4forums.com/political/gun-control-debates/13749-more-guns-equal-more-crime.html",384560,13
"1-9554_14_13_1",9554,1,"2010-01-04 11:31:00",44,153,384564,"2010-01-04 11:12:00",428336,66,13,"Does the Grand Canyon strike you as a ""crack"" as well?

Like? What makes them so dangerous if it ain't their guns and their willingness to use them? 

This assumes that no DA is presently going after them. Something I highly doubt. 
Diversionary tactic on your part. Wouldn't making guns harder for them to acquire be helpful?",428335,1,9554,1,"Always a case that slips through the cracks...

Well how about we focus on the genuine problem instead of making something else into a problem. Instead of playing the game ""what new law can we pass now"" let's do something to focus on the one million dangerous gang members we've got running around free. They've been linked to 80% of the crimes committed in the country, there's no justified excuse for not going after them.","http://www.4forums.com/political/gun-control-debates/13749-more-guns-equal-more-crime.html",384563,14
"1-9554_15_14_1",9554,1,"2010-01-04 11:56:00",153,44,384567,"2010-01-04 11:31:00",428337,187,14,"No, but such incidents appear to be isolated in nature. That is unless you're sitting on a piece of evidence that would prove second hand purchases more often than not lead to violence against others.

Their connections with the mexican drug cartel for one thing. They're local distributors for whatever drugs get smuggled across the border.

I haven't seen any headlines lately about increased prosecution of violent gang members.
Have you?

No it wouldn't, because there's no way to make guns harder to get in this country when it comes to violent individuals like gang members. The only thing you can accomplish is making it harder for honest people to acquire them for their own defense.
If the drugs being distributed by the gang members are coming from across the mexican border, what would really prevent them from simply importing their weapons if the local sources were somehow magically dried up?
Do try and keep up, this is a very serious matter. We're just short of qualifying as a full scale war.",428336,1,9554,1,"Does the Grand Canyon strike you as a ""crack"" as well?

Like? What makes them so dangerous if it ain't their guns and their willingness to use them? 

This assumes that no DA is presently going after them. Something I highly doubt. 
Diversionary tactic on your part. Wouldn't making guns harder for them to acquire be helpful?","http://www.4forums.com/political/gun-control-debates/13749-more-guns-equal-more-crime.html",384564,15
"1-9554_47_45_2",9554,1,"2010-01-05 09:44:00",153,44,384705,"2010-01-05 09:17:00",428369,47,45,"I fail to see exactly how this qualifies as a loophole.

Because the initial buyer isn't a federally licensed individual subject to government sanctions and regulations. You can't expect private individuals to fill the same duties.

Through the exercise of judgment and discretion.",428367,2,9554,1,"The lack of background checks on private sales applies to gun shows and sales transacted elsewhere.
To say there's no ""gun show loophole"" is correct because the ""loophole"" extends well beyond gun shows.","http://www.4forums.com/political/gun-control-debates/13749-more-guns-equal-more-crime.html",384700,47
"1-9554_50_47_2",9554,1,"2010-01-05 10:22:00",44,153,384708,"2010-01-05 09:44:00",428372,67,47,"Call it what you like. It's a way to buy a gun when you're not allowed to.

I don't expect them to fill duties. I expect them to go to someone who can make sure the transaction isn't illegal one way or the other.

That's rich. You know a felon when you see one or speak for a minutes to one?",428369,2,9554,1,"I fail to see exactly how this qualifies as a loophole.

Because the initial buyer isn't a federally licensed individual subject to government sanctions and regulations. You can't expect private individuals to fill the same duties.

Through the exercise of judgment and discretion.","http://www.4forums.com/political/gun-control-debates/13749-more-guns-equal-more-crime.html",384705,50
"1-9554_55_50_2",9554,1,"2010-01-05 11:00:00",153,44,384717,"2010-01-05 10:22:00",428377,45,50,"The government has no business invading into the private, legal activities of two individuals.

And how is requirement able to defeat straw purchasers?

If you don't feel comfortable making the sale, don't make it. It's as simple as that.",428372,2,9554,1,"Call it what you like. It's a way to buy a gun when you're not allowed to.

I don't expect them to fill duties. I expect them to go to someone who can make sure the transaction isn't illegal one way or the other.

That's rich. You know a felon when you see one or speak for a minutes to one?","http://www.4forums.com/political/gun-control-debates/13749-more-guns-equal-more-crime.html",384708,55
"1-9554_65_55_2",9554,1,"2010-01-05 14:40:00",44,153,384765,"2010-01-05 11:00:00",428387,56,55,"It does when the law says there are people who cannot buy and it's impossible to know who's who without a background check. 

It's not. It's meant to prevent felons from buying for themselves.

And if you're comfortable selling to whomever has the cash, your fellow citizens be damned. Swell.",428377,2,9554,1,"The government has no business invading into the private, legal activities of two individuals.

And how is requirement able to defeat straw purchasers?

If you don't feel comfortable making the sale, don't make it. It's as simple as that.","http://www.4forums.com/political/gun-control-debates/13749-more-guns-equal-more-crime.html",384717,65
"1-9554_74_65_2",9554,1,"2010-01-05 16:28:00",153,44,384787,"2010-01-05 14:40:00",428396,225,65,"Previously the government declared it had just cause to know about the marital activity of private citizens and what they did in their bedrooms at night. The Supreme Court ruled that they didn't.
Simply because the government says that they have the right to know, doesn't mean they actually do.

And yet we have people like the Brady Campaign pointing to incidents of people with felony records being able to buy guns from gun stores. They're quick to blame the dealers for being corrupt and paint them as the problem. But considering the Nigerian was allowed to fly into this country, I think it has more to do with the government being lax in its duties.

You know what, I'm tired of this game. In this post-9/11 world a lot of people are trying to push for the punishment of people who do wrongful acts, circumstances be damned. They don't care why they did it or what the reasons were, they just want blood.
You can't prove that private sellers are knowingly and intentionally selling to a prohibited individual and in possession of mens rea. Therefore you can't prove that private sellers are the real problem, rather than just another victim in the chain of crimes.",428387,2,9554,1,"It does when the law says there are people who cannot buy and it's impossible to know who's who without a background check. 

It's not. It's meant to prevent felons from buying for themselves.

And if you're comfortable selling to whomever has the cash, your fellow citizens be damned. Swell.","http://www.4forums.com/political/gun-control-debates/13749-more-guns-equal-more-crime.html",384765,74
"1-9554_8_7_3",9554,1,"2010-01-04 10:00:00",320,44,384553,"2010-01-04 09:52:00",428330,46,7,"Arm law-abiding citizens, naturally, unless you're foolish enough to take a knife to a gunfight. emoticonXKill
BTW, in case you aren't aware, not too many gang bangers attend gun shows...... at least that's the case here in Detroit subs.",428329,3,9554,1,"from the same CSM article:
""But more pragmatically, groups like the Brady Campaign to Prevent Gun Violence have mostly targeted illegal sales and gun-show loopholes as the primary problem in America’s gun culture. They say such loopholes and lax enforcement allow violent criminals to get their hands on used, stolen, and inexpensive guns.""
sinjin - What are the pro-gun proposals to combat ""illegal sales""?","http://www.4forums.com/political/gun-control-debates/13749-more-guns-equal-more-crime.html",384551,8
"1-9554_9_8_3",9554,1,"2010-01-04 10:16:00",44,320,384556,"2010-01-04 10:00:00",428331,32,8,"In most states a ""law-abiding"" citizen can sell their firearms to anyone, no questions asked.

They just send their girlfriends or buy second hand from private parties.",428330,3,9554,1,"Arm law-abiding citizens, naturally, unless you're foolish enough to take a knife to a gunfight. emoticonXKill
BTW, in case you aren't aware, not too many gang bangers attend gun shows...... at least that's the case here in Detroit subs.","http://www.4forums.com/political/gun-control-debates/13749-more-guns-equal-more-crime.html",384553,9
"1-9554_19_9_3",9554,1,"2010-01-04 12:52:00",320,44,384571,"2010-01-04 10:16:00",428341,46,9,"I'm curious. Have you EVER been to a gun show in your life? The reason I ask is because I have and I can count the number of women buying guns at the one's I've been to on less than one finger. emoticonXRolleyes",428331,3,9554,1,"In most states a ""law-abiding"" citizen can sell their firearms to anyone, no questions asked.

They just send their girlfriends or buy second hand from private parties.","http://www.4forums.com/political/gun-control-debates/13749-more-guns-equal-more-crime.html",384556,19
"1-9554_21_19_3",9554,1,"2010-01-04 14:03:00",44,320,384587,"2010-01-04 12:52:00",428343,110,19,"No, I've never been to a gun show.
""Straw purchasers who buy for people who can't legally acquire firearms because of age requirements (21 to buy a handgun; 18 to buy a long gun), or criminal record, or who want to buy them anonymously. Gang members frequently have their girlfriends buy guns for them. In one case, two handguns used in a gang-related drive-by murder were purchased by a father for his underage sons.""
Path of a Bullet | Dart Center for Journalism & Trauma
sinjin - maybe the ladies prefer gun shops to large shows.",428341,3,9554,1,"I'm curious. Have you EVER been to a gun show in your life? The reason I ask is because I have and I can count the number of women buying guns at the one's I've been to on less than one finger. emoticonXRolleyes","http://www.4forums.com/political/gun-control-debates/13749-more-guns-equal-more-crime.html",384571,21
"1-9554_42_21_3",9554,1,"2010-01-04 18:05:00",320,44,384641,"2010-01-04 14:03:00",428364,22,21,"If that's the case, then what problem are you trying to solve by closing the so-called gun show loophole? emoticonXConfused",428343,3,9554,1,"No, I've never been to a gun show.
""Straw purchasers who buy for people who can't legally acquire firearms because of age requirements (21 to buy a handgun; 18 to buy a long gun), or criminal record, or who want to buy them anonymously. Gang members frequently have their girlfriends buy guns for them. In one case, two handguns used in a gang-related drive-by murder were purchased by a father for his underage sons.""
Path of a Bullet | Dart Center for Journalism & Trauma
sinjin - maybe the ladies prefer gun shops to large shows.","http://www.4forums.com/political/gun-control-debates/13749-more-guns-equal-more-crime.html",384587,42
"1-9554_45_42_3",9554,1,"2010-01-05 09:17:00",44,320,384700,"2010-01-04 18:05:00",428367,75,42,"The lack of background checks on private sales applies to gun shows and sales transacted elsewhere. 
To say there's no ""gun show loophole"" is correct because the ""loophole"" extends well beyond gun shows.
If it's reasonable to require a background check for the initial buyer, then why not every subsequent buyer?
How can a private citizen know they're not selling to a ""prohibited person""?",428364,3,9554,1,"If that's the case, then what problem are you trying to solve by closing the so-called gun show loophole? emoticonXConfused","http://www.4forums.com/political/gun-control-debates/13749-more-guns-equal-more-crime.html",384641,45
"1-9554_46_45_3",9554,1,"2010-01-05 09:31:00",320,44,384703,"2010-01-05 09:17:00",428368,99,45,"Let's recap your statements. 
First, you claimed that gang bangers were buying guns at gun shows. When shown the folly of that statement, you backpeddled to ""their girlfriends were buying them for them at the shows"".
When that absurdity was exposed, you backpeddled to ""the GFs bought them at gun stores for their gang banging friends.""
If you backpeddle any further, you're going to find yourself stumbling off your cliff of liberaL absurdity and back to the real world where gun show sales aren't an issue.",428367,3,9554,1,"The lack of background checks on private sales applies to gun shows and sales transacted elsewhere. 
To say there's no ""gun show loophole"" is correct because the ""loophole"" extends well beyond gun shows.
If it's reasonable to require a background check for the initial buyer, then why not every subsequent buyer?
How can a private citizen know they're not selling to a ""prohibited person""?","http://www.4forums.com/political/gun-control-debates/13749-more-guns-equal-more-crime.html",384700,46
"1-9554_49_46_3",9554,1,"2010-01-05 10:18:00",44,320,384707,"2010-01-05 09:31:00",428371,13,46,"Please quote where I claimed gang bangers buy guns at gun shows.",428368,3,9554,1,"Let's recap your statements. 
First, you claimed that gang bangers were buying guns at gun shows. When shown the folly of that statement, you backpeddled to ""their girlfriends were buying them for them at the shows"".
When that absurdity was exposed, you backpeddled to ""the GFs bought them at gun stores for their gang banging friends.""
If you backpeddle any further, you're going to find yourself stumbling off your cliff of liberaL absurdity and back to the real world where gun show sales aren't an issue.","http://www.4forums.com/political/gun-control-debates/13749-more-guns-equal-more-crime.html",384703,49
"1-9554_57_49_3",9554,1,"2010-01-05 11:58:00",320,44,384720,"2010-01-05 10:18:00",428379,59,49,"Here ya go. The comment in red is your response.

Now, anyone with a modicum of knowledge of the English language knows that the ""THEY"" you are referring to is the subject of my preceding statement ""gang bangers"". 
You, sir, have been hoisted on your own petard. emoticonXKill",428371,3,9554,1,"Please quote where I claimed gang bangers buy guns at gun shows.","http://www.4forums.com/political/gun-control-debates/13749-more-guns-equal-more-crime.html",384707,57
"1-9554_64_57_3",9554,1,"2010-01-05 14:13:00",44,320,384764,"2010-01-05 11:58:00",428386,43,57,"If ""they"" send a proxy then ""they"" aren't buying are ""they""?
I didn't bring gang members up in the first place. That was Nato.

Where's the ""First"" you claim I posted?",428379,3,9554,1,"Here ya go. The comment in red is your response.

Now, anyone with a modicum of knowledge of the English language knows that the ""THEY"" you are referring to is the subject of my preceding statement ""gang bangers"". 
You, sir, have been hoisted on your own petard. emoticonXKill","http://www.4forums.com/political/gun-control-debates/13749-more-guns-equal-more-crime.html",384720,64
"1-9554_95_64_3",9554,1,"2010-01-06 18:52:00",320,44,384889,"2010-01-05 14:13:00",428417,31,64,"You only claimed that they bought them via proxy after I said gang bangers don't attend gun shows. 

Really, Sinjin, feigning ignorance isn't helping your cause. emoticonXRolleyes",428386,3,9554,1,"If ""they"" send a proxy then ""they"" aren't buying are ""they""?
I didn't bring gang members up in the first place. That was Nato.

Where's the ""First"" you claim I posted?","http://www.4forums.com/political/gun-control-debates/13749-more-guns-equal-more-crime.html",384764,95
"1-9554_16_7_4",9554,1,"2010-01-04 12:41:00",758,44,384568,"2010-01-04 09:52:00",428338,34,7,"In a word sin, enforcement. Seems with all those laws and knowing who and where the illegal straw purchases came from, there is very little done. An agenda perhaps?",428329,4,9554,1,"from the same CSM article:
""But more pragmatically, groups like the Brady Campaign to Prevent Gun Violence have mostly targeted illegal sales and gun-show loopholes as the primary problem in America’s gun culture. They say such loopholes and lax enforcement allow violent criminals to get their hands on used, stolen, and inexpensive guns.""
sinjin - What are the pro-gun proposals to combat ""illegal sales""?","http://www.4forums.com/political/gun-control-debates/13749-more-guns-equal-more-crime.html",384551,16
"1-9554_22_16_4",9554,1,"2010-01-04 14:06:00",44,758,384590,"2010-01-04 12:41:00",428344,20,16,"They know who and where how? Can't prosecute someone who simply says, ""I lost it"".",428338,4,9554,1,"...knowing who and where the illegal straw purchases came from, there is very little done. An agenda perhaps?","http://www.4forums.com/political/gun-control-debates/13749-more-guns-equal-more-crime.html",384568,22
"1-9554_25_22_4",9554,1,"2010-01-04 14:19:00",758,44,384598,"2010-01-04 14:06:00",428347,49,22,"Oh they have Sarah stating she gave it to her son. Didn't lose it. Straw purchase, 10 years for false statement on the 4473. You were provided with examples in another thread so don't play dumb. Use google and look. I did.",428344,4,9554,1,"They know who and where how? Can't prosecute someone who simply says, ""I lost it"".","http://www.4forums.com/political/gun-control-debates/13749-more-guns-equal-more-crime.html",384590,25
"1-9554_26_25_4",9554,1,"2010-01-04 14:25:00",44,758,384600,"2010-01-04 14:19:00",428348,43,25,"I had no idea you were referring to Sarah Brady. I was asking about all those other purchases where we'll never know the purchase was for someone else. And if the weapon turns up the original buyer is legally untouchable.",428347,4,9554,1,"Oh they have Sarah stating she gave it to her son. Didn't lose it. Straw purchase, 10 years for false statement on the 4473. You were provided with examples in another thread so don't play dumb. Use google and look. I did.","http://www.4forums.com/political/gun-control-debates/13749-more-guns-equal-more-crime.html",384598,26
"1-9554_28_26_4",9554,1,"2010-01-04 14:34:00",758,44,384603,"2010-01-04 14:25:00",428350,170,26,"That was one. Here's another. 
ATF Response to the City of New York’s Report “Gun Show Undercover: Report on Illegal Sales at Gun Shows”
The following statement is from W. Larry Ford, ATF Assistant Director, Office of Public and Government Affairs:
“ATF has received the “Report on Illegal Sales at Gun Shows” by New York City Mayor Michael Bloomberg, and is reviewing it along with the Department of Justice. ATF did not participate in the operations conducted at the gun shows highlighted in the report, but will assess the need to initiate any criminal investigations.”
Keep in mind that we already knew that the BATFE was considering criminal investigation--of the dealers. What I asked was whether or not any consideration was being given to investigating Bloomberg and his henchmen. That question remains unanswered.
",428348,4,9554,1,"I had no idea you were referring to Sarah Brady. I was asking about all those other purchases where we'll never know the purchase was for someone else. And if the weapon turns up the original buyer is legally untouchable.","http://www.4forums.com/political/gun-control-debates/13749-more-guns-equal-more-crime.html",384600,28
"1-9554_18_14_5",9554,1,"2010-01-04 12:46:00",758,44,384570,"2010-01-04 11:31:00",428340,151,14,"Originally Posted by sinjin 
from the same CSM article:
""But more pragmatically, groups like the Brady Campaign to Prevent Gun Violence have mostly targeted illegal sales and gun-show loopholes as the primary problem in America’s gun culture. They say such loopholes and lax enforcement allow violent criminals to get their hands on used, stolen, and inexpensive guns.""
What used and inexpensive has to do with any thing is merely obfuscation by the Brady bunch. Who have been know to lie. Want to guess who one of the non-prosecuted straw purchasers is?

Perhaps you could cite some examples to back up your case? So far you haven't shown any thing to back that up either. On the other hand crime is going down as gun sales go up. Care to explain that away?",428336,5,9554,1,"This assumes that no DA is presently going after them. Something I highly doubt.
Diversionary tactic on your part. Wouldn't making guns harder for them to acquire be helpful?","http://www.4forums.com/political/gun-control-debates/13749-more-guns-equal-more-crime.html",384564,18
"1-9554_20_18_5",9554,1,"2010-01-04 13:54:00",44,758,384581,"2010-01-04 12:46:00",428342,37,18,"Feds announce nationwide raid on Mexican drug cartel

Are they even related? I could just as easily suggest that all those 22,000 gun laws are finally yielding some benefit. Not that I believe that.",428340,5,9554,1,"Originally Posted by sinjin 
from the same CSM article:
""But more pragmatically, groups like the Brady Campaign to Prevent Gun Violence have mostly targeted illegal sales and gun-show loopholes as the primary problem in America’s gun culture. They say such loopholes and lax enforcement allow violent criminals to get their hands on used, stolen, and inexpensive guns.""
What used and inexpensive has to do with any thing is merely obfuscation by the Brady bunch. Who have been know to lie. Want to guess who one of the non-prosecuted straw purchasers is?

Perhaps you could cite some examples to back up your case? So far you haven't shown any thing to back that up either. On the other hand crime is going down as gun sales go up. Care to explain that away?","http://www.4forums.com/political/gun-control-debates/13749-more-guns-equal-more-crime.html",384570,20
"1-9554_23_20_5",9554,1,"2010-01-04 14:17:00",758,44,384596,"2010-01-04 13:54:00",428345,38,20,"The run, dodge and jump again. One thing for sure the idea of more guns = more crime is not backed by the facts as suspected. So you tell me, are they related? ",428342,5,9554,1,"Feds announce nationwide raid on Mexican drug cartel
Drugs have what to do with the topic? Proof of prosecutions under existing laws or?
Are they even related? I could just as easily suggest that all those 22,000 gun laws are finally yielding some benefit. Not that I believe that.","http://www.4forums.com/political/gun-control-debates/13749-more-guns-equal-more-crime.html",384581,23
"1-9554_27_23_5",9554,1,"2010-01-04 14:27:00",44,758,384601,"2010-01-04 14:17:00",428349,5,23,"I doubt they're related.",428345,5,9554,1,"The run, dodge and jump again. One thing for sure the idea of more guns = more crime is not backed by the facts as suspected. So you tell me, are they related? ","http://www.4forums.com/political/gun-control-debates/13749-more-guns-equal-more-crime.html",384596,27
"1-9554_29_27_5",9554,1,"2010-01-04 14:35:00",758,44,384604,"2010-01-04 14:27:00",428351,12,27,"Strange we have been hearing the opposite from the Brady bunch.",428349,5,9554,1,"I doubt they're related.","http://www.4forums.com/political/gun-control-debates/13749-more-guns-equal-more-crime.html",384601,29
"1-9554_30_29_5",9554,1,"2010-01-04 14:44:00",44,758,384606,"2010-01-04 14:35:00",428352,8,29,"Why would that be ""strange""?",428351,5,9554,1,"Strange we have been hearing the opposite from the Brady bunch.","http://www.4forums.com/political/gun-control-debates/13749-more-guns-equal-more-crime.html",384604,30
"1-9554_33_30_5",9554,1,"2010-01-04 14:49:00",758,44,384609,"2010-01-04 14:44:00",428355,17,30,"Surely you jest. But then the Brady bunch does play fast and loose with facts.",428352,5,9554,1,"Why would that be ""strange""?","http://www.4forums.com/political/gun-control-debates/13749-more-guns-equal-more-crime.html",384606,33
"1-9554_36_33_5",9554,1,"2010-01-04 14:59:00",44,758,384612,"2010-01-04 14:49:00",428358,14,33,"I meant what's strange about my opinion being different than the Brady folks?",428355,5,9554,1,"Surely you jest. But then the Brady bunch does play fast and loose with facts.","http://www.4forums.com/political/gun-control-debates/13749-more-guns-equal-more-crime.html",384609,36
"1-9554_53_50_6",9554,1,"2010-01-05 10:30:00",758,44,384711,"2010-01-05 10:22:00",428375,43,50,"First of all most reasonable people won't sell firearms to someone they don't know. Second of all one can usually spot someone that is not quite on the up and up. Gang banger clothes, prison tatts, attitude, etc. ",428372,6,9554,1,"Call it what you like. It's a way to buy a gun when you're not allowed to.
Then the problem is obvious. Catch a prohibited person ie a felon with a firearm and turn him or her into spare parts. Solve your problem real quick.
I don't expect them to fill duties. I expect them to go to someone who can make sure the transaction isn't illegal one way or the other.
Well if you can demonstrate that is a real problem then perhaps a solution can be found. Since you don't know one way or the other its pass a law time right?
That's rich. You know a felon when you see one or speak for a minutes to one?","http://www.4forums.com/political/gun-control-debates/13749-more-guns-equal-more-crime.html",384708,53
"1-9554_67_53_6",9554,1,"2010-01-05 15:07:00",44,758,384772,"2010-01-05 10:30:00",428389,26,53,"Because this:

wasn't meant as an insult?
Now let's here from you on the form 4473 instructions to those buying firearms as gifts.",428375,6,9554,1,"...one can usually spot someone that is not quite on the up and up. Gang banger clothes, prison tatts, attitude, etc.
Of course in your case its a toss up IMHO.","http://www.4forums.com/political/gun-control-debates/13749-more-guns-equal-more-crime.html",384711,67
"1-9554_68_67_6",9554,1,"2010-01-05 15:12:00",758,44,384773,"2010-01-05 15:07:00",428390,40,67,"Well you tell me if you think it was. You seem to be the expert on insults XXX wipe or no. Perhaps you might be better served rereading it. Can you tell a felon or no?",428389,6,9554,1,"Because this:
wasn't meant as an insult?","http://www.4forums.com/political/gun-control-debates/13749-more-guns-equal-more-crime.html",384772,68
"1-9554_70_68_6",9554,1,"2010-01-05 15:19:00",44,758,384776,"2010-01-05 15:12:00",428392,34,68,"If it wasn't and I took it wrong I'd like to know so that I might apologize.

Of course not. There are plenty of stand up guys that fit your description.",428390,6,9554,1,"[B]Well you tell me if you think it was. You seem to be the expert on insults XXX wipe or no. Perhaps you might be better served rereading it.","http://www.4forums.com/political/gun-control-debates/13749-more-guns-equal-more-crime.html",384773,70
"1-9554_71_70_6",9554,1,"2010-01-05 15:22:00",758,44,384778,"2010-01-05 15:19:00",428393,7,70,"Then IMHO I was semi correct.",428392,6,9554,1,"If it wasn't and I took it wrong I'd like to know so that I might apologize.

Of course not. There are plenty of stand up guys that fit your description.","http://www.4forums.com/political/gun-control-debates/13749-more-guns-equal-more-crime.html",384776,71
"1-9554_67_54_7",9554,1,"2010-01-05 15:07:00",44,758,384772,"2010-01-05 10:49:00",428389,26,54,"Because this:

wasn't meant as an insult?
Now let's here from you on the form 4473 instructions to those buying firearms as gifts.",428376,7,9554,1,"Gee you want to play insults? I'd hate to see you crying again about hostile environment. ","http://www.4forums.com/political/gun-control-debates/13749-more-guns-equal-more-crime.html",384715,67
"1-9554_69_67_7",9554,1,"2010-01-05 15:14:00",758,44,384774,"2010-01-05 15:07:00",428391,18,67,"The fast edit trick again original sin? It should be hear don'tja think mr spelling expert.",428389,7,9554,1,"Because this:

wasn't meant as an insult?
Now let's here from you on the form 4473 instructions to those buying firearms as gifts.","http://www.4forums.com/political/gun-control-debates/13749-more-guns-equal-more-crime.html",384772,69
"1-9554_72_69_7",9554,1,"2010-01-05 15:22:00",44,758,384779,"2010-01-05 15:14:00",428394,30,69,"Yes, I fixed the typo in ""instruction"". Oh, the humanity.
Will you be addressing Sarah Brady's ""straw purchase"" form 4473 again?",428391,7,9554,1,"The fast edit trick again original sin? It should be hear don'tja think mr spelling expert.","http://www.4forums.com/political/gun-control-debates/13749-more-guns-equal-more-crime.html",384774,72
"1-9554_73_72_7",9554,1,"2010-01-05 15:28:00",758,44,384781,"2010-01-05 15:22:00",428395,55,72,"No I think I'll let you stew some more. I gave you the link so you should have been able to access it. 
I will give you one thing though. All these ideas you come up with to punish the law abiding come right from the Brady bunch, don't they?",428394,7,9554,1,"Yes, I fixed the typo in ""instruction"". Oh, the humanity.
Will you be addressing Sarah Brady's ""straw purchase"" form 4473 again?","http://www.4forums.com/political/gun-control-debates/13749-more-guns-equal-more-crime.html",384779,73
"1-9554_76_73_7",9554,1,"2010-01-06 11:51:00",44,758,384828,"2010-01-05 15:28:00",428398,11,73,"Not even one of them. Never. Not once.",428395,7,9554,1,"No I think I'll let you stew some more. I gave you the link so you should have been able to access it. 
I will give you one thing though. All these ideas you come up with to punish the law abiding come right from the Brady bunch, don't they?","http://www.4forums.com/political/gun-control-debates/13749-more-guns-equal-more-crime.html",384781,76
"1-9554_81_80_8",9554,1,"2010-01-06 13:42:00",758,44,384846,"2010-01-06 13:32:00",428403,15,80,"Sure after calling me an asswipe I am bringing the hostility? get real. ",428402,8,9554,1,"I was making qualifications to Nato's claims of that which I supposedly support.
I am on record as supporting both background checks for all transfers of ownership and mandatory theft/loss reporting. 
I wasn't trying to be cagey.
Keep bringing the hostility though.","http://www.4forums.com/political/gun-control-debates/13749-more-guns-equal-more-crime.html",384843,81
"1-9554_82_81_8",9554,1,"2010-01-06 13:53:00",44,758,384850,"2010-01-06 13:42:00",428404,70,81,"Just a thought but maybe you could stick to the topics at hand and stop making personal attacks? 
You never did explain what you meant by, ""In your case it's a toss up"". 
Funny, that little gem seems to have been edited out. 
Would that have been voluntary on your part or did someone else deem it offensive enough to strip out?",428403,8,9554,1,"Sure after calling me an asswipe I am bringing the hostility? get real. ","http://www.4forums.com/political/gun-control-debates/13749-more-guns-equal-more-crime.html",384846,82
"1-9554_83_82_8",9554,1,"2010-01-06 13:59:00",758,44,384851,"2010-01-06 13:53:00",428405,47,82,"You tell me. Since I have no idea what you are talking about. My comment was I doubt you wouldn't be able to tell a fellon or other shifty character. Sleeping in school or reading the white part, I have no idea. ",428404,8,9554,1,"Just a thought but maybe you could stick to the topics at hand and stop making personal attacks?
Yea its me making the personal attacks like calling you an asswipe. Get real.
You never did explain what you meant by, ""In your case it's a toss up"". 
Funny, that little gem seems to have been edited out. 
Would that have been voluntary on your part or did someone else deem it offensive enough to strip out?","http://www.4forums.com/political/gun-control-debates/13749-more-guns-equal-more-crime.html",384850,83
"1-9554_85_83_8",9554,1,"2010-01-06 14:16:00",44,758,384856,"2010-01-06 13:59:00",428407,51,83,"What a piece of work you are. 

That may have been what you meant and I did ask if I misunderstood but you chose to ignore my request. 
You said something like, ""But in your case it's a toss up IMHO"". 

Or clue apparently.",428405,8,9554,1,"You tell me. Since I have no idea what you are talking about. My comment was I doubt you wouldn't be able to tell a fellon or other shifty character. Sleeping in school or reading the white part, I have no idea. ","http://www.4forums.com/political/gun-control-debates/13749-more-guns-equal-more-crime.html",384851,85
"1-9554_87_85_8",9554,1,"2010-01-06 14:44:00",758,44,384863,"2010-01-06 14:16:00",428409,17,85,"And yoiu still claim its me with the hostility? Ya got to be a liberal.",428407,8,9554,1,"What a piece of work you are. 

That may have been what you meant and I did ask if I misunderstood but you chose to ignore my request. 
You said something like, ""But in your case it's a toss up IMHO"". 

Or clue apparently.","http://www.4forums.com/political/gun-control-debates/13749-more-guns-equal-more-crime.html",384856,87
"1-9554_89_87_8",9554,1,"2010-01-06 14:57:00",44,758,384868,"2010-01-06 14:44:00",428411,59,87,"Why yes I do since nearly every response of yours includes a personal swipe or snipe or snark. 
Even when you're just swapping spit with your amigos. 
You're doing it again with the above quote but I don't find being called a ""liberal"" particularly insulting, 
although I know you mean it as one.",428409,8,9554,1,"And you still claim its me with the hostility? Ya got to be a liberal.","http://www.4forums.com/political/gun-control-debates/13749-more-guns-equal-more-crime.html",384863,89
"1-9554_91_89_8",9554,1,"2010-01-06 15:08:00",758,44,384870,"2010-01-06 14:57:00",428413,66,89,"I am sure you really believe that. Hence the liberal term. If you were a tank I'd send you off for sighting and fire control recalibration. However in your case it would have to be a depot rebuild. But what ever you perceive it pales in contrast to asswipe. About time to slink off claiming a toxic environment isn't it?",428411,8,9554,1,"Why yes I do since nearly every response of yours includes a personal swipe or snipe or snark. 
Even when you're just swapping spit with your amigos. 
You're doing it again with the above quote but I don't find being called a ""liberal"" particularly insulting, 
although I know you mean it as one.","http://www.4forums.com/political/gun-control-debates/13749-more-guns-equal-more-crime.html",384868,91
"1-9554_93_91_8",9554,1,"2010-01-06 15:22:00",44,758,384872,"2010-01-06 15:08:00",428415,61,91,"No thanks. I've had about enough of your bully boy tactics. I eat bullies for breakfast. Always have. 
I think I'll just stick around to keep you guys honest. Lord knows it's needed.
How about those instructions for gift gun buyers on the back of form 4473? Gonna own that one or what?",428413,8,9554,1,"I am sure you really believe that. Hence the liberal term. If you were a tank I'd send you off for sighting and fire control recalibration. However in your case it would have to be a depot rebuild. But what ever you perceive it pales in contrast to asswipe. About time to slink off claiming a toxic environment isn't it?","http://www.4forums.com/political/gun-control-debates/13749-more-guns-equal-more-crime.html",384870,93
"1-9554_96_93_8",9554,1,"2010-01-07 05:56:00",758,44,384929,"2010-01-06 15:22:00",428418,175,93,"Still going for the high ground on the hostility issue? You do need some help. Flex them cyber muscles baby, I'm impressed. Going to whack us with your cyber purse or some thing? Strange being a liberal honest is relative to the situation. So you really don't know what it is. We will remind you. 
Since I gave you the link which you claimed you couldn't see (at work and blocked?) it is rather redundant. Right after your apology I will. Kinda makes the whole Brady bill a joke doesn't it? I buy and gift someone. As long as they are clean up to that moment I'm good. So much for your idea of all sales being checked tho isn't it. While we are at it is there an apology coming from you to me on the asswipe coment? I really don't expect it as being a liberal means never having to say sorry ya know. ",428415,8,9554,1,"No thanks. I've had about enough of your bully boy tactics. I eat bullies for breakfast. Always have. 
I think I'll just stick around to keep you guys honest. Lord knows it's needed.
How about those instructions for gift gun buyers on the back of form 4473? Gonna own that one or what?","http://www.4forums.com/political/gun-control-debates/13749-more-guns-equal-more-crime.html",384872,96
