"key","quote_source_post_discussion_id","posts_dataset_id","posts_timestamp","posts_author_id","quote_source_author_id","posts_native_post_id","quote_source_timestamp","post_text_id","Word_Count","quote_source_post_id","post_text","quote_source_text_id","Dialog_Turn","posts_discussion_id","quote_source_post_dataset_id","Fullquote_text","discussion_url","quote_source_native_post_id","posts_post_id"
"1-9580_26_24_1",9580,1,"2010-01-13 10:24:00",153,44,385732,"2010-01-13 10:16:00",429403,58,24,"While you argue semantics, the point remains that this school was allowed to perform a blatantly illegal search of private property that was beyond their jurisdictional reach.
How was searching the student's vehicle, which wasn't even on school property, any different from the school deciding to conduct a search of the student's home?",429401,1,9580,1,"This guy did:

","http://www.4forums.com/political/gun-control-debates/13778-common-sense-ca-style.html",385730,26
"1-9580_28_26_1",9580,1,"2010-01-13 10:31:00",44,153,385734,"2010-01-13 10:24:00",429405,54,26,"They'd need a warrant to search his home. He was called out and consented to open his truck. The truck was parked within 1000' of the school. If no guns are allowed within 1000' of school, it's very likely legal to sweep the dog through that zone.",429403,1,9580,1,"While you argue semantics, the point remains that this school was allowed to perform a blatantly illegal search of private property that was beyond their jurisdictional reach.
How was searching the student's vehicle, which wasn't even on school property, any different from the school deciding to conduct a search of the student's home?","http://www.4forums.com/political/gun-control-debates/13778-common-sense-ca-style.html",385732,28
"1-9580_38_28_1",9580,1,"2010-01-13 12:33:00",153,44,385745,"2010-01-13 10:31:00",429415,180,28,"And why wouldn't they need a warrant to search his truck?

And the student handbook had no warnings about what was an offense and what wasn't in this matter.
The truck was parked within 1000' of the school. If no guns are allowed within 1000' of school, it's very likely legal to sweep the dog through that zone.[/QUOTE]
No it isn't; especially when the property in the zone in question is public property, outside control of the school itself.
And see the exceptions in the Gun Free School Zones Act. Under the exceptions his suspension would be legally negated.

Sorry but the concept of in place of the parent, doesn't grant the school authority in this matter. The parking lot wasn't part of the school property, thus they have no authority in this matter.

Both home and car are private property. They had no warrant for a search of private property, no probable cause, no nothing.",429405,1,9580,1,"They'd need a warrant to search his home. He was called out and consented to open his truck. The truck was parked within 1000' of the school. If no guns are allowed within 1000' of school, it's very likely legal to sweep the dog through that zone.","http://www.4forums.com/political/gun-control-debates/13778-common-sense-ca-style.html",385734,38
"1-9580_39_38_1",9580,1,"2010-01-13 12:49:00",44,153,385746,"2010-01-13 12:33:00",429416,100,38,"He told the police the shotguns were there and he opened his truck voluntarily. That's why. 

I'm not sure what this has to do with anything.

Public property within 1000' of the school is within their control with respect to firearms. 

Which exception applies to him?

He was not parked in a lot and repeating they had no authority doesn't settle the issue. 

The dog ""hit"" was probable cause and the passenger compartment of your car on a public road is not protected in the same way as your home.",429415,1,9580,1,"And why wouldn't they need a warrant to search his truck?

And the student handbook had no warnings about what was an offense and what wasn't in this matter.
The truck was parked within 1000' of the school. If no guns are allowed within 1000' of school, it's very likely legal to sweep the dog through that zone.[/QUOTE]
No it isn't; especially when the property in the zone in question is public property, outside control of the school itself.
And see the exceptions in the Gun Free School Zones Act. Under the exceptions his suspension would be legally negated.

Sorry but the concept of in place of the parent, doesn't grant the school authority in this matter. The parking lot wasn't part of the school property, thus they have no authority in this matter.

Both home and car are private property. They had no warrant for a search of private property, no probable cause, no nothing.","http://www.4forums.com/political/gun-control-debates/13778-common-sense-ca-style.html",385745,39
"1-9580_47_39_1",9580,1,"2010-01-13 13:13:00",153,44,385755,"2010-01-13 12:49:00",429424,179,39,"In loco parentis doesn't fly then. If you read about it instead of just throwing it out there, you'd know that.

He obviously wasn't expecting expulsion for cooperating.

Any case law to help back up that argument of yours?

(1) It shall be unlawful for any individual knowingly to possess a firearm at a place that the individual knows, or has reasonable cause to believe, is a school zone.
Exception: This does not include possession of a firearm on private property that is not part of school grounds or possession of a loaded firearm by an individual who is licensed to do so by the State. (i.e. a concealed carry, weapon, or firearm permit). 
Was the student's truck school property? Absolutely not. Was it parked on school property? Absolutely not. Neither was owned or operated by the school, they have no authority over them.

Still wasn't school property.

Public road, not school property.",429416,1,9580,1,"He told the police the shotguns were there and he opened his truck voluntarily. That's why. 

I'm not sure what this has to do with anything.

Public property within 1000' of the school is within their control with respect to firearms. 

Which exception applies to him?

He was not parked in a lot and repeating they had no authority doesn't settle the issue. 

The dog ""hit"" was probable cause and the passenger compartment of your car on a public road is not protected in the same way as your home.","http://www.4forums.com/political/gun-control-debates/13778-common-sense-ca-style.html",385746,47
"1-9580_54_47_1",9580,1,"2010-01-13 13:37:00",44,153,385762,"2010-01-13 13:13:00",429431,64,47,"It applies to the schools authority over students coming to and going from the school.

He wasn't expecting the dog either. So? 

I'm not making an argument. I'm trying to understand what the school administrators were doing and why. 

The exception can't apply since he was not on private property.

The operative word is ""public"".",429424,1,9580,1,"In loco parentis doesn't fly then. If you read about it instead of just throwing it out there, you'd know that.

He obviously wasn't expecting expulsion for cooperating.

Any case law to help back up that argument of yours?

(1) It shall be unlawful for any individual knowingly to possess a firearm at a place that the individual knows, or has reasonable cause to believe, is a school zone.
Exception: This does not include possession of a firearm on private property that is not part of school grounds or possession of a loaded firearm by an individual who is licensed to do so by the State. (i.e. a concealed carry, weapon, or firearm permit). 
Was the student's truck school property? Absolutely not. Was it parked on school property? Absolutely not. Neither was owned or operated by the school, they have no authority over them.

Still wasn't school property.

Public road, not school property.","http://www.4forums.com/political/gun-control-debates/13778-common-sense-ca-style.html",385755,54
"1-9580_87_86_2",9580,1,"2010-01-20 09:59:00",44,153,386669,"2010-01-20 09:19:00",429464,115,86,"The NRA attorneys have made the same basic arguments you made earlier. 
Do you now accept that the school has jurisdiction off ""school property""? 
How far does it extend? My guess is that they'll claim 1000'.

No need to resort to hyperbole. It's not over for the boy yet. 
Afterall, it's not like common sense is dead in California.

No guarantee that banning guns produces a ""safe haven"" or that it attracts mass murderers for that matter.

If it helps substantiate your case, I know you'll get back to us on that, right? What if it doesn't?",429463,2,9580,1,"School board hears gun expulsion appeal | school, appeal, expulsion - Local News - Appeal-Democrat

Interesting points. If the school has authority that extends beyond its physical property, just how far can it extend? Is it going to claim is has the authority to regulate matters that take place inside public housing next? Or inside grocery stores?
Another interesting point. The article mentions that there's been 340 school shootings since 1994, after guns were banned from school property. That's about 21 shootings every single year, in an environment that's supposed to be safe havens.
21 shootings a year, that amounts to almost one school shooting every two weeks.
How many school shootings were there before guns were banned on school property?","http://www.4forums.com/political/gun-control-debates/13778-common-sense-ca-style.html",386662,87
"1-9580_89_87_2",9580,1,"2010-01-20 10:52:00",153,44,386677,"2010-01-20 09:59:00",429466,162,87,"Because it's common sense.

Absolutely not. School authority ends at school property. Even the expulsion standard specifies that the offense has to happen either on school, or at a school function. The public road counts as neither.

They can claim whatever they want, that doesn't mean they have the authority.

It's not hyperbole, it's a legitimate question.

If it's no guarantee that either will happen, why enact the ban in the first place? What's the justified reasoning.

List of school-related attacks - Wikipedia, the free encyclopedia
Limiting the inquiry to the 20th century, there were approximately 16 school shootings from 1902 to 1990. That means the number of shootings after the policy to ban guns on school grounds grew 21 times higher, in just a 16 year period.
16 shootings over a period of 88 years, vs 340 in just 16 years.",429464,2,9580,1,"The NRA attorneys have made the same basic arguments you made earlier. 
Do you now accept that the school has jurisdiction off ""school property""? 
How far does it extend? My guess is that they'll claim 1000'.

No need to resort to hyperbole. It's not over for the boy yet. 
Afterall, it's not like common sense is dead in California.

No guarantee that banning guns produces a ""safe haven"" or that it attracts mass murderers for that matter.

If it helps substantiate your case, I know you'll get back to us on that, right? What if it doesn't?","http://www.4forums.com/political/gun-control-debates/13778-common-sense-ca-style.html",386669,89
"1-9580_91_89_2",9580,1,"2010-01-20 11:12:00",44,153,386681,"2010-01-20 10:52:00",429468,72,89,"We'll see.

Not ""on"" school but ""at"" school. Did you think you could dishonestly substitute a word to help your case and I'd not notice?

But your claiming whatever you want carries no weight at all.

Grocery stores? Sure thing, pal.

Maybe because it allows enforcement of the sort that snagged the kid?

And from this we can conclude?",429466,2,9580,1,"Because it's common sense.

Absolutely not. School authority ends at school property. Even the expulsion standard specifies that the offense has to happen either on school, or at a school function. The public road counts as neither.

They can claim whatever they want, that doesn't mean they have the authority.

It's not hyperbole, it's a legitimate question.

If it's no guarantee that either will happen, why enact the ban in the first place? What's the justified reasoning.

List of school-related attacks - Wikipedia, the free encyclopedia
Limiting the inquiry to the 20th century, there were approximately 16 school shootings from 1902 to 1990. That means the number of shootings after the policy to ban guns on school grounds grew 21 times higher, in just a 16 year period.
16 shootings over a period of 88 years, vs 340 in just 16 years.","http://www.4forums.com/political/gun-control-debates/13778-common-sense-ca-style.html",386677,91
"1-9580_93_91_2",9580,1,"2010-01-20 12:12:00",153,44,386695,"2010-01-20 11:12:00",429470,199,91,"Certainly not. But since the student in question parked on a public road, meaning it was city property, outside of designated school owned and leased property, the weapon wasn't on school property and the expulsion isn't legal.
There's no evidence to support the argument that a student being across the street from a school, outside of the building is recognized as legally being ""at school"" rather than truant. So there's no reason to believe that the truck was also ""at school"".

Like you said, we'll see.

Well if the school had the authority to carry out a search of privately owned vehicles, parked at a location outside of officially designated school property, what would really prevent them from extending the same disregard for property rights to the local grocery store if it's less than 1,000 feet from the school?

Snagged the kid for what exactly?

That the ban likely made things worse. But that's for another time and another place. At least now I have the statistics on my side when this discussion comes up in other threads.",429468,2,9580,1,"We'll see.

Not ""on"" school but ""at"" school. Did you think you could dishonestly substitute a word to help your case and I'd not notice?

But your claiming whatever you want carries no weight at all.

Grocery stores? Sure thing, pal.

Maybe because it allows enforcement of the sort that snagged the kid?

And from this we can conclude?","http://www.4forums.com/political/gun-control-debates/13778-common-sense-ca-style.html",386681,93
"1-9580_94_93_2",9580,1,"2010-01-20 12:52:00",44,153,386704,"2010-01-20 12:12:00",429471,119,93,"You're just repeating yourself. It's entirely possible that the final determination will be that anything 
within 1000' of the school is technically ""at school"". 

Apples to oranges. Rules for students and rules concerning firearms at school aren't the same thing.

Well for starters the school didn't ""carry out"" the search, the local police did. Grocery stores are private property besides.

Having a firearm ""at school"".

Better screw your head on a bit tighter, friendo. There are all sort of reasons for shootings to have increased that have nothing to do with ""gun free zones"". Correlation vs. causation again.",429470,2,9580,1,"Certainly not. But since the student in question parked on a public road, meaning it was city property, outside of designated school owned and leased property, the weapon wasn't on school property and the expulsion isn't legal.
There's no evidence to support the argument that a student being across the street from a school, outside of the building is recognized as legally being ""at school"" rather than truant. So there's no reason to believe that the truck was also ""at school"".

Like you said, we'll see.

Well if the school had the authority to carry out a search of privately owned vehicles, parked at a location outside of officially designated school property, what would really prevent them from extending the same disregard for property rights to the local grocery store if it's less than 1,000 feet from the school?

Snagged the kid for what exactly?

That the ban likely made things worse. But that's for another time and another place. At least now I have the statistics on my side when this discussion comes up in other threads.","http://www.4forums.com/political/gun-control-debates/13778-common-sense-ca-style.html",386695,94
"1-9580_95_94_2",9580,1,"2010-01-20 13:06:00",153,44,386708,"2010-01-20 12:52:00",429472,246,94,"So if you live right across the street from school and your kid plays sick, they still get credit for being ""at school"" even though they were up in their room playing X-Box or something like that?
Yeah right, like that sort of twisted logic is gonna fly. Not even California can be that crazy. Under that flawed logic students could be expelled for possession of a weapon ""at school"" when they were preparing a meal in the kitchen.

Meanwhile school property and public property aren't the same thing.

Try and keep the facts straight. Local police didn't do anything until the private security guards, who were hired by the school, found something.

And privately owned vehicles somehow don't qualify as private property?

Not a good enough excuse. Bans on empty holster protests have been shot down by courts because the school isn't allowed to use an intangible fear as an excuse for denying free speech.

An increase in the number by 21 times, in a period less than one sixth the time frame, is quite an increase though. To go from 16 shootings in 88 years, to 340 in 16 years, simply can't be ignored. Nor can the fact that the exponential increase happened only after guns were banned form school property. It's simply too much of a coincidence.",429471,2,9580,1,"You're just repeating yourself. It's entirely possible that the final determination will be that anything within 1000' of the school is technically ""at school"".","http://www.4forums.com/political/gun-control-debates/13778-common-sense-ca-style.html",386704,95
"1-9580_96_95_2",9580,1,"2010-01-20 13:22:00",44,153,386715,"2010-01-20 13:06:00",429473,186,95,"Apples to oranges once again. 

See above.

And we've already established that the school's authority doesn't end at the property line.

I think I have. The police were called after the private firm's dog got a ""hit"" on the kid's truck. Nothing the private firm did constitutes a search. They didn't find anything, they detected the presence of something. 

They do. But consent was given to police to search and retrieve the shotguns from the truck. The dog ""hit"" was probable cause for the search even if consent wasn't given. The dog sweep of vehicles parked adjacent to the school on public property has not been ruled as a policy violation or a violation of the students rights.

Changing the subject yet again? I don't even know what an ""empty holster"" protest is. Sounds impotent.

Maybe the bans were implemented precisely because the numbers were increasing steeply. 
No meaningful conclusion can be drawn looking at the raw numbers without analyzing the many variables.",429472,2,9580,1,"So if you live right across the street from school and your kid plays sick, they still get credit for being ""at school"" even though they were up in their room playing X-Box or something like that?
Yeah right, like that sort of twisted logic is gonna fly. Not even California can be that crazy. Under that flawed logic students could be expelled for possession of a weapon ""at school"" when they were preparing a meal in the kitchen.

Meanwhile school property and public property aren't the same thing.

Try and keep the facts straight. Local police didn't do anything until the private security guards, who were hired by the school, found something.

And privately owned vehicles somehow don't qualify as private property?

Not a good enough excuse. Bans on empty holster protests have been shot down by courts because the school isn't allowed to use an intangible fear as an excuse for denying free speech.

An increase in the number by 21 times, in a period less than one sixth the time frame, is quite an increase though. To go from 16 shootings in 88 years, to 340 in 16 years, simply can't be ignored. Nor can the fact that the exponential increase happened only after guns were banned form school property. It's simply too much of a coincidence.","http://www.4forums.com/political/gun-control-debates/13778-common-sense-ca-style.html",386708,96
"1-9580_97_96_2",9580,1,"2010-01-20 13:56:00",153,44,386724,"2010-01-20 13:22:00",429474,243,96,"You way of saying you can't address the argument because it's over your head.

Nor has it been established that the school has authority to 1,000 feet past its designated property.
Your argument is that the school has authority even over matters on public property, so long as it's less than 1,000 feet from the physical school building. Under your argument the school would have the authority to enforce their ban on cellphones within that 1,000 foot area.
When you have proof in the form of court cases that state explicitly, that schools have the authority to enforce their policies well beyond designated property boundaries regardless of whether they own it or not, then we'll talk. Until then you really have nothing to prove that your position is the correct one.

But the school has no authority to conduct any sort of investigation beyond the property line, anymore than your neighbor has a say over what lawn ornaments you put out.

And the student in question wasn't informed of his rights, of what the school felt they had jurisdiction over, or anything like that.
A person has to be informed of what rights they're afforded when they're placed under arrest or investigation by the police, otherwise the case can be dismissed. They should be afforded the same standard of practice in a case such as this.",429473,2,9580,1,"Apples to oranges once again. 

See above.

And we've already established that the school's authority doesn't end at the property line.

I think I have. The police were called after the private firm's dog got a ""hit"" on the kid's truck. Nothing the private firm did constitutes a search. They didn't find anything, they detected the presence of something. 

They do. But consent was given to police to search and retrieve the shotguns from the truck. The dog ""hit"" was probable cause for the search even if consent wasn't given. The dog sweep of vehicles parked adjacent to the school on public property has not been ruled as a policy violation or a violation of the students rights.

Changing the subject yet again? I don't even know what an ""empty holster"" protest is. Sounds impotent.

Maybe the bans were implemented precisely because the numbers were increasing steeply. 
No meaningful conclusion can be drawn looking at the raw numbers without analyzing the many variables.","http://www.4forums.com/political/gun-control-debates/13778-common-sense-ca-style.html",386715,97
"1-9580_98_97_2",9580,1,"2010-01-20 14:14:00",44,153,386730,"2010-01-20 13:56:00",429475,148,97,"It's my way of saying that the school has no authority, relative to firearms, in the homes across the street. 
The zone is about firearms, not students. 

That's what we're both waiting to see.

Are cellphones firearms? 

It's not my position, it seems to be the position of the school board. 

Sez you. When you have proof in the form of court cases that state explicitly, that schools have no authority to enforce their policies well beyond designated property boundaries regardless of whether they own it or not, then we'll talk. 

I think you're confused. Police are required to ""Mirandize"" you when you're arreted. 
Since the boy wasn't arrested or charged, the point is moot. 
The school may have no such obligation to inform you of your rights.",429474,2,9580,1,"You way of saying you can't address the argument because it's over your head.

Nor has it been established that the school has authority to 1,000 feet past its designated property.
Your argument is that the school has authority even over matters on public property, so long as it's less than 1,000 feet from the physical school building. Under your argument the school would have the authority to enforce their ban on cellphones within that 1,000 foot area.
When you have proof in the form of court cases that state explicitly, that schools have the authority to enforce their policies well beyond designated property boundaries regardless of whether they own it or not, then we'll talk. Until then you really have nothing to prove that your position is the correct one.

But the school has no authority to conduct any sort of investigation beyond the property line, anymore than your neighbor has a say over what lawn ornaments you put out.

And the student in question wasn't informed of his rights, of what the school felt they had jurisdiction over, or anything like that.
A person has to be informed of what rights they're afforded when they're placed under arrest or investigation by the police, otherwise the case can be dismissed. They should be afforded the same standard of practice in a case such as this.","http://www.4forums.com/political/gun-control-debates/13778-common-sense-ca-style.html",386724,98
"1-9580_5_4_3",9580,1,"2010-01-12 10:13:00",758,44,385629,"2010-01-12 10:01:00",429382,16,4,"Was there a comment on this or?
Ready to man up yet apology wise?",429381,3,9580,1,"""The incident began on Oct. 26 when scent-sniffing dogs detected something in a pickup on the street north of the tennis courts on West Willow Street. A Willows police officer did a search of the license plate and traced the pickup to Tudesko. 
Tudesko came out to the vehicle and said there were two shotguns and shells in the pickup. He opened his vehicle for a search, which revealed the guns on the rear seat..."" 
Student expelled for having unloaded shotguns in truck - Chico Enterprise Record","http://www.4forums.com/political/gun-control-debates/13778-common-sense-ca-style.html",385628,5
"1-9580_6_5_3",9580,1,"2010-01-12 10:36:00",44,758,385632,"2010-01-12 10:13:00",429383,78,5,"Leaving shotguns on the seats of trucks parked across from high schools is a bad idea.

I don't believe your post would have been edited unless the offending phrase was deemed provocative. The misunderstanding would have been avoided had you chosen to abstain from personal attack in the first place. Are you prepared to commit to that effort? Otherwise I see no reason to show courtesy to someone incapable or unwilling to reciprocate.",429382,3,9580,1,"Was there a comment on this or?
Ready to man up yet apology wise?","http://www.4forums.com/political/gun-control-debates/13778-common-sense-ca-style.html",385629,6
"1-9580_7_6_3",9580,1,"2010-01-12 10:51:00",758,44,385634,"2010-01-12 10:36:00",429384,90,6,"Believe what you will there is no excuse for your outburst. The so called personal attack was a misperception on your part over which I have no control. I explained what exactly I meant which was ignored by you as your own SOP. It doesn't really matter whether or not you show courtesy since evidently that is some thing lacking in your own set of social skills. I really didn't think you had the courage to man up and evidently I was proven correct here. ",429383,3,9580,1,"Leaving shotguns on the seats of trucks parked across from high schools is a bad idea.
I didn't note that in the articles they were in plain sight. It was the use of dog or dogs which led to the discovery no?
I don't believe your post would have been edited unless the offending phrase was deemed provocative. The misunderstanding would have been avoided had you chosen to abstain from personal attack in the first place. Are you prepared to commit to that effort? Otherwise I see no reason to show courtesy to someone incapable or unwilling to reciprocate.","http://www.4forums.com/political/gun-control-debates/13778-common-sense-ca-style.html",385632,7
"1-9580_8_7_3",9580,1,"2010-01-12 11:10:00",44,758,385637,"2010-01-12 10:51:00",429385,20,7,"An offer of apology was initially made by me contingent on an explanation of intent and rebuffed by you.",429384,3,9580,1,"Believe what you will there is no excuse for your outburst. The so called personal attack was a misperception on your part over which I have no control. I explained what exactly I meant which was ignored by you as your own SOP. It doesn't really matter whether or not you show courtesy since evidently that is some thing lacking in your own set of social skills. I really didn't think you had the courage to man up and evidently I was proven correct here. ","http://www.4forums.com/political/gun-control-debates/13778-common-sense-ca-style.html",385634,8
"1-9580_15_8_3",9580,1,"2010-01-13 04:06:00",758,44,385681,"2010-01-12 11:10:00",429392,54,8,"Still trying for the old weasel hole I see. The explanation was given several times. Now that your intestinal fortitude has been revealed it is no longer needed. Perhaps you might want to read up on the real meaning of the word apology. Not one colored by the situation. ",429385,3,9580,1,"An offer of apology was initially made by me contingent on an explanation of intent and rebuffed by you.","http://www.4forums.com/political/gun-control-debates/13778-common-sense-ca-style.html",385637,15
"1-9580_100_98_4",9580,1,"2010-01-20 14:39:00",758,44,386739,"2010-01-20 14:14:00",429477,39,98,"Seems the ball is in your court since you are making the claim they do. Any court cases that show they do? Or laws? Or any other evidence? Or maybe an insult or two?",429475,4,9580,1,"It's my way of saying that the school has no authority, relative to firearms, in the homes across the street. 
The zone is about firearms, not students. 

That's what we're both waiting to see.

Are cellphones firearms? 

It's not my position, it seems to be the position of the school board. 

Sez you. When you have proof in the form of court cases that state explicitly, that schools have no authority to enforce their policies well beyond designated property boundaries regardless of whether they own it or not, then we'll talk. 

I think you're confused. Police are required to ""Mirandize"" you when you're arreted. 
Since the boy wasn't arrested or charged, the point is moot. 
The school may have no such obligation to inform you of your rights.","http://www.4forums.com/political/gun-control-debates/13778-common-sense-ca-style.html",386730,100
"1-9580_101_100_4",9580,1,"2010-01-20 14:53:00",44,758,386742,"2010-01-20 14:39:00",429478,31,100,"I'm only deducing the rationale under which the board seems to be operating. We'll have to wait and see how it turns out.

That's really more your forte.",429477,4,9580,1,"Seems the ball is in your court since you are making the claim they do. Any court cases that show they do? Or laws? Or any other evidence? Or maybe an insult or two?","http://www.4forums.com/political/gun-control-debates/13778-common-sense-ca-style.html",386739,101
"1-9580_107_101_4",9580,1,"2010-01-21 03:48:00",758,44,386815,"2010-01-20 14:53:00",429484,23,101,"Sure it is with the asswipe insult! Only a liberal could think that. Of course I can understand your frustration. ",429478,4,9580,1,"I'm only deducing the rationale under which the board seems to be operating. We'll have to wait and see how it turns out.
Not really since you made the demand that NATO provide same.
That's really more your forte.","http://www.4forums.com/political/gun-control-debates/13778-common-sense-ca-style.html",386742,107
"1-9580_115_107_4",9580,1,"2010-01-21 09:51:00",44,758,386847,"2010-01-21 03:48:00",429492,48,107,"Still smartin'? Why is it that bullies love to dish it out but...
You're really quite sensitive, aren't you pops?
Let's remember that I was responding to an insult tossed out by you. E pluribus unum.
Just the wrong one.",429484,4,9580,1,"Sure it is with the asswipe insult! Only a liberal could think that. Of course I can understand your frustration. ","http://www.4forums.com/political/gun-control-debates/13778-common-sense-ca-style.html",386815,115
"1-9580_129_115_4",9580,1,"2010-01-22 04:36:00",758,44,387002,"2010-01-21 09:51:00",429506,96,115,"Sorry but your prection of an insult doesn't make it fact there insult queen. You urinated away your high ground also. Just reminding you of your folly is all. As to bully ... that remains to be be proven. Just because your mistaken beliefs doesn't make it true. I explained what I meant yet you just can't accept reality. Then being a liberal that is no wonder. If battering you with facts and proof is bullying that is a strange defination. then again look where you are.",429492,4,9580,1,"Still smartin'? Why is it that bullies love to dish it out but...
You're really quite sensitive, aren't you pops?
Let's remember that I was responding to an insult tossed out by you. E pluribus unum.
Just the wrong one.","http://www.4forums.com/political/gun-control-debates/13778-common-sense-ca-style.html",386847,129
"1-9580_33_28_5",9580,1,"2010-01-13 11:40:00",1470,44,385740,"2010-01-13 10:31:00",429410,68,28,"I would ask you the same question Sinjin. You said:

Brians post says:

The shotgun was unloaded and in his locked truck. The posted info doesn't say if it was in a closed container, but since the DA decided not to prosecute it seems a safe assumption. The point being: firearms are obviously allowed with 1000' of the school.",429405,5,9580,1,"They'd need a warrant to search his home. He was called out and consented to open his truck. The truck was parked within 1000' of the school. If no guns are allowed within 1000' of school, it's very likely legal to sweep the dog through that zone.","http://www.4forums.com/political/gun-control-debates/13778-common-sense-ca-style.html",385734,33
"1-9580_35_33_5",9580,1,"2010-01-13 11:44:00",44,1470,385742,"2010-01-13 11:40:00",429412,42,33,"""He opened his vehicle for a search, which revealed the guns on the rear seat ""
Student expelled for having unloaded shotguns in truck - Chico Enterprise Record
Bryan was quoting Virginia law and this incident happened in California.",429410,5,9580,1,"I would ask you the same question Sinjin. You said:

Brians post says:

The shotgun was unloaded and in his locked truck. The posted info doesn't say if it was in a closed container, but since the DA decided not to prosecute it seems a safe assumption. The point being: firearms are obviously allowed with 1000' of the school.","http://www.4forums.com/political/gun-control-debates/13778-common-sense-ca-style.html",385740,35
"1-9580_37_35_5",9580,1,"2010-01-13 12:04:00",1470,44,385744,"2010-01-13 11:44:00",429414,70,35,"Thank you, however, this in no way indicates weather or not it was in a container.

Correct, I missed that. However, california law is similar. Below are excerpts from the 2006 California Firearms Laws handbook, published by the California Dept. of Justice.

I was unable to find any indication that having the unloaded shotgun in the truck was unlawful.",429412,5,9580,1,"""He opened his vehicle for a search, which revealed the gunson the rear seat ""","http://www.4forums.com/political/gun-control-debates/13778-common-sense-ca-style.html",385742,37
"1-9580_40_37_5",9580,1,"2010-01-13 12:51:00",44,1470,385747,"2010-01-13 12:04:00",429417,49,37,"Now don't you feel silly for ""askin' me the same question""?

It's covered under the ""no firearms within 1000' of the school"" part. No exception for unloaded firearms. 
Shotgun shells were in the truck too btw, albeit birdshot.",429414,5,9580,1,"Thank you, however, this in no way indicates weather or not it was in a container.

Correct, I missed that. However, california law is similar. Below are excerpts from the 2006 California Firearms Laws handbook, published by the California Dept. of Justice.

I was unable to find any indication that having the unloaded shotgun in the truck was unlawful.","http://www.4forums.com/political/gun-control-debates/13778-common-sense-ca-style.html",385744,40
"1-9580_44_40_5",9580,1,"2010-01-13 13:09:00",1470,44,385751,"2010-01-13 12:51:00",429421,35,40,"There is a specific exception to the 1000' rule pertaining to lawfully transporting unloaded long guns.
I have found nothing that indicates his shotgun doesn't fall under this exception. Have you?",429417,5,9580,1,"It's covered under the ""no firearms within 1000' of the school"" part. No exception for unloaded firearms.
Shotgun shells were in the truck too btw, albeit birdshot.","http://www.4forums.com/political/gun-control-debates/13778-common-sense-ca-style.html",385747,44
"1-9580_50_44_5",9580,1,"2010-01-13 13:24:00",44,1470,385758,"2010-01-13 13:09:00",429427,15,44,"Post the specific language of the exception and we'll just see if it applies.",429421,5,9580,1,"There is a specific exception to the 1000' rule pertaining to lawfully transporting unloaded long guns.
I have found nothing that indicates his shotgun doesn't fall under this exception. Have you?","http://www.4forums.com/political/gun-control-debates/13778-common-sense-ca-style.html",385751,50
"1-9580_55_50_5",9580,1,"2010-01-13 13:41:00",1470,44,385763,"2010-01-13 13:24:00",429432,21,50,"I already did.

In CA it is perfectly legal for him to transport unloaded long guns in his truck.",429427,5,9580,1,"Post the specific language of the exception and we'll just see if it applies.","http://www.4forums.com/political/gun-control-debates/13778-common-sense-ca-style.html",385758,55
"1-9580_58_55_5",9580,1,"2010-01-13 13:57:00",44,1470,385769,"2010-01-13 13:41:00",429435,25,55,"My mistake.

So it would seem. Again, he has not be charged with a crime. He was expelled from school.",429432,5,9580,1,"I already did.

In CA it is perfectly legal for him to transport unloaded long guns in his truck.","http://www.4forums.com/political/gun-control-debates/13778-common-sense-ca-style.html",385763,58
"1-9580_65_58_5",9580,1,"2010-01-13 14:27:00",1470,44,385781,"2010-01-13 13:57:00",429442,52,58,"Now, don't you feel silly......emoticonXSmilie

So the questions become these:
- What gives the school district the right to search a private vehicle on a public street?
- What gives the school the right to expell a student for conducting a legal activity off school grounds?",429435,5,9580,1,"My mistake.

So it would seem. Again, he has not be charged with a crime. He was expelled from school.","http://www.4forums.com/political/gun-control-debates/13778-common-sense-ca-style.html",385769,65
"1-9580_68_65_5",9580,1,"2010-01-13 14:39:00",44,1470,385784,"2010-01-13 14:27:00",429445,45,65,"Permission of the owner in this case and the school district didn't do the search, the cops did. The dog sweep is not a search.

""Zero Tolerance"" for guns within 1000' of schools. Not a legal activity.",429442,5,9580,1,"Now, don't you feel silly......emoticonXSmilie

So the questions become these:
- What gives the school district the right to search a private vehicle on a public street?
- What gives the school the right to expell a student for conducting a legal activity off school grounds?","http://www.4forums.com/political/gun-control-debates/13778-common-sense-ca-style.html",385781,68
"1-9580_74_68_5",9580,1,"2010-01-13 16:05:00",1470,44,385798,"2010-01-13 14:39:00",429451,103,68,"Symantics, I'll rephrase. What gives the school district the right to do a ""dog sweep"" of a private vehicle on public property? Also, why did the police get involved when there was no indication of illegal activity?

We have already established that having the unloaded shotgun in the vehicle was not an illegal activity. Refer to post #58. So I ask again: What gives the school the right to expell a student for participating in a legal activity off school grounds? What law or piece of legislation gives them that authority?",429445,5,9580,1,"Permission of the owner in this case and the school district didn't do the search, the cops did. The dog sweep is not a search.

""Zero Tolerance"" for guns within 1000' of schools. Not a legal activity.","http://www.4forums.com/political/gun-control-debates/13778-common-sense-ca-style.html",385784,74
