"key","quote_source_post_discussion_id","posts_dataset_id","posts_timestamp","posts_author_id","quote_source_author_id","posts_native_post_id","quote_source_timestamp","post_text_id","Word_Count","quote_source_post_id","post_text","quote_source_text_id","Dialog_Turn","posts_discussion_id","quote_source_post_dataset_id","Fullquote_text","discussion_url","quote_source_native_post_id","posts_post_id"
"1-9601_8_7_1",9601,1,"2010-01-18 12:55:00",758,1069,386369,"2010-01-18 12:49:00",430879,9,7,"The same can be said of your denial.",430878,1,9601,1,"Sure takes a lot of words to say 'I disagree'.
No actual substance, though.","http://www.4forums.com/political/gun-control-debates/13805-2009-epic-fail-anti-gunners.html",386368,8
"1-9601_10_8_1",9601,1,"2010-01-18 13:05:00",1069,758,386373,"2010-01-18 12:55:00",430881,43,8,"Except that I have slightly more statistical analysis, whereas Doc tends towards alliteration and insult.

Didn't I just say this?

""Yeah, but your side sometimes uses the same flawed arguments as mine"" doesn't much vindicate you.",430879,1,9601,1,"The same can be said of your denial.","http://www.4forums.com/political/gun-control-debates/13805-2009-epic-fail-anti-gunners.html",386369,10
"1-9601_11_10_1",9601,1,"2010-01-18 13:09:00",758,1069,386375,"2010-01-18 13:05:00",430882,26,10,"Well our side doesn't need vindication having law, logic and common sense on it. Not to mention facts and truth which a biggie.",430881,1,9601,1,"Except that I have slightly more statistical analysis, whereas Doc tends towards alliteration and insult.
You are jesting again correct? 
Didn't I just say this?
""Yeah, but your side sometimes uses the same flawed arguments as mine"" doesn't much vindicate you.","http://www.4forums.com/political/gun-control-debates/13805-2009-epic-fail-anti-gunners.html",386373,11
"1-9601_14_11_1",9601,1,"2010-01-18 13:18:00",1069,758,386383,"2010-01-18 13:09:00",430885,168,11,"Care to point out the statistical analysis by Doc in this thread?

It's possible you misunderstand the meaning of the word 'vindication'...
Feel free to provide 'logic, common sense, facts and truth' any time you feel like it. I won't deny you have the law on your side.

Not at all - a major jump would certainly lend some weight to my argument, but it wouldn't be all that conclusive.
As it is, though, we have a yearly change which isn't particularly distinguishable from any other yearly change over the past 20 years. All that does is imply that crime rate depends on more than just the presence/absence of guns - it disproves 'more guns = more crime' about as much as it disproves 'more guns = less crime'.
Like I said, too many possible external factors to call a victory for either side.",430882,1,9601,1,"Well our side doesn't need vindication having law, logic and common sense on it. Not to mention facts and truth which a biggie.","http://www.4forums.com/political/gun-control-debates/13805-2009-epic-fail-anti-gunners.html",386375,14
"1-9601_15_14_1",9601,1,"2010-01-18 13:25:00",758,1069,386385,"2010-01-18 13:18:00",430886,28,14,"In this case victory is freedom from the gun controllers oppression. Any time the law abiding are able to defend themselves with a firearm is victory. ",430885,1,9601,1,"Care to point out the statistical analysis by Doc in this thread?
Of course yours is glaringly apparent. 
It's possible you misunderstand the meaning of the word 'vindication'...
Its also possible that have the what is known as projection.
Feel free to provide 'logic, common sense, facts and truth' any time you feel like it. I won't deny you have the law on your side.
That has already been done over and over. Good you concede your error then.
Not at all - a major jump would certainly lend some weight to my argument, but it wouldn't be all that conclusive.
As it is, though, we have a yearly change which isn't particularly distinguishable from any other yearly change over the past 20 years. All that does is imply that crime rate depends on more than just the presence/absence of guns - it disproves 'more guns = more crime' about as much as it disproves 'more guns = less crime'.
Like I said, too many possible external factors to call a victory for either side.","http://www.4forums.com/political/gun-control-debates/13805-2009-epic-fail-anti-gunners.html",386383,15
"1-9601_17_15_1",9601,1,"2010-01-18 13:54:00",1069,758,386395,"2010-01-18 13:25:00",430888,102,15,"...yes?

It's certainly possible you aren't making sense here. I'm guessing... claims of projectionism?
Actually, my point was that all of those 'things on your side' are considered by you to be vindication. So; yes, you do need it - it's just that you think you have it.

Link me!

Ah. Back to the line of 'crime rates don't matter anyway, it's a right!'
That victory was won with Heller. You're out of date if you wanted to boast about that one.",430886,1,9601,1,"In this case victory is freedom from the gun controllers oppression. Any time the law abiding are able to defend themselves with a firearm is victory. ","http://www.4forums.com/political/gun-control-debates/13805-2009-epic-fail-anti-gunners.html",386385,17
"1-9601_18_17_1",9601,1,"2010-01-18 14:06:00",758,1069,386401,"2010-01-18 13:54:00",430889,15,17,"Actually it was won long ago, Heller was the nail in the coffin. ",430888,1,9601,1,"...yes?
It's certainly possible you aren't making sense here. I'm guessing... claims of projectionism?
Please don't play stupid unless you really are.
Actually, my point was that all of those 'things on your side' are considered by you to be vindication. So; yes, you do need it - it's just that you think you have it.
Yes facts, logic, truth, and law are not needed. We have them.
Link me!
Try google and do your own work.
Ah. Back to the line of 'crime rates don't matter anyway, it's a right!'
Wishful thinking is not pretty. Its is a fact you can't recognize.
That victory was won with Heller. You're out of date if you wanted to boast about that one.","http://www.4forums.com/political/gun-control-debates/13805-2009-epic-fail-anti-gunners.html",386395,18
"1-9601_20_18_1",9601,1,"2010-01-18 14:17:00",1069,758,386404,"2010-01-18 14:06:00",430891,111,18,"No, that was my description of your argument. All too often I've been told more or less exactly the line quoted above.

Then please don't post strings of words with only barely decipherable meaning to them. ""possible that have the what is known as""?

You claim to have them. You need them, whether you have them or not - it's quite hard to prove your point unless you do.

It's your claim you have these things, not mine. Don't try and shift your own work onto me.

In which case, you're definitely too late to boast.",430889,1,9601,1,"Actually it was won long ago, Heller was the nail in the coffin. ","http://www.4forums.com/political/gun-control-debates/13805-2009-epic-fail-anti-gunners.html",386401,20
"1-9601_21_20_1",9601,1,"2010-01-18 14:22:00",758,1069,386405,"2010-01-18 14:17:00",430892,25,20,"Sorry that wasn't a boast. It was a fact. Some thing you evidently know very little about. Judging by the above.",430891,1,9601,1,"You claim to have them. You need them, whether you have them or not - it's quite hard to prove your point unless you do.
Nope don't need them. Just peruse these threads which you probably have.
It's your claim you have these things, not mine. Don't try and shift your own work onto me.
For you to disprove the statement you do. Go for it. Just as we are waiting for your proof of our broken constitution.
In which case, you're definitely too late to boast.","http://www.4forums.com/political/gun-control-debates/13805-2009-epic-fail-anti-gunners.html",386404,21
"1-9601_22_21_1",9601,1,"2010-01-18 14:29:00",1069,758,386407,"2010-01-18 14:22:00",430893,37,21,"You must prove the statement before I have to disprove it. It's called 'burden of proof'.

An irrelevant fact, then, given that the topic of this thread concerns crime rates.",430892,1,9601,1,"Sorry that wasn't a boast. It was a fact. Some thing you evidently know very little about. Judging by the above.","http://www.4forums.com/political/gun-control-debates/13805-2009-epic-fail-anti-gunners.html",386405,22
"1-9601_23_22_1",9601,1,"2010-01-18 14:33:00",758,1069,386409,"2010-01-18 14:29:00",430894,9,22,"A try for ye old weasel hole then.",430893,1,9601,1,"You must prove the statement before I have to disprove it. It's called 'burden of proof'.
Yea right, where's yours viz a viz our constitution. Again nice spin.
An irrelevant fact, then, given that the topic of this thread concerns crime rates.","http://www.4forums.com/political/gun-control-debates/13805-2009-epic-fail-anti-gunners.html",386407,23
"1-9601_24_23_1",9601,1,"2010-01-18 14:44:00",1069,758,386412,"2010-01-18 14:33:00",430895,76,23,"For the second time this evening - what?
I've repeatedly given my arguments against the constitution. From what I remember, I haven't seen all that many of your arguments for it.

'Boasting', 'facts', 'weasel hole'... call it what you will.
We are back to the fact that, when discussing crime rates, the latest data from DC proves neither agenda.",430894,1,9601,1,"A try for ye old weasel hole then.","http://www.4forums.com/political/gun-control-debates/13805-2009-epic-fail-anti-gunners.html",386409,24
"1-9601_25_24_1",9601,1,"2010-01-18 14:52:00",758,1069,386413,"2010-01-18 14:44:00",430896,104,24,"Your memory is faulty then. It is as you say the burden of proof which you failed at. The fact that our constitution contains within it the mechanism for change is proof its not broken. What you ""proved"" was in your own mind.It is working as it was intended. Of course the same can't be said for the lucite block containing the blank sheet of parchment.
Denial is not a fact. If you desire to try and be circular then its in your mind. It is clear enough to a resonable person.",430895,1,9601,1,"For the second time this evening - what?
I've repeatedly given my arguments against the constitution. From what I remember, I haven't seen all that many of your arguments for it.

'Boasting', 'facts', 'weasel hole'... call it what you will.
We are back to the fact that, when discussing crime rates, the latest data from DC proves neither agenda.","http://www.4forums.com/political/gun-control-debates/13805-2009-epic-fail-anti-gunners.html",386412,25
"1-9601_26_25_1",9601,1,"2010-01-18 15:09:00",1069,758,386415,"2010-01-18 14:52:00",430897,84,25,"This is another topic for another time, but one I would happily go into - on two fronts, both on the topic of the existence of 'inalienable rights' and on the topic of how many here consider somethings Constitutionality to be more important than it's effects. However, here is not the place, and it certainly isn't something I have time for this moment.
Anything else to say about the absence of guns in the UK?",430896,1,9601,1,"Your memory is faulty then. It is as you say the burden of proof which you failed at. The fact that our constitution contains within it the mechanism for change is proof its not broken. What you ""proved"" was in your own mind.It is working as it was intended. Of course the same can't be said for the lucite block containing the blank sheet of parchment.
Denial is not a fact. If you desire to try and be circular then its in your mind. It is clear enough to a resonable person.","http://www.4forums.com/political/gun-control-debates/13805-2009-epic-fail-anti-gunners.html",386413,26
"1-9601_27_26_1",9601,1,"2010-01-18 15:23:00",758,1069,386420,"2010-01-18 15:09:00",430898,76,26,"Well over here not many give a hoot what they consider over there. It is simply not relevant. 
Other than an island nation with draconian gun laws still has gun crime at all, not much thanx. Or that one in four becomes a victim of violent crime due to lack of self protection. Seems the old adage when guns are made illegal only criminals will have them is proven correct.",430897,1,9601,1,"This is another topic for another time, but one I would happily go into - on two fronts, both on the topic of the existence of 'inalienable rights' and on the topic of how many here consider somethings Constitutionality to be more important than it's effects. However, here is not the place, and it certainly isn't something I have time for this moment.
Anything else to say about the absence of guns in the UK?","http://www.4forums.com/political/gun-control-debates/13805-2009-epic-fail-anti-gunners.html",386415,27
