"key","quote_source_post_discussion_id","posts_dataset_id","posts_timestamp","posts_author_id","quote_source_author_id","posts_native_post_id","quote_source_timestamp","post_text_id","Word_Count","quote_source_post_id","post_text","quote_source_text_id","Dialog_Turn","posts_discussion_id","quote_source_post_dataset_id","Fullquote_text","discussion_url","quote_source_native_post_id","posts_post_id"
"1-9636_27_23_1",9636,1,"2010-02-02 13:23:00",153,44,388612,"2010-02-02 12:28:00",432954,229,23,"No? Then how about the fact that California has neither it's own state KBA provision, and the courts have ruled that the federal Second Amendment don't apply to them as a state?

Really? I don't think so. Not with their limitations on purchase size and frequency.

How about the private ownership of firearms designated as relics by Federal law standards?

Well we can start with the state requirement to obtain a permit in order to own a gun. Or the fact that you can only buy one gun in a 30 day period. Or the fact that the process for obtaining a permit takes an unreasonably long amount of time. Or the pointless restrictions on magazine size. Or maybe their newest scheme to require vendors to maintain databases of who buy ammunition. Or their requirement for people to submit a thumbprint when they buy a gun. 
Or if you really wanna get down to the bone of the matter, let's talk about California's list of handguns approved for sale to citizens within the state. If a company wants to sell a particular model of handgun to California, and it doesn't mean the designated safety standards, they have to pay an annual extortion fee for the markets to be open to them.",432950,1,9636,1,"No need to repost the same info for the umpteenth time.
No one in California is denied their 2A rights. You want to own a firearm or 100, have at it.
What has been ""stripped away""?
What specific CA law do you find objectionable? NICS checks for all sales? 
Locking your guns up when the neighbor kids come over? Which?","http://www.4forums.com/political/gun-control-debates/13848-does-un-trump-us-constitution.html",388601,27
"1-9636_30_27_1",9636,1,"2010-02-02 13:39:00",44,153,388615,"2010-02-02 13:23:00",432957,22,27,"OK let's. Got a link to the permit requirement to own a gun in CA? Then we can discuss.",432954,1,9636,1,"No? Then how about the fact that California has neither it's own state KBA provision, and the courts have ruled that the federal Second Amendment don't apply to them as a state?

Really? I don't think so. Not with their limitations on purchase size and frequency.

How about the private ownership of firearms designated as relics by Federal law standards?

Well we can start with the state requirement to obtain a permit in order to own a gun. Or the fact that you can only buy one gun in a 30 day period. Or the fact that the process for obtaining a permit takes an unreasonably long amount of time. Or the pointless restrictions on magazine size. Or maybe their newest scheme to require vendors to maintain databases of who buy ammunition. Or their requirement for people to submit a thumbprint when they buy a gun. 
Or if you really wanna get down to the bone of the matter, let's talk about California's list of handguns approved for sale to citizens within the state. If a company wants to sell a particular model of handgun to California, and it doesn't mean the designated safety standards, they have to pay an annual extortion fee for the markets to be open to them.","http://www.4forums.com/political/gun-control-debates/13848-does-un-trump-us-constitution.html",388612,30
"1-9636_34_30_1",9636,1,"2010-02-02 13:49:00",153,44,388620,"2010-02-02 13:39:00",432961,159,30,"Brady Campaign to Prevent Gun Violence : State Gun Laws
License or Permit to Purchase
Is a license/permit required to buy handguns? Yes
California - State law requires handgun buyers to obtain a ""handgun safety certificate"" (like a license) prior to purchasing a handgun. The handgun buyer must pass a written safety test and a hands-on safety demonstration and provide fingerprints and proof of residency. The certificate is also required for anyone who wishes to be ""loaned"" a handgun outside of the presence of the owner.
Handgun Safety Certificate Forms and Publications - Bureau of Firearms - California Dept. of Justice - Office of the Attorney General
Close enough. If your Second Amendment rights don't go into effect in California until after you've taken a government mandated safety course and received a certificate of completion, then it's no different than requiring a permit.",432957,1,9636,1,"OK let's. Got a link to the permit requirement to own a gun in CA? Then we can discuss.","http://www.4forums.com/political/gun-control-debates/13848-does-un-trump-us-constitution.html",388615,34
"1-9636_38_34_1",9636,1,"2010-02-02 13:59:00",44,153,388628,"2010-02-02 13:49:00",432965,75,34,"So you don't actually need a permit to own a gun in CA as you said. It's a safety certificate to show you've had some safety instruction and applies only to handguns. Your 2A rights don't ""go into effect"" only after you get the cert since you could have previously owned any number of firearms. Not ""close enough"". More deception in argumentation from where I sit.",432961,1,9636,1,"Brady Campaign to Prevent Gun Violence : State Gun Laws
License or Permit to Purchase
Is a license/permit required to buy handguns? Yes
California - State law requires handgun buyers to obtain a ""handgun safety certificate"" (like a license) prior to purchasing a handgun. The handgun buyer must pass a written safety test and a hands-on safety demonstration and provide fingerprints and proof of residency. The certificate is also required for anyone who wishes to be ""loaned"" a handgun outside of the presence of the owner.
Handgun Safety Certificate Forms and Publications - Bureau of Firearms - California Dept. of Justice - Office of the Attorney General
Close enough. If your Second Amendment rights don't go into effect in California until after you've taken a government mandated safety course and received a certificate of completion, then it's no different than requiring a permit.","http://www.4forums.com/political/gun-control-debates/13848-does-un-trump-us-constitution.html",388620,38
"1-9636_49_38_1",9636,1,"2010-02-02 14:40:00",153,44,388645,"2010-02-02 13:59:00",432976,157,38,"The program is run by the government, they require you to obtain it first, it's a permit no matter what kind of spin you put on it.

Not if you wanted to be a handgun owner.
The Supreme Court ruled that a handgun ban was in violation of the Second Amendment even if you could still own shotguns and rifles. DC didn't win this argument and you aren't either.

Well if you're so sure you're right on this one, would you like to tackle the other raised issues? 
Maybe we could discuss how California has banned the ownership of multiple new models of firearms, forcing its people to remain behind everybody else in the country. After all the number of new models being added to the ""safe handgun roster"" is quite small in comparison to all the latest models coming out on the market.",432965,1,9636,1,"So you don't actually need a permit to own a gun in CA as you said. It's a safety certificate to show you've had some safety instruction and applies only to handguns. Your 2A rights don't ""go into effect"" only after you get the cert since you could have previously owned any number of firearms. Not ""close enough"". More deception in argumentation from where I sit.","http://www.4forums.com/political/gun-control-debates/13848-does-un-trump-us-constitution.html",388628,49
"1-9636_52_49_1",9636,1,"2010-02-02 14:54:00",44,153,388649,"2010-02-02 14:40:00",432979,51,49,"That's why they call it a certificate. 

And the handguns you already owned prior to that law taking effect?

It's not a ban in any way shape or form. Nice try.

I am.

Which models by which manufacturers are not to be sold in CA?",432976,1,9636,1,"The program is run by the government, they require you to obtain it first, it's a permit no matter what kind of spin you put on it.

Not if you wanted to be a handgun owner.
The Supreme Court ruled that a handgun ban was in violation of the Second Amendment even if you could still own shotguns and rifles. DC didn't win this argument and you aren't either.

Well if you're so sure you're right on this one, would you like to tackle the other raised issues? 
Maybe we could discuss how California has banned the ownership of multiple new models of firearms, forcing its people to remain behind everybody else in the country. After all the number of new models being added to the ""safe handgun roster"" is quite small in comparison to all the latest models coming out on the market.","http://www.4forums.com/political/gun-control-debates/13848-does-un-trump-us-constitution.html",388645,52
"1-9636_37_33_2",9636,1,"2010-02-02 13:56:00",681,44,388627,"2010-02-02 13:48:00",432964,90,33,"Ahhh, a man after my own heart! I get tired of those guys asking all kinds of questions when they know they need it :) Just reviewed some material today about a doctor that weighed patients just before death and right after. He came to a startling factoid that the soul weighs 25 grams. That is it, no more, no less. Would you quibble about your 25 grams?

I suppose you haven't heard? Your president cancelled all further moon walks.",432960,2,9636,1,"""Burdening the Constitution"" is poetic but utterly meaningless.
Would you expect your doctor to ""prove"" the operation he recommends will save you before you consent to it.
Should NASA have had to ""prove"" sending a man to the moon would work before they got the funding for the Apollo missions?","http://www.4forums.com/political/gun-control-debates/13848-does-un-trump-us-constitution.html",388619,37
"1-9636_40_37_2",9636,1,"2010-02-02 14:03:00",44,681,388631,"2010-02-02 13:56:00",432967,14,37,"The soul is a fig newton. 

I heard. Your President too.",432964,2,9636,1,"Ahhh, a man after my own heart! I get tired of those guys asking all kinds of questions when they know they need it :) Just reviewed some material today about a doctor that weighed patients just before death and right after. He came to a startling factoid that the soul weighs 25 grams. That is it, no more, no less. Would you quibble about your 25 grams?

I suppose you haven't heard? Your president cancelled all further moon walks.","http://www.4forums.com/political/gun-control-debates/13848-does-un-trump-us-constitution.html",388627,40
"1-9636_41_40_2",9636,1,"2010-02-02 14:06:00",681,44,388632,"2010-02-02 14:03:00",432968,21,40,"So what you posted was just deception? Didn't apply to anything but you posted it as though it did.",432967,2,9636,1,"The soul is a fig newton. 

I heard. Your President too.","http://www.4forums.com/political/gun-control-debates/13848-does-un-trump-us-constitution.html",388631,41
"1-9636_42_41_2",9636,1,"2010-02-02 14:08:00",44,681,388634,"2010-02-02 14:06:00",432969,24,41,"What are you on about? I posted nothing about souls and you might have heard the Apollo program ended a while ago.",432968,2,9636,1,"So what you posted was just deception? Didn't apply to anything but you posted it as though it did.","http://www.4forums.com/political/gun-control-debates/13848-does-un-trump-us-constitution.html",388632,42
"1-9636_44_42_2",9636,1,"2010-02-02 14:20:00",681,44,388637,"2010-02-02 14:08:00",432971,147,42,"You posted about saving your life with an operation which is non-sensical and boring when it is your life we are talking about. I threw in some factoid that most people never heard of to make your topic a bit more interesting and you object to that? Kind of puts a new look on it instead of like your take on 2A rights and socialized medical care. Bet you didn't know that Nova Scotia's head icycle (note the spelling) came to the U.S. to get his surgery yesterday. That is something else your president is pushing, socialized medicine. Look, all this c*** you talk about has been tried and found wanting yet you, being an uplifter, just think the right people haven't tried it yet. ...and that is your 25 grams worth.emoticonXClown",432969,2,9636,1,"What are you on about? I posted nothing about souls and you might have heard the Apollo program ended a while ago.","http://www.4forums.com/political/gun-control-debates/13848-does-un-trump-us-constitution.html",388634,44
"1-9636_47_44_2",9636,1,"2010-02-02 14:32:00",44,681,388643,"2010-02-02 14:20:00",432974,73,44,"Point being ""proof"" in advance is often an unreasonable demand. 

Factoid? Weight of souls? Let me know when you intend to rejoin reality.

Maybe we could stick to the subject?

All what has been tried and found wanting? 
Nationwide background checks for all firearm transfers? No, it hasn't. 
Nationwide mandatory reporting for gun thefts/losses? No, it hasn't.",432971,2,9636,1,"You posted about saving your life with an operation which is non-sensical and boring when it is your life we are talking about. I threw in some factoid that most people never heard of to make your topic a bit more interesting and you object to that? Kind of puts a new look on it instead of like your take on 2A rights and socialized medical care. Bet you didn't know that Nova Scotia's head icycle (note the spelling) came to the U.S. to get his surgery yesterday. That is something else your president is pushing, socialized medicine. Look, all this c*** you talk about has been tried and found wanting yet you, being an uplifter, just think the right people haven't tried it yet. ...and that is your 25 grams worth.emoticonXClown","http://www.4forums.com/political/gun-control-debates/13848-does-un-trump-us-constitution.html",388637,47
"1-9636_48_47_2",9636,1,"2010-02-02 14:38:00",681,44,388644,"2010-02-02 14:32:00",432975,75,47,"Better think again, start with Hitler and work your way forward.
Theft/loss LOL. Police won't even do a report on a stolen vehicle much less put out a find on it. Missing persons take up to 3 days before a bulletin is put out on them. Think a stolen article would make them really jump up and tear out the door and down the street? Fantastic!",432974,2,9636,1,"Point being ""proof"" in advance is often an unreasonable demand. 

Factoid? Weight of souls? Let me know when you intend to rejoin reality.

Maybe we could stick to the subject?

All what has been tried and found wanting? 
Nationwide background checks for all firearm transfers? No, it hasn't. 
Nationwide mandatory reporting for gun thefts/losses? No, it hasn't.","http://www.4forums.com/political/gun-control-debates/13848-does-un-trump-us-constitution.html",388643,48
"1-9636_51_48_2",9636,1,"2010-02-02 14:48:00",44,681,388648,"2010-02-02 14:38:00",432978,72,48,"Maybe you could show the RKBA guaranteed in the German Constitution circa 1940? 

That's a great strawman you have there but I wasn't suggesting that mandatory reporting would make the police drop everything and go looking for your gun. See, when they find your gun and it turns out you never reported it lost or stolen, they'd get suspicious. Might pose a problem for straw purchasers.",432975,2,9636,1,"Better think again, start with Hitler and work your way forward.
Theft/loss LOL. Police won't even do a report on a stolen vehicle much less put out a find on it. Missing persons take up to 3 days before a bulletin is put out on them. Think a stolen article would make them really jump up and tear out the door and down the street? Fantastic!","http://www.4forums.com/political/gun-control-debates/13848-does-un-trump-us-constitution.html",388644,51
"1-9636_53_51_2",9636,1,"2010-02-02 14:58:00",681,44,388650,"2010-02-02 14:48:00",432980,201,51,"Actually, it was REGISTRATION that is the important part, not only in Germany but any other country they took over involved seizing the lists and picking them up...ditto for short wave radios. Look, this right does not belong to our government, it belongs to the people. Their powers are delegated and enumerated and there is no power to do what you suggest! You are being ""deceptive"" once again!

It is not a strawman, it is an attempt to force registration and then confiscation as kalifornia has done already despite promises to the contrary. If they find a gun in the criminals hand that means he committed two crimes. Gun registration is not acceptable in America as you should well know. ""oh what a web we weave when you attempt to deceive...""
Due to the economy, hundreds of thousands are going to be released from prison in kalifornia. Seems to be a budget problem? :) You still maintain kalifornia should do something similar to kanada and have multi billions to throw away instead of a job for you? emoticonXGood",432978,2,9636,1,"Maybe you could show the RKBA guaranteed in the German Constitution circa 1940? 

That's a great strawman you have there but I wasn't suggesting that mandatory reporting would make the police drop everything and go looking for your gun. See, when they find your gun and it turns out you never reported it lost or stolen, they'd get suspicious. Might pose a problem for straw purchasers.","http://www.4forums.com/political/gun-control-debates/13848-does-un-trump-us-constitution.html",388648,53
"1-9636_59_53_2",9636,1,"2010-02-02 15:14:00",44,681,388657,"2010-02-02 14:58:00",432986,37,53,"I'm not suggesting Nationwide registration. Now who's being deceptive?

see above.

No, I'm not and never have. 
Hundreds of thousands released, huh? There's less than 200,000 in the system.",432980,2,9636,1,"Actually, it was REGISTRATION that is the important part, not only in Germany but any other country they took over involved seizing the lists and picking them up...ditto for short wave radios. Look, this right does not belong to our government, it belongs to the people. Their powers are delegated and enumerated and there is no power to do what you suggest! You are being ""deceptive"" once again!

It is not a strawman, it is an attempt to force registration and then confiscation as kalifornia has done already despite promises to the contrary. If they find a gun in the criminals hand that means he committed two crimes. Gun registration is not acceptable in America as you should well know. ""oh what a web we weave when you attempt to deceive...""
Due to the economy, hundreds of thousands are going to be released from prison in kalifornia. Seems to be a budget problem? :) You still maintain kalifornia should do something similar to kanada and have multi billions to throw away instead of a job for you? emoticonXGood","http://www.4forums.com/political/gun-control-debates/13848-does-un-trump-us-constitution.html",388650,59
"1-9636_61_59_2",9636,1,"2010-02-02 15:22:00",681,44,388660,"2010-02-02 15:14:00",432988,42,59,"Nor counting wants/warrants, those on parole or not caught yet for a crime? I would say that is hundreds of thousands. What are you going to do, threaten to put them back in jail? emoticonXBouncer",432986,2,9636,1,"I'm not suggesting Nationwide registration. Now who's being deceptive?

see above.

No, I'm not and never have. 
Hundreds of thousands released, huh? There's less than 200,000 in the system.","http://www.4forums.com/political/gun-control-debates/13848-does-un-trump-us-constitution.html",388657,61
"1-9636_63_61_2",9636,1,"2010-02-02 15:28:00",44,681,388662,"2010-02-02 15:22:00",432990,10,61,"Not yet caught? On parole? You're flailing.",432988,2,9636,1,"Nor counting wants/warrants, those on parole or not caught yet for a crime? I would say that is hundreds of thousands. What are you going to do, threaten to put them back in jail? emoticonXBouncer","http://www.4forums.com/political/gun-control-debates/13848-does-un-trump-us-constitution.html",388660,63
"1-9636_64_63_2",9636,1,"2010-02-02 15:36:00",681,44,388664,"2010-02-02 15:28:00",432991,117,63,"Yep, crime but no perp caught. You don't have any of those huh?
I would say 200,000 is hundreds of thousands. Wouldn't you?
Proper authorities? they are the authorities by your standard! Who they going to report to? What about the evidence locker? :) Report to whom?
Most States have no registration and there will be none. Kalifornia lied to the first registees on the ""assault rifles"" and then tried to confiscate them.
You have about as good an answer as that store clerk in the hardware store. mene mene tekel
""but who is going to guard the guards - Jevenal",432990,2,9636,1,"Not yet caught? On parole? You're flailing.","http://www.4forums.com/political/gun-control-debates/13848-does-un-trump-us-constitution.html",388662,64
"1-9636_75_74_3",9636,1,"2010-02-03 07:59:00",44,681,388743,"2010-02-03 04:02:00",433002,59,74,"Q - Will you check for lost or stolen status of the weapons? If so, will you return to owner?
A - Yes. All weapons will be checked for lost and/or stolen status. Every effort will be made to return lost and/or stolen firearms to their rightful owners.
http://www.northridgems.org/ourpages...0sheet_5-1.pdf",433001,3,9636,1,"Wrong hoser! Your gun grabbing crowd sponsors ""buy backs"" regularly in these unconstitutional cities with no questions ask allowing criminals probably to recycle their crime guns with no penalty.No matter if the owner had of reported it stolen it would make no difference and also proves your sides 'ballistic tracing' theory is completely worthless.","http://www.4forums.com/political/gun-control-debates/13848-does-un-trump-us-constitution.html",388735,75
"1-9636_78_75_3",9636,1,"2010-02-03 08:46:00",681,44,388756,"2010-02-03 07:59:00",433005,78,75,"So anyone can rest assured that all gun buy backs follow the same MO. That is hogwash and you know it; some are conducted by anti gun churches and there is no, NO way they have to check. Nice way to award criminals for their actions to recycle 'neighborhood firearms'. Anyone in this buy back scheme have an FFL? or are they above the law? Like the U.N.?",433002,3,9636,1,"Q - Will you check for lost or stolen status of the weapons? If so, will you return to owner?
A - Yes. All weapons will be checked for lost and/or stolen status. Every effort will be made to return lost and/or stolen firearms to their rightful owners.
http://www.northridgems.org/ourpages...0sheet_5-1.pdf","http://www.4forums.com/political/gun-control-debates/13848-does-un-trump-us-constitution.html",388743,78
"1-9636_80_78_3",9636,1,"2010-02-03 09:00:00",44,681,388759,"2010-02-03 08:46:00",433007,28,78,"I was simply showing that your previous statement was incorrect. 
Some cities try to return the weapons turned in if they were reported stolen/lost.",433005,3,9636,1,"So anyone can rest assured that all gun buy backs follow the same MO. That is hogwash and you know it; some are conducted by anti gun churches and there is no,NO way they have to check.","http://www.4forums.com/political/gun-control-debates/13848-does-un-trump-us-constitution.html",388756,80
"1-9636_81_80_3",9636,1,"2010-02-03 09:08:00",681,44,388760,"2010-02-03 09:00:00",433008,87,80,"They may or may not. I am certain most cities do not. I would bet there are some that have had the serial numbers removed or mutilated and there is no way to check. On bourough in NY has a policy of taking them all to the destruction site as soon as they are collected.
Either way, 'lost or stolen' would not punish a criminal who turned one in no matter what he had done with it. Right?",433007,3,9636,1,"I was simply showing that your previous statement was incorrect. 
Some cities try to return the weapons turned in if they were reported stolen/lost.","http://www.4forums.com/political/gun-control-debates/13848-does-un-trump-us-constitution.html",388759,81
"1-9636_82_81_3",9636,1,"2010-02-03 09:17:00",44,681,388763,"2010-02-03 09:08:00",433009,63,81,"These buy backs aren't aimed at identifying criminals for punishment.
I don't see what you're getting at. 
What do you mean recycle? A criminal can always just toss a dirty gun in the lake. 
The person turning the gun in at the buy back isn't going to be the one who may have used it in a crime.",433008,3,9636,1,"They may or may not. I am certain most cities do not. I would bet there are some that have had the serial numbers removed or mutilated and there is no way to check. On bourough in NY has a policy of taking them all to the destruction site as soon as they are collected.
Either way, 'lost or stolen' would not punish a criminal who turned one in no matter what he had done with it. Right?","http://www.4forums.com/political/gun-control-debates/13848-does-un-trump-us-constitution.html",388760,82
"1-9636_83_82_3",9636,1,"2010-02-03 09:30:00",681,44,388767,"2010-02-03 09:17:00",433010,205,82,"[QUOTE=sinjin;388763]These buy backs aren't aimed at identifying criminals for punishment.
I don't see what you're getting at.[QUOTE]
That is what I am getting at! The trick is to get rewarded while disposing of a gun which has been stolen and probably used in more crimes with no penalty but a reward. No way can this affect crime control nor criminals! I know later on you will say/claim that punishing people who do not report stolen or lost guns is a crime and it is all their fault...you have mentioned that before! 

What incentive would that have when they can turn it in risk free for cash? A reward for criminal behavior. 

How are you so sure? That is a blantant statement You should take a crack at proving. I would think it would be a risk free deal and your Los Angeles pdf made a point of not collecting ANY information, criminals feel free to come on in, no pics, no identification and no license pllates will be recorded.
Sounds like enticement...and it is.",433009,3,9636,1,"These buy backs aren't aimed at identifying criminals for punishment.
I don't see what you're getting at. 
What do you mean recycle? A criminal can always just toss a dirty gun in the lake. 
The person turning the gun in at the buy back isn't going to be the one who may have used it in a crime.","http://www.4forums.com/political/gun-control-debates/13848-does-un-trump-us-constitution.html",388763,83
