"key","quote_source_post_discussion_id","posts_dataset_id","posts_timestamp","posts_author_id","quote_source_author_id","posts_native_post_id","quote_source_timestamp","post_text_id","Word_Count","quote_source_post_id","post_text","quote_source_text_id","Dialog_Turn","posts_discussion_id","quote_source_post_dataset_id","Fullquote_text","discussion_url","quote_source_native_post_id","posts_post_id"
"1-9753_8_7_1",9753,1,"2010-03-09 15:24:00",153,44,393898,"2010-03-09 15:21:00",440436,26,7,"Well then the courts must be insane. Because I'm sure there are some gun control laws that they're struck down due to their ineffectiveness.",440435,1,9753,1,"Insanity is the belief that laws are pointless since someone always breaks them.","http://www.4forums.com/political/gun-control-debates/14000-use-guns-not-unions-medicate-workplace-disputes.html",393896,8
"1-9753_9_8_1",9753,1,"2010-03-09 15:30:00",44,153,393901,"2010-03-09 15:24:00",440437,21,8,"Which ones? Ineffective how?
I'd guess the laws weren't struck down simply because too many people broke them.",440436,1,9753,1,"Well then the courts must be insane. Because I'm sure there are some gun control laws that they're struck down due to their ineffectiveness.","http://www.4forums.com/political/gun-control-debates/14000-use-guns-not-unions-medicate-workplace-disputes.html",393898,9
"1-9753_10_9_1",9753,1,"2010-03-09 15:55:00",153,44,393909,"2010-03-09 15:30:00",440438,188,9,"I'll get back to you when I find the case laws.
But it does make sense to rescind gun control laws on the basis of being useless. When was the last time you ever heard of a criminal getting a ten year sentence because they were caught with an AR-15, or a 15 round magazine? When was the last time thumbprint requirements lead the police to a notorious gang leader responsible for a killing? When was the last time a central database registry was instrumental in catching a serious criminal?
We've been forced to put up with diminished freedoms and liberties, even inside our private homes, and told that our sacrifices would make us safer, that the less freedoms we enjoy the more police will be able to catch and punish criminals. 
We simply haven't received a return on our investments that would even suggest gun control has been beneficial. In fact we've had to pay more in than we were promised it would take. We're in the hole and it's time to get out.",440437,1,9753,1,"Which ones? Ineffective how?
I'd guess the laws weren't struck down simply because too many people broke them.","http://www.4forums.com/political/gun-control-debates/14000-use-guns-not-unions-medicate-workplace-disputes.html",393901,10
"1-9753_12_10_1",9753,1,"2010-03-10 08:08:00",44,153,394027,"2010-03-09 15:55:00",440440,39,10,"Is the fact that people continue to be killed everyday on our roads and our courts process millions of offenders 
demonstrate that traffic laws have not given us an acceptable return on our investment and should be rescinded?",440438,1,9753,1,"I'll get back to you when I find the case laws.
But it does make sense to rescind gun control laws on the basis of being useless. When was the last time you ever heard of a criminal getting a ten year sentence because they were caught with an AR-15, or a 15 round magazine? When was the last time thumbprint requirements lead the police to a notorious gang leader responsible for a killing? When was the last time a central database registry was instrumental in catching a serious criminal?
We've been forced to put up with diminished freedoms and liberties, even inside our private homes, and told that our sacrifices would make us safer, that the less freedoms we enjoy the more police will be able to catch and punish criminals. 
We simply haven't received a return on our investments that would even suggest gun control has been beneficial. In fact we've had to pay more in than we were promised it would take. We're in the hole and it's time to get out.","http://www.4forums.com/political/gun-control-debates/14000-use-guns-not-unions-medicate-workplace-disputes.html",393909,12
"1-9753_15_12_1",9753,1,"2010-03-10 10:07:00",153,44,394047,"2010-03-10 08:08:00",440443,123,12,"That does it, I'm tired of this excuse always coming up.
There's a difference between traffic laws and gun control laws. Traffic laws can actually be enforced. You can easily prove when someone is guilty of speeding, running red lights, illegally parking, fender benders, drunk driving or vehicular manslaughter. The public is aware and present for when these incidents occur.
The same can't be said of firearms offenses.
There's also the fact that traffic charges aren't usually dropped, but rather pushed through to the end. But every damn day you hear about some dirtbag being arrested, and the firearms possession charges are routinely dropped for absolutely no reason.",440440,1,9753,1,"Is the fact that people continue to be killed everyday on our roads and our courts process millions of offenders 
demonstrate that traffic laws have not given us an acceptable return on our investment and should be rescinded?","http://www.4forums.com/political/gun-control-debates/14000-use-guns-not-unions-medicate-workplace-disputes.html",394027,15
"1-9753_17_15_1",9753,1,"2010-03-10 11:19:00",44,153,394069,"2010-03-10 10:07:00",440445,42,15,"It's not an excuse, it's an observation.
The fact that crimes with firearms continue to take place no more disproves the utility of firearm regulations than the fact that traffic collisions occur demonstates that traffic laws serve no utility.",440443,1,9753,1,"That does it, I'm tired of this excuse always coming up.
There's a difference between traffic laws and gun control laws. Traffic laws can actually be enforced. You can easily prove when someone is guilty of speeding, running red lights, illegally parking, fender benders, drunk driving or vehicular manslaughter. The public is aware and present for when these incidents occur.
The same can't be said of firearms offenses.
There's also the fact that traffic charges aren't usually dropped, but rather pushed through to the end. But every damn day you hear about some dirtbag being arrested, and the firearms possession charges are routinely dropped for absolutely no reason.","http://www.4forums.com/political/gun-control-debates/14000-use-guns-not-unions-medicate-workplace-disputes.html",394047,17
"1-9753_18_17_1",9753,1,"2010-03-10 13:03:00",153,44,394092,"2010-03-10 11:19:00",440446,61,17,"Except the charges relating to firearms keep getting dropped whenever a case might go to trial. So if the laws aren't going to be enforced against those that intentionally break them, what damn purpose does it serve to keep them on the books?
Either use them or lose them. This double standard of enforcement isn't acceptable.",440445,1,9753,1,"It's not an excuse, it's an observation.
The fact that crimes with firearms continue to take place no more disproves the utility of firearm regulations than the fact that traffic collisions occur demonstates that traffic laws serve no utility.","http://www.4forums.com/political/gun-control-debates/14000-use-guns-not-unions-medicate-workplace-disputes.html",394069,18
"1-9753_19_18_1",9753,1,"2010-03-10 13:19:00",44,153,394094,"2010-03-10 13:03:00",440447,47,18,"I do not pretend to know what motivates plea bargains in all cases. Quite often charges are dropped in return for cooperation relating to a different case or an ongoing investigation. If you have a specific instance in mind we could look into it.",440446,1,9753,1,"Except the charges relating to firearms keep getting dropped whenever a case might go to trial. So if the laws aren't going to be enforced against those that intentionally break them, what damn purpose does it serve to keep them on the books?
Either use them or lose them. This double standard of enforcement isn't acceptable.","http://www.4forums.com/political/gun-control-debates/14000-use-guns-not-unions-medicate-workplace-disputes.html",394092,19
"1-9753_43_39_2",9753,1,"2010-03-15 10:31:00",153,44,394705,"2010-03-15 08:16:00",440471,17,39,"Does it really matter if there's a legal compulsion or not when they report them anyway?",440467,2,9753,1,"But in majority of states, someone who's had a weapon stolen, meaning by definition a criminal now possesses it, is not legally compelled to report that theft.","http://www.4forums.com/political/gun-control-debates/14000-use-guns-not-unions-medicate-workplace-disputes.html",394668,43
"1-9753_46_43_2",9753,1,"2010-03-15 10:43:00",44,153,394713,"2010-03-15 10:31:00",440474,33,43,"Yes, because people who give/sell firearms to prohibited persons can presently claim the gun was stolen 
after it turns up at a crime scene and LE can't touch them.",440471,2,9753,1,"Does it really matter if there's a legal compulsion or not when they report them anyway?","http://www.4forums.com/political/gun-control-debates/14000-use-guns-not-unions-medicate-workplace-disputes.html",394705,46
"1-9753_54_46_2",9753,1,"2010-03-15 12:18:00",153,44,394745,"2010-03-15 10:43:00",440482,48,46,"Then give us a detailed and well thought out explanation to prove how the changes you support, would render this possibility an impossibility.
You're defending the mandatory reporting standards, it's only fair that you be tasked with explaining how it would work as hypothesized.",440474,2,9753,1,"Yes, because people who give/sell firearms to prohibited persons can presently claim the gun was stolen 
after it turns up at a crime scene and LE can't touch them.","http://www.4forums.com/political/gun-control-debates/14000-use-guns-not-unions-medicate-workplace-disputes.html",394713,54
"1-9753_55_54_2",9753,1,"2010-03-15 12:45:00",44,153,394752,"2010-03-15 12:18:00",440483,87,54,"The cops come to talk to you about your gun being used in a crime. You say, ""oh, that was stolen"". Cops ask why you didn't report it stolen? They inform you that the DA's office may be pressing charges against you since failure to report carries and stiff fine and possible jail time. You say, ""but I didn't know it was missing"". Cops tell you that you best tell that to the prosecutor.",440482,2,9753,1,"Then give us a detailed and well thought out explanation to prove how the changes you support, would render this possibility an impossibility.
You're defending the mandatory reporting standards, it's only fair that you be tasked with explaining how it would work as hypothesized.","http://www.4forums.com/political/gun-control-debates/14000-use-guns-not-unions-medicate-workplace-disputes.html",394745,55
"1-9753_58_55_2",9753,1,"2010-03-15 13:50:00",153,44,394785,"2010-03-15 12:45:00",440486,126,55,"Sounds to me like a major waste of finite crime fighting resources. We've got examples of entire police forces being laid off due to lack of funding, jails being closed, equipment being sold off to make ends meet...and you actually want to squander what little is available to prosecute gun owners to the full extent of some new law?
The police have enough on their plate trying to catch the criminals and gang members that are actually doing the shooting. What good will come from charging them with the additional matter of going door to door and informing people that they've switched from being crime victims to crime accomplices?
You really need to get your priorities straight.",440483,2,9753,1,"The cops come to talk to you about your gun being used in a crime. You say, ""oh, that was stolen"". Cops ask why you didn't report it stolen? They inform you that the DA's office may be pressing charges against you since failure to report carries and stiff fine and possible jail time. You say, ""but I didn't know it was missing"". Cops tell you that you best tell that to the prosecutor.","http://www.4forums.com/political/gun-control-debates/14000-use-guns-not-unions-medicate-workplace-disputes.html",394752,58
"1-9753_59_58_2",9753,1,"2010-03-15 13:57:00",44,153,394788,"2010-03-15 13:50:00",440487,24,58,"So now you'd like to change the debate to limited resources and nevermind addressing the point on which you asked me to elaborate.",440486,2,9753,1,"Sounds to me like a major waste of finite crime fighting resources. We've got examples of entire police forces being laid off due to lack of funding, jails being closed, equipment being sold off to make ends meet...and you actually want to squander what little is available to prosecute gun owners to the full extent of some new law?
The police have enough on their plate trying to catch the criminals and gang members that are actually doing the shooting. What good will come from charging them with the additional matter of going door to door and informing people that they've switched from being crime victims to crime accomplices?
You really need to get your priorities straight.","http://www.4forums.com/political/gun-control-debates/14000-use-guns-not-unions-medicate-workplace-disputes.html",394785,59
"1-9753_61_59_2",9753,1,"2010-03-15 15:01:00",153,44,394807,"2010-03-15 13:57:00",440489,34,59,"Nope, simply pointing out one of the many shortcomings of your favored mandatory reporting standards. If you can't address these shortcomings then you really need to rethink your plan of attack.",440487,2,9753,1,"So now you'd like to change the debate to limited resources and nevermind addressing the point on which you asked me to elaborate.","http://www.4forums.com/political/gun-control-debates/14000-use-guns-not-unions-medicate-workplace-disputes.html",394788,61
"1-9753_41_39_3",9753,1,"2010-03-15 10:19:00",2104,44,394690,"2010-03-15 08:16:00",440469,102,39,"We have done this How many times before? There is no reason for someone not to report, if they know, it was stolen. 
We object that one might criminalize the fact that one did not know the weapon was stolen.
To highlight how ridiculous this law is. Lets say Mr. nefarious intentions plans on selling or giving a weapon to Mr. criminal. After the deal, He yells, 
HEY COPS! SOMEONE STOLE MY WEAPON LAST NIGHT! He is free and clear, and says Thanks Sinjin for my way out! emoticonXSmilie",440467,3,9753,1,"But in majority of states, someone who's had a weapon stolen, meaning by definition a criminal now possesses it, is not legally compelled to report that theft.","http://www.4forums.com/political/gun-control-debates/14000-use-guns-not-unions-medicate-workplace-disputes.html",394668,41
"1-9753_44_41_3",9753,1,"2010-03-15 10:37:00",44,2104,394710,"2010-03-15 10:19:00",440472,29,41,"Except when the theft never happened. 

Tell that to the DA.

How many times is that gonna work before one becomes the subject of an investigation?",440469,3,9753,1,"We have done this How many times before? There is no reason for someone not to report, if they know, it was stolen. 
We object that one might criminalize the fact that one did not know the weapon was stolen.
To highlight how ridiculous this law is. Lets say Mr. nefarious intentions plans on selling or giving a weapon to Mr. criminal. After the deal, He yells, 
HEY COPS! SOMEONE STOLE MY WEAPON LAST NIGHT! He is free and clear, and says Thanks Sinjin for my way out! emoticonXSmilie","http://www.4forums.com/political/gun-control-debates/14000-use-guns-not-unions-medicate-workplace-disputes.html",394690,44
"1-9753_47_44_3",9753,1,"2010-03-15 10:56:00",2104,44,394720,"2010-03-15 10:37:00",440475,158,44,"Na. You come over here and take my Rights away from me instead.emoticonXSmilie 
Ohio's law of reporting thefts has a stipulation that one must be proven guilty by law enforcement first. Not the other way around like you want it. 

Just as many times as it would take as your lame excuse for a law would. If there is a pattern we would investigate it! 
Your law only puts into jeopardy an innocent victim for not knowing his gun was stolen. Some of my forearms have not been seen by me for more than a year. I can think of other possessions like that too. And please allow me to tell you, that is not unusual, from conversations I have had with gun owning friends.
You law is illconceived and risky to innocent victims!
The burden of proof is correctly on law enforcement.",440472,3,9753,1,"Except when the theft never happened. 

Tell that to the DA.

How many times is that gonna work before one becomes the subject of an investigation?","http://www.4forums.com/political/gun-control-debates/14000-use-guns-not-unions-medicate-workplace-disputes.html",394710,47
"1-9753_48_47_3",9753,1,"2010-03-15 11:08:00",44,2104,394724,"2010-03-15 10:56:00",440476,81,47,"Not the object. 

What must be proven? 

But if one could be prosecuted and jailed there'd be no more pattern. 

Please don't ask me to accept that you can't be held responsible to know if your guns are still where you left them. Some defense.

So the DA can't be trusted to discern good guys from bad guys through statements and investigative work, 
but you guys know a criminal just by looking at him?",440475,3,9753,1,"Na. You come over here and take my Rights away from me instead.emoticonXSmilie 
Ohio's law of reporting thefts has a stipulation that one must be proven guilty by law enforcement first. Not the other way around like you want it. 

Just as many times as it would take as your lame excuse for a law would. If there is a pattern we would investigate it! 
Your law only puts into jeopardy an innocent victim for not knowing his gun was stolen. Some of my forearms have not been seen by me for more than a year. I can think of other possessions like that too. And please allow me to tell you, that is not unusual, from conversations I have had with gun owning friends.
You law is illconceived and risky to innocent victims!
The burden of proof is correctly on law enforcement.","http://www.4forums.com/political/gun-control-debates/14000-use-guns-not-unions-medicate-workplace-disputes.html",394720,48
"1-9753_49_48_3",9753,1,"2010-03-15 11:25:00",2104,44,394731,"2010-03-15 11:08:00",440477,155,48,"What must be established by law enforcement is that some crime by the owner of the gun happened. Otherwise there is no grounds for prosecution. 

Thank you for proving that this is what you are after! Much appreciated!!! 

Luckily I don't have to ask you to accept anything. I live in Ohio and not California. emoticonXSmilie 

Under this scenario, the victim in this scenario would have been the exactly that. A victim! Only in your wildly inappropriate law would one need to justify being a victim and then accused of a crime. 

In Ohio's law the DA must prove criminal actions before going after the victim. That is Exactly where the burden of proof needs to lie. 
California should change your law to Ohio's standard to more appropriately protect the innocent. Or, maybe that in not what you are after?",440476,3,9753,1,"Not the object. 

What must be proven? 

But if one could be prosecuted and jailed there'd be no more pattern. 

Please don't ask me to accept that you can't be held responsible to know if your guns are still where you left them. Some defense.

So the DA can't be trusted to discern good guys from bad guys through statements and investigative work, 
but you guys know a criminal just by looking at him?","http://www.4forums.com/political/gun-control-debates/14000-use-guns-not-unions-medicate-workplace-disputes.html",394724,49
"1-9753_50_49_3",9753,1,"2010-03-15 11:33:00",44,2104,394734,"2010-03-15 11:25:00",440478,60,49,"There would be if not reporting was a crime in itself. 

Denying easy excuses to straw purchasers is what I'm after. 

Some day gun regulations will be uniform across the Country. 

Not justify, only report having been a victim. 

So CA isn't fit to dictate but Ohio is?
Insinuate hidden agenda. Check.",440477,3,9753,1,"What must be established by law enforcement is that some crime by the owner of the gun happened. Otherwise there is no grounds for prosecution. 

Thank you for proving that this is what you are after! Much appreciated!!! 

Luckily I don't have to ask you to accept anything. I live in Ohio and not California. emoticonXSmilie 

Under this scenario, the victim in this scenario would have been the exactly that. A victim! Only in your wildly inappropriate law would one need to justify being a victim and then accused of a crime. 

In Ohio's law the DA must prove criminal actions before going after the victim. That is Exactly where the burden of proof needs to lie. 
California should change your law to Ohio's standard to more appropriately protect the innocent. Or, maybe that in not what you are after?","http://www.4forums.com/political/gun-control-debates/14000-use-guns-not-unions-medicate-workplace-disputes.html",394731,50
"1-9753_51_50_3",9753,1,"2010-03-15 11:37:00",2104,44,394737,"2010-03-15 11:33:00",440479,30,50,"Ironic isn't it? 
But isn't that exactly what you are insinuating is necessary? That we adopt California's crazy over-burdensome standard? emoticonXSmilie
Welcome to our world! emoticonXSmilie",440478,3,9753,1,"There would be if not reporting was a crime in itself. 

Denying easy excuses to straw purchasers is what I'm after. 

Some day gun regulations will be uniform across the Country. 

Not justify, only report having been a victim. 

So CA isn't fit to dictate but Ohio is?
Insinuate hidden agenda. Check.","http://www.4forums.com/political/gun-control-debates/14000-use-guns-not-unions-medicate-workplace-disputes.html",394734,51
"1-9753_52_51_3",9753,1,"2010-03-15 11:39:00",44,2104,394738,"2010-03-15 11:37:00",440480,18,51,"Not necessarily. What about the crazy standard of those other states that have theft reporting laws?",440479,3,9753,1,"Ironic isn't it? 
But isn't that exactly what you are insinuating is necessary? That we adopt California's crazy over-burdensome standard? emoticonXSmilie
Welcome to our world! emoticonXSmilie","http://www.4forums.com/political/gun-control-debates/14000-use-guns-not-unions-medicate-workplace-disputes.html",394737,52
"1-9753_53_52_3",9753,1,"2010-03-15 11:47:00",2104,44,394740,"2010-03-15 11:39:00",440481,41,52,"Man I am glad Ohio is no longer overrun by Anti-Bill-of-Rights types any more! 
We have actually reversed a lot of this Anti-Ohio Constitution rights stuff. I hold out hope for even more states to do the same.",440480,3,9753,1,"Not necessarily. What about the crazy standard of those other states that have theft reporting laws?","http://www.4forums.com/political/gun-control-debates/14000-use-guns-not-unions-medicate-workplace-disputes.html",394738,53
