"key","quote_source_post_discussion_id","posts_dataset_id","posts_timestamp","posts_author_id","quote_source_author_id","posts_native_post_id","quote_source_timestamp","post_text_id","Word_Count","quote_source_post_id","post_text","quote_source_text_id","Dialog_Turn","posts_discussion_id","quote_source_post_dataset_id","Fullquote_text","discussion_url","quote_source_native_post_id","posts_post_id"
"1-9805_3_2_1",9805,1,"2010-03-25 15:17:00",439,681,395949,"2010-03-24 13:33:00",442222,22,2,"They wouldn't have to avoid Heller since Heller recognized that restrictions on packing heat are okay. Next argument, please.",442221,1,9805,1,"I often wonder why so called journalists like this insists on using childish, cartoon character terms like ""packing heat"" to describe a lawful, constitutional civil right? Probably meant to be demeaning since it lowers the right to their level of understanding and substitutes a childish meaning to the right to keep and bear arms and transfers comic characters without real faces to hold them up to ridicule...not unlike the 'black codes' did.
I read some of the comments and didn't notice any intelligence in the small percentage that claimed they opposed the civil right. Careful avoidance of the Heller ruling that it was a personal right and NOT a collective right which he and his fellow dissenters showed ignorance of.
Perhaps they will understand better when the McDonald ruling is delivered next month? I bet most of them wear Che, Castro and/or Chavez T-shirts :)","http://www.4forums.com/political/gun-control-debates/14064-firearms-deaths-fall-millions-obtain-permits-carry-concealed-guns.html",395820,3
"1-9805_9_3_1",9805,1,"2010-03-25 22:57:00",681,439,395998,"2010-03-25 15:17:00",442228,46,3,"That shouldn't be too hard for an 'educated' person such as yourself to point out in the Heller ruling now should it?
There have been quite a few rulings post Heller. Did those courts let 'restrictions' stand? NO!",442222,1,9805,1,"They wouldn't have to avoid Heller since Heller recognized that restrictions on packing heat are okay. Next argument, please.","http://www.4forums.com/political/gun-control-debates/14064-firearms-deaths-fall-millions-obtain-permits-carry-concealed-guns.html",395949,9
"1-9805_12_9_1",9805,1,"2010-03-30 10:18:00",439,681,396490,"2010-03-25 22:57:00",442231,37,9,"Let's pretend a moment that you aren't merely trying to muddy the waters. What restrictions on concealed carry have not been allowed to stand because of Heller? What specific rulings are you talking about?",442228,1,9805,1,"That shouldn't be too hard for an 'educated' person such as yourself to point out in the Heller ruling now should it?
There have been quite a few rulings post Heller. Did those courts let 'restrictions' stand? NO!","http://www.4forums.com/political/gun-control-debates/14064-firearms-deaths-fall-millions-obtain-permits-carry-concealed-guns.html",395998,12
"1-9805_14_12_1",9805,1,"2010-03-31 04:44:00",681,439,396547,"2010-03-30 10:18:00",442233,92,12,"Every post you make is ""muddy waters"". If I thought for a second that you were knowledgeable and serious debater you have removed all doubt.
You can't even point out what Heller ruling was and try to change the subject expecting me to post 10 different cases when you have no idea what SCOTUS ruled previously. You might get by with asking a question to answer a question in gradeschool but I don't think you are that innocent. Go back to your comic books troll.",442231,1,9805,1,"Let's pretend a moment that you aren't merely trying to muddy the waters. What restrictions on concealed carry have not been allowed to stand because of Heller? What specific rulings are you talking about?","http://www.4forums.com/political/gun-control-debates/14064-firearms-deaths-fall-millions-obtain-permits-carry-concealed-guns.html",396490,14
"1-9805_19_14_1",9805,1,"2010-04-02 12:00:00",439,681,396894,"2010-03-31 04:44:00",442238,20,14,"So in other words no restrictions on concealed carry have been invalidated due to Heller. I thought so.",442233,1,9805,1,"Every post you make is ""muddy waters"". If I thought for a second that you were knowledgeable and serious debater you have removed all doubt.
You can't even point out what Heller ruling was and try to change the subject expecting me to post 10 different cases when you have no idea what SCOTUS ruled previously. You might get by with asking a question to answer a question in gradeschool but I don't think you are that innocent. Go back to your comic books troll.","http://www.4forums.com/political/gun-control-debates/14064-firearms-deaths-fall-millions-obtain-permits-carry-concealed-guns.html",396547,19
"1-9805_20_19_1",9805,1,"2010-04-02 12:18:00",681,439,396898,"2010-04-02 12:00:00",442239,39,19,"Not yet! You need to read the ruling and educate yourself if you expect to debate the subject...otherwise you are unarmed and it gets tiresome taking an advantage of an unarmed man(sic).",442238,1,9805,1,"So in other words no restrictions on concealed carry have been invalidated due to Heller. I thought so.","http://www.4forums.com/political/gun-control-debates/14064-firearms-deaths-fall-millions-obtain-permits-carry-concealed-guns.html",396894,20
