"key","quote_source_post_discussion_id","posts_dataset_id","posts_timestamp","posts_author_id","quote_source_author_id","posts_native_post_id","quote_source_timestamp","post_text_id","Word_Count","quote_source_post_id","post_text","quote_source_text_id","Dialog_Turn","posts_discussion_id","quote_source_post_dataset_id","Fullquote_text","discussion_url","quote_source_native_post_id","posts_post_id"
"1-9838_17_16_1",9838,1,"2010-04-07 17:35:00",1470,439,397539,"2010-04-07 16:25:00",444074,67,16,"I see your drinking the same kool-aide as Brady. You should be thinking about the validity of the number provided by VPC. It includes self-defense shootings, suicides, and accidents. The number of murders committed by concealed weapons carriers is lower. 
The VPC number does a far better job of validating the theory that CCW holders are safer then disproving it.",444073,1,9838,1,"151 deaths in about three years. That would be about 500 lives lost in a decade. So what evidence is there that those who carry have saved an equal amount of lives or more? Or are concealed weapons carriers doing more harm that good? Those are the kind of questions you should be thinking about.","http://www.4forums.com/political/gun-control-debates/14115-gunslingers-causing-too-many-problems.html",397530,17
"1-9838_21_17_1",9838,1,"2010-04-07 20:03:00",439,1470,397548,"2010-04-07 17:35:00",444078,47,17,"I checked the VPC website- the number includes 15 suicides. Only a very small percentage of homicides are classified as self defense killings according to the FBI so it's improbable that most of these killings can be explained away as being self defense killings.",444074,1,9838,1,"I see your drinking the same kool-aide as Brady. You should be thinking about the validity of the number provided by VPC. It includes self-defense shootings, suicides, and accidents. The number of murders committed by concealed weapons carriers is lower. 
The VPC number does a far better job of validating the theory that CCW holders are safer then disproving it.","http://www.4forums.com/political/gun-control-debates/14115-gunslingers-causing-too-many-problems.html",397539,21
"1-9838_25_21_1",9838,1,"2010-04-08 09:45:00",1470,439,397602,"2010-04-07 20:03:00",444082,136,21,"If you check again you will find they do have self defense shootings in the list as well as accidents. The point is, as even you have now pointed out, the number is flawed. The source, VPC, knowingly used false data to further their claim. Therefore eliminating any validity to their claim. 
You and Brady continue to trot out biased and inaccurate sources to back your arguement. You should stop, it does great harm to your credibility.

Wow, you really can leap tall mounds of logic in a single bound. What evidence do you have that any of these deaths would have been prevented by banning concealed carry? Then also consider the lives saved by concealed carry, such as mine.",444078,1,9838,1,"I checked the VPC website- the number includes 15 suicides. Only a very small percentage of homicides are classified as self defense killings according to the FBI so it's improbable that most of these killings can be explained away as being self defense killings.","http://www.4forums.com/political/gun-control-debates/14115-gunslingers-causing-too-many-problems.html",397548,25
"1-9838_30_25_1",9838,1,"2010-04-12 15:01:00",439,1470,397978,"2010-04-08 09:45:00",444087,49,25,"What evidence is there that the VPC ""knowingly used false data""?

About 150 lives taken by concealed handgun carriers in three years would mean about 500 lives are lost in ten years. I haven't seen any evidence of lives being saved by concealed carry.",444082,1,9838,1,"If you check again you will find they do have self defense shootings in the list as well as accidents. The point is, as even you have now pointed out, the number is flawed. The source, VPC, knowingly used false data to further their claim. Therefore eliminating any validity to their claim.
You and Brady continue to trot out biased and inaccurate sources to back your arguement. You should stop, it does great harm to your credibility.","http://www.4forums.com/political/gun-control-debates/14115-gunslingers-causing-too-many-problems.html",397602,30
"1-9838_40_30_1",9838,1,"2010-04-14 16:15:00",1470,439,398295,"2010-04-12 15:01:00",444097,123,30,"Which part of ""they used self defense shootings, accidents, and suicides"" didn't you understand?

You didn't answer the question. What evidence do you have that any of these deaths (setting aside the self-defense shootings) would have been prevented if concealed carry was illegal?

Perhaps if you ventured away from the kool-aide bar at the VPC website once in awhile you would. As I stated earlier, my life was saved because I was carrying a concealed weapon. Take a look at the ""Armed Citizen"" section of the NRA's website, it contains an archive of news articles from different sources involving self-defense shootings, many by concealed weapons carriers.",444087,1,9838,1,"What evidence is there that the VPC ""knowingly used false data""?

About 150 lives taken by concealed handgun carriers in three years would mean about 500 lives are lost in ten years. I haven't seen any evidence of lives being saved by concealed carry.","http://www.4forums.com/political/gun-control-debates/14115-gunslingers-causing-too-many-problems.html",397978,40
