"key","quote_source_post_discussion_id","posts_dataset_id","posts_timestamp","posts_author_id","quote_source_author_id","posts_native_post_id","quote_source_timestamp","post_text_id","Word_Count","quote_source_post_id","post_text","quote_source_text_id","Dialog_Turn","posts_discussion_id","quote_source_post_dataset_id","Fullquote_text","discussion_url","quote_source_native_post_id","posts_post_id"
"1-9848_7_6_1",9848,1,"2010-04-14 08:42:00",153,44,398199,"2010-04-14 08:38:00",444987,18,6,"So why is it in the debates your position is easily viewed as opposed to firearm rights?",444986,1,9848,1,"That's why I voted as I did as well. Ideally I'd prefer the ""none required"" policy.","http://www.4forums.com/political/gun-control-debates/14127-concealed-carry-shall-issue-vs-may-issue.html",398198,7
"1-9848_8_7_1",9848,1,"2010-04-14 10:03:00",44,153,398212,"2010-04-14 08:42:00",444988,106,7,"Because you guys have a ""one size fits all"" view of those that support firearm regulation. Something I have maintained all along. Maybe if you put down the broad brush you might see that intelligent, thoughtful people can disagree and vilification of anyone who holds to a different opinion is misguided.
I think one should be able to carry wherever one has not been specifically asked not to by the owner or some legitimate authority. 
I also think one should be willing to offer one's thumbprint to obtain that same weapon regardless of whether it's new or used.",444987,1,9848,1,"So why is it in the debates your position is easily viewed as opposed to firearm rights?","http://www.4forums.com/political/gun-control-debates/14127-concealed-carry-shall-issue-vs-may-issue.html",398199,8
"1-9848_9_8_1",9848,1,"2010-04-14 10:24:00",153,44,398218,"2010-04-14 10:03:00",444989,122,8,"What about your position in the thread regarding the California student who was suspended for having a shotgun in his truck, even though the school had no authority on matters that didn't take part on school property?

That seems like quite a 180 from your previous statements regarding concealed carry.

I don't. I see no point in such a practice.
Should you also be willing to offer your fingerprints before hosting a public rally to redress the government of your complaints? Or obtain a permit from the police before you can become eligible for bail? Or request permission for the police to first obtain a warrant before searching your home for evidence of wrongdoing?",444988,1,9848,1,"Because you guys have a ""one size fits all"" view of those that support firearm regulation. Something I have maintained all along. Maybe if you put down the broad brush you might see that intelligent, thoughtful people can disagree and vilification of anyone who holds to a different opinion is misguided.
I think one should be able to carry wherever one has not been specifically asked not to by the owner or some legitimate authority. 
I also think one should be willing to offer one's thumbprint to obtain that same weapon regardless of whether it's new or used.","http://www.4forums.com/political/gun-control-debates/14127-concealed-carry-shall-issue-vs-may-issue.html",398212,9
"1-9848_10_9_1",9848,1,"2010-04-14 10:45:00",44,153,398229,"2010-04-14 10:24:00",444990,120,9,"I think you'll find I never advocated punishing the boy in the first place. Another case of my opinion being assigned to me, followed by abuse for holding that opinion. 

I started with an open mind and have come to this opinion only lately. I don't think you'll find anywhere in these threads me saying I am against the issuance of CCW's period.

What's the point of having a list of ""prohibited persons"" if we don't use it consistently?

Is there a list of ""prohibited persons"" for public assembly? Those ineligible for bail? Citizens that have forfeited their right to be secure from unreasonable searches and seizures?",444989,1,9848,1,"What about your position in the thread regarding the California student who was suspended for having a shotgun in his truck, even though the school had no authority on matters that didn't take part on school property?

That seems like quite a 180 from your previous statements regarding concealed carry.

I don't. I see no point in such a practice.
Should you also be willing to offer your fingerprints before hosting a public rally to redress the government of your complaints? Or obtain a permit from the police before you can become eligible for bail? Or request permission for the police to first obtain a warrant before searching your home for evidence of wrongdoing?","http://www.4forums.com/political/gun-control-debates/14127-concealed-carry-shall-issue-vs-may-issue.html",398218,10
"1-9848_11_10_1",9848,1,"2010-04-14 11:01:00",153,44,398238,"2010-04-14 10:45:00",444991,148,10,"You didn't seem particularly interested in the fact that the school was trying to enforce its policy outside of their jurisdictional boundary.

It was brought up at a previous period, I think either by Tither or Doc. I'll see if I can find it.

That's what the standard NICS background check is for. California's additional restrictions make no sense and serve no purpose.

Do sex offenders count? They're not allowed within 1,000 to 2,000 feet of any school, park, playground, swimming pool, or area where children might reasonable congregate.

Violent offenders and chose with previous convictions or outstanding warrants. Not to mention the post 9/11 ""suspected terrorists"".

Not to my knowledge. But what's that got to do with the government instituting further restrictions on the exercise of your constitutional rights.",444990,1,9848,1,"I think you'll find I never advocated punishing the boy in the first place. Another case of my opinion being assigned to me, followed by abuse for holding that opinion. 

I started with an open mind and have come to this opinion only lately. I don't think you'll find anywhere in these threads me saying I am against the issuance of CCW's period.

What's the point of having a list of ""prohibited persons"" if we don't use it consistently?

Is there a list of ""prohibited persons"" for public assembly? Those ineligible for bail? Citizens that have forfeited their right to be secure from unreasonable searches and seizures?","http://www.4forums.com/political/gun-control-debates/14127-concealed-carry-shall-issue-vs-may-issue.html",398229,11
"1-9848_12_11_1",9848,1,"2010-04-14 11:24:00",44,153,398245,"2010-04-14 11:01:00",444992,99,11,"Because I could see how the school could be unclear where that boundary was.

Knock yourself out.

NICS is not applied to secondary sales in a majority of States. 
Big gaping hole through which many firearms pass from legal to prohibited hands.

No they don't since you suggested assembly for redress of grievances.

Care to support this assertion of automatic remand?

Temporary restriction of your right to obtain any new firearms from a FFL, while your very serious legal problems are unresolved. 
And you get to keep your existing firearms.",444991,1,9848,1,"You didn't seem particularly interested in the fact that the school was trying to enforce its policy outside of their jurisdictional boundary.

It was brought up at a previous period, I think either by Tither or Doc. I'll see if I can find it.

That's what the standard NICS background check is for. California's additional restrictions make no sense and serve no purpose.

Do sex offenders count? They're not allowed within 1,000 to 2,000 feet of any school, park, playground, swimming pool, or area where children might reasonable congregate.

Violent offenders and chose with previous convictions or outstanding warrants. Not to mention the post 9/11 ""suspected terrorists"".

Not to my knowledge. But what's that got to do with the government instituting further restrictions on the exercise of your constitutional rights.","http://www.4forums.com/political/gun-control-debates/14127-concealed-carry-shall-issue-vs-may-issue.html",398238,12
"1-9848_13_12_1",9848,1,"2010-04-14 17:54:00",153,44,398304,"2010-04-14 11:24:00",444993,10,12,"As you wish.
http://www.4forums.com/political/327889-post124.html

http://www.4forums.com/political/336175-post76.html

http://www.4forums.com/political/342277-post3.html

http://www.4forums.com/political/325844-post14.html

http://www.4forums.com/political/321116-post57.html

http://www.4forums.com/political/316199-post56.html

",444992,1,9848,1,"Because I could see how the school could be unclear where that boundary was.

Knock yourself out.

NICS is not applied to secondary sales in a majority of States. 
Big gaping hole through which many firearms pass from legal to prohibited hands.

No they don't since you suggested assembly for redress of grievances.

Care to support this assertion of automatic remand?

Temporary restriction of your right to obtain any new firearms from a FFL, while your very serious legal problems are unresolved. 
And you get to keep your existing firearms.","http://www.4forums.com/political/gun-control-debates/14127-concealed-carry-shall-issue-vs-may-issue.html",398245,13
