"key","quote_source_post_discussion_id","posts_dataset_id","posts_timestamp","posts_author_id","quote_source_author_id","posts_native_post_id","quote_source_timestamp","post_text_id","Word_Count","quote_source_post_id","post_text","quote_source_text_id","Dialog_Turn","posts_discussion_id","quote_source_post_dataset_id","Fullquote_text","discussion_url","quote_source_native_post_id","posts_post_id"
"1-9902_10_2_1",9902,1,"2010-05-08 11:06:00",439,153,400819,"2010-05-07 21:14:00",447568,41,2,"The person who didn't seem to care if the rights of a minority group in Arizona were being violated suddenly decides to raise hell about the possibility of those on the FBI's terrorist watch list being prohibited from purchasing firearms.",447560,1,9902,1,"We've been over this before, don't you dare try to play ignorant about it!
Suspicion isn't sufficient for denying people their constitutionally recognized and protected rights. Most terrorists are neither American born, nor naturalized aliens, so they're not able to legally acquire guns in America in the first place.
Prove me wrong. I dare you.","http://www.4forums.com/political/gun-control-debates/14216-guns-terrorists.html",400742,10
"1-9902_12_10_1",9902,1,"2010-05-08 12:22:00",153,439,400826,"2010-05-08 11:06:00",447570,68,10,"Illegal immigrants aren't subject to the same legal protections as American citizens.
Please explain how somebody can pose enough danger to warrant them being added to the terrorist watch list, and prohibited from being able to legally buy a gun, and at the same time they aren't dangerous enough to be immediately arrested and shipped off to Guantanamo Bay for indefinite detention without trial.",447568,1,9902,1,"The person who didn't seem to care if the rights of a minority group in Arizona were being violated suddenly decides to raise hell about the possibility of those on the FBI's terrorist watch list being prohibited from purchasing firearms.","http://www.4forums.com/political/gun-control-debates/14216-guns-terrorists.html",400819,12
"1-9902_21_12_1",9902,1,"2010-05-09 20:33:00",439,153,401003,"2010-05-08 12:22:00",447579,59,12,"American citizens would be targeted if the police could come up to any dark skinned person and ask them for proof of citizenship or legal residency. You don't seem to care if the police use racial profiling to catch illegal immigrants. 

You could ask the same question about people who are under a domestic restraining order.",447570,1,9902,1,"Illegal immigrants aren't subject to the same legal protections as American citizens.
Please explain how somebody can pose enough danger to warrant them being added to the terrorist watch list, and prohibited from being able to legally buy a gun, and at the same time they aren't dangerous enough to be immediately arrested and shipped off to Guantanamo Bay for indefinite detention without trial.","http://www.4forums.com/political/gun-control-debates/14216-guns-terrorists.html",400826,21
"1-9902_22_21_1",9902,1,"2010-05-09 20:43:00",153,439,401007,"2010-05-09 20:33:00",447580,9,21,"Answer the damn question or leave the discussion.",447579,1,9902,1,"American citizens would be targeted if the police could come up to any dark skinned person and ask them for proof of citizenship or legal residency. You don't seem to care if the police use racial profiling to catch illegal immigrants. 

You could ask the same question about people who are under a domestic restraining order.","http://www.4forums.com/political/gun-control-debates/14216-guns-terrorists.html",401003,22
"1-9902_24_22_1",9902,1,"2010-05-09 20:58:00",439,153,401013,"2010-05-09 20:43:00",447582,31,22,"You could also ask that question about convicted felons who are out on parole and prohibited from buying a gun. I'm not going to do your thinking for you.",447580,1,9902,1,"Answer the damn question or leave the discussion.","http://www.4forums.com/political/gun-control-debates/14216-guns-terrorists.html",401007,24
"1-9902_26_24_1",9902,1,"2010-05-09 21:21:00",153,439,401015,"2010-05-09 20:58:00",447584,76,24,"Answer the damn question or leave the discussion.
How can somebody be listed as a terrorist -the people who blew up the World Trade Center- and be considered so dangerous that they can be denied the ability to buy a firearm, without due process, and at the same time they're not dangerous enough for the government to pluck them right off the streets and ship them off to Guantanamo Bay?",447582,1,9902,1,"You could also ask that question about convicted felons who are out on parole and prohibited from buying a gun. I'm not going to do your thinking for you.","http://www.4forums.com/political/gun-control-debates/14216-guns-terrorists.html",401013,26
"1-9902_32_26_1",9902,1,"2010-05-12 18:18:00",439,153,401418,"2010-05-09 21:21:00",447590,76,26,"There are clear prohibitions in the 5th Amendment about the deprivation of liberty but the Second Amendment, even if interpreted as an individual right, says nothing about due process. You keep conveniently dodging the point that there are plenty of situations already in which people are prohibited from buying a gun but not locked up. 

A restraining order can granted without informing the person in advance against whom it is directed.",447584,1,9902,1,"Answer the damn question or leave the discussion.
How can somebody be listed as a terrorist -the people who blew up the World Trade Center- and be considered so dangerous that they can be denied the ability to buy a firearm, without due process, and at the same time they're not dangerous enough for the government to pluck them right off the streets and ship them off to Guantanamo Bay?","http://www.4forums.com/political/gun-control-debates/14216-guns-terrorists.html",401015,32
"1-9902_36_32_1",9902,1,"2010-05-13 02:36:00",153,439,401443,"2010-05-12 18:18:00",447594,100,32,"The 4th Amendment says nothing about due process either. Does that mean the government can ransack your personal property without first obtaining a search warrant? Getting a search warrant is part of due process.
You keep conveniently dodging the point that the amendments of the constitution aren't stand alone in nature, but rather are part of one complete document and work together.

Do you have any proof of this?
Even if they are, what about the matter of the convicted felons? Are they sentenced to prison without first having a trial?",447590,1,9902,1,"There are clear prohibitions in the 5th Amendment about the deprivation of liberty but the Second Amendment, even if interpreted as an individual right, says nothing about due process. You keep conveniently dodging the point that there are plenty of situations already in which people are prohibited from buying a gun but not locked up. 

A restraining order can granted without informing the person in advance against whom it is directed.","http://www.4forums.com/political/gun-control-debates/14216-guns-terrorists.html",401418,36
"1-9902_41_36_1",9902,1,"2010-05-13 23:41:00",439,153,401593,"2010-05-13 02:36:00",447599,32,36,"Of course a warrant is needed. That's because the Fourth Amendment itself protects against unreasonable searches and seizures not because the Fifth Amendment is somehow working together with the Fourth.",447594,1,9902,1,"The 4th Amendment says nothing about due process either. Does that mean the government can ransack your personal property without first obtaining a search warrant? Getting a search warrant is part of due process.
You keep conveniently dodging the point that the amendments of the constitution aren't stand alone in nature, but rather are part of one complete document and work together.

Do you have any proof of this?
Even if they are, what about the matter of the convicted felons? Are they sentenced to prison without first having a trial?","http://www.4forums.com/political/gun-control-debates/14216-guns-terrorists.html",401443,41
"1-9902_45_41_1",9902,1,"2010-05-14 02:25:00",153,439,401609,"2010-05-13 23:41:00",447603,21,41,"But obtaining a warrant is due process of the law. But only the 5th Amendment speaks about due process.",447599,1,9902,1,"Of course a warrant is needed. That's because the Fourth Amendment itself protects against unreasonable searches and seizures not because the Fifth Amendment is somehow working together with the Fourth.","http://www.4forums.com/political/gun-control-debates/14216-guns-terrorists.html",401593,45
"1-9902_48_40_2",9902,1,"2010-05-14 03:10:00",153,439,401612,"2010-05-13 23:33:00",447606,101,40,"You just don't get it! You don't have the brain capacity to understand the truth right in front of you!
The Bill of Rights was never designed in a way to spell out exactly what the government can infringe and get away with. It's not going to have clauses and subsections of limitations on just what a right protects.
Roe V Wade. This Supreme Court ruling kills your entire argument. The Constitution makes no mention of abortion, but yet somehow a right to have an abortion was found to be protected by it.",447598,2,9902,1,"I did not use Bellesiles as a source for the oath in Pennsylvania nor did I say that the Second Amendment says the majority can determine when it can be infringed. I clearly stated, ""In fact, the Second Amendment says nothing about the circumstances under which it can be infringed.""","http://www.4forums.com/political/gun-control-debates/14216-guns-terrorists.html",401592,48
"1-9902_50_48_2",9902,1,"2010-05-15 10:33:00",439,153,401745,"2010-05-14 03:10:00",447608,35,48,"Huh? I said that, ""In fact, the Second Amendment says nothing about the circumstances under which it can be infringed."" and somehow Roe v. Wade refutes that?",447606,2,9902,1,"You just don't get it! You don't have the brain capacity to understand the truth right in front of you!
The Bill of Rights was never designed in a way to spell out exactly what the government can infringe and get away with. It's not going to have clauses and subsections of limitations on just what a right protects.
Roe V Wade. This Supreme Court ruling kills your entire argument. The Constitution makes no mention of abortion, but yet somehow a right to have an abortion was found to be protected by it.","http://www.4forums.com/political/gun-control-debates/14216-guns-terrorists.html",401612,50
"1-9902_53_50_2",9902,1,"2010-05-15 10:38:00",153,439,401748,"2010-05-15 10:33:00",447611,19,50,"What part is it that you're simply not getting? What is so hard for you to understand?",447608,2,9902,1,"Huh? I said that, ""In fact, the Second Amendment says nothing about the circumstances under which it can be infringed."" and somehow Roe v. Wade refutes that?","http://www.4forums.com/political/gun-control-debates/14216-guns-terrorists.html",401745,53
"1-9902_54_53_2",9902,1,"2010-05-15 11:24:00",439,153,401764,"2010-05-15 10:38:00",447612,76,53,"Using the example of felons being prohibited from purchasing firearms to support a claim that the Second Amendment can only be infringed with due process of law seems highly questionable to me since the Second Amendment says nothing about due process. 

How does Roe v. Wade refute what I said about the wording of the Second Amendment not saying anything about the circumstances under which it can infringed- not even due process?",447611,2,9902,1,"What part is it that you're simply not getting? What is so hard for you to understand?","http://www.4forums.com/political/gun-control-debates/14216-guns-terrorists.html",401748,54
"1-9902_55_54_2",9902,1,"2010-05-15 11:51:00",153,439,401767,"2010-05-15 11:24:00",447613,72,54,"It doesn't need to! Are you intentionally trolling or something?
The Fifth Amendment specifically spells out that no person may be deprived of liberty without due process of the law. Are you going to try and argue that liberty is strictly limited to the 5th Amendment and exists nowhere else in the Constitution?

It shows that something doesn't need to be spelled out specifically in the Constitution.",447612,2,9902,1,"Using the example of felons being prohibited from purchasing firearms to support a claim that the Second Amendment can only be infringed with due process of law seems highly questionable to me since the Second Amendment says nothing about due process. 

How does Roe v. Wade refute what I said about the wording of the Second Amendment not saying anything about the circumstances under which it can infringed- not even due process?","http://www.4forums.com/political/gun-control-debates/14216-guns-terrorists.html",401764,55
"1-9902_59_55_2",9902,1,"2010-05-16 10:59:00",439,153,401962,"2010-05-15 11:51:00",447617,38,55,"So you're arguing that according to the 5th Amendment the 2nd Amendment can be infringed with due process of law? I didn't know different portions of the Bill of Rights could place restrictions on each other.",447613,2,9902,1,"It doesn't need to! Are you intentionally trolling or something?
The Fifth Amendment specifically spells out that no person may be deprived of liberty without due process of the law. Are you going to try and argue that liberty is strictly limited to the 5th Amendment and exists nowhere else in the Constitution?

It shows that something doesn't need to be spelled out specifically in the Constitution.","http://www.4forums.com/political/gun-control-debates/14216-guns-terrorists.html",401767,59
"1-9902_60_59_2",9902,1,"2010-05-16 11:46:00",153,439,401980,"2010-05-16 10:59:00",447618,139,59,"No. What is being argued is that due process is the only legitimate way the government can interfere in a person's rights; like them being found guilty of a serious felony. Everyone with a brain understands that rights have limitations in scope.
However the proposition that we deny people their constitutional rights, based solely on their name being on a secret government list, is an end run around the constitution, designed to deprive people of liberty without due process of the law. There's no innocent until proven guilty with such a position, all that exists under such a standard is ""You're guilty because somebody somewhere said you are, and that's all there is to it. Too bad for you.""
Prove otherwise if you can.",447617,2,9902,1,"So you're arguing that according to the 5th Amendment the 2nd Amendment can be infringed with due process of law? I didn't know different portions of the Bill of Rights could place restrictions on each other.","http://www.4forums.com/political/gun-control-debates/14216-guns-terrorists.html",401962,60
"1-9902_66_60_2",9902,1,"2010-05-18 19:27:00",439,153,402287,"2010-05-16 11:46:00",447624,79,60,"I never claimed that someone who is subject to a temporary restraining order is necessarily a criminal. I only pointed out the fact that restraining orders can be granted ex parte which Bryan has confirmed. 

So if you're not claiming that the Second Amendment can be infringed with due process of law because of the Fifth Amendment then on what basis are you arguing that the Second Amendment can be infringed with due process of law?",447618,2,9902,1,"No. What is being argued is that due process is the only legitimate way the government can interfere in a person's rights; like them being found guilty of a serious felony. Everyone with a brain understands that rights have limitations in scope.
However the proposition that we deny people their constitutional rights, based solely on their name being on a secret government list, is an end run around the constitution, designed to deprive people of liberty without due process of the law. There's no innocent until proven guilty with such a position, all that exists under such a standard is ""You're guilty because somebody somewhere said you are, and that's all there is to it. Too bad for you.""
Prove otherwise if you can.","http://www.4forums.com/political/gun-control-debates/14216-guns-terrorists.html",401980,66
"1-9902_67_66_2",9902,1,"2010-05-18 19:47:00",153,439,402292,"2010-05-18 19:27:00",447625,112,66,"Sorry but no. Only a short lived, temporary restraining order can be granted in an ex parte situation. For it to be permanent both parties must be available. Your argument doesn't stand.

The basis of my argument is that a person can only be deprived of their rights through a matter of due process. The court must be involved and make the ultimate decision. The government doesn't get to use speculation as grounds for rights deprivation, nor should it be put into such a position that it could get away with such.
Why is that so damn hard for you to understand?",447624,2,9902,1,"I never claimed that someone who is subject to a temporary restraining order is necessarily a criminal. I only pointed out the fact that restraining orders can be granted ex parte which Bryan has confirmed. 

So if you're not claiming that the Second Amendment can be infringed with due process of law because of the Fifth Amendment then on what basis are you arguing that the Second Amendment can be infringed with due process of law?","http://www.4forums.com/political/gun-control-debates/14216-guns-terrorists.html",402287,67
"1-9902_68_67_2",9902,1,"2010-05-18 20:38:00",439,153,402298,"2010-05-18 19:47:00",447626,88,67,"A straw man since I never claimed that restraining orders granted ex parte are permanent. The ironic thing is that you're responding to a post in which I said ""temporary restraining order"" not permanent restraining order. 

The basis of a claim can not be the claim itself. That's circular logic. What is the basis of your claim that rights such as the Second Amendment right can only be infringed through due process? The Second Amendment says nothing about due process.",447625,2,9902,1,"Sorry but no. Only a short lived, temporary restraining order can be granted in an ex parte situation. For it to be permanent both parties must be available. Your argument doesn't stand.

The basis of my argument is that a person can only be deprived of their rights through a matter of due process. The court must be involved and make the ultimate decision. The government doesn't get to use speculation as grounds for rights deprivation, nor should it be put into such a position that it could get away with such.
Why is that so damn hard for you to understand?","http://www.4forums.com/political/gun-control-debates/14216-guns-terrorists.html",402292,68
"1-9902_70_68_2",9902,1,"2010-05-19 05:09:00",153,439,402318,"2010-05-18 20:38:00",447628,59,68,"No your argument of ""other developed nations in the world have gun control and lower murder rates"" is circular logic.

A little something called real world facts.

Bryan already covered this point in depth. The fact that you continue to ask is proof that you didn't read a single word of his post.",447626,2,9902,1,"A straw man since I never claimed that restraining orders granted ex parte are permanent. The ironic thing is that you're responding to a post in which I said ""temporary restraining order"" not permanent restraining order. 

The basis of a claim can not be the claim itself. That's circular logic. What is the basis of your claim that rights such as the Second Amendment right can only be infringed through due process? The Second Amendment says nothing about due process.","http://www.4forums.com/political/gun-control-debates/14216-guns-terrorists.html",402298,70
"1-9902_76_70_2",9902,1,"2010-05-19 10:10:00",439,153,402350,"2010-05-19 05:09:00",447634,171,70,"Merely claiming that your claims are ""real world facts"" is not proof.
You can check the murder rates of other developed nations here:
Murders (per capita) statistics - countries compared - NationMaster
Bryan spoke of the judicially created doctrine of substantive due process. I recently read an interesting article about Scalia's inconsistency on this matter:
""During last week's oral argument in McDonald v. City of Chicago—the term's blockbuster gun law case—Justice Antonin Scalia was quick to move away from arguments about the Constitution's 'text and history' and instead took solace in the judge-made 'substantive due process' doctrine he has long attacked. Why was this champion of 'originalism' so quick to embrace this modern and amorphous judicial doctrine....""
History reveals a centuries-long authority to regulate guns. Shouldn't that matter? - By Saul Cornell, Justin Florence, and Matthew Shors - Slate Magazine",447628,2,9902,1,"No your argument of ""other developed nations in the world have gun control and lower murder rates"" is circular logic.

A little something called real world facts.

Bryan already covered this point in depth. The fact that you continue to ask is proof that you didn't read a single word of his post.","http://www.4forums.com/political/gun-control-debates/14216-guns-terrorists.html",402318,76
"1-9902_78_76_2",9902,1,"2010-05-19 11:00:00",153,439,402356,"2010-05-19 10:10:00",447636,70,76,"We're #24 on the list. That's hardly worth getting excited about.

Cornell again? He was discredited, he has no standing.
Where are the examples of gun control laws that existed during the Colonial period in America? Where are the laws that predate the Civil War? Where are the laws that were enacted during the time that the Founding Fathers were still alive?",447634,2,9902,1,"You can check the murder rates of other developed nations here:Murders (per capita) statistics - countries compared - NationMaster","http://www.4forums.com/political/gun-control-debates/14216-guns-terrorists.html",402350,78
"1-9902_80_78_2",9902,1,"2010-05-19 23:33:00",439,153,402417,"2010-05-19 11:00:00",447638,86,78,"Once again, I never claimed that restraining orders are permanent nor did I claim they save lives. When you are honest enough to debate the arguments I actually make rather than the ones I don't, let me know.

I knew you would say something like this. I was talking about developed nations.

Why do you claim Cornell was discredited? Plenty of examples of early gun control laws predating the Civil War have been posted in this forum before.",447636,2,9902,1,"We're #24 on the list. That's hardly worth getting excited about.

Cornell again? He was discredited, he has no standing.
Where are the examples of gun control laws that existed during the Colonial period in America? Where are the laws that predate the Civil War? Where are the laws that were enacted during the time that the Founding Fathers were still alive?","http://www.4forums.com/political/gun-control-debates/14216-guns-terrorists.html",402356,80
"1-9902_84_80_2",9902,1,"2010-05-20 05:37:00",153,439,402437,"2010-05-19 23:33:00",447642,84,80,"then give me the damn list of what you consider to be the ""other developed nations"" already!

Bryan already explained this in depth. Cornell's approach isn't recognized by the Supreme Court. His theory on the Second Amendment has been rejected, because the time frame he cites was during which the states could deny a person any and all of their constitutional rights because in theory they didn't apply.
Do you read absolutely nothing before you post?",447638,2,9902,1,"Once again, I never claimed that restraining orders are permanent nor did I claim they save lives. When you are honest enough to debate the arguments I actually make rather than the ones I don't, let me know.

I knew you would say something like this. I was talking about developed nations.

Why do you claim Cornell was discredited? Plenty of examples of early gun control laws predating the Civil War have been posted in this forum before.","http://www.4forums.com/political/gun-control-debates/14216-guns-terrorists.html",402417,84
"1-9902_34_32_3",9902,1,"2010-05-13 01:26:00",681,439,401440,"2010-05-12 18:18:00",447592,100,32,"Doesn't have to, due process applies to all facets of a person against government power. No more need be said.(period)

Then they shouldn't be locked up! If they can't be trusted with a gun then they can't be trusted with a custodian. What other rights do these folks ""not have""?

That is pure unadultrated BS. Your use of propaganda continues unabated and your ignorance of the law is deplorable. Know what it costs to get an injunction or restraining order? Have you ever read Emerson?",447590,3,9902,1,"There are clear prohibitions in the 5th Amendment about the deprivation of liberty but the Second Amendment, even if interpreted as an individual right, says nothing about due process. You keep conveniently dodging the point that there are plenty of situations already in which people are prohibited from buying a gun but not locked up. 

A restraining order can granted without informing the person in advance against whom it is directed.","http://www.4forums.com/political/gun-control-debates/14216-guns-terrorists.html",401418,34
"1-9902_42_34_3",9902,1,"2010-05-13 23:54:00",439,681,401594,"2010-05-13 01:26:00",447600,28,34,"Yes, it can be granted ex parte. That was my point. (Cue for Doc Jones to come up with another straw man).",447592,3,9902,1,"Doesn't have to, due process applies to all facets of a person against government power. No more need be said.(period)

Then they shouldn't be locked up! If they can't be trusted with a gun then they can't be trusted with a custodian. What other rights do these folks ""not have""?

That is pure unadultrated BS. Your use of propaganda continues unabated and your ignorance of the law is deplorable. Know what it costs to get an injunction or restraining order? Have you ever read Emerson?","http://www.4forums.com/political/gun-control-debates/14216-guns-terrorists.html",401440,42
"1-9902_44_42_3",9902,1,"2010-05-14 01:16:00",681,439,401602,"2010-05-13 23:54:00",447602,176,42,"A bill of attainder cannot be issued without due process. It is not valid unless both parties are in a hearing and informed with show cause to prevail. Courts are for confrontation. That is why we do not live in The Gulag Achepeligo nor a dictatorship. Blacks Law, 6th Edition explains the process if you care to be correct in the matter.
To prove your comment, tell me exactly how many womens' lives a piece of paper has saved. The burden of proof rests on you!
Law is not a strawman. You brought the subject up and intended it to be a strawman yourself. When it failed, you went to default with your usual ""me no Alamo, me no Goliad"". Apparently Zsu was served by summons and maybe with an Instanter? Apparently the other side could not show cause and it failed as a writ? How many times have you had a restraining order on yourself?",447600,3,9902,1,"Yes, it can be granted ex parte. That was my point. (Cue for Doc Jones to come up with another straw man).","http://www.4forums.com/political/gun-control-debates/14216-guns-terrorists.html",401594,44
"1-9902_49_44_3",9902,1,"2010-05-15 10:30:00",439,681,401743,"2010-05-14 01:16:00",447607,109,44,"You intentionally muddy the waters in an effort to divert attention from your previous erroneous claims and hide the fact that you're completely full of stinky brown stuff. A bill of attainder is an act of the legislature. I was talking about a court order- a temporary restraining order- and merely pointed out that it could be granted ex parte. Furthermore you ask me to ""prove your comment, tell me exactly how many womens' lives a piece of paper has saved"". When did I make such a claim that it had saved lives or this another straw man?",447602,3,9902,1,"A bill of attainder cannot be issued without due process. It is not valid unless both parties are in a hearing and informed with show cause to prevail. Courts are for confrontation. That is why we do not live in The Gulag Achepeligo nor a dictatorship. Blacks Law, 6th Edition explains the process if you care to be correct in the matter.
To prove your comment, tell me exactly how many womens' lives a piece of paper has saved. The burden of proof rests on you!
Law is not a strawman. You brought the subject up and intended it to be a strawman yourself. When it failed, you went to default with your usual ""me no Alamo, me no Goliad"". Apparently Zsu was served by summons and maybe with an Instanter? Apparently the other side could not show cause and it failed as a writ? How many times have you had a restraining order on yourself?","http://www.4forums.com/political/gun-control-debates/14216-guns-terrorists.html",401602,49
"1-9902_56_49_3",9902,1,"2010-05-15 16:48:00",681,439,401817,"2010-05-15 10:30:00",447614,221,49,"""Muddy the waters"". LOL The topic is Guns for Terrorists.
You are so far off you don't know what mud is but you keep slinging it.
Any restaining order is good for only 30 days. You brought it up and know diddly squat about it. I say it is a bill of attainder as are some other boiler plate issues. Both parties have to be notified and it has to be heard before a magistrate. There is no such thing as a permanent restraining order so why did you feel compelled to muddy the waters as you claim? Is that the only plea for mercy you know?
Restraining orders are usually taken by women against an abusive spouse or sometimes just to harass the other party and bring a bit of grief for revenge.
A piece of paper never protected anyone against murder even though the thought is there. I asked a legitimate question on a topic you brought up far removed from the topic you continue to drift from. You don't know which way is up but you keep the hot air balloon filled. Is there anything you actually understand that is possible for you to discuss or are you merely a dedicated troll?",447607,3,9902,1,"You intentionally muddy the waters in an effort to divert attention from your previous erroneous claims and hide the fact that you're completely full of stinky brown stuff. A bill of attainder is an act of the legislature. I was talking about a court order- a temporary restraining order- and merely pointed out that it could be granted ex parte. Furthermore you ask me to ""prove your comment, tell me exactly how many womens' lives a piece of paper has saved"". When did I make such a claim that it had saved lives or this another straw man?","http://www.4forums.com/political/gun-control-debates/14216-guns-terrorists.html",401743,56
"1-9902_58_56_3",9902,1,"2010-05-16 10:51:00",439,681,401958,"2010-05-15 16:48:00",447616,72,56,"That ""legitimate"" question was a loaded question. I didn't claim that restraining orders are permanent. That is another straw man argument of yours. My point was simply that it can be granted ex parte- without both parties present. You have been unable to refute that point while refuting plenty of points that I never made. Such is the usual nature of your posts.",447614,3,9902,1,"""Muddy the waters"". LOL The topic is Guns for Terrorists.
You are so far off you don't know what mud is but you keep slinging it.
Any restaining order is good for only 30 days. You brought it up and know diddly squat about it. I say it is a bill of attainder as are some other boiler plate issues. Both parties have to be notified and it has to be heard before a magistrate. There is no such thing as a permanent restraining order so why did you feel compelled to muddy the waters as you claim? Is that the only plea for mercy you know?
Restraining orders are usually taken by women against an abusive spouse or sometimes just to harass the other party and bring a bit of grief for revenge.
A piece of paper never protected anyone against murder even though the thought is there. I asked a legitimate question on a topic you brought up far removed from the topic you continue to drift from. You don't know which way is up but you keep the hot air balloon filled. Is there anything you actually understand that is possible for you to discuss or are you merely a dedicated troll?","http://www.4forums.com/political/gun-control-debates/14216-guns-terrorists.html",401817,58
