"key","quote_source_post_discussion_id","posts_dataset_id","posts_timestamp","posts_author_id","quote_source_author_id","posts_native_post_id","quote_source_timestamp","post_text_id","Word_Count","quote_source_post_id","post_text","quote_source_text_id","Dialog_Turn","posts_discussion_id","quote_source_post_dataset_id","Fullquote_text","discussion_url","quote_source_native_post_id","posts_post_id"
"1-9936_11_7_1",9936,1,"2010-05-24 07:35:00",123,153,402946,"2010-05-23 13:08:00",449008,155,7,"I was opposed to the presidency of George W. Bush but I wouldn't have been a stupid and disrespectful sunnuvavitch who would show up at one of his appearances with a rifle, a gun, or signs threatening death. I never threatened George W. Bush. I seriously thought about tar and feathering him but I never voiced it.
There is a distinct difference between the actions of those who opposed Bush and those who oppose Obama, a difference in terms of respect, overt actions and rhetoric.
Admittedly, I did make a lot of fun about his soft, white girly hands, Bush's hands, but you got to give me a little leeway. And he had some weird, witless fool in his administration who loved to take pictures of George W. Bush's soft, white girly hands. I allus wondered about that.",449004,1,9936,1,"Simone,
Kindly shut up. You and the rest of the leftists don't have room to even clear your throat on this issue.
You seem to have a very short memory. You've forgotten that during Bush's presidency your side was guilty of the anti-government mindset. You held large public rallies and spoke out against the government, against the president, against the conservatives and anybody else that didn't support your ideals.
Nobody has forgotten how there were ""retarded president"" jokes because of how he talked, and the comparisons of Bush to a chimpanzee because of facial expressions. Some of the stuff released by the left was really heinous by any measure.","http://www.4forums.com/political/gun-control-debates/14266-once-again-right-wing-nutjobs-take-out-some-cops.html",402846,11
"1-9936_18_11_1",9936,1,"2010-05-24 12:39:00",153,123,402987,"2010-05-24 07:35:00",449015,149,11,"Kindly point out the examples where somebody other than the Secret Service brought a gun directly to one of Obama's speeches, rather than the general location where he was going to be, when he wasn't even there.
Being at a designated presidential speech zone, and armed and hour before the president shows up, simply doesn't count. Being a block away an armed doesn't count.
Sharing the words of our Founding Fathers criticizing tyranny doesn't count as being disrespectful.
The only way a sign such as ""It's time to water the tree of liberty"" could qualify as disrespectful, would be if you honestly believe the government has become tyrannical in nature.

No there isn't. There's no wiggle room in here.

Show me the lack of respect for law and order that we're accused of displaying.",449008,1,9936,1,"I was opposed to the presidency of George W. Bush but I wouldn't have been a stupid and disrespectful sunnuvavitch who would show up at one of his appearances with a rifle, a gun, or signs threatening death. I never threatened George W. Bush. I seriously thought about tar and feathering him but I never voiced it.
There is a distinct difference between the actions of those who opposed Bush and those who oppose Obama, a difference in terms of respect, overt actions and rhetoric.
Admittedly, I did make a lot of fun about his soft, white girly hands, Bush's hands, but you got to give me a little leeway. And he had some weird, witless fool in his administration who loved to take pictures of George W. Bush's soft, white girly hands. I allus wondered about that.","http://www.4forums.com/political/gun-control-debates/14266-once-again-right-wing-nutjobs-take-out-some-cops.html",402946,18
"1-9936_27_18_1",9936,1,"2010-05-25 05:16:00",123,153,403066,"2010-05-24 12:39:00",449024,40,18,"Armed People Carry Guns Near Obama Event, Police Say (Update1) - Bloomberg.com

That was George W. Bush's policies. He was so afraid of the American people he couldn't bear to be anywhere near them.",449015,1,9936,1,"Kindly point out the examples where somebody other than the Secret Service brought a gun directly to one of Obama's speeches, rather than the general location where he was going to be, when he wasn't even there.
Being at a designated presidential speech zone, and armed and hour before the president shows up, simply doesn't count. Being a block away an armed doesn't count.
Sharing the words of our Founding Fathers criticizing tyranny doesn't count as being disrespectful.
The only way a sign such as ""It's time to water the tree of liberty"" could qualify as disrespectful, would be if you honestly believe the government has become tyrannical in nature.

No there isn't. There's no wiggle room in here.

Show me the lack of respect for law and order that we're accused of displaying.","http://www.4forums.com/political/gun-control-debates/14266-once-again-right-wing-nutjobs-take-out-some-cops.html",402987,27
"1-9936_32_27_1",9936,1,"2010-05-25 06:58:00",153,123,403076,"2010-05-25 05:16:00",449029,65,27,"NEAR! As in close to but not in the direct company of. Sorry Simone, you lose yet again.
Also note that the guy with the rifle was a black man. A soul brother to Obama, showing up armed for the protest. That shoots your racism theory to hell.

Kindly provide the evidence to support this statement.",449024,1,9936,1,"Armed People Carry Guns Near Obama Event, Police Say (Update1) - Bloomberg.com

That was George W. Bush's policies. He was so afraid of the American people he couldn't bear to be anywhere near them.","http://www.4forums.com/political/gun-control-debates/14266-once-again-right-wing-nutjobs-take-out-some-cops.html",403066,32
"1-9936_34_32_1",9936,1,"2010-05-25 08:16:00",123,153,403082,"2010-05-25 06:58:00",449031,73,32,"What is a Free Speech Zone?
Bush is innately afraid of people he does not know. Witness his idiotic behavior recently in Haiti where he was so stricken with fear after shaking the hand of a Haitian he had to wipe his hands on Bill Clinton's shirt.
The guy is such an embarrassing scaredy cat we can't even allow him to go abroad where he will probably embarrass us.",449029,1,9936,1,"NEAR! As in close to but not in the direct company of. Sorry Simone, you lose yet again.
Also note that the guy with the rifle was a black man. A soul brother to Obama, showing up armed for the protest. That shoots your racism theory to hell.

Kindly provide the evidence to support this statement.","http://www.4forums.com/political/gun-control-debates/14266-once-again-right-wing-nutjobs-take-out-some-cops.html",403076,34
"1-9936_36_34_1",9936,1,"2010-05-25 10:27:00",153,123,403086,"2010-05-25 08:16:00",449033,37,34,"Are these free speech zones still in place? Did Obama do away with them or has he left them to continue? If they're still in effect then is Obama a scaredy cat as well?",449031,1,9936,1,"What is a Free Speech Zone?
Bush is innately afraid of people he does not know. Witness his idiotic behavior recently in Haiti where he was so stricken with fear after shaking the hand of a Haitian he had to wipe his hands on Bill Clinton's shirt.
The guy is such an embarrassing scaredy cat we can't even allow him to go abroad where he will probably embarrass us.","http://www.4forums.com/political/gun-control-debates/14266-once-again-right-wing-nutjobs-take-out-some-cops.html",403082,36
