"key","quote_source_post_discussion_id","posts_dataset_id","posts_timestamp","posts_author_id","quote_source_author_id","posts_native_post_id","quote_source_timestamp","post_text_id","Word_Count","quote_source_post_id","post_text","quote_source_text_id","Dialog_Turn","posts_discussion_id","quote_source_post_dataset_id","Fullquote_text","discussion_url","quote_source_native_post_id","posts_post_id"
"1-9998_2_1_1",9998,1,"2010-06-28 07:55:00",68,51,405780,"2010-06-28 07:11:00",451906,40,1,"Apparently pretty narrow interpretation, and not one of the ""priviledges and immunities"" of citizens. Handguns for the purposes of lawful self-defense in the home. That appears to be what the Second Amendment now protects.",451905,1,9998,1,"Did I get the first post about this?
http://www.supremecourt.gov/opinions/09pdf/08-1521.pdf
5v4 for incorporation.","http://www.4forums.com/political/gun-control-debates/14392-mcdonald-v-chicago.html",405776,2
"1-9998_3_2_1",9998,1,"2010-06-28 08:28:00",51,68,405783,"2010-06-28 07:55:00",451907,50,2,"Oddly enough I found Thomas's opinion to be most compelling. The dissent was surprisingly weak...even for a dissent. It didn't even really make sense. The actual opinion was kinda weak but I got bored reading it so I skimmed the second half. Ha.",451906,1,9998,1,"Apparently pretty narrow interpretation, and not one of the ""priviledges and immunities"" of citizens. Handguns for the purposes of lawful self-defense in the home. That appears to be what the Second Amendment now protects.","http://www.4forums.com/political/gun-control-debates/14392-mcdonald-v-chicago.html",405780,3
"1-9998_4_3_1",9998,1,"2010-06-28 08:54:00",68,51,405788,"2010-06-28 08:28:00",451908,66,3,"Thomas favored incorporation through priviledges and immunities, correct?
That likely makes the most sense but the Court probably feared how far that could go, since the logical conclusion is the abolition of individual State law. Not that the ""substantive due process"" is well defined, but likely the Court felt they could rein in any excesses through that interpretation.",451907,1,9998,1,"Oddly enough I found Thomas's opinion to be most compelling. The dissent was surprisingly weak...even for a dissent. It didn't even really make sense. The actual opinion was kinda weak but I got bored reading it so I skimmed the second half. Ha.","http://www.4forums.com/political/gun-control-debates/14392-mcdonald-v-chicago.html",405783,4
"1-9998_5_4_1",9998,1,"2010-06-28 09:07:00",51,68,405790,"2010-06-28 08:54:00",451909,105,4,"I think it is undeniable that the courts have rendered the 14th amendment meaningless. I think they do ""fear"" how things would play out but they have done it so much that they have no idea how to proceed now. Substantive due process isn't well defined, no one knows what the privileges and immunities clause means and what it comes down to is like a fail-safe argument for the courts to claim a 14th amendment violation when they have nothing us. 
Anywho, to answer your question, yes, Thomas relied on the privileges and immunities clause.",451908,1,9998,1,"Thomas favored incorporation through priviledges and immunities, correct?
That likely makes the most sense but the Court probably feared how far that could go, since the logical conclusion is the abolition of individual State law. Not that the ""substantive due process"" is well defined, but likely the Court felt they could rein in any excesses through that interpretation.","http://www.4forums.com/political/gun-control-debates/14392-mcdonald-v-chicago.html",405788,5
"1-9998_6_5_1",9998,1,"2010-06-28 09:27:00",68,51,405793,"2010-06-28 09:07:00",451910,74,5,"I think even the Court knows that the Fourteenth was not well crafted, at least in terms of forsight. However, once it was ratified the Court really had no choice but to try to work it into the legal landscape.
Certainly State power needed to be curtailed to stop such institutions such as slavery, but I don't think restructuring how the entire Constitution works was the right move.",451909,1,9998,1,"I think it is undeniable that the courts have rendered the 14th amendment meaningless. I think they do ""fear"" how things would play out but they have done it so much that they have no idea how to proceed now. Substantive due process isn't well defined, no one knows what the privileges and immunities clause means and what it comes down to is like a fail-safe argument for the courts to claim a 14th amendment violation when they have nothing us. 
Anywho, to answer your question, yes, Thomas relied on the privileges and immunities clause.","http://www.4forums.com/political/gun-control-debates/14392-mcdonald-v-chicago.html",405790,6
"1-9998_13_6_1",9998,1,"2010-06-28 10:22:00",51,68,405821,"2010-06-28 09:27:00",451917,78,6,"Well, parts of it were fine...I mean the due process clause existed in another amendment. I think it was a snowball effect that started a series of confusions and shows that the 14th amendment probably should have been written a little better. I personally think instead of trying to figure it out the court used it as an excuse to justify various rulings. 
Oh well :)

Pfff, too late now.",451910,1,9998,1,"I think even the Court knows that the Fourteenth was not well crafted, at least in terms of forsight. However, once it was ratified the Court really had no choice but to try to work it into the legal landscape.
Certainly State power needed to be curtailed to stop such institutions such as slavery, but I don't think restructuring how the entire Constitution works was the right move.","http://www.4forums.com/political/gun-control-debates/14392-mcdonald-v-chicago.html",405793,13
"1-9998_28_27_2",9998,1,"2010-06-28 15:33:00",153,439,405870,"2010-06-28 15:12:00",451932,87,27,"Thanks to the McDonald case it's been established as a point of law that the Second Amendment is not just an individual right, but a fundamental right that binds all 50 states.
Because of its fundamental rights status, the state governments are now going to be facing an uphill battle not just passing new gun control laws, but defending the old ones. They're now going to have to justify absolutely every last law they have, and every one they want.",451931,2,9998,1,"But what hoops will Chicago gun owners have to jump through in the future? Mayor Daley has already said that he's encouraged by what has happened in D.C.
""CHICAGO — If the U.S. Supreme Court strikes down Chicago's handgun ban, the city will likely do what Washington, D.C., did when its own ban was overturned two years ago: Put in place all sorts of regulations and restrictions to make it tougher to buy guns and easier for police to know who has them.""
Chicago prepares for losing its handgun ban - U.S. news - Crime & courts - msnbc.com
""Chicago gun owners could be required to take a training course, register their firearms, allow police to perform ballistics tests and even purchase liability insurance, if the U.S. Supreme Court overturns the city’s strictest-in-the-nation handgun ban.""
City could require gun owners get training, liability insurance if handgun ban overturned :: CHICAGO SUN-TIMES :: City Hall","http://www.4forums.com/political/gun-control-debates/14392-mcdonald-v-chicago.html",405867,28
"1-9998_30_28_2",9998,1,"2010-06-28 16:29:00",439,153,405878,"2010-06-28 15:33:00",451934,15,28,"Uh-huh, just like all the uphill battles D.C. legislators have had to face.",451932,2,9998,1,"Thanks to the McDonald case it's been established as a point of law that the Second Amendment is not just an individual right, but a fundamental right that binds all 50 states.
Because of its fundamental rights status, the state governments are now going to be facing an uphill battle not just passing new gun control laws, but defending the old ones. They're now going to have to justify absolutely every last law they have, and every one they want.","http://www.4forums.com/political/gun-control-debates/14392-mcdonald-v-chicago.html",405870,30
"1-9998_33_30_2",9998,1,"2010-06-28 17:59:00",153,439,405890,"2010-06-28 16:29:00",451937,104,30,"Two years ago the ruling was an individual right. Today the ruling was a fundamental right. That's gonna make all the difference in the matter.
No state government would ever get away with requiring blog owners to register with them, even when the stuff they post is heinous and unflattering and politically incorrect or racially insensitive. The same standard should apply to the Second Amendment just as it does the First Amendment and all the others.
Good luck getting that liability insurance thing to pass. That'll be struck down like a cow on a train track.",451934,2,9998,1,"Uh-huh, just like all the uphill battles D.C. legislators have had to face.","http://www.4forums.com/political/gun-control-debates/14392-mcdonald-v-chicago.html",405878,33
"1-9998_34_33_2",9998,1,"2010-06-28 19:55:00",439,153,405913,"2010-06-28 17:59:00",451938,38,33,"We'll see how much of a difference it makes but certain parts of the McDonald ruling make me seriously doubt that state governments will face an uphill battle justifying ""absolutely every last law they have"".",451937,2,9998,1,"Two years ago the ruling was an individual right. Today the ruling was a fundamental right. That's gonna make all the difference in the matter.
No state government would ever get away with requiring blog owners to register with them, even when the stuff they post is heinous and unflattering and politically incorrect or racially insensitive. The same standard should apply to the Second Amendment just as it does the First Amendment and all the others.
Good luck getting that liability insurance thing to pass. That'll be struck down like a cow on a train track.","http://www.4forums.com/political/gun-control-debates/14392-mcdonald-v-chicago.html",405890,34
"1-9998_35_34_2",9998,1,"2010-06-28 20:37:00",153,439,405917,"2010-06-28 19:55:00",451939,5,34,"Point them out then.",451938,2,9998,1,"We'll see how much of a difference it makes but certain parts of the McDonald ruling make me seriously doubt that state governments will face an uphill battle justifying ""absolutely every last law they have"".","http://www.4forums.com/political/gun-control-debates/14392-mcdonald-v-chicago.html",405913,35
"1-9998_61_60_3",9998,1,"2010-07-07 16:46:00",153,439,406625,"2010-07-07 15:59:00",451965,129,60,"And how do you arrive at that conclusion, exactly?
The largest number of people killed has always been the fault of the government declaring genocide against its own people. It's happened all over the world. Hundreds of thousands, if not millions, slaughtered for no reason other than the government declaring them to be not worth living.
Your argument fails. In so many ways. Pushing for special interest laws that will serve no purpose, other than making it more difficult for the law-abiding to acquire a gun for their own defense, or any other legal purpose, won't address the issues of violent offenders who kill others for whatever reason they choose. And you can't prove otherwise.",451964,3,9998,1,"By that ""logic"", I shouldn't try to put out the fire if my house is burning down and someone is trapped inside because more people have died of heart disease.","http://www.4forums.com/political/gun-control-debates/14392-mcdonald-v-chicago.html",406622,61
"1-9998_62_61_3",9998,1,"2010-07-07 17:07:00",439,153,406626,"2010-07-07 16:46:00",451966,38,61,"How does one arrive at the conclusion that present day problems should not be dealt with because others have died by other means in the past? 

Your unsupported claims fail to disprove any argument I've made.",451965,3,9998,1,"And how do you arrive at that conclusion, exactly?
The largest number of people killed has always been the fault of the government declaring genocide against its own people. It's happened all over the world. Hundreds of thousands, if not millions, slaughtered for no reason other than the government declaring them to be not worth living.
Your argument fails. In so many ways. Pushing for special interest laws that will serve no purpose, other than making it more difficult for the law-abiding to acquire a gun for their own defense, or any other legal purpose, won't address the issues of violent offenders who kill others for whatever reason they choose. And you can't prove otherwise.","http://www.4forums.com/political/gun-control-debates/14392-mcdonald-v-chicago.html",406625,62
"1-9998_65_62_3",9998,1,"2010-07-07 18:00:00",153,439,406645,"2010-07-07 17:07:00",451969,108,62,"Because your proposals do nothing to deal with the problems of today. All we here is ban this, ban that, regulate this, tax that, register this, license that, etc. And not a bit of it will do any good. Therefore you need to change your approach, rather than hoping you'll eventually hit a success with a failed approach.

Nope. Everyone -police, politicians and judges- knows for a fact that these special interest laws are useless. And as a result more and more are turning away from these nonsensical approaches that do nothing.",451966,3,9998,1,"How does one arrive at the conclusion that present day problems should not be dealt with because others have died by other means in the past? 

Your unsupported claims fail to disprove any argument I've made.","http://www.4forums.com/political/gun-control-debates/14392-mcdonald-v-chicago.html",406626,65
"1-9998_67_65_3",9998,1,"2010-07-07 18:21:00",439,153,406656,"2010-07-07 18:00:00",451971,188,65,"Just more of your unsupported claims. 

You have a pretty short memory don't you?
""It is important to keep in mind that Heller, while striking down a law that prohibited the possession of handguns in the home, recognized that the right to keep and bear arms is not 'a right to keep and carry any weapon whatsoever in any manner whatsoever and for whatever purpose.' 554 U. S., at ___ (slip op., at 54). We made it clear in Heller that our holding did not cast doubt on such longstanding regulatory measures as 'prohibitions on the possession of firearms by felons and the mentally ill,' 'laws forbidding the carrying of firearms in sensitive places such as schools and government buildings, or laws imposing conditions and qualifications on the commercial sale of arms.' Id., at ___–___ (slip op., at 54–55). We repeat those assurances here.""
(McDonald v. Chicago)",451969,3,9998,1,"Because your proposals do nothing to deal with the problems of today. All we here is ban this, ban that, regulate this, tax that, register this, license that, etc. And not a bit of it will do any good. Therefore you need to change your approach, rather than hoping you'll eventually hit a success with a failed approach.

Nope. Everyone -police, politicians and judges- knows for a fact that these special interest laws are useless. And as a result more and more are turning away from these nonsensical approaches that do nothing.","http://www.4forums.com/political/gun-control-debates/14392-mcdonald-v-chicago.html",406645,67
"1-9998_68_67_3",9998,1,"2010-07-07 18:36:00",153,439,406663,"2010-07-07 18:21:00",451972,86,67,"Prove otherwise, or shut up.

""is not 'a right to keep and carry any weapon whatsoever in any manner whatsoever and for whatever purpose.'"" and ""did not cast doubt on such longstanding regulatory measures"" are NOT the Supreme Court saying ""We find these gun laws to be constitutional"". Show where exactly in Heller or McDonald that the prohibition against felons possessing firearms was ever challenged.
Prove your case or give it up.",451971,3,9998,1,"Just more of your unsupported claims. 

You have a pretty short memory don't you?
""It is important to keep in mind that Heller, while striking down a law that prohibited the possession of handguns in the home, recognized that the right to keep and bear arms is not 'a right to keep and carry any weapon whatsoever in any manner whatsoever and for whatever purpose.' 554 U. S., at ___ (slip op., at 54). We made it clear in Heller that our holding did not cast doubt on such longstanding regulatory measures as 'prohibitions on the possession of firearms by felons and the mentally ill,' 'laws forbidding the carrying of firearms in sensitive places such as schools and government buildings, or laws imposing conditions and qualifications on the commercial sale of arms.' Id., at ___–___ (slip op., at 54–55). We repeat those assurances here.""
(McDonald v. Chicago)","http://www.4forums.com/political/gun-control-debates/14392-mcdonald-v-chicago.html",406656,68
"1-9998_69_68_3",9998,1,"2010-07-08 14:21:00",439,153,406748,"2010-07-07 18:36:00",451973,174,68,"""In Heller, the Court found for the first time that the Second Amendment 'guarantee[s] the individual right to possess and carry weapons in case of confrontation.' 128 S. Ct. at 2797. The Court acknowledged that long-standing limitations on the ownership and use of weapons, including Section 922(g)(1), were consistent with that guarantee.""
(United States v. Kitsch, 2008)
""We therefore reaffirm Darrington and the constitutionality of § 922(g).... 6. See Heller, 128 S.Ct. at 2816-17 ('[N]othing in our opinion should be taken to cast doubt on longstanding prohibitions on the possession of firearms by felons[.]').""
(United States v. Anderson, 2009)
Your reasoning is not clear and unless your can substantiate your previous claims then you should be the one to shut up.",451972,3,9998,1,"Prove otherwise, or shut up.

""is not 'a right to keep and carry any weapon whatsoever in any manner whatsoever and for whatever purpose.'"" and ""did not cast doubt on such longstanding regulatory measures"" are NOT the Supreme Court saying ""We find these gun laws to be constitutional"". Show where exactly in Heller or McDonald that the prohibition against felons possessing firearms was ever challenged.
Prove your case or give it up.","http://www.4forums.com/political/gun-control-debates/14392-mcdonald-v-chicago.html",406663,69
"1-9998_70_69_3",9998,1,"2010-07-08 15:29:00",153,439,406762,"2010-07-08 14:21:00",451974,69,69,"Either you obviously can't read to save your own life, or you're a troll deliberately looking for a fight.
Show us exactly where the Supreme Court has ever said ""We find that 'this gun control law' passes constitutional muster."" Show us where, in what case, and exactly what law they said they found was both perfectly legal AND constitutional!",451973,3,9998,1,"""In Heller, the Court found for the first time that the Second Amendment 'guarantee[s] the individual right to possess and carry weapons in case of confrontation.' 128 S. Ct. at 2797. The Court acknowledged that long-standing limitations on the ownership and use of weapons, including Section 922(g)(1), were consistent with that guarantee.""
(United States v. Kitsch, 2008)
""We therefore reaffirm Darrington and the constitutionality of § 922(g).... 6. See Heller, 128 S.Ct. at 2816-17 ('[N]othing in our opinion should be taken to cast doubt on longstanding prohibitions on the possession of firearms by felons[.]').""
(United States v. Anderson, 2009)
Your reasoning is not clear and unless your can substantiate your previous claims then you should be the one to shut up.","http://www.4forums.com/political/gun-control-debates/14392-mcdonald-v-chicago.html",406748,70
"1-9998_71_70_3",9998,1,"2010-07-08 20:35:00",439,153,406792,"2010-07-08 15:29:00",451975,49,70,"Why would the Supreme Court have to use that exact phrase? You're just splitting hairs. Furthermore, some of the lower courts have quoted that part of Heller as part of their basis for concluding that certain restrictions on a felon's possession of firearms are constitutional.",451974,3,9998,1,"Either you obviously can't read to save your own life, or you're a troll deliberately looking for a fight.
Show us exactly where the Supreme Court has ever said ""We find that 'this gun control law' passes constitutional muster."" Show us where, in what case, and exactly what law they said they found was both perfectly legal AND constitutional!","http://www.4forums.com/political/gun-control-debates/14392-mcdonald-v-chicago.html",406762,71
