"score_:1","score_:2","score_:3","score_:4","score_:5","filename"
"0.829268292683","0.771428571429","0.975609756098","0.894736842105","0.90243902439","1-10121_22_21__23_28_30_34_37_1_userA.pyr"
"0.95","0.894736842105","0.972222222222","0.666666666667","0.815789473684","1-10145_4_3__5_9_21_29_1_user9.pyr"
"0.675675675676","0.970588235294","0.918918918919","1.0","0.911764705882","1-10756_37_35__39_42_43_44_1_user9.pyr"
"0.934782608696","0.736842105263","0.857142857143","0.852941176471","0.886363636364","1-10931_104_103__105_106_107_108_109_110_111_112_113_118_119_3_userA.pyr"
"0.866666666667","0.940298507463","0.964912280702","0.816666666667","0.875","1-10931_30_25__35_38_46_48_51_52_54_2_userA.pyr"
"0.71875","0.823529411765","0.90625","0.9375","0.8125","1-10996_14_10__17_19_22_25_27_28_1_userA.pyr"
"0.9","0.84","0.878048780488","0.947368421053","0.977777777778","1-1103_28_27__29_30_31_32_33_34_1_user9.pyr"
"0.84375","0.933333333333","0.703703703704","1.0","0.90625","1-1543_41_40__44_47_49_51_1_user8.pyr"
"0.658536585366","0.866666666667","0.878787878788","0.769230769231","0.790697674419","1-173_68_67__69_70_74_77_79_81_87_1_user9.pyr"
"0.969696969697","0.818181818182","0.928571428571","0.838709677419","0.939393939394","1-3320_45_44__46_47_48_49_1_user9.pyr"
"0.928571428571","0.892857142857","0.958333333333","0.823529411765","1.0","1-342_9_8__12_13_15_16_1_user7.pyr"
"0.72","0.717948717949","0.904761904762","0.944444444444","0.896551724138","1-3449_16_6__18_19_20_21_23_24_1_user9.pyr"
"0.898305084746","0.75","0.952380952381","0.890909090909","0.909090909091","1-483_2_1__3_5_6_7_8_10_11_12_13_19_24_31_42_1_user9.pyr"
"0.878787878788","0.793103448276","0.903225806452","0.826086956522","0.925925925926","1-546_140_139__141_142_143_144_145_146_2_user9.pyr"
"0.911764705882","0.973684210526","0.903225806452","0.823529411765","0.882352941176","1-546_20_19__24_27_28_29_33_34_1_user7.pyr"
"0.962962962963","0.916666666667","0.75","0.896551724138","0.888888888889","1-546_230_229__231_232_233_234_235_3_user7.pyr"
"0.974358974359","0.78125","0.974358974359","0.9375","0.896551724138","1-671_3_2__4_5_6_7_8_9_10_11_13_14_1_user7.pyr"
"0.933333333333","0.733333333333","0.888888888889","0.722222222222","0.966666666667","1-690_2_1__3_4_5_7_1_user8.pyr"
"0.75","0.928571428571","0.714285714286","0.675","0.826086956522","1-737_78_77__80_81_82_83_84_1_user9.pyr"
"0.925925925926","0.896551724138","0.846153846154","0.884615384615","0.821428571429","1-764_66_63__67_70_74_75_2_user8.pyr"
"0.934782608696","0.877551020408","0.857142857143","0.886363636364","0.772727272727","1-8003_38_37__39_40_41_42_43_45_47_49_1_user9.pyr"
"0.972972972973","0.833333333333","0.909090909091","0.848484848485","1.0","1-8099_19_16__23_24_27_31_2_user8.pyr"
"0.871794871795","0.918918918919","1.0","0.918918918919","0.837837837838","1-8143_42_37__45_50_55_56_1_user8.pyr"
"0.810810810811","1.0","0.853658536585","0.837837837838","0.918918918919","1-8543_111_109__114_131_132_135_139_147_148_1_user9.pyr"
"0.948717948718","0.777777777778","0.8","0.951219512195","0.909090909091","1-8543_123_121__129_130_133_134_2_user9.pyr"
"0.9","0.8125","0.967741935484","0.923076923077","1.0","1-8543_150_143__151_153_156_160_162_164_3_user9.pyr"
"0.857142857143","0.860465116279","0.893617021277","0.765957446809","0.955555555556","1-8635_36_33__38_40_41_46_49_53_56_1_user8.pyr"
"0.854545454545","0.791666666667","0.949152542373","0.811320754717","0.836363636364","1-8786_12_11__13_14_15_22_25_26_27_30_31_32_33_34_35_36_37_38_39_1_user8.pyr"
"0.809523809524","0.8","0.918918918919","0.951219512195","0.96875","1-8860_7_6__8_9_12_15_16_17_1_user8.pyr"
"0.766666666667","0.90625","0.966666666667","0.96875","0.964285714286","1-8970_4_3__8_9_12_15_16_17_1_user9.pyr"
"0.971428571429","0.888888888889","0.655172413793","0.851851851852","0.806451612903","1-9036_154_152__155_157_158_159_160_161_162_163_4_user9.pyr"
"0.818181818182","0.620689655172","0.903225806452","0.838709677419","1.0","1-9057_129_126__131_134_138_142_3_user9.pyr"
"0.921052631579","0.756097560976","0.965517241379","0.96875","0.921052631579","1-9059_22_15__23_28_43_70_76_3_user9.pyr"
"0.820512820513","0.813953488372","0.8","0.944444444444","0.969696969697","1-9294_9_6__10_13_18_19_1_user9.pyr"
"0.888888888889","0.953488372093","0.829268292683","1.0","0.883720930233","1-9836_25_22__27_34_35_37_39_1_userA.pyr"
"0.860465116279","0.888888888889","0.924528301887","0.829787234043","0.823529411765","1-9836_92_88__94_101_103_108_110_115_2_userA.pyr"
"0.8","1.0","0.871794871795","0.871794871795","0.914893617021","1-9841_142_140__147_149_151_153_157_158_6_userA.pyr"
"0.952380952381","0.842105263158","0.913043478261","0.95652173913","0.729166666667","1-9841_196_194__199_202_204_205_206_207_208_209_210_4_userA.pyr"
"0.878048780488","0.897435897436","0.871794871795","0.860465116279","0.942857142857","1-9874_30_3__32_40_41_55_59_82_86_91_92_2_userA.pyr"
"0.946428571429","1.0","0.942307692308","0.98","0.895833333333","1-9884_5_4__7_9_11_13_18_1_userA.pyr"
