For Phase 2
MT3_more750:phase 2 contains all the batches from MT3_more 750/
Total 21 put on murk but ( 1-5811_33_29__35_38_40_41_43_2.txt is also present in Mt2_more_750 so not include it) hence total =20

MT2_midRange:Only last batch(3)
MT3_midRange:Batch5,6,7.hence MT3_midRange:total =14
total phase 2=20+15+5=40


MT3_more750Revised_TextSummaries
 
gay marriage pyramids were done with S1 and S2 in text summaries . 
To get for summaries always use formatted csv.
Input folder used was
/Users/amita/git/summary_repo/Summary/src/data_pkg/CSV/gay-rights-debates/MTdata/Phase2/ComplexAll/complexAll_Summaries_Phase2
contains summaries from MT3_more750 revised/simplified.
batch2 and batch3 were done by carol
1-3089_96_94__97_99_103_105_108_1.txt
1-5672_6_5__7_13_15_16_17_20_2.txt
1-5672_18_7__22_24_25_29_30_33_1.txt
1-5811_33_29__35_38_40_41_43_2.txt
1-6646_6_5__7_10_11_12_17_20_3.txt
1-6646_209_208__210_211_212_214_215_239_7.txt
1-7185_117_110__122_126_134_148_150_151_1.txt
1-9391_147_145_1_157_162_165_170_187_191_196_197_13.txt
1-9391_370_363_1_371_372_373_374_376_377_378_384_385_389_390_391_392_394_395_11.txt
1-9391_518_516__520_523_526_531_539_8.txt



Batch 1 and 4 by Johnnie. 
Batch4 has 6 summaries
1-10073_119_44__120_124_127_129_130_131_132_133_134_6.txt1-10349_9_5__17_40_43_50_52_1.txt1-10349_72_70__75_82_83_84_85_86_87_88_89_90_94_95_99_4.txt1-10585_36_34__39_52_54_64_65_1.txt1-10824_2_1__4_5_7_8_10_13_17_19_1.txt1-10951_14_13__15_16_18_20_21_22_23_24_30_31_32_1.txt


MT2_mid Last 5 done by Johnnie.
1-7858_135_133__137_142_144_148_1.txt1-9331_3_2__4_6_7_9_1.txt1-9331_28_26__31_38_39_40_3.txt1-9745_48_46__49_50_53_54_55_1.txt1-9989_63_61__65_74_75_78_4.txt



MT3_mid 16 to 20 by Carol.



Notes on Pyramids



ComplexAll: contain the natural pyramids
Done by Asiya/ checked by me
1-1281_132_130_1_134_135_136_138_139_140_141_142_12.txt1-1281_206_203__227_238_259_278_467_3.txt1-1281_466_275__483_561_576_625_633_1.txt1-2280_102_99__104_113_117_118_120_121_1.txt1-2844_72_71__73_74_75_81_1.txt1-3089_96_94__97_99_103_105_108_1.txt1-5672_6_5__7_13_15_16_17_20_2.txt1-5672_18_7__22_24_25_29_30_33_1.txt1-6646_6_5__7_10_11_12_17_20_3.txt1-6646_209_208__210_211_212_214_215_239_7.txt

Done by johnnie
1-10073_176_174__179_181_183_185_2.txt1-10349_9_5__17_40_43_50_52_1.txt1-10349_72_70__75_82_83_84_85_86_87_88_89_90_94_95_99_4.txt1-10354_4_3__5_12_13_14_1.txt1-10585_36_34__39_52_54_64_65_1.txt1-10824_2_1__4_5_7_8_10_13_17_19_1.txt1-10951_14_13__15_16_18_20_21_22_23_24_30_31_32_1.txt1-10951_34_32__39_41_42_44_3.txt1-10951_46_45__47_48_49_50_56_2.txt1-10978_111_110__114_117_123_124_2.txt

Done by Carol/CHECKED BY ME 
1-9391_283_279__285_286_289_294_9.txt1-9391_332_324_1_335_338_339_341_343_347_14.txt1-9391_370_363_1_371_372_373_374_376_377_378_384_385_389_390_391_392_394_395_11.txt1-9391_451_450__456_457_458_461_463_466_4.txt1-9391_518_516__520_523_526_531_539_8.txt1-9745_48_46__49_50_53_54_55_1.txt1-9989_63_61__65_74_75_78_4.txt1-9989_176_171__177_180_181_183_1.txt1-10073_26_23__27_28_29_79_85_1.txt1-10073_119_44__120_124_127_129_130_131_132_133_134_6.txt

Done by jianhong/checked by me
1-7185_117_110__122_126_134_148_150_151_1.txt1-7185_224_223__225_226_228_229_3.txt1-7858_135_133__137_142_144_148_1.txt1-9331_3_2__4_6_7_9_1.txt1-9331_28_26__31_38_39_40_3.txt1-9390_2_1__3_6_7_8_10_1.txt1-9391_22_20_1_30_31_32_45_46_47_50_12.txt1-9391_34_33__35_36_48_50_1.txt1-9391_125_113__126_136_140_142_154_2.txt1-9391_147_145_1_157_162_165_170_187_191_196_197_13.txt



